Country,cal_dhg_emissions_heat-district_CO2[Mt],Years,cal_dhg_emissions_heat-district_CH4[Mt],cal_dhg_emissions_heat-district_N2O[Mt],cal_dhg_energy-demand_heat-district[TWh]
Austria,0.0009084967944767283,1990,0.0,0.0,9.097835495736792
Belgium,9.507447362772002e-05,1990,0.0,0.0,0.6693633610980607
Bulgaria,0.000807968008472724,1990,0.0,0.0,5.477362727531017
Croatia,0.00026605439280000004,1990,0.0,0.0,1.49804053957312
Cyprus,0.0,1990,0.0,0.0,0.0
Czech Republic,0.0029091747873051365,1990,0.0,0.0,19.38827431572692
Denmark,0.0006881482965827881,1990,0.0,0.0,20.43645582045856
Estonia,0.0009290037384483841,1990,0.0,0.0,4.706483107569402
Finland,0.0026508845983545,1990,0.0,0.0,20.50330229834219
France,0.00058418587474254,1990,0.0,0.0,27.21723052224394
Germany,0.0028549540413645128,1990,0.0,0.0,61.21243840299321
Greece,0.0,1990,0.0,0.0,0.2851630877922569
Hungary,0.0013912245559245962,1990,0.0,0.0,9.836462786568205
Ireland,0.0,1990,0.0,0.0,0.0
Italy,0.0,1990,0.0,0.0,0.0
Latvia,0.0010952297324495284,1990,0.0,0.0,5.980611341609399
Lithuania,0.0015958403837452375,1990,0.0,0.0,6.621219713903036
Luxembourg,1.173716249508e-06,1990,0.0,0.0,0.1226667654621084
Malta,0.0,1990,0.0,0.0,0.0
Netherlands,0.0031443489607078444,1990,0.0,0.0,4.42049718607367
Poland,0.017702131551056613,1990,0.0,0.0,53.51081106714117
Portugal,0.0,1990,0.0,0.0,0.04490719462510773
Romania,0.0037870524874065244,1990,0.0,0.0,32.33176826610563
Slovakia,0.0015855934652737203,1990,0.0,0.0,6.280378594254719
Slovenia,0.0,1990,0.0,0.0,1.690732164356525
Spain,0.0,1990,0.0,0.0,0.0
Sweden,0.0017670401324425082,1990,0.0,0.0,32.38250350147608
Switzerland,0.0009084967944767283,1990,0.0,0.0,9.097835495736792
United Kingdom,0.008926094326439305,1990,0.0,0.0,15.1023767389253
Austria,0.0009084967944767283,1991,0.0,0.0,9.097835495736792
Belgium,9.507447362772002e-05,1991,0.0,0.0,0.6693633610980607
Bulgaria,0.000807968008472724,1991,0.0,0.0,5.477362727531017
Croatia,0.00026605439280000004,1991,0.0,0.0,1.49804053957312
Cyprus,0.0,1991,0.0,0.0,0.0
Czech Republic,0.0029091747873051365,1991,0.0,0.0,19.38827431572692
Denmark,0.0006881482965827881,1991,0.0,0.0,20.43645582045856
Estonia,0.0009290037384483841,1991,0.0,0.0,4.706483107569402
Finland,0.0026508845983545,1991,0.0,0.0,20.50330229834219
France,0.00058418587474254,1991,0.0,0.0,27.21723052224394
Germany,0.0028549540413645128,1991,0.0,0.0,61.21243840299321
Greece,0.0,1991,0.0,0.0,0.2851630877922569
Hungary,0.0013912245559245962,1991,0.0,0.0,9.836462786568205
Ireland,0.0,1991,0.0,0.0,0.0
Italy,0.0,1991,0.0,0.0,0.0
Latvia,0.0010952297324495284,1991,0.0,0.0,5.980611341609399
Lithuania,0.0015958403837452375,1991,0.0,0.0,6.621219713903036
Luxembourg,1.173716249508e-06,1991,0.0,0.0,0.1226667654621084
Malta,0.0,1991,0.0,0.0,0.0
Netherlands,0.0031443489607078444,1991,0.0,0.0,4.42049718607367
Poland,0.017702131551056613,1991,0.0,0.0,53.51081106714117
Portugal,0.0,1991,0.0,0.0,0.04490719462510773
Romania,0.0037870524874065244,1991,0.0,0.0,32.33176826610563
Slovakia,0.0015855934652737203,1991,0.0,0.0,6.280378594254719
Slovenia,0.0,1991,0.0,0.0,1.690732164356525
Spain,0.0,1991,0.0,0.0,0.0
Sweden,0.0017670401324425082,1991,0.0,0.0,32.38250350147608
Switzerland,0.0009084967944767283,1991,0.0,0.0,9.097835495736792
United Kingdom,0.008926094326439305,1991,0.0,0.0,15.1023767389253
Austria,0.0009084967944767283,1992,0.0,0.0,9.097835495736792
Belgium,9.507447362772002e-05,1992,0.0,0.0,0.6693633610980607
Bulgaria,0.000807968008472724,1992,0.0,0.0,5.477362727531017
Croatia,0.00026605439280000004,1992,0.0,0.0,1.49804053957312
Cyprus,0.0,1992,0.0,0.0,0.0
Czech Republic,0.0029091747873051365,1992,0.0,0.0,19.38827431572692
Denmark,0.0006881482965827881,1992,0.0,0.0,20.43645582045856
Estonia,0.0009290037384483841,1992,0.0,0.0,4.706483107569402
Finland,0.0026508845983545,1992,0.0,0.0,20.50330229834219
France,0.00058418587474254,1992,0.0,0.0,27.21723052224394
Germany,0.0028549540413645128,1992,0.0,0.0,61.21243840299321
Greece,0.0,1992,0.0,0.0,0.2851630877922569
Hungary,0.0013912245559245962,1992,0.0,0.0,9.836462786568205
Ireland,0.0,1992,0.0,0.0,0.0
Italy,0.0,1992,0.0,0.0,0.0
Latvia,0.0010952297324495284,1992,0.0,0.0,5.980611341609399
Lithuania,0.0015958403837452375,1992,0.0,0.0,6.621219713903036
Luxembourg,1.173716249508e-06,1992,0.0,0.0,0.1226667654621084
Malta,0.0,1992,0.0,0.0,0.0
Netherlands,0.0031443489607078444,1992,0.0,0.0,4.42049718607367
Poland,0.017702131551056613,1992,0.0,0.0,53.51081106714117
Portugal,0.0,1992,0.0,0.0,0.04490719462510773
Romania,0.0037870524874065244,1992,0.0,0.0,32.33176826610563
Slovakia,0.0015855934652737203,1992,0.0,0.0,6.280378594254719
Slovenia,0.0,1992,0.0,0.0,1.690732164356525
Spain,0.0,1992,0.0,0.0,0.0
Sweden,0.0017670401324425082,1992,0.0,0.0,32.38250350147608
Switzerland,0.0009084967944767283,1992,0.0,0.0,9.097835495736792
United Kingdom,0.008926094326439305,1992,0.0,0.0,15.1023767389253
Austria,0.0009084967944767283,1993,0.0,0.0,9.097835495736792
Belgium,9.507447362772002e-05,1993,0.0,0.0,0.6693633610980607
Bulgaria,0.000807968008472724,1993,0.0,0.0,5.477362727531017
Croatia,0.00026605439280000004,1993,0.0,0.0,1.49804053957312
Cyprus,0.0,1993,0.0,0.0,0.0
Czech Republic,0.0029091747873051365,1993,0.0,0.0,19.38827431572692
Denmark,0.0006881482965827881,1993,0.0,0.0,20.43645582045856
Estonia,0.0009290037384483841,1993,0.0,0.0,4.706483107569402
Finland,0.0026508845983545,1993,0.0,0.0,20.50330229834219
France,0.00058418587474254,1993,0.0,0.0,27.21723052224394
Germany,0.0028549540413645128,1993,0.0,0.0,61.21243840299321
Greece,0.0,1993,0.0,0.0,0.2851630877922569
Hungary,0.0013912245559245962,1993,0.0,0.0,9.836462786568205
Ireland,0.0,1993,0.0,0.0,0.0
Italy,0.0,1993,0.0,0.0,0.0
Latvia,0.0010952297324495284,1993,0.0,0.0,5.980611341609399
Lithuania,0.0015958403837452375,1993,0.0,0.0,6.621219713903036
Luxembourg,1.173716249508e-06,1993,0.0,0.0,0.1226667654621084
Malta,0.0,1993,0.0,0.0,0.0
Netherlands,0.0031443489607078444,1993,0.0,0.0,4.42049718607367
Poland,0.017702131551056613,1993,0.0,0.0,53.51081106714117
Portugal,0.0,1993,0.0,0.0,0.04490719462510773
Romania,0.0037870524874065244,1993,0.0,0.0,32.33176826610563
Slovakia,0.0015855934652737203,1993,0.0,0.0,6.280378594254719
Slovenia,0.0,1993,0.0,0.0,1.690732164356525
Spain,0.0,1993,0.0,0.0,0.0
Sweden,0.0017670401324425082,1993,0.0,0.0,32.38250350147608
Switzerland,0.0009084967944767283,1993,0.0,0.0,9.097835495736792
United Kingdom,0.008926094326439305,1993,0.0,0.0,15.1023767389253
Austria,0.0009084967944767283,1994,0.0,0.0,9.097835495736792
Belgium,9.507447362772002e-05,1994,0.0,0.0,0.6693633610980607
Bulgaria,0.000807968008472724,1994,0.0,0.0,5.477362727531017
Croatia,0.00026605439280000004,1994,0.0,0.0,1.49804053957312
Cyprus,0.0,1994,0.0,0.0,0.0
Czech Republic,0.0029091747873051365,1994,0.0,0.0,19.38827431572692
Denmark,0.0006881482965827881,1994,0.0,0.0,20.43645582045856
Estonia,0.0009290037384483841,1994,0.0,0.0,4.706483107569402
Finland,0.0026508845983545,1994,0.0,0.0,20.50330229834219
France,0.00058418587474254,1994,0.0,0.0,27.21723052224394
Germany,0.0028549540413645128,1994,0.0,0.0,61.21243840299321
Greece,0.0,1994,0.0,0.0,0.2851630877922569
Hungary,0.0013912245559245962,1994,0.0,0.0,9.836462786568205
Ireland,0.0,1994,0.0,0.0,0.0
Italy,0.0,1994,0.0,0.0,0.0
Latvia,0.0010952297324495284,1994,0.0,0.0,5.980611341609399
Lithuania,0.0015958403837452375,1994,0.0,0.0,6.621219713903036
Luxembourg,1.173716249508e-06,1994,0.0,0.0,0.1226667654621084
Malta,0.0,1994,0.0,0.0,0.0
Netherlands,0.0031443489607078444,1994,0.0,0.0,4.42049718607367
Poland,0.017702131551056613,1994,0.0,0.0,53.51081106714117
Portugal,0.0,1994,0.0,0.0,0.04490719462510773
Romania,0.0037870524874065244,1994,0.0,0.0,32.33176826610563
Slovakia,0.0015855934652737203,1994,0.0,0.0,6.280378594254719
Slovenia,0.0,1994,0.0,0.0,1.690732164356525
Spain,0.0,1994,0.0,0.0,0.0
Sweden,0.0017670401324425082,1994,0.0,0.0,32.38250350147608
Switzerland,0.0009084967944767283,1994,0.0,0.0,9.097835495736792
United Kingdom,0.008926094326439305,1994,0.0,0.0,15.1023767389253
Austria,0.0009084967944767283,1995,0.0,0.0,9.097835495736792
Belgium,9.507447362772002e-05,1995,0.0,0.0,0.6693633610980607
Bulgaria,0.000807968008472724,1995,0.0,0.0,5.477362727531017
Croatia,0.00026605439280000004,1995,0.0,0.0,1.49804053957312
Cyprus,0.0,1995,0.0,0.0,0.0
Czech Republic,0.0029091747873051365,1995,0.0,0.0,19.38827431572692
Denmark,0.0006881482965827881,1995,0.0,0.0,20.43645582045856
Estonia,0.0009290037384483841,1995,0.0,0.0,4.706483107569402
Finland,0.0026508845983545,1995,0.0,0.0,20.50330229834219
France,0.00058418587474254,1995,0.0,0.0,27.21723052224394
Germany,0.0028549540413645128,1995,0.0,0.0,61.21243840299321
Greece,0.0,1995,0.0,0.0,0.2851630877922569
Hungary,0.0013912245559245962,1995,0.0,0.0,9.836462786568205
Ireland,0.0,1995,0.0,0.0,0.0
Italy,0.0,1995,0.0,0.0,0.0
Latvia,0.0010952297324495284,1995,0.0,0.0,5.980611341609399
Lithuania,0.0015958403837452375,1995,0.0,0.0,6.621219713903036
Luxembourg,1.173716249508e-06,1995,0.0,0.0,0.1226667654621084
Malta,0.0,1995,0.0,0.0,0.0
Netherlands,0.0031443489607078444,1995,0.0,0.0,4.42049718607367
Poland,0.017702131551056613,1995,0.0,0.0,53.51081106714117
Portugal,0.0,1995,0.0,0.0,0.04490719462510773
Romania,0.0037870524874065244,1995,0.0,0.0,32.33176826610563
Slovakia,0.0015855934652737203,1995,0.0,0.0,6.280378594254719
Slovenia,0.0,1995,0.0,0.0,1.690732164356525
Spain,0.0,1995,0.0,0.0,0.0
Sweden,0.0017670401324425082,1995,0.0,0.0,32.38250350147608
Switzerland,0.0009084967944767283,1995,0.0,0.0,9.097835495736792
United Kingdom,0.008926094326439305,1995,0.0,0.0,15.1023767389253
Austria,0.0009084967944767283,1996,0.0,0.0,9.097835495736792
Belgium,9.507447362772002e-05,1996,0.0,0.0,0.6693633610980607
Bulgaria,0.000807968008472724,1996,0.0,0.0,5.477362727531017
Croatia,0.00026605439280000004,1996,0.0,0.0,1.49804053957312
Cyprus,0.0,1996,0.0,0.0,0.0
Czech Republic,0.0029091747873051365,1996,0.0,0.0,19.38827431572692
Denmark,0.0006881482965827881,1996,0.0,0.0,20.43645582045856
Estonia,0.0009290037384483841,1996,0.0,0.0,4.706483107569402
Finland,0.0026508845983545,1996,0.0,0.0,20.50330229834219
France,0.00058418587474254,1996,0.0,0.0,27.21723052224394
Germany,0.0028549540413645128,1996,0.0,0.0,61.21243840299321
Greece,0.0,1996,0.0,0.0,0.2851630877922569
Hungary,0.0013912245559245962,1996,0.0,0.0,9.836462786568205
Ireland,0.0,1996,0.0,0.0,0.0
Italy,0.0,1996,0.0,0.0,0.0
Latvia,0.0010952297324495284,1996,0.0,0.0,5.980611341609399
Lithuania,0.0015958403837452375,1996,0.0,0.0,6.621219713903036
Luxembourg,1.173716249508e-06,1996,0.0,0.0,0.1226667654621084
Malta,0.0,1996,0.0,0.0,0.0
Netherlands,0.0031443489607078444,1996,0.0,0.0,4.42049718607367
Poland,0.017702131551056613,1996,0.0,0.0,53.51081106714117
Portugal,0.0,1996,0.0,0.0,0.04490719462510773
Romania,0.0037870524874065244,1996,0.0,0.0,32.33176826610563
Slovakia,0.0015855934652737203,1996,0.0,0.0,6.280378594254719
Slovenia,0.0,1996,0.0,0.0,1.690732164356525
Spain,0.0,1996,0.0,0.0,0.0
Sweden,0.0017670401324425082,1996,0.0,0.0,32.38250350147608
Switzerland,0.0009084967944767283,1996,0.0,0.0,9.097835495736792
United Kingdom,0.008926094326439305,1996,0.0,0.0,15.1023767389253
Austria,0.0009084967944767283,1997,0.0,0.0,9.097835495736792
Belgium,9.507447362772002e-05,1997,0.0,0.0,0.6693633610980607
Bulgaria,0.000807968008472724,1997,0.0,0.0,5.477362727531017
Croatia,0.00026605439280000004,1997,0.0,0.0,1.49804053957312
Cyprus,0.0,1997,0.0,0.0,0.0
Czech Republic,0.0029091747873051365,1997,0.0,0.0,19.38827431572692
Denmark,0.0006881482965827881,1997,0.0,0.0,20.43645582045856
Estonia,0.0009290037384483841,1997,0.0,0.0,4.706483107569402
Finland,0.0026508845983545,1997,0.0,0.0,20.50330229834219
France,0.00058418587474254,1997,0.0,0.0,27.21723052224394
Germany,0.0028549540413645128,1997,0.0,0.0,61.21243840299321
Greece,0.0,1997,0.0,0.0,0.2851630877922569
Hungary,0.0013912245559245962,1997,0.0,0.0,9.836462786568205
Ireland,0.0,1997,0.0,0.0,0.0
Italy,0.0,1997,0.0,0.0,0.0
Latvia,0.0010952297324495284,1997,0.0,0.0,5.980611341609399
Lithuania,0.0015958403837452375,1997,0.0,0.0,6.621219713903036
Luxembourg,1.173716249508e-06,1997,0.0,0.0,0.1226667654621084
Malta,0.0,1997,0.0,0.0,0.0
Netherlands,0.0031443489607078444,1997,0.0,0.0,4.42049718607367
Poland,0.017702131551056613,1997,0.0,0.0,53.51081106714117
Portugal,0.0,1997,0.0,0.0,0.04490719462510773
Romania,0.0037870524874065244,1997,0.0,0.0,32.33176826610563
Slovakia,0.0015855934652737203,1997,0.0,0.0,6.280378594254719
Slovenia,0.0,1997,0.0,0.0,1.690732164356525
Spain,0.0,1997,0.0,0.0,0.0
Sweden,0.0017670401324425082,1997,0.0,0.0,32.38250350147608
Switzerland,0.0009084967944767283,1997,0.0,0.0,9.097835495736792
United Kingdom,0.008926094326439305,1997,0.0,0.0,15.1023767389253
Austria,0.0009084967944767283,1998,0.0,0.0,9.097835495736792
Belgium,9.507447362772002e-05,1998,0.0,0.0,0.6693633610980607
Bulgaria,0.000807968008472724,1998,0.0,0.0,5.477362727531017
Croatia,0.00026605439280000004,1998,0.0,0.0,1.49804053957312
Cyprus,0.0,1998,0.0,0.0,0.0
Czech Republic,0.0029091747873051365,1998,0.0,0.0,19.38827431572692
Denmark,0.0006881482965827881,1998,0.0,0.0,20.43645582045856
Estonia,0.0009290037384483841,1998,0.0,0.0,4.706483107569402
Finland,0.0026508845983545,1998,0.0,0.0,20.50330229834219
France,0.00058418587474254,1998,0.0,0.0,27.21723052224394
Germany,0.0028549540413645128,1998,0.0,0.0,61.21243840299321
Greece,0.0,1998,0.0,0.0,0.2851630877922569
Hungary,0.0013912245559245962,1998,0.0,0.0,9.836462786568205
Ireland,0.0,1998,0.0,0.0,0.0
Italy,0.0,1998,0.0,0.0,0.0
Latvia,0.0010952297324495284,1998,0.0,0.0,5.980611341609399
Lithuania,0.0015958403837452375,1998,0.0,0.0,6.621219713903036
Luxembourg,1.173716249508e-06,1998,0.0,0.0,0.1226667654621084
Malta,0.0,1998,0.0,0.0,0.0
Netherlands,0.0031443489607078444,1998,0.0,0.0,4.42049718607367
Poland,0.017702131551056613,1998,0.0,0.0,53.51081106714117
Portugal,0.0,1998,0.0,0.0,0.04490719462510773
Romania,0.0037870524874065244,1998,0.0,0.0,32.33176826610563
Slovakia,0.0015855934652737203,1998,0.0,0.0,6.280378594254719
Slovenia,0.0,1998,0.0,0.0,1.690732164356525
Spain,0.0,1998,0.0,0.0,0.0
Sweden,0.0017670401324425082,1998,0.0,0.0,32.38250350147608
Switzerland,0.0009084967944767283,1998,0.0,0.0,9.097835495736792
United Kingdom,0.008926094326439305,1998,0.0,0.0,15.1023767389253
Austria,0.0009084967944767283,1999,0.0,0.0,9.097835495736792
Belgium,9.507447362772002e-05,1999,0.0,0.0,0.6693633610980607
Bulgaria,0.000807968008472724,1999,0.0,0.0,5.477362727531017
Croatia,0.00026605439280000004,1999,0.0,0.0,1.49804053957312
Cyprus,0.0,1999,0.0,0.0,0.0
Czech Republic,0.0029091747873051365,1999,0.0,0.0,19.38827431572692
Denmark,0.0006881482965827881,1999,0.0,0.0,20.43645582045856
Estonia,0.0009290037384483841,1999,0.0,0.0,4.706483107569402
Finland,0.0026508845983545,1999,0.0,0.0,20.50330229834219
France,0.00058418587474254,1999,0.0,0.0,27.21723052224394
Germany,0.0028549540413645128,1999,0.0,0.0,61.21243840299321
Greece,0.0,1999,0.0,0.0,0.2851630877922569
Hungary,0.0013912245559245962,1999,0.0,0.0,9.836462786568205
Ireland,0.0,1999,0.0,0.0,0.0
Italy,0.0,1999,0.0,0.0,0.0
Latvia,0.0010952297324495284,1999,0.0,0.0,5.980611341609399
Lithuania,0.0015958403837452375,1999,0.0,0.0,6.621219713903036
Luxembourg,1.173716249508e-06,1999,0.0,0.0,0.1226667654621084
Malta,0.0,1999,0.0,0.0,0.0
Netherlands,0.0031443489607078444,1999,0.0,0.0,4.42049718607367
Poland,0.017702131551056613,1999,0.0,0.0,53.51081106714117
Portugal,0.0,1999,0.0,0.0,0.04490719462510773
Romania,0.0037870524874065244,1999,0.0,0.0,32.33176826610563
Slovakia,0.0015855934652737203,1999,0.0,0.0,6.280378594254719
Slovenia,0.0,1999,0.0,0.0,1.690732164356525
Spain,0.0,1999,0.0,0.0,0.0
Sweden,0.0017670401324425082,1999,0.0,0.0,32.38250350147608
Switzerland,0.0009084967944767283,1999,0.0,0.0,9.097835495736792
United Kingdom,0.008926094326439305,1999,0.0,0.0,15.1023767389253
Austria,0.0009115490057064991,2000,0.0,0.0,9.097835495736792
Belgium,9.743689106515732e-05,2000,0.0,0.0,0.6693633610980607
Bulgaria,0.0008488031298008509,2000,0.0,0.0,5.477362727531017
Croatia,0.0002298537186262859,2000,0.0,0.0,1.49804053957312
Cyprus,0.0,2000,0.0,0.0,0.0
Czech Republic,0.00279429152631394,2000,0.0,0.0,19.38827431572692
Denmark,0.0006548150414138852,2000,0.0,0.0,20.43645582045856
Estonia,0.0010185084190127089,2000,0.0,0.0,4.706483107569402
Finland,0.0025094664108951973,2000,0.0,0.0,20.50330229834219
France,0.0005998096999999993,2000,0.0,0.0,27.21723052224394
Germany,0.00283935,2000,0.0,0.0,61.21243840299321
Greece,0.0,2000,0.0,0.0,0.2851630877922569
Hungary,0.0011045801875672813,2000,0.0,0.0,9.836462786568205
Ireland,0.0,2000,0.0,0.0,0.0
Italy,0.0,2000,0.0,0.0,0.0
Latvia,0.0011486879136507532,2000,0.0,0.0,5.980611341609399
Lithuania,0.001632821370273722,2000,0.0,0.0,6.621219713903036
Luxembourg,1.0098001861949422e-06,2000,0.0,0.0,0.1226667654621084
Malta,0.0,2000,0.0,0.0,0.0
Netherlands,0.0033158285658303264,2000,0.0,0.0,4.42049718607367
Poland,0.016039562175422174,2000,0.0,0.0,53.51081106714117
Portugal,0.0,2000,0.0,0.0,0.04490719462510773
Romania,0.004336187825243469,2000,0.0,0.0,32.33176826610563
Slovakia,0.002020309298754173,2000,0.0,0.0,6.280378594254719
Slovenia,0.0,2000,0.0,0.0,1.690732164356525
Spain,0.0,2000,0.0,0.0,0.0
Sweden,0.0014120529940093698,2000,0.0,0.0,32.38250350147608
Switzerland,0.0009115490057064991,2000,0.0,0.0,9.097835495736792
United Kingdom,0.009141556832913194,2000,0.0,0.0,15.1023767389253
Austria,0.0009084967944767283,2001,0.0,0.0,9.831429554727261
Belgium,9.507447362772002e-05,2001,0.0,0.0,0.6461633276412295
Bulgaria,0.000807968008472724,2001,0.0,0.0,5.492110624448061
Croatia,0.00026605439280000004,2001,0.0,0.0,1.784894463730709
Cyprus,0.0,2001,0.0,0.0,0.0
Czech Republic,0.0029091747873051365,2001,0.0,0.0,21.27604235868264
Denmark,0.0006881482965827881,2001,0.0,0.0,22.36770343999512
Estonia,0.0009290037384483841,2001,0.0,0.0,4.604905443457168
Finland,0.0026508845983545,2001,0.0,0.0,23.08611428602221
France,0.00058418587474254,2001,0.0,0.0,33.32934423869364
Germany,0.0028549540413645128,2001,0.0,0.0,62.63993515876112
Greece,0.0,2001,0.0,0.0,0.2884332302979834
Hungary,0.0013912245559245962,2001,0.0,0.0,11.09243037335864
Ireland,0.0,2001,0.0,0.0,0.0
Italy,0.0,2001,0.0,0.0,0.0
Latvia,0.0010952297324495284,2001,0.0,0.0,6.510912278735333
Lithuania,0.0015958403837452375,2001,0.0,0.0,7.083594718057723
Luxembourg,1.173716249508e-06,2001,0.0,0.0,0.1514131473299684
Malta,0.0,2001,0.0,0.0,0.0
Netherlands,0.0031443489607078444,2001,0.0,0.0,4.574054632274385
Poland,0.017702131551056613,2001,0.0,0.0,61.38763017887451
Portugal,0.0,2001,0.0,0.0,0.06442198246848875
Romania,0.0037870524874065244,2001,0.0,0.0,29.28613982240012
Slovakia,0.0015855934652737203,2001,0.0,0.0,11.00802349909527
Slovenia,0.0,2001,0.0,0.0,1.710771340018582
Spain,0.0,2001,0.0,0.0,0.0
Sweden,0.0017670401324425082,2001,0.0,0.0,36.69511591551653
Switzerland,0.0009084967944767283,2001,0.0,0.0,9.831429554727261
United Kingdom,0.008926094326439305,2001,0.0,0.0,14.27282292323547
Austria,0.0007884564238660681,2002,0.0,0.0,9.620450836329073
Belgium,3.608937864000001e-05,2002,0.0,0.0,0.6409840910971123
Bulgaria,0.000731093061449304,2002,0.0,0.0,5.117108201116001
Croatia,0.00025440665934808805,2002,0.0,0.0,1.759036634114211
Cyprus,0.0,2002,0.0,0.0,0.0
Czech Republic,0.0028988360312081404,2002,0.0,0.0,19.72286844842401
Denmark,0.0005853861265536361,2002,0.0,0.0,21.93531104040528
Estonia,0.0010733129008693564,2002,0.0,0.0,4.659131198570934
Finland,0.002977868753798472,2002,0.0,0.0,23.72120030816492
France,0.0005568556570491601,2002,0.0,0.0,34.6314927323472
Germany,0.0035563640573853363,2002,0.0,0.0,61.38256792282012
Greece,0.0,2002,0.0,0.0,0.2809997240752685
Hungary,0.0013912954417980362,2002,0.0,0.0,8.962979972039356
Ireland,0.0,2002,0.0,0.0,0.0
Italy,0.0,2002,0.0,0.0,0.0
Latvia,0.0009665300426744881,2002,0.0,0.0,6.355227990880395
Lithuania,0.0014547261456280781,2002,0.0,0.0,7.322507709759747
Luxembourg,2.8197516453480004e-06,2002,0.0,0.0,0.2598606566387858
Malta,0.0,2002,0.0,0.0,0.0
Netherlands,0.0034670338749904685,2002,0.0,0.0,5.886696034500292
Poland,0.015894423882570348,2002,0.0,0.0,57.0244886854278
Portugal,0.0,2002,0.0,0.0,0.1020717806333007
Romania,0.0032497744071381487,2002,0.0,0.0,22.53137051182253
Slovakia,0.001557371394578016,2002,0.0,0.0,10.51318694979897
Slovenia,0.0,2002,0.0,0.0,1.615260492075547
Spain,0.0,2002,0.0,0.0,0.0
Sweden,0.001808364327496164,2002,0.0,0.0,36.74559526973747
Switzerland,0.0007884564238660681,2002,0.0,0.0,9.620450836329073
United Kingdom,0.00797389963902252,2002,0.0,0.0,8.379058328859971
Austria,0.000677206589160132,2003,0.0,0.0,10.42592262699357
Belgium,7.7571163129068e-05,2003,0.0,0.0,0.6339550815071923
Bulgaria,0.0008097128102293561,2003,0.0,0.0,5.629318946108559
Croatia,0.00026529354857966406,2003,0.0,0.0,2.006529150000838
Cyprus,0.0,2003,0.0,0.0,0.0
Czech Republic,0.0027827804345602687,2003,0.0,0.0,19.54751431218809
Denmark,0.0006910810379858881,2003,0.0,0.0,22.63277176835415
Estonia,0.0012092316884155802,2003,0.0,0.0,4.431625055599188
Finland,0.002859330017317032,2003,0.0,0.0,24.88257363566987
France,0.0005676062606235,2003,0.0,0.0,33.54557069835705
Germany,0.015449999496935833,2003,0.0,0.0,78.87454815597788
Greece,0.0,2003,0.0,0.0,0.4778023152145082
Hungary,0.001720982553579612,2003,0.0,0.0,9.493392444339758
Ireland,0.0,2003,0.0,0.0,0.0
Italy,0.0,2003,0.0,0.0,0.0
Latvia,0.000907830281958625,2003,0.0,0.0,6.491191224465419
Lithuania,0.0012802762119749067,2003,0.0,0.0,7.417328128184427
Luxembourg,3.2889703825440002e-06,2003,0.0,0.0,0.6107728635803362
Malta,0.0,2003,0.0,0.0,0.0
Netherlands,0.003540906645044868,2003,0.0,0.0,5.335130048762403
Poland,0.01553339917464127,2003,0.0,0.0,53.97950228545202
Portugal,0.0,2003,0.0,0.0,0.1063652973159556
Romania,0.002718352919550456,2003,0.0,0.0,20.91042606129149
Slovakia,0.001626978174450516,2003,0.0,0.0,9.062735127328423
Slovenia,0.0,2003,0.0,0.0,1.294270761568273
Spain,0.0,2003,0.0,0.0,0.0
Sweden,0.0016193141499650761,2003,0.0,0.0,37.34812223644109
Switzerland,0.000677206589160132,2003,0.0,0.0,10.42592262699357
United Kingdom,0.005749743163064689,2003,0.0,0.0,7.189168743068293
Austria,0.0006927079948040162,2004,0.0,0.0,11.12595431897224
Belgium,8.4278374149312e-05,2004,0.0,0.0,1.28466436548961
Bulgaria,0.0007301347340372281,2004,0.0,0.0,4.910279898290555
Croatia,0.00026771914067976,2004,0.0,0.0,1.952398462164691
Cyprus,0.0,2004,0.0,0.0,0.0
Czech Republic,0.002838943137790296,2004,0.0,0.0,18.95095727146158
Denmark,0.0006118261915879081,2004,0.0,0.0,22.54411910019011
Estonia,0.0009943763020153925,2004,0.0,0.0,4.628131636894878
Finland,0.0028880539420185723,2004,0.0,0.0,23.94976689847926
France,0.0005665163229956159,2004,0.0,0.0,34.08808073174942
Germany,0.012408960214511822,2004,0.0,0.0,84.03409298214379
Greece,0.0,2004,0.0,0.0,0.4456400176972735
Hungary,0.0017740873195776722,2004,0.0,0.0,9.221730991810915
Ireland,0.0,2004,0.0,0.0,0.0
Italy,0.0,2004,0.0,0.0,2.206012006993922
Latvia,0.0008154913075344722,2004,0.0,0.0,5.899450190690678
Lithuania,0.0009637761380050442,2004,0.0,0.0,7.344816851990043
Luxembourg,2.3487948000000005e-06,2004,0.0,0.0,0.6291521305504033
Malta,0.0,2004,0.0,0.0,0.0
Netherlands,0.0033612505833503165,2004,0.0,0.0,5.395825471850715
Poland,0.01357520188235353,2004,0.0,0.0,55.45081467649412
Portugal,0.0,2004,0.0,0.0,0.1343930640667262
Romania,0.002440130372969976,2004,0.0,0.0,17.59716190213089
Slovakia,0.0017409502324359,2004,0.0,0.0,9.418615921587675
Slovenia,0.0,2004,0.0,0.0,1.399276017189465
Spain,0.0,2004,0.0,0.0,0.0
Sweden,0.0013493327353353362,2004,0.0,0.0,37.03897485498415
Switzerland,0.0006927079948040162,2004,0.0,0.0,11.12595431897224
United Kingdom,0.005599747538371693,2004,0.0,0.0,4.37048378858308
Austria,0.000910408060808171,2005,0.0,0.0,11.24551816607891
Belgium,6.146716901627995e-05,2005,0.0,0.0,0.580370450651408
Bulgaria,0.0009459625533941125,2005,0.0,0.0,5.467282030476659
Croatia,0.0002813568433541255,2005,0.0,0.0,2.014977138665742
Cyprus,0.0,2005,0.0,0.0,0.0
Czech Republic,0.002460279225860746,2005,0.0,0.0,18.58081589737543
Denmark,0.0005305629179949517,2005,0.0,0.0,22.25447686252111
Estonia,0.0009727991213002714,2005,0.0,0.0,4.846455807890795
Finland,0.0028496332680125794,2005,0.0,0.0,23.38815520855151
France,0.0005369035000000005,2005,0.0,0.0,35.27230253875294
Germany,0.009249028327692883,2005,0.0,0.0,82.19252069370665
Greece,0.0,2005,0.0,0.0,0.5024550193476294
Hungary,0.001875596336170412,2005,0.0,0.0,9.87967210564857
Ireland,0.0,2005,0.0,0.0,0.0
Italy,0.0,2005,0.0,0.0,2.244670192689521
Latvia,0.0008253718244573401,2005,0.0,0.0,5.942801985816739
Lithuania,0.0009304821102009228,2005,0.0,0.0,7.327304927469397
Luxembourg,2.776145116611566e-06,2005,0.0,0.0,0.6339784123208458
Malta,0.0,2005,0.0,0.0,0.0
Netherlands,0.003317198302412648,2005,0.0,0.0,4.363533149822877
Poland,0.01297340960650914,2005,0.0,0.0,53.9809396815907
Portugal,0.0,2005,0.0,0.0,0.1085889723354637
Romania,0.0019839125664466604,2005,0.0,0.0,18.04469514538795
Slovakia,0.0016305355454188447,2005,0.0,0.0,9.019853230883458
Slovenia,0.0,2005,0.0,0.0,1.28284488026775
Spain,0.0,2005,0.0,0.0,0.0
Sweden,0.0012703146448289368,2005,0.0,0.0,38.20810286002194
Switzerland,0.000910408060808171,2005,0.0,0.0,11.24551816607891
United Kingdom,0.005648321263014359,2005,0.0,0.0,4.40475425502289
Austria,0.0007843469708511361,2006,0.0,0.0,11.41112876197619
Belgium,6.445281245090401e-05,2006,0.0,0.0,0.6745339094703959
Bulgaria,0.0008944252993518123,2006,0.0,0.0,5.262505976965574
Croatia,0.000242634638728512,2006,0.0,0.0,1.763168594091478
Cyprus,0.0,2006,0.0,0.0,0.0
Czech Republic,0.0024299159431453565,2006,0.0,0.0,16.62183337412064
Denmark,0.00048585785139522013,2006,0.0,0.0,22.15013659673438
Estonia,0.001015348435641,2006,0.0,0.0,4.705310457520563
Finland,0.0029538314748622802,2006,0.0,0.0,24.05169545175749
France,0.000536735866850316,2006,0.0,0.0,32.93358969758132
Germany,0.009231884686002853,2006,0.0,0.0,73.32588230242696
Greece,0.0,2006,0.0,0.0,0.5752344343807249
Hungary,0.0018002557293693119,2006,0.0,0.0,9.08851083439356
Ireland,0.0,2006,0.0,0.0,0.0
Italy,0.0,2006,0.0,0.0,2.376827738355445
Latvia,0.0006061401238380487,2006,0.0,0.0,5.773372929273493
Lithuania,0.0008935934959053,2006,0.0,0.0,7.662619186834465
Luxembourg,2.5836742800000002e-06,2006,0.0,0.0,0.640073617460957
Malta,0.0,2006,0.0,0.0,0.0
Netherlands,0.0014860232398865522,2006,0.0,0.0,4.739554599556023
Poland,0.012850552137083113,2006,0.0,0.0,55.84100709996363
Portugal,0.0,2006,0.0,0.0,0.1185705090682691
Romania,0.0019516367103303964,2006,0.0,0.0,16.47622068031455
Slovakia,0.0013642447192977602,2006,0.0,0.0,7.816295207946519
Slovenia,0.0,2006,0.0,0.0,1.266593547084569
Spain,0.0,2006,0.0,0.0,0.0
Sweden,0.0012067119366069962,2006,0.0,0.0,37.90844806391617
Switzerland,0.0007843469708511361,2006,0.0,0.0,11.41112876197619
United Kingdom,0.005565638074633633,2006,0.0,0.0,4.382173423451073
Austria,0.0007760362661330401,2007,0.0,0.0,11.36434658944494
Belgium,4.697613087948e-06,2007,0.0,0.0,0.6572181235728702
Bulgaria,0.0006205672465923242,2007,0.0,0.0,4.368460216929087
Croatia,0.00023159436653948402,2007,0.0,0.0,1.664706831163151
Cyprus,0.0,2007,0.0,0.0,0.0
Czech Republic,0.0020300242089408486,2007,0.0,0.0,16.1763845640818
Denmark,0.000669544068656988,2007,0.0,0.0,21.66910223921011
Estonia,0.0010652998915733041,2007,0.0,0.0,4.612669734508383
Finland,0.0031813230415051086,2007,0.0,0.0,25.53276399139351
France,0.000463021468116228,2007,0.0,0.0,31.98507096943111
Germany,0.009537570868352763,2007,0.0,0.0,65.32555564228223
Greece,0.0,2007,0.0,0.0,0.4268992085118861
Hungary,0.0017381916849402,2007,0.0,0.0,8.680064653605001
Ireland,0.0,2007,0.0,0.0,0.0
Italy,0.0,2007,0.0,0.0,2.294728790155951
Latvia,0.000566935088155128,2007,0.0,0.0,5.559120289161442
Lithuania,0.00088455846360844,2007,0.0,0.0,7.232194984986464
Luxembourg,2.583697767948e-06,2007,0.0,0.0,0.5002464913349972
Malta,0.0,2007,0.0,0.0,0.0
Netherlands,0.0015851110797204119,2007,0.0,0.0,5.141368289019668
Poland,0.01186425674525815,2007,0.0,0.0,50.17342705008775
Portugal,0.0,2007,0.0,0.0,0.1227652871153488
Romania,0.0015907983503379124,2007,0.0,0.0,14.46090076089673
Slovakia,0.0012111552079588808,2007,0.0,0.0,6.807368352273052
Slovenia,0.0,2007,0.0,0.0,1.003085863941837
Spain,0.0,2007,0.0,0.0,0.0
Sweden,0.001161084255353604,2007,0.0,0.0,36.77255443041533
Switzerland,0.0007760362661330401,2007,0.0,0.0,11.36434658944494
United Kingdom,0.005937137368374421,2007,0.0,0.0,4.435608806842545
Austria,0.0009598321840443482,2008,0.0,0.0,13.17471985461141
Belgium,2.882605394196e-06,2008,0.0,0.0,0.882652693959816
Bulgaria,0.0006530008879459441,2008,0.0,0.0,4.015167592485233
Croatia,0.00022339173816000003,2008,0.0,0.0,1.724047436142179
Cyprus,0.0,2008,0.0,0.0,0.0
Czech Republic,0.0020141897929286763,2008,0.0,0.0,16.17458701094668
Denmark,0.00070131801201192,2008,0.0,0.0,22.15175862055685
Estonia,0.0011007836194483435,2008,0.0,0.0,4.535711053534055
Finland,0.002994367734838729,2008,0.0,0.0,25.242338946872
France,0.00040043887661660404,2008,0.0,0.0,32.03008879503864
Germany,0.010606433799869459,2008,0.0,0.0,68.96282663970678
Greece,0.0,2008,0.0,0.0,0.4477862766982178
Hungary,0.001526304234267648,2008,0.0,0.0,8.3068675696967
Ireland,0.0,2008,0.0,0.0,0.0
Italy,0.0,2008,0.0,0.0,1.447679057192627
Latvia,0.000562209312891924,2008,0.0,0.0,5.258674984888827
Lithuania,0.0007101054791597128,2008,0.0,0.0,6.89601549267971
Luxembourg,2.6725291872840003e-06,2008,0.0,0.0,0.5926871743390729
Malta,0.0,2008,0.0,0.0,0.0
Netherlands,0.0015027663571704002,2008,0.0,0.0,5.131329756338302
Poland,0.011685765752940674,2008,0.0,0.0,52.78519991035134
Portugal,0.0,2008,0.0,0.0,0.1216035425741257
Romania,0.0014001606569844724,2008,0.0,0.0,14.50829759272324
Slovakia,0.0011240326121185443,2008,0.0,0.0,6.468732560392796
Slovenia,0.0,2008,0.0,0.0,1.059602129441817
Spain,0.0,2008,0.0,0.0,0.0
Sweden,0.0009263604926195281,2008,0.0,0.0,36.57047014710193
Switzerland,0.0009598321840443482,2008,0.0,0.0,13.17471985461141
United Kingdom,0.006477408709151328,2008,0.0,0.0,4.451250924205132
Austria,0.000900494781810876,2009,0.0,0.0,13.1733457418833
Belgium,4.156215886548e-06,2009,0.0,0.0,0.8478375607147581
Bulgaria,0.000698483345226516,2009,0.0,0.0,4.143144982607015
Croatia,0.00022238140206711602,2009,0.0,0.0,1.779432737764768
Cyprus,0.0,2009,0.0,0.0,0.0
Czech Republic,0.001942084431718056,2009,0.0,0.0,15.6377135363078
Denmark,0.000761790033361008,2009,0.0,0.0,22.70958905513887
Estonia,0.0008268076681174441,2009,0.0,0.0,4.498387871447691
Finland,0.0032571411261600965,2009,0.0,0.0,28.01266209976825
France,0.000483794859998016,2009,0.0,0.0,24.57525188671376
Germany,0.009722947709551141,2009,0.0,0.0,66.24613165320892
Greece,0.0,2009,0.0,0.0,0.4913379573815561
Hungary,0.00132330557804364,2009,0.0,0.0,7.922832946632191
Ireland,0.0,2009,0.0,0.0,0.0
Italy,0.0,2009,0.0,0.0,1.424072892481662
Latvia,0.000527407836637284,2009,0.0,0.0,5.203743741262763
Lithuania,0.0006582390731007481,2009,0.0,0.0,7.1250944461353
Luxembourg,3.2883127200000003e-06,2009,0.0,0.0,0.4852366735165752
Malta,0.0,2009,0.0,0.0,0.0
Netherlands,0.0015679742327082003,2009,0.0,0.0,5.782199868465462
Poland,0.012288035695908745,2009,0.0,0.0,52.47571739217358
Portugal,0.0,2009,0.0,0.0,0.1151608478353655
Romania,0.0017281307035545842,2009,0.0,0.0,13.77517605034496
Slovakia,0.0009920816094218037,2009,0.0,0.0,6.914541534956893
Slovenia,0.0,2009,0.0,0.0,1.167858438799881
Spain,0.0,2009,0.0,0.0,0.0
Sweden,0.0009495345249062641,2009,0.0,0.0,38.45796312591983
Switzerland,0.000900494781810876,2009,0.0,0.0,13.1733457418833
United Kingdom,0.005926231583612029,2009,0.0,0.0,4.415544800139887
Austria,0.0008672750066463213,2010,0.0,0.0,16.46436855054637
Belgium,4.488001176949269e-06,2010,0.0,0.0,0.9222952585979602
Bulgaria,0.0008363919389240564,2010,0.0,0.0,4.187568909985171
Croatia,0.0002519995462375911,2010,0.0,0.0,1.933504265423375
Cyprus,0.0,2010,0.0,0.0,0.0
Czech Republic,0.0023925402401751826,2010,0.0,0.0,18.4373214980622
Denmark,0.0009498804842353007,2010,0.0,0.0,27.07602214821127
Estonia,0.0009212971236955471,2010,0.0,0.0,4.91494744393719
Finland,0.003522120051399929,2010,0.0,0.0,30.8758364663086
France,0.0006335551423461192,2010,0.0,0.0,29.34280467942108
Germany,0.011820186614420868,2010,0.0,0.0,79.80392811989267
Greece,0.0,2010,0.0,0.0,0.4580620439098417
Hungary,0.0019130252748835478,2010,0.0,0.0,8.199472380367794
Ireland,0.0,2010,0.0,0.0,0.0
Italy,0.0,2010,0.0,0.0,1.955532926255168
Latvia,0.0005048486539282487,2010,0.0,0.0,5.564449938952387
Lithuania,0.000731109710163175,2010,0.0,0.0,7.368604184607797
Luxembourg,3.871077344573227e-06,2010,0.0,0.0,0.603171861496155
Malta,0.0,2010,0.0,0.0,0.0
Netherlands,0.0016076380597148038,2010,0.0,0.0,5.958282449521404
Poland,0.01398775833499132,2010,0.0,0.0,58.44403414971008
Portugal,0.0,2010,0.0,0.0,0.184338513920821
Romania,0.0016363369862421769,2010,0.0,0.0,13.54552740681232
Slovakia,0.0010170299128232677,2010,0.0,0.0,7.618108327394737
Slovenia,0.0,2010,0.0,0.0,1.321843487212836
Spain,0.0,2010,0.0,0.0,0.0
Sweden,0.0012785293233391936,2010,0.0,0.0,47.8621401609405
Switzerland,0.0008672750066463213,2010,0.0,0.0,16.46436855054637
United Kingdom,0.006071892108031546,2010,0.0,0.0,4.420534281111168
Austria,0.0009006345833003693,2011,0.0,0.0,15.06793750916471
Belgium,4.3926299999999925e-05,2011,0.0,0.0,1.045349960119428
Bulgaria,0.000777258797754076,2011,0.0,0.0,4.670631509454437
Croatia,0.00023501291263084158,2011,0.0,0.0,1.829199941053358
Cyprus,0.0,2011,0.0,0.0,0.0
Czech Republic,0.002057968414799296,2011,0.0,0.0,16.58383949200963
Denmark,0.0007657575120186345,2011,0.0,0.0,23.37539529458928
Estonia,0.0007415261514198799,2011,0.0,0.0,4.317093635946238
Finland,0.0030480152168770543,2011,0.0,0.0,25.75893436324418
France,0.0010912530999999987,2011,0.0,0.0,24.4954903456253
Germany,0.011459598677090503,2011,0.0,0.0,58.94896706951283
Greece,0.0,2011,0.0,0.0,0.5521447591395265
Hungary,0.002043836631104494,2011,0.0,0.0,7.53829755486131
Ireland,0.0,2011,0.0,0.0,0.0
Italy,0.0,2011,0.0,0.0,7.129338777553381
Latvia,0.0004312736963867488,2011,0.0,0.0,4.8116929383808
Lithuania,0.0006195256376580817,2011,0.0,0.0,6.488353752276716
Luxembourg,5.3856235882071895e-06,2011,0.0,0.0,0.6548944974929484
Malta,0.0,2011,0.0,0.0,0.00101977922201605
Netherlands,0.0015076901467620653,2011,0.0,0.0,5.103760684143523
Poland,0.011358900677471853,2011,0.0,0.0,50.83774558518541
Portugal,0.0,2011,0.0,0.0,0.1778495351381317
Romania,0.0013447645244507467,2011,0.0,0.0,13.42099911339768
Slovakia,0.0008530953064699353,2011,0.0,0.0,6.607247877092781
Slovenia,0.0,2011,0.0,0.0,1.259557684470037
Spain,0.0,2011,0.0,0.0,0.0
Sweden,0.0008221634116295669,2011,0.0,0.0,37.49291413207499
Switzerland,0.0009006345833003693,2011,0.0,0.0,15.06793750916471
United Kingdom,0.006206287380315536,2011,0.0,0.0,4.282040146023015
Austria,0.0010145667339690142,2012,0.0,0.0,15.9878201827664
Belgium,2.44301135339805e-05,2012,0.0,0.0,0.5260197290325939
Bulgaria,0.0005875913477127448,2012,0.0,0.0,4.052865587730398
Croatia,0.00019901157951846538,2012,0.0,0.0,1.69011624478147
Cyprus,0.0,2012,0.0,0.0,0.0
Czech Republic,0.001915025000516101,2012,0.0,0.0,17.03325913643573
Denmark,0.0009761675058374161,2012,0.0,0.0,23.89749513506304
Estonia,0.0008766277572159781,2012,0.0,0.0,4.544140405290648
Finland,0.003435392810824764,2012,0.0,0.0,28.59806976378625
France,0.0032826381803805135,2012,0.0,0.0,19.18370992881618
Germany,0.011515064527620897,2012,0.0,0.0,57.40937797958345
Greece,0.0,2012,0.0,0.0,0.4524873679874759
Hungary,0.0022116433568875335,2012,0.0,0.0,6.915011596922716
Ireland,0.0,2012,0.0,0.0,0.0
Italy,0.0,2012,0.0,0.0,7.998035212396066
Latvia,0.00038512089999999806,2012,0.0,0.0,5.234293092232885
Lithuania,0.0006167765716927453,2012,0.0,0.0,6.833784149483972
Luxembourg,4.285171461656866e-06,2012,0.0,0.0,0.5997851705751852
Malta,0.0,2012,0.0,0.0,0.001818569949922019
Netherlands,0.0011214775628567643,2012,0.0,0.0,4.33698930330457
Poland,0.012206268861746689,2012,0.0,0.0,52.36205139233997
Portugal,0.0,2012,0.0,0.0,0.2642201567297435
Romania,0.0010245214564279107,2012,0.0,0.0,11.91764352376514
Slovakia,0.0008172145290053596,2012,0.0,0.0,5.867132908701344
Slovenia,0.0,2012,0.0,0.0,1.212273892734054
Spain,0.0,2012,0.0,0.0,0.0
Sweden,0.000673749184195056,2012,0.0,0.0,41.37736942120749
Switzerland,0.0010145667339690142,2012,0.0,0.0,15.9878201827664
United Kingdom,0.006397934888752341,2012,0.0,0.0,4.567055537899558
Austria,0.0010862629997077681,2013,0.0,0.0,16.43455138385195
Belgium,2.1905599553966784e-05,2013,0.0,0.0,0.7327110285138049
Bulgaria,0.0004576027399704308,2013,0.0,0.0,3.657499940470522
Croatia,0.00019196587918266224,2013,0.0,0.0,1.674920336113743
Cyprus,0.0,2013,0.0,0.0,0.0
Czech Republic,0.0018977327459691817,2013,0.0,0.0,16.81359026248212
Denmark,0.0009732045657492221,2013,0.0,0.0,23.78358132438215
Estonia,0.0006721847170654398,2013,0.0,0.0,4.313267723993508
Finland,0.0026572086098166203,2013,0.0,0.0,27.08995078103176
France,0.00369456058481356,2013,0.0,0.0,19.31527728050947
Germany,0.009950209889005726,2013,0.0,0.0,58.68389741434311
Greece,0.0,2013,0.0,0.0,0.3789437828836851
Hungary,0.0020543081200589688,2013,0.0,0.0,6.667980945820097
Ireland,0.0,2013,0.0,0.0,0.0
Italy,0.0,2013,0.0,0.0,10.79919707596251
Latvia,0.0002657809374559361,2013,0.0,0.0,4.94520640758363
Lithuania,0.0005318387340463918,2013,0.0,0.0,6.237893753009392
Luxembourg,6.508059673659673e-06,2013,0.0,0.0,0.6349965907214041
Malta,0.0,2013,0.0,0.0,0.0002323281998618265
Netherlands,0.0011843981651146333,2013,0.0,0.0,4.576486061565629
Poland,0.011683413473716873,2013,0.0,0.0,52.07793301082818
Portugal,0.0,2013,0.0,0.0,0.2680284301647458
Romania,0.0013016021265139356,2013,0.0,0.0,11.13474678656318
Slovakia,0.0006946786068750629,2013,0.0,0.0,5.835307668753888
Slovenia,0.0,2013,0.0,0.0,1.246902601100113
Spain,0.0,2013,0.0,0.0,0.0
Sweden,0.0006268692881123811,2013,0.0,0.0,40.09035534009183
Switzerland,0.0010862629997077681,2013,0.0,0.0,16.43455138385195
United Kingdom,0.005764366425092588,2013,0.0,0.0,4.436291249982516
Austria,0.0010016938072858505,2014,0.0,0.0,14.654924384275
Belgium,2.5935115005478026e-05,2014,0.0,0.0,0.7455816281274493
Bulgaria,0.000528944326854087,2014,0.0,0.0,3.51328062250963
Croatia,0.00015778860000000003,2014,0.0,0.0,1.355734532425823
Cyprus,0.0,2014,0.0,0.0,0.0
Czech Republic,0.0015738249450327486,2014,0.0,0.0,14.4641678520797
Denmark,0.0009970446756147468,2014,0.0,0.0,20.95888962813122
Estonia,0.0005914711000000001,2014,0.0,0.0,4.057810090948852
Finland,0.0027482829143059316,2014,0.0,0.0,27.77746486511039
France,0.002845800868132075,2014,0.0,0.0,19.64138505720603
Germany,0.008725510476335213,2014,0.0,0.0,48.76552179470313
Greece,0.0,2014,0.0,0.0,0.4533888750035444
Hungary,0.0019453297777464235,2014,0.0,0.0,5.554517574143118
Ireland,0.0,2014,0.0,0.0,0.0
Italy,0.0,2014,0.0,0.0,10.32506581123637
Latvia,0.0001913477831419604,2014,0.0,0.0,4.693074257413533
Lithuania,0.00039710309999999797,2014,0.0,0.0,5.925021493423796
Luxembourg,4.488000000000007e-06,2014,0.0,0.0,0.417661182765846
Malta,0.0,2014,0.0,0.0,0.0002379264669022236
Netherlands,0.0015799512926755368,2014,0.0,0.0,3.7043769728343
Poland,0.010626959176727875,2014,0.0,0.0,46.93641593865796
Portugal,0.0,2014,0.0,0.0,0.2696929596657896
Romania,0.0011183811398901506,2014,0.0,0.0,9.571686100811462
Slovakia,0.0005609632544102049,2014,0.0,0.0,4.480998112704834
Slovenia,0.0,2014,0.0,0.0,0.9460080528747749
Spain,0.0,2014,0.0,0.0,0.0
Sweden,0.0004951681921699705,2014,0.0,0.0,37.02234830640601
Switzerland,0.0010016938072858505,2014,0.0,0.0,14.654924384275
United Kingdom,0.00583415258096401,2014,0.0,0.0,4.247533259554752
Austria,0.0009127519753921636,2015,0.0,0.0,15.31698566949153
Belgium,3.3660000000000106e-06,2015,0.0,0.0,0.7002397565761643
Bulgaria,0.0007931524538803258,2015,0.0,0.0,3.788524542824679
Croatia,0.00016558214580227602,2015,0.0,0.0,1.455875959562182
Cyprus,0.0,2015,0.0,0.0,0.0
Czech Republic,0.0015722855110311335,2015,0.0,0.0,14.71610515639405
Denmark,0.0010864994946705184,2015,0.0,0.0,22.50460288685566
Estonia,0.0005018759020316541,2015,0.0,0.0,3.903566819376275
Finland,0.0025702166488265755,2015,0.0,0.0,26.03781810957795
France,0.0028858484313427305,2015,0.0,0.0,21.29099092047195
Germany,0.009272445105704933,2015,0.0,0.0,53.86515027641819
Greece,0.0,2015,0.0,0.0,0.4868349611635884
Hungary,0.002364294032234268,2015,0.0,0.0,6.118426695141996
Ireland,0.0,2015,0.0,0.0,0.0
Italy,0.0,2015,0.0,0.0,10.98239730607158
Latvia,0.00016115188300831404,2015,0.0,0.0,4.49628708749416
Lithuania,0.000303360299289624,2015,0.0,0.0,5.842723862959886
Luxembourg,3.1414765469863434e-06,2015,0.0,0.0,0.5141432229629834
Malta,0.0,2015,0.0,0.0,0.001437880670438856
Netherlands,0.0012413548213645717,2015,0.0,0.0,4.116076597220334
Poland,0.010030321060936511,2015,0.0,0.0,46.10668405676157
Portugal,0.0,2015,0.0,0.0,0.2499936372016406
Romania,0.0010808854017064049,2015,0.0,0.0,9.543873637236988
Slovakia,0.0006224810175915642,2015,0.0,0.0,4.337734199076052
Slovenia,0.0,2015,0.0,0.0,1.111585493211573
Spain,0.0,2015,0.0,0.0,0.0
Sweden,0.00047231711358117684,2015,0.0,0.0,36.97095841231494
Switzerland,0.0009127519753921636,2015,0.0,0.0,15.31698566949153
United Kingdom,0.005656665283923878,2015,0.0,0.0,4.368980378128181
