Years,awi
1850,-0.0285170178578775
1851,-0.02735412441047178
1852,-0.02581260704803007
1853,-0.02458650887469885
1854,-0.02422164958079569
1855,-0.02402200995791168
1856,-0.02384989315620253
1857,-0.0235858155881557
1858,-0.02278375346124823
1859,-0.02274031288967806
1860,-0.02340691515824837
1861,-0.02401825059713921
1862,-0.02448433203692348
1863,-0.0247343164102052
1864,-0.02430302156342116
1865,-0.02383639080501882
1866,-0.02328548358369278
1867,-0.02221266362700441
1868,-0.02114953506421463
1869,-0.01958173693402106
1870,-0.01761625959227845
1871,-0.01595095784057405
1872,-0.01440703557027027
1873,-0.011877983426712
1874,-0.009550232674329242
1875,-0.006981217764189943
1876,-0.004323296958975171
1877,-0.00260595323150959
1878,-0.0006497334623115061
1879,0.001029776567757615
1880,0.002379103571950445
1881,0.003571907158063741
1882,0.005051597906398804
1883,0.005950172146547777
1884,0.007881281112246933
1885,0.009750195942020303
1886,0.01217400446677598
1887,0.01616111222633711
1888,0.02026517677150672
1889,0.02380363607431298
1890,0.02725263325490286
1891,0.03021274053194897
1892,0.03330188811899747
1893,0.03649423941740982
1894,0.03915552940357282
1895,0.04140078930191291
1896,0.0438318294503337
1897,0.04610317792933008
1898,0.04928475132137059
1899,0.05262590161249397
1900,0.05481004793231284
1901,0.0564837964918547
1902,0.05807527766925893
1903,0.06088703516761716
1904,0.06450091704786859
1905,0.0672123332395196
1906,0.0707046575951178
1907,0.07434713378266666
1908,0.07770028710606557
1909,0.0821120769642744
1910,0.08484622366387158
1911,0.08769556031979901
1912,0.09140946676812568
1913,0.09483894386632936
1914,0.09911496284787095
1915,0.1042184235235457
1916,0.1098155708647269
1917,0.1146220202795696
1918,0.1193211843688181
1919,0.1246088315694201
1920,0.1298052980229698
1921,0.1347732667784185
1922,0.1388939614027609
1923,0.1423393951173718
1924,0.1457785055241919
1925,0.1487588135545059
1926,0.1513234021967548
1927,0.1541648867278235
1928,0.1574410968019297
1929,0.161423755076093
1930,0.1644859256426344
1931,0.1683034514550776
1932,0.1723532317436585
1933,0.1765874842906582
1934,0.1815367190694319
1935,0.1862778577952417
1936,0.1897320377307661
1937,0.1933579156624717
1938,0.1976780252855102
1939,0.2016248548122483
1940,0.2060525967979516
1941,0.2094737853953065
1942,0.2134354022163734
1943,0.2169588195783528
1944,0.2198781905209507
1945,0.222221338502631
1946,0.223759015234354
1947,0.2255282425089979
1948,0.2266609813529114
1949,0.2282704026091859
1950,0.2299025781909367
1951,0.2320070852537067
1952,0.2340289269865836
1953,0.236451746783026
1954,0.2386787126891442
1955,0.2406959000928776
1956,0.2432187968468334
1957,0.2461511615880762
1958,0.2490993485499662
1959,0.2533912749641792
1960,0.2567857588795042
1961,0.2601360377903251
1962,0.263202031708701
1963,0.2665684624690872
1964,0.2703769233907559
1965,0.2750460210882371
1966,0.279995642904335
1967,0.2856336388279258
1968,0.2914634191979552
1969,0.298412796295823
1970,0.3054844595475547
1971,0.3143494881177661
1972,0.3248450157091986
1973,0.3362188164078089
1974,0.349312802101612
1975,0.3633572421317851
1976,0.3781569715753333
1977,0.394173033826757
1978,0.4111546148602021
1979,0.4284957927521031
1980,0.4469484374588497
1981,0.4645459052904794
1982,0.4807648782100081
1983,0.4970349896439299
1984,0.5134567110371405
1985,0.5294837919765382
1986,0.5456648057636594
1987,0.5621342617970277
1988,0.5787483329441588
1989,0.5948710533908376
1990,0.610411420808898
1991,0.6250815095555455
1992,0.6397237280476343
1993,0.6522934642093269
1994,0.6641496747208053
1995,0.6762127640490659
1996,0.6886025990370687
1997,0.7012549708582849
1998,0.7141655914726797
1999,0.7278531325969322
2000,0.7415438423489293
2001,0.754777803126482
2002,0.7692387906214586
2003,0.7838985493179101
2004,0.7996424853202081
2005,0.8158932425859783
2006,0.8324029352719705
2007,0.8492715399714479
2008,0.8666924503827443
2009,0.8831796238035232
2010,0.9002709287862799
2011,0.9171705808048327
2012,0.935558444875573
2013,0.955154336931833
2014,0.975332308509078
2015,0.9965333314341422
2016,1.019786579368192
2017,1.043363940240419
