Country,Years,lever_heat-district-efficiency
Austria,2020,1
Belgium,2020,1
Bulgaria,2020,1
Croatia,2020,1
Cyprus,2020,1
Czech Republic,2020,1
Denmark,2020,1
Estonia,2020,1
Finland,2020,1
France,2020,1
Germany,2020,1
Greece,2020,1
Hungary,2020,1
Iceland,2020,1
Ireland,2020,1
Italy,2020,1
Latvia,2020,1
Lithuania,2020,1
Luxembourg,2020,1
Malta,2020,1
Netherlands,2020,1
Norway,2020,1
Poland,2020,1
Portugal,2020,1
Romania,2020,1
Slovakia,2020,1
Slovenia,2020,1
Spain,2020,1
Sweden,2020,1
Switzerland,2020,1
United Kingdom,2020,1
Austria,2020,2
Belgium,2020,2
Bulgaria,2020,2
Croatia,2020,2
Cyprus,2020,2
Czech Republic,2020,2
Denmark,2020,2
Estonia,2020,2
Finland,2020,2
France,2020,2
Germany,2020,2
Greece,2020,2
Hungary,2020,2
Iceland,2020,2
Ireland,2020,2
Italy,2020,2
Latvia,2020,2
Lithuania,2020,2
Luxembourg,2020,2
Malta,2020,2
Netherlands,2020,2
Norway,2020,2
Poland,2020,2
Portugal,2020,2
Romania,2020,2
Slovakia,2020,2
Slovenia,2020,2
Spain,2020,2
Sweden,2020,2
Switzerland,2020,2
United Kingdom,2020,2
Austria,2020,3
Belgium,2020,3
Bulgaria,2020,3
Croatia,2020,3
Cyprus,2020,3
Czech Republic,2020,3
Denmark,2020,3
Estonia,2020,3
Finland,2020,3
France,2020,3
Germany,2020,3
Greece,2020,3
Hungary,2020,3
Iceland,2020,3
Ireland,2020,3
Italy,2020,3
Latvia,2020,3
Lithuania,2020,3
Luxembourg,2020,3
Malta,2020,3
Netherlands,2020,3
Norway,2020,3
Poland,2020,3
Portugal,2020,3
Romania,2020,3
Slovakia,2020,3
Slovenia,2020,3
Spain,2020,3
Sweden,2020,3
Switzerland,2020,3
United Kingdom,2020,3
Austria,2020,4
Belgium,2020,4
Bulgaria,2020,4
Croatia,2020,4
Cyprus,2020,4
Czech Republic,2020,4
Denmark,2020,4
Estonia,2020,4
Finland,2020,4
France,2020,4
Germany,2020,4
Greece,2020,4
Hungary,2020,4
Iceland,2020,4
Ireland,2020,4
Italy,2020,4
Latvia,2020,4
Lithuania,2020,4
Luxembourg,2020,4
Malta,2020,4
Netherlands,2020,4
Norway,2020,4
Poland,2020,4
Portugal,2020,4
Romania,2020,4
Slovakia,2020,4
Slovenia,2020,4
Spain,2020,4
Sweden,2020,4
Switzerland,2020,4
United Kingdom,2020,4
Austria,2025,1
Belgium,2025,1
Bulgaria,2025,1
Croatia,2025,1
Cyprus,2025,1
Czech Republic,2025,1
Denmark,2025,1
Estonia,2025,1
Finland,2025,1
France,2025,1
Germany,2025,1
Greece,2025,1
Hungary,2025,1
Iceland,2025,1
Ireland,2025,1
Italy,2025,1
Latvia,2025,1
Lithuania,2025,1
Luxembourg,2025,1
Malta,2025,1
Netherlands,2025,1
Norway,2025,1
Poland,2025,1
Portugal,2025,1
Romania,2025,1
Slovakia,2025,1
Slovenia,2025,1
Spain,2025,1
Sweden,2025,1
Switzerland,2025,1
United Kingdom,2025,1
Austria,2025,2
Belgium,2025,2
Bulgaria,2025,2
Croatia,2025,2
Cyprus,2025,2
Czech Republic,2025,2
Denmark,2025,2
Estonia,2025,2
Finland,2025,2
France,2025,2
Germany,2025,2
Greece,2025,2
Hungary,2025,2
Iceland,2025,2
Ireland,2025,2
Italy,2025,2
Latvia,2025,2
Lithuania,2025,2
Luxembourg,2025,2
Malta,2025,2
Netherlands,2025,2
Norway,2025,2
Poland,2025,2
Portugal,2025,2
Romania,2025,2
Slovakia,2025,2
Slovenia,2025,2
Spain,2025,2
Sweden,2025,2
Switzerland,2025,2
United Kingdom,2025,2
Austria,2025,3
Belgium,2025,3
Bulgaria,2025,3
Croatia,2025,3
Cyprus,2025,3
Czech Republic,2025,3
Denmark,2025,3
Estonia,2025,3
Finland,2025,3
France,2025,3
Germany,2025,3
Greece,2025,3
Hungary,2025,3
Iceland,2025,3
Ireland,2025,3
Italy,2025,3
Latvia,2025,3
Lithuania,2025,3
Luxembourg,2025,3
Malta,2025,3
Netherlands,2025,3
Norway,2025,3
Poland,2025,3
Portugal,2025,3
Romania,2025,3
Slovakia,2025,3
Slovenia,2025,3
Spain,2025,3
Sweden,2025,3
Switzerland,2025,3
United Kingdom,2025,3
Austria,2025,4
Belgium,2025,4
Bulgaria,2025,4
Croatia,2025,4
Cyprus,2025,4
Czech Republic,2025,4
Denmark,2025,4
Estonia,2025,4
Finland,2025,4
France,2025,4
Germany,2025,4
Greece,2025,4
Hungary,2025,4
Iceland,2025,4
Ireland,2025,4
Italy,2025,4
Latvia,2025,4
Lithuania,2025,4
Luxembourg,2025,4
Malta,2025,4
Netherlands,2025,4
Norway,2025,4
Poland,2025,4
Portugal,2025,4
Romania,2025,4
Slovakia,2025,4
Slovenia,2025,4
Spain,2025,4
Sweden,2025,4
Switzerland,2025,4
United Kingdom,2025,4
Austria,2030,1
Belgium,2030,1
Bulgaria,2030,1
Croatia,2030,1
Cyprus,2030,1
Czech Republic,2030,1
Denmark,2030,1
Estonia,2030,1
Finland,2030,1
France,2030,1
Germany,2030,1
Greece,2030,1
Hungary,2030,1
Iceland,2030,1
Ireland,2030,1
Italy,2030,1
Latvia,2030,1
Lithuania,2030,1
Luxembourg,2030,1
Malta,2030,1
Netherlands,2030,1
Norway,2030,1
Poland,2030,1
Portugal,2030,1
Romania,2030,1
Slovakia,2030,1
Slovenia,2030,1
Spain,2030,1
Sweden,2030,1
Switzerland,2030,1
United Kingdom,2030,1
Austria,2030,2
Belgium,2030,2
Bulgaria,2030,2
Croatia,2030,2
Cyprus,2030,2
Czech Republic,2030,2
Denmark,2030,2
Estonia,2030,2
Finland,2030,2
France,2030,2
Germany,2030,2
Greece,2030,2
Hungary,2030,2
Iceland,2030,2
Ireland,2030,2
Italy,2030,2
Latvia,2030,2
Lithuania,2030,2
Luxembourg,2030,2
Malta,2030,2
Netherlands,2030,2
Norway,2030,2
Poland,2030,2
Portugal,2030,2
Romania,2030,2
Slovakia,2030,2
Slovenia,2030,2
Spain,2030,2
Sweden,2030,2
Switzerland,2030,2
United Kingdom,2030,2
Austria,2030,3
Belgium,2030,3
Bulgaria,2030,3
Croatia,2030,3
Cyprus,2030,3
Czech Republic,2030,3
Denmark,2030,3
Estonia,2030,3
Finland,2030,3
France,2030,3
Germany,2030,3
Greece,2030,3
Hungary,2030,3
Iceland,2030,3
Ireland,2030,3
Italy,2030,3
Latvia,2030,3
Lithuania,2030,3
Luxembourg,2030,3
Malta,2030,3
Netherlands,2030,3
Norway,2030,3
Poland,2030,3
Portugal,2030,3
Romania,2030,3
Slovakia,2030,3
Slovenia,2030,3
Spain,2030,3
Sweden,2030,3
Switzerland,2030,3
United Kingdom,2030,3
Austria,2030,4
Belgium,2030,4
Bulgaria,2030,4
Croatia,2030,4
Cyprus,2030,4
Czech Republic,2030,4
Denmark,2030,4
Estonia,2030,4
Finland,2030,4
France,2030,4
Germany,2030,4
Greece,2030,4
Hungary,2030,4
Iceland,2030,4
Ireland,2030,4
Italy,2030,4
Latvia,2030,4
Lithuania,2030,4
Luxembourg,2030,4
Malta,2030,4
Netherlands,2030,4
Norway,2030,4
Poland,2030,4
Portugal,2030,4
Romania,2030,4
Slovakia,2030,4
Slovenia,2030,4
Spain,2030,4
Sweden,2030,4
Switzerland,2030,4
United Kingdom,2030,4
Austria,2035,1
Belgium,2035,1
Bulgaria,2035,1
Croatia,2035,1
Cyprus,2035,1
Czech Republic,2035,1
Denmark,2035,1
Estonia,2035,1
Finland,2035,1
France,2035,1
Germany,2035,1
Greece,2035,1
Hungary,2035,1
Iceland,2035,1
Ireland,2035,1
Italy,2035,1
Latvia,2035,1
Lithuania,2035,1
Luxembourg,2035,1
Malta,2035,1
Netherlands,2035,1
Norway,2035,1
Poland,2035,1
Portugal,2035,1
Romania,2035,1
Slovakia,2035,1
Slovenia,2035,1
Spain,2035,1
Sweden,2035,1
Switzerland,2035,1
United Kingdom,2035,1
Austria,2035,2
Belgium,2035,2
Bulgaria,2035,2
Croatia,2035,2
Cyprus,2035,2
Czech Republic,2035,2
Denmark,2035,2
Estonia,2035,2
Finland,2035,2
France,2035,2
Germany,2035,2
Greece,2035,2
Hungary,2035,2
Iceland,2035,2
Ireland,2035,2
Italy,2035,2
Latvia,2035,2
Lithuania,2035,2
Luxembourg,2035,2
Malta,2035,2
Netherlands,2035,2
Norway,2035,2
Poland,2035,2
Portugal,2035,2
Romania,2035,2
Slovakia,2035,2
Slovenia,2035,2
Spain,2035,2
Sweden,2035,2
Switzerland,2035,2
United Kingdom,2035,2
Austria,2035,3
Belgium,2035,3
Bulgaria,2035,3
Croatia,2035,3
Cyprus,2035,3
Czech Republic,2035,3
Denmark,2035,3
Estonia,2035,3
Finland,2035,3
France,2035,3
Germany,2035,3
Greece,2035,3
Hungary,2035,3
Iceland,2035,3
Ireland,2035,3
Italy,2035,3
Latvia,2035,3
Lithuania,2035,3
Luxembourg,2035,3
Malta,2035,3
Netherlands,2035,3
Norway,2035,3
Poland,2035,3
Portugal,2035,3
Romania,2035,3
Slovakia,2035,3
Slovenia,2035,3
Spain,2035,3
Sweden,2035,3
Switzerland,2035,3
United Kingdom,2035,3
Austria,2035,4
Belgium,2035,4
Bulgaria,2035,4
Croatia,2035,4
Cyprus,2035,4
Czech Republic,2035,4
Denmark,2035,4
Estonia,2035,4
Finland,2035,4
France,2035,4
Germany,2035,4
Greece,2035,4
Hungary,2035,4
Iceland,2035,4
Ireland,2035,4
Italy,2035,4
Latvia,2035,4
Lithuania,2035,4
Luxembourg,2035,4
Malta,2035,4
Netherlands,2035,4
Norway,2035,4
Poland,2035,4
Portugal,2035,4
Romania,2035,4
Slovakia,2035,4
Slovenia,2035,4
Spain,2035,4
Sweden,2035,4
Switzerland,2035,4
United Kingdom,2035,4
Austria,2040,1
Belgium,2040,1
Bulgaria,2040,1
Croatia,2040,1
Cyprus,2040,1
Czech Republic,2040,1
Denmark,2040,1
Estonia,2040,1
Finland,2040,1
France,2040,1
Germany,2040,1
Greece,2040,1
Hungary,2040,1
Iceland,2040,1
Ireland,2040,1
Italy,2040,1
Latvia,2040,1
Lithuania,2040,1
Luxembourg,2040,1
Malta,2040,1
Netherlands,2040,1
Norway,2040,1
Poland,2040,1
Portugal,2040,1
Romania,2040,1
Slovakia,2040,1
Slovenia,2040,1
Spain,2040,1
Sweden,2040,1
Switzerland,2040,1
United Kingdom,2040,1
Austria,2040,2
Belgium,2040,2
Bulgaria,2040,2
Croatia,2040,2
Cyprus,2040,2
Czech Republic,2040,2
Denmark,2040,2
Estonia,2040,2
Finland,2040,2
France,2040,2
Germany,2040,2
Greece,2040,2
Hungary,2040,2
Iceland,2040,2
Ireland,2040,2
Italy,2040,2
Latvia,2040,2
Lithuania,2040,2
Luxembourg,2040,2
Malta,2040,2
Netherlands,2040,2
Norway,2040,2
Poland,2040,2
Portugal,2040,2
Romania,2040,2
Slovakia,2040,2
Slovenia,2040,2
Spain,2040,2
Sweden,2040,2
Switzerland,2040,2
United Kingdom,2040,2
Austria,2040,3
Belgium,2040,3
Bulgaria,2040,3
Croatia,2040,3
Cyprus,2040,3
Czech Republic,2040,3
Denmark,2040,3
Estonia,2040,3
Finland,2040,3
France,2040,3
Germany,2040,3
Greece,2040,3
Hungary,2040,3
Iceland,2040,3
Ireland,2040,3
Italy,2040,3
Latvia,2040,3
Lithuania,2040,3
Luxembourg,2040,3
Malta,2040,3
Netherlands,2040,3
Norway,2040,3
Poland,2040,3
Portugal,2040,3
Romania,2040,3
Slovakia,2040,3
Slovenia,2040,3
Spain,2040,3
Sweden,2040,3
Switzerland,2040,3
United Kingdom,2040,3
Austria,2040,4
Belgium,2040,4
Bulgaria,2040,4
Croatia,2040,4
Cyprus,2040,4
Czech Republic,2040,4
Denmark,2040,4
Estonia,2040,4
Finland,2040,4
France,2040,4
Germany,2040,4
Greece,2040,4
Hungary,2040,4
Iceland,2040,4
Ireland,2040,4
Italy,2040,4
Latvia,2040,4
Lithuania,2040,4
Luxembourg,2040,4
Malta,2040,4
Netherlands,2040,4
Norway,2040,4
Poland,2040,4
Portugal,2040,4
Romania,2040,4
Slovakia,2040,4
Slovenia,2040,4
Spain,2040,4
Sweden,2040,4
Switzerland,2040,4
United Kingdom,2040,4
Austria,2045,1
Belgium,2045,1
Bulgaria,2045,1
Croatia,2045,1
Cyprus,2045,1
Czech Republic,2045,1
Denmark,2045,1
Estonia,2045,1
Finland,2045,1
France,2045,1
Germany,2045,1
Greece,2045,1
Hungary,2045,1
Iceland,2045,1
Ireland,2045,1
Italy,2045,1
Latvia,2045,1
Lithuania,2045,1
Luxembourg,2045,1
Malta,2045,1
Netherlands,2045,1
Norway,2045,1
Poland,2045,1
Portugal,2045,1
Romania,2045,1
Slovakia,2045,1
Slovenia,2045,1
Spain,2045,1
Sweden,2045,1
Switzerland,2045,1
United Kingdom,2045,1
Austria,2045,2
Belgium,2045,2
Bulgaria,2045,2
Croatia,2045,2
Cyprus,2045,2
Czech Republic,2045,2
Denmark,2045,2
Estonia,2045,2
Finland,2045,2
France,2045,2
Germany,2045,2
Greece,2045,2
Hungary,2045,2
Iceland,2045,2
Ireland,2045,2
Italy,2045,2
Latvia,2045,2
Lithuania,2045,2
Luxembourg,2045,2
Malta,2045,2
Netherlands,2045,2
Norway,2045,2
Poland,2045,2
Portugal,2045,2
Romania,2045,2
Slovakia,2045,2
Slovenia,2045,2
Spain,2045,2
Sweden,2045,2
Switzerland,2045,2
United Kingdom,2045,2
Austria,2045,3
Belgium,2045,3
Bulgaria,2045,3
Croatia,2045,3
Cyprus,2045,3
Czech Republic,2045,3
Denmark,2045,3
Estonia,2045,3
Finland,2045,3
France,2045,3
Germany,2045,3
Greece,2045,3
Hungary,2045,3
Iceland,2045,3
Ireland,2045,3
Italy,2045,3
Latvia,2045,3
Lithuania,2045,3
Luxembourg,2045,3
Malta,2045,3
Netherlands,2045,3
Norway,2045,3
Poland,2045,3
Portugal,2045,3
Romania,2045,3
Slovakia,2045,3
Slovenia,2045,3
Spain,2045,3
Sweden,2045,3
Switzerland,2045,3
United Kingdom,2045,3
Austria,2045,4
Belgium,2045,4
Bulgaria,2045,4
Croatia,2045,4
Cyprus,2045,4
Czech Republic,2045,4
Denmark,2045,4
Estonia,2045,4
Finland,2045,4
France,2045,4
Germany,2045,4
Greece,2045,4
Hungary,2045,4
Iceland,2045,4
Ireland,2045,4
Italy,2045,4
Latvia,2045,4
Lithuania,2045,4
Luxembourg,2045,4
Malta,2045,4
Netherlands,2045,4
Norway,2045,4
Poland,2045,4
Portugal,2045,4
Romania,2045,4
Slovakia,2045,4
Slovenia,2045,4
Spain,2045,4
Sweden,2045,4
Switzerland,2045,4
United Kingdom,2045,4
Austria,2050,1
Belgium,2050,1
Bulgaria,2050,1
Croatia,2050,1
Cyprus,2050,1
Czech Republic,2050,1
Denmark,2050,1
Estonia,2050,1
Finland,2050,1
France,2050,1
Germany,2050,1
Greece,2050,1
Hungary,2050,1
Iceland,2050,1
Ireland,2050,1
Italy,2050,1
Latvia,2050,1
Lithuania,2050,1
Luxembourg,2050,1
Malta,2050,1
Netherlands,2050,1
Norway,2050,1
Poland,2050,1
Portugal,2050,1
Romania,2050,1
Slovakia,2050,1
Slovenia,2050,1
Spain,2050,1
Sweden,2050,1
Switzerland,2050,1
United Kingdom,2050,1
Austria,2050,2
Belgium,2050,2
Bulgaria,2050,2
Croatia,2050,2
Cyprus,2050,2
Czech Republic,2050,2
Denmark,2050,2
Estonia,2050,2
Finland,2050,2
France,2050,2
Germany,2050,2
Greece,2050,2
Hungary,2050,2
Iceland,2050,2
Ireland,2050,2
Italy,2050,2
Latvia,2050,2
Lithuania,2050,2
Luxembourg,2050,2
Malta,2050,2
Netherlands,2050,2
Norway,2050,2
Poland,2050,2
Portugal,2050,2
Romania,2050,2
Slovakia,2050,2
Slovenia,2050,2
Spain,2050,2
Sweden,2050,2
Switzerland,2050,2
United Kingdom,2050,2
Austria,2050,3
Belgium,2050,3
Bulgaria,2050,3
Croatia,2050,3
Cyprus,2050,3
Czech Republic,2050,3
Denmark,2050,3
Estonia,2050,3
Finland,2050,3
France,2050,3
Germany,2050,3
Greece,2050,3
Hungary,2050,3
Iceland,2050,3
Ireland,2050,3
Italy,2050,3
Latvia,2050,3
Lithuania,2050,3
Luxembourg,2050,3
Malta,2050,3
Netherlands,2050,3
Norway,2050,3
Poland,2050,3
Portugal,2050,3
Romania,2050,3
Slovakia,2050,3
Slovenia,2050,3
Spain,2050,3
Sweden,2050,3
Switzerland,2050,3
United Kingdom,2050,3
Austria,2050,4
Belgium,2050,4
Bulgaria,2050,4
Croatia,2050,4
Cyprus,2050,4
Czech Republic,2050,4
Denmark,2050,4
Estonia,2050,4
Finland,2050,4
France,2050,4
Germany,2050,4
Greece,2050,4
Hungary,2050,4
Iceland,2050,4
Ireland,2050,4
Italy,2050,4
Latvia,2050,4
Lithuania,2050,4
Luxembourg,2050,4
Malta,2050,4
Netherlands,2050,4
Norway,2050,4
Poland,2050,4
Portugal,2050,4
Romania,2050,4
Slovakia,2050,4
Slovenia,2050,4
Spain,2050,4
Sweden,2050,4
Switzerland,2050,4
United Kingdom,2050,4
