Years,air_exposure_other-contributions[ug/m3],Country
2005,1.79005774067385,Austria
2010,1.50529685941662,Austria
2015,1.35926392194687,Austria
2020,1.66919027858225,Austria
2025,1.6473934580541,Austria
2030,1.59252164490552,Austria
2035,1.57851690426638,Austria
2040,1.51991866260215,Austria
2045,1.47706816132379,Austria
2050,1.47980574197052,Austria
2005,4.36545829135325,Belgium
2010,3.21475338886791,Belgium
2015,2.85148066100126,Belgium
2020,2.91428510685764,Belgium
2025,2.89646705978911,Belgium
2030,2.7877772308169,Belgium
2035,2.75859984061447,Belgium
2040,2.72124803273805,Belgium
2045,2.72128360046351,Belgium
2050,2.76764146204039,Belgium
2005,1.59114394024045,Bulgaria
2010,1.16272846241738,Bulgaria
2015,1.15039164666023,Bulgaria
2020,1.15418300861129,Bulgaria
2025,1.14681359343122,Bulgaria
2030,1.13886510376131,Bulgaria
2035,1.1355015778908,Bulgaria
2040,1.11885163878206,Bulgaria
2045,1.10222114541574,Bulgaria
2050,1.10446758853703,Bulgaria
2005,1.78128742411026,Croatia
2010,1.38808583297486,Croatia
2015,1.15678432830868,Croatia
2020,1.29737350205367,Croatia
2025,1.26973654517836,Croatia
2030,1.23252233020778,Croatia
2035,1.1904623690452,Croatia
2040,1.14377802995652,Croatia
2045,1.10761913716337,Croatia
2050,1.1036434104755,Croatia
2005,0.441913012330993,Cyprus
2010,0.286931589514568,Cyprus
2015,0.248532919532448,Cyprus
2020,0.236690264154615,Cyprus
2025,0.215551729039497,Cyprus
2030,0.205041382576366,Cyprus
2035,0.205563962451101,Cyprus
2040,0.203104185000203,Cyprus
2045,0.201153258337227,Cyprus
2050,0.200258537542041,Cyprus
2005,2.20741009419038,Czech Republic
2010,1.81327195055656,Czech Republic
2015,1.69778358486676,Czech Republic
2020,2.20597494083558,Czech Republic
2025,2.24412667755859,Czech Republic
2030,2.29020614306175,Czech Republic
2035,2.14216114166851,Czech Republic
2040,1.94921212298133,Czech Republic
2045,1.8174169268627,Czech Republic
2050,1.87868535111178,Czech Republic
2005,1.2556192755949,Denmark
2010,1.03517508543255,Denmark
2015,0.866475329945429,Denmark
2020,0.891904111060595,Denmark
2025,0.875521554591994,Denmark
2030,0.839674288930493,Denmark
2035,0.822927493198014,Denmark
2040,0.803749173208447,Denmark
2045,0.809487968758998,Denmark
2050,0.820468348738035,Denmark
2005,0.492366814530156,Estonia
2010,0.426567339656996,Estonia
2015,0.388836318536474,Estonia
2020,0.479404499529149,Estonia
2025,0.472417077763449,Estonia
2030,0.458850970509805,Estonia
2035,0.451659655672536,Estonia
2040,0.443228317474903,Estonia
2045,0.451174347173863,Estonia
2050,0.454151473961499,Estonia
2005,0.51507871112192,Finland
2010,0.440823474781325,Finland
2015,0.376006091732875,Finland
2020,0.385184585429779,Finland
2025,0.375265964035361,Finland
2030,0.36050055753105,Finland
2035,0.35787731087441,Finland
2040,0.345660497295374,Finland
2045,0.345811464667487,Finland
2050,0.34597243064571,Finland
2005,2.55775100141241,France
2010,1.99024615496392,France
2015,1.7243269228188,France
2020,1.80566102376708,France
2025,1.76431315694282,France
2030,1.70759629250663,France
2035,1.68350109717492,France
2040,1.66135995410317,France
2045,1.6543051857058,France
2050,1.67139682681503,France
2005,2.50926938734837,Germany
2010,2.06993143670056,Germany
2015,1.86320325098853,Germany
2020,2.0315004192929,Germany
2025,1.97953347116817,Germany
2030,1.89055222189377,Germany
2035,1.82734007372136,Germany
2040,1.75524297145558,Germany
2045,1.70054283930348,Germany
2050,1.73557692053316,Germany
2005,2.10787116300055,Greece
2010,1.42219380398661,Greece
2015,1.28058293894925,Greece
2020,1.20507527791343,Greece
2025,1.06419321098008,Greece
2030,0.994706108570173,Greece
2035,0.979633415675582,Greece
2040,0.948762441476494,Greece
2045,0.903735676891108,Greece
2050,0.883073058253493,Greece
2005,1.91442185575021,Hungary
2010,1.46419803297048,Hungary
2015,1.35866154951022,Hungary
2020,1.52159265062823,Hungary
2025,1.50326329496162,Hungary
2030,1.46646777048645,Hungary
2035,1.41938254159565,Hungary
2040,1.37165688644361,Hungary
2045,1.32663297192599,Hungary
2050,1.32334344343645,Hungary
2005,0.825834907056913,Ireland
2010,0.615474477896855,Ireland
2015,0.448719154368804,Ireland
2020,0.434923590730503,Ireland
2025,0.421218440692866,Ireland
2030,0.388573589064055,Ireland
2035,0.376069945362552,Ireland
2040,0.36208953645217,Ireland
2045,0.354435798434503,Ireland
2050,0.353355218297949,Ireland
2005,3.46920188917543,Italy
2010,2.6791472148331,Italy
2015,2.14946513089967,Italy
2020,2.26305100163107,Italy
2025,2.14281853095093,Italy
2030,2.06869363477397,Italy
2035,2.03485971016419,Italy
2040,1.99698347944239,Italy
2045,1.97418283503766,Italy
2050,1.96739650975757,Italy
2005,0.826245214171323,Latvia
2010,0.702324145753586,Latvia
2015,0.625028703586406,Latvia
2020,0.658213784827765,Latvia
2025,0.647124584691723,Latvia
2030,0.616564417155025,Latvia
2035,0.601332489975528,Latvia
2040,0.588016049478759,Latvia
2045,0.585487387930943,Latvia
2050,0.586521091335039,Latvia
2005,1.08759553552345,Lithuania
2010,0.908737234118385,Lithuania
2015,0.813392627180324,Lithuania
2020,0.825719544087551,Lithuania
2025,0.804905696501445,Lithuania
2030,0.747741723297995,Lithuania
2035,0.713259067411151,Lithuania
2040,0.690527867586947,Lithuania
2045,0.679701208705726,Lithuania
2050,0.673548294582528,Lithuania
2005,2.97722782234181,Luxembourg
2010,2.34816670552401,Luxembourg
2015,2.06155029801458,Luxembourg
2020,2.16816061078566,Luxembourg
2025,2.14382105015392,Luxembourg
2030,2.06866282141967,Luxembourg
2035,2.0401524273188,Luxembourg
2040,2.00700765018419,Luxembourg
2045,1.99686686565036,Luxembourg
2050,2.03580714784297,Luxembourg
2005,1.18720639481176,Malta
2010,0.906486133436377,Malta
2015,0.733453171018458,Malta
2020,0.758479870231944,Malta
2025,0.723465715128514,Malta
2030,0.699513589284983,Malta
2035,0.679702983105979,Malta
2040,0.666527610669918,Malta
2045,0.657393652739153,Malta
2050,0.655770207455374,Malta
2005,3.35385472921933,Netherlands
2010,2.6218159063106,Netherlands
2015,2.2933238629197,Netherlands
2020,2.33467991343071,Netherlands
2025,2.30878852292482,Netherlands
2030,2.2079802301327,Netherlands
2035,2.16833761600347,Netherlands
2040,2.10914017785001,Netherlands
2045,2.09243906586112,Netherlands
2050,2.12422971343789,Netherlands
2005,1.94509932314276,Poland
2010,1.59617634636499,Poland
2015,1.45429021661769,Poland
2020,1.66212383083854,Poland
2025,1.62219677955425,Poland
2030,1.59260627598748,Poland
2035,1.49624370227018,Poland
2040,1.4362721898836,Poland
2045,1.40991461924607,Poland
2050,1.40885846977682,Poland
2005,1.89445338562685,Portugal
2010,1.43244873701826,Portugal
2015,1.190645100701,Portugal
2020,1.20494567041398,Portugal
2025,1.17160965110864,Portugal
2030,1.1241786507237,Portugal
2035,1.06419934797845,Portugal
2040,1.02710399346685,Portugal
2045,0.994185777675771,Portugal
2050,0.97114282417036,Portugal
2005,2.0784625490132,Romania
2010,1.35372331180035,Romania
2015,1.33556631713734,Romania
2020,1.40808952739254,Romania
2025,1.43241289120873,Romania
2030,1.425933683634,Romania
2035,1.40748929896361,Romania
2040,1.37766851390318,Romania
2045,1.35170771374466,Romania
2050,1.33440874547483,Romania
2005,1.80852347208029,Slovakia
2010,1.41212257559201,Slovakia
2015,1.31790987745472,Slovakia
2020,1.50850583679756,Slovakia
2025,1.50391388657551,Slovakia
2030,1.49379613140877,Slovakia
2035,1.43078625509766,Slovakia
2040,1.36090034717735,Slovakia
2045,1.30922191515242,Slovakia
2050,1.30923788218498,Slovakia
2005,2.02293624901973,Slovenia
2010,1.52840265368644,Slovenia
2015,1.26927571225777,Slovenia
2020,1.46695366985464,Slovenia
2025,1.44231660916506,Slovenia
2030,1.38450382978032,Slovenia
2035,1.34173321047337,Slovenia
2040,1.29237604369472,Slovenia
2045,1.25722381667305,Slovenia
2050,1.25438839441257,Slovenia
2005,1.83744989691062,Spain
2010,1.77782260001417,Spain
2015,1.68123147880596,Spain
2020,1.63120849972706,Spain
2025,1.59754141801356,Spain
2030,1.55800494698566,Spain
2035,1.51361642182107,Spain
2040,1.49844448757345,Spain
2045,1.48738790430692,Spain
2050,1.48198794793704,Spain
2005,0.662579522001438,Sweden
2010,0.56852691526435,Sweden
2015,0.487929040010724,Sweden
2020,0.496705613959413,Sweden
2025,0.494800956312678,Sweden
2030,0.482365732428062,Sweden
2035,0.476561492415805,Sweden
2040,0.465233258273699,Sweden
2045,0.463217737423355,Sweden
2050,0.465818999226675,Sweden
2005,2.07183043325455,Switzerland
2010,1.7077229281248,Switzerland
2015,1.46112354034242,Switzerland
2020,1.86738528892285,Switzerland
2025,1.76012975662966,Switzerland
2030,1.74343926600082,Switzerland
2035,1.74368930115713,Switzerland
2040,1.73512979926015,Switzerland
2045,1.73919660251149,Switzerland
2050,1.77616522700257,Switzerland
2005,2.16846756909519,United Kingdom
2010,1.81263155264326,United Kingdom
2015,1.37923094130624,United Kingdom
2020,1.2803793210112,United Kingdom
2025,1.23677549974319,United Kingdom
2030,1.1727585118288,United Kingdom
2035,1.15869593767898,United Kingdom
2040,1.12093876624602,United Kingdom
2045,1.09860991229385,United Kingdom
2050,1.10048546047766,United Kingdom
