Country,Years,ots_elc_capacity_fossil_oil[GW],ots_elc_capacity_fossil_coal[GW],ots_elc_capacity_fossil_gas[GW]
Austria,1990,0.601,2.249,2.479
Belgium,1990,0.346,5.253,1.43
Bulgaria,1990,0.305,5.289,0.794
Croatia,1990,0.0,0.0,0.0
Cyprus,1990,0.211,0.0,0.0
Czech Republic,1990,0.0,0.0,0.0
Denmark,1990,0.302,8.176,0.24
Estonia,1990,0.279,2.934,0.185
Finland,1990,0.743,4.445,2.06
France,1990,4.168,17.047,1.454
Germany,1990,2.433,75.349,9.477
Greece,1990,1.42,4.614,0.015
Hungary,1990,0.498,3.2,1.651
Ireland,1990,0.414,1.725,1.15
Italy,1990,21.439,7.463,8.287
Latvia,1990,0.0,0.0,0.0
Lithuania,1990,0.0,0.0,0.0
Luxembourg,1990,0.0,0.093,0.006
Malta,1990,0.11,0.139,0.0
Netherlands,1990,0.772,6.848,9.108
Poland,1990,0.305,25.661,0.022
Portugal,1990,1.956,1.893,0.0
Romania,1990,3.756,5.879,7.174
Slovakia,1990,0.0,0.0,0.0
Slovenia,1990,0.0,0.0,0.0
Spain,1990,2.436,17.197,0.425
Sweden,1990,2.676,3.157,0.815
Switzerland,1990,0.17,0.017,0.142
United Kingdom,1990,8.146,48.5,1.173
Austria,1991,0.681,2.377,2.281
Belgium,1991,0.465,4.916,1.588
Bulgaria,1991,0.385,5.992,0.822
Croatia,1991,0.886,0.196,0.346
Cyprus,1991,0.222,0.0,0.0
Czech Republic,1991,0.0,0.0,0.0
Denmark,1991,0.295,8.594,0.21
Estonia,1991,0.283,2.829,0.216
Finland,1991,0.481,4.612,2.235
France,1991,5.267,16.169,1.142
Germany,1991,3.447,74.119,8.442
Greece,1991,1.72,4.612,0.016
Hungary,1991,0.946,2.729,1.683
Ireland,1991,0.664,1.6,1.025
Italy,1991,23.011,7.099,8.019
Latvia,1991,0.0,0.0,0.0
Lithuania,1991,0.0,0.0,0.0
Luxembourg,1991,0.003,0.092,0.003
Malta,1991,0.175,0.125,0.0
Netherlands,1991,0.807,6.043,9.839
Poland,1991,0.307,26.031,0.021
Portugal,1991,1.98,1.929,0.0
Romania,1991,2.401,6.118,8.02
Slovakia,1991,0.0,0.0,0.0
Slovenia,1991,0.151,0.988,0.0
Spain,1991,2.871,16.896,0.382
Sweden,1991,2.782,3.431,0.706
Switzerland,1991,0.203,0.0,0.136
United Kingdom,1991,6.252,47.031,1.295
Austria,1992,0.83,2.124,2.774
Belgium,1992,0.397,4.775,1.717
Bulgaria,1992,0.393,5.848,0.898
Croatia,1992,0.782,0.218,0.429
Cyprus,1992,0.257,0.0,0.0
Czech Republic,1992,0.0,0.0,0.0
Denmark,1992,0.394,8.689,0.346
Estonia,1992,0.147,3.052,0.079
Finland,1992,0.681,4.004,2.543
France,1992,4.165,16.881,1.423
Germany,1992,3.129,72.193,7.786
Greece,1992,1.497,4.869,0.013
Hungary,1992,1.224,2.845,1.289
Ireland,1992,0.658,1.777,0.973
Italy,1992,27.353,5.894,8.362
Latvia,1992,0.039,0.0,0.49
Lithuania,1992,1.599,0.0,0.87
Luxembourg,1992,0.009,0.086,0.003
Malta,1992,0.187,0.112,0.0
Netherlands,1992,0.749,5.824,10.026
Poland,1992,0.3,26.299,0.019
Portugal,1992,2.454,1.815,0.0
Romania,1992,1.733,7.238,7.608
Slovakia,1992,0.0,0.0,0.0
Slovenia,1992,0.069,1.07,0.0
Spain,1992,3.569,16.236,0.424
Sweden,1992,3.144,3.069,0.776
Switzerland,1992,0.222,0.0,0.147
United Kingdom,1992,6.525,42.4,2.754
Austria,1993,1.164,1.595,2.9
Belgium,1993,0.374,4.777,1.738
Bulgaria,1993,0.53,5.628,0.981
Croatia,1993,0.803,0.135,0.54
Cyprus,1993,0.276,0.0,0.0
Czech Republic,1993,0.092,10.87,0.097
Denmark,1993,0.377,8.806,0.476
Estonia,1993,0.185,2.466,0.037
Finland,1993,0.637,4.761,2.53
France,1993,4.159,16.915,2.385
Germany,1993,2.394,71.168,8.207
Greece,1993,1.368,4.858,0.013
Hungary,1993,1.634,2.667,1.187
Ireland,1993,0.59,1.673,1.146
Italy,1993,28.226,5.003,9.9
Latvia,1993,0.224,0.0,0.305
Lithuania,1993,1.965,0.0,0.504
Luxembourg,1993,0.005,0.09,0.003
Malta,1993,0.18,0.12,0.0
Netherlands,1993,0.713,5.644,10.241
Poland,1993,0.327,26.732,0.019
Portugal,1993,2.013,2.286,0.0
Romania,1993,2.085,7.38,6.914
Slovakia,1993,0.606,2.477,0.455
Slovenia,1993,0.057,1.032,0.0
Spain,1993,2.613,17.36,0.326
Sweden,1993,3.347,2.99,0.892
Switzerland,1993,0.119,0.0,0.26
United Kingdom,1993,4.857,39.351,7.82
Austria,1994,0.988,1.484,3.287
Belgium,1994,0.422,5.117,2.159
Bulgaria,1994,0.541,5.742,0.855
Croatia,1994,0.642,0.044,0.843
Cyprus,1994,0.287,0.0,0.0
Czech Republic,1994,0.119,10.477,0.093
Denmark,1994,0.783,8.607,0.589
Estonia,1994,0.037,2.589,0.062
Finland,1994,0.592,5.074,2.233
France,1994,3.945,16.988,2.545
Germany,1994,2.067,69.968,9.484
Greece,1994,1.344,4.963,0.012
Hungary,1994,1.551,2.49,1.358
Ireland,1994,0.685,1.616,1.077
Italy,1994,28.204,5.561,9.893
Latvia,1994,0.374,0.0,0.154
Lithuania,1994,1.956,0.0,0.513
Luxembourg,1994,0.002,0.087,0.009
Malta,1994,0.231,0.068,0.0
Netherlands,1994,0.721,6.419,10.179
Poland,1994,0.352,27.198,0.028
Portugal,1994,1.765,2.554,0.0
Romania,1994,2.213,7.56,6.346
Slovakia,1994,0.398,2.233,0.908
Slovenia,1994,0.059,1.04,0.0
Spain,1994,2.865,17.084,0.879
Sweden,1994,3.439,2.623,0.596
Switzerland,1994,0.137,0.0,0.282
United Kingdom,1994,3.378,36.759,12.132
Austria,1995,0.728,1.781,3.069
Belgium,1995,0.321,4.743,2.505
Bulgaria,1995,0.462,5.647,1.03
Croatia,1995,1.072,0.102,0.385
Cyprus,1995,0.264,0.0,0.0
Czech Republic,1995,0.136,10.393,0.109
Denmark,1995,0.431,8.322,1.105
Estonia,1995,0.03,2.609,0.08
Finland,1995,0.599,4.837,2.753
France,1995,4.848,16.611,2.4
Germany,1995,2.113,69.771,10.164
Greece,1995,1.491,4.835,0.012
Hungary,1995,1.467,2.564,1.447
Ireland,1995,0.636,1.668,1.224
Italy,1995,28.018,6.393,10.898
Latvia,1995,0.248,0.0,0.311
Lithuania,1995,2.026,0.0,0.443
Luxembourg,1995,0.0,0.06,0.049
Malta,1995,0.284,0.015,0.0
Netherlands,1995,0.681,7.186,9.992
Poland,1995,0.308,27.049,0.051
Portugal,1995,2.029,2.65,0.0
Romania,1995,2.214,7.945,6.1
Slovakia,1995,0.234,2.22,0.755
Slovenia,1995,0.056,1.03,0.002
Spain,1995,3.719,17.067,0.952
Sweden,1995,3.173,2.361,0.535
Switzerland,1995,0.142,0.0,0.287
United Kingdom,1995,3.85,34.571,14.197
Austria,1996,0.606,1.955,2.958
Belgium,1996,0.315,4.459,2.695
Bulgaria,1996,0.437,5.722,0.979
Croatia,1996,0.862,0.053,0.603
Cyprus,1996,0.277,0.0,0.0
Czech Republic,1996,0.166,10.786,0.237
Denmark,1996,0.37,8.372,1.197
Estonia,1996,0.027,2.509,0.082
Finland,1996,0.435,5.117,2.807
France,1996,4.429,17.628,2.341
Germany,1996,1.777,67.589,10.722
Greece,1996,1.468,5.039,0.012
Hungary,1996,1.228,2.647,1.733
Ireland,1996,0.614,1.598,1.437
Italy,1996,28.896,6.248,12.384
Latvia,1996,0.308,0.0,0.251
Lithuania,1996,1.637,0.0,0.832
Luxembourg,1996,0.003,0.047,0.067
Malta,1996,0.46,0.0,0.0
Netherlands,1996,0.687,6.947,11.465
Poland,1996,0.352,27.233,0.063
Portugal,1996,1.532,3.197,0.0
Romania,1996,2.548,7.905,6.355
Slovakia,1996,0.4,2.11,0.768
Slovenia,1996,0.06,1.029,0.0
Spain,1996,4.156,16.331,2.021
Sweden,1996,3.746,2.238,0.294
Switzerland,1996,0.116,0.0,0.333
United Kingdom,1996,3.85,32.999,18.84
Austria,1997,0.766,2.198,2.714
Belgium,1997,0.353,4.065,2.88
Bulgaria,1997,0.296,6.139,0.643
Croatia,1997,0.923,0.175,0.401
Cyprus,1997,0.289,0.0,0.0
Czech Republic,1997,0.142,10.885,0.261
Denmark,1997,0.278,8.191,1.93
Estonia,1997,0.048,2.498,0.072
Finland,1997,0.588,5.636,2.944
France,1997,5.11,17.111,3.237
Germany,1997,1.562,66.568,11.318
Greece,1997,1.431,5.282,0.056
Hungary,1997,1.556,2.527,1.525
Ireland,1997,0.761,1.493,1.445
Italy,1997,28.065,6.134,15.18
Latvia,1997,0.077,0.0,0.482
Lithuania,1997,1.858,0.0,0.611
Luxembourg,1997,0.004,0.034,0.079
Malta,1997,0.46,0.0,0.0
Netherlands,1997,0.653,6.351,11.804
Poland,1997,0.382,27.455,0.042
Portugal,1997,1.626,3.132,0.02
Romania,1997,3.361,8.463,4.935
Slovakia,1997,0.264,2.566,0.869
Slovenia,1997,0.075,1.014,0.0
Spain,1997,3.51,15.933,4.525
Sweden,1997,3.403,2.503,0.553
Switzerland,1997,0.123,0.0,0.366
United Kingdom,1997,2.406,27.529,25.043
Austria,1998,0.865,1.596,2.758
Belgium,1998,0.594,3.901,3.473
Bulgaria,1998,0.298,6.119,0.662
Croatia,1998,0.996,0.149,0.374
Cyprus,1998,0.315,0.0,0.0
Czech Republic,1998,0.136,10.663,0.29
Denmark,1998,0.437,7.444,2.557
Estonia,1998,0.083,2.622,0.083
Finland,1998,0.606,4.388,4.504
France,1998,5.417,17.351,2.31
Germany,1998,1.388,65.109,11.722
Greece,1998,1.352,5.431,0.286
Hungary,1998,1.544,2.51,1.895
Ireland,1998,1.038,1.445,1.376
Italy,1998,26.633,6.905,17.591
Latvia,1998,0.121,0.0,0.438
Lithuania,1998,2.246,0.0,0.223
Luxembourg,1998,0.0,0.0,0.05
Malta,1998,0.46,0.0,0.0
Netherlands,1998,0.676,6.656,11.496
Poland,1998,0.385,27.542,0.062
Portugal,1998,2.162,2.44,0.407
Romania,1998,2.327,8.429,5.713
Slovakia,1998,0.386,2.036,0.736
Slovenia,1998,0.028,1.069,0.021
Spain,1998,4.518,16.316,4.185
Sweden,1998,2.53,2.252,0.317
Switzerland,1998,0.228,0.0,0.271
United Kingdom,1998,2.07,27.399,25.799
Austria,1999,0.817,1.678,2.863
Belgium,1999,0.255,3.105,4.768
Bulgaria,1999,0.312,5.562,0.675
Croatia,1999,0.918,0.12,0.291
Cyprus,1999,0.336,0.0,0.0
Czech Republic,1999,0.099,10.797,0.403
Denmark,1999,0.364,6.674,3.01
Estonia,1999,0.085,2.288,0.066
Finland,1999,0.433,4.503,4.463
France,1999,5.042,16.779,3.897
Germany,1999,1.293,63.897,12.208
Greece,1999,1.401,5.567,0.671
Hungary,1999,1.346,2.611,1.982
Ireland,1999,1.213,1.146,1.369
Italy,1999,22.96,7.092,21.856
Latvia,1999,0.151,0.0,0.408
Lithuania,1999,1.552,0.0,0.907
Luxembourg,1999,0.0,0.0,0.059
Malta,1999,0.569,0.0,0.0
Netherlands,1999,0.676,6.094,12.439
Poland,1999,0.391,28.02,0.128
Portugal,1999,1.882,2.588,1.379
Romania,1999,2.285,8.857,5.006
Slovakia,1999,0.098,2.12,0.911
Slovenia,1999,0.031,1.049,0.039
Spain,1999,5.221,16.117,4.07
Sweden,1999,2.723,2.723,0.342
Switzerland,1999,0.132,0.0,0.347
United Kingdom,1999,1.913,23.85,31.456
Austria,2000,0.496,2.081,3.666
Belgium,2000,0.98,2.469,5.271
Bulgaria,2000,0.139,5.662,0.681
Croatia,2000,0.765,0.374,0.722
Cyprus,2000,1.03,0.0,0.0
Czech Republic,2000,0.157,10.15,1.097
Denmark,2000,0.669,6.586,2.803
Estonia,2000,0.025,2.855,0.309
Finland,2000,1.005,5.737,3.01
France,2000,10.606,11.535,4.355
Germany,2000,7.502,53.335,23.808
Greece,2000,2.666,4.899,0.949
Hungary,2000,1.094,1.611,4.061
Ireland,2000,0.932,1.319,2.021
Italy,2000,18.217,8.5,29.594
Latvia,2000,0.056,0.131,0.428
Lithuania,2000,0.81,0.0,1.787
Luxembourg,2000,0.005,0.0,0.065
Malta,2000,0.487,0.0,0.0
Netherlands,2000,0.366,4.076,15.068
Poland,2000,0.353,29.599,0.755
Portugal,2000,3.004,2.11,1.193
Romania,2000,2.112,9.194,4.71
Slovakia,2000,0.189,1.593,0.771
Slovenia,2000,0.2,0.992,0.147
Spain,2000,6.476,12.635,8.34
Sweden,2000,4.802,0.298,0.675
Switzerland,2000,0.103,0.0,0.396
United Kingdom,2000,7.811,30.961,24.611
Austria,2001,0.495,2.081,3.927
Belgium,2001,0.959,2.045,5.542
Bulgaria,2001,0.139,5.662,0.631
Croatia,2001,0.765,0.374,0.722
Cyprus,2001,1.03,0.0,0.0
Czech Republic,2001,0.157,10.218,1.1
Denmark,2001,0.639,6.668,2.815
Estonia,2001,0.025,2.423,0.318
Finland,2001,1.003,5.964,2.988
France,2001,10.644,11.52,5.517
Germany,2001,7.215,52.226,23.704
Greece,2001,2.628,4.899,0.995
Hungary,2001,1.094,1.651,4.112
Ireland,2001,0.932,1.319,2.021
Italy,2001,17.981,7.952,30.54
Latvia,2001,0.056,0.131,0.428
Lithuania,2001,0.81,0.0,1.801
Luxembourg,2001,0.005,0.0,0.456
Malta,2001,0.487,0.0,0.0
Netherlands,2001,0.366,4.076,15.074
Poland,2001,0.353,29.59,0.806
Portugal,2001,2.943,2.11,1.219
Romania,2001,2.062,9.194,4.663
Slovakia,2001,0.189,1.703,1.102
Slovenia,2001,0.201,0.992,0.278
Spain,2001,6.49,12.635,8.93
Sweden,2001,4.802,0.298,0.675
Switzerland,2001,0.114,0.0,0.394
United Kingdom,2001,7.667,31.382,25.615
Austria,2002,0.491,1.963,3.872
Belgium,2002,0.947,1.889,5.658
Bulgaria,2002,0.139,5.662,0.606
Croatia,2002,0.765,0.374,0.722
Cyprus,2002,1.03,0.0,0.0
Czech Republic,2002,0.151,10.134,1.107
Denmark,2002,0.633,6.388,2.852
Estonia,2002,0.024,2.411,0.318
Finland,2002,0.963,5.95,2.989
France,2002,10.644,11.52,5.71
Germany,2002,6.303,54.596,24.031
Greece,2002,2.664,4.899,1.196
Hungary,2002,1.094,1.651,4.237
Ireland,2002,0.932,1.319,2.769
Italy,2002,17.81,7.952,30.772
Latvia,2002,0.056,0.131,0.44
Lithuania,2002,0.81,0.0,1.801
Luxembourg,2002,0.005,0.0,0.471
Malta,2002,0.487,0.0,0.0
Netherlands,2002,0.366,4.076,15.147
Poland,2002,0.353,29.522,1.042
Portugal,2002,2.956,2.11,1.32
Romania,2002,1.942,8.784,3.752
Slovakia,2002,0.18,1.697,1.102
Slovenia,2002,0.201,0.992,0.279
Spain,2002,5.914,12.635,12.601
Sweden,2002,3.893,0.298,0.603
Switzerland,2002,0.102,0.0,0.407
United Kingdom,2002,5.588,29.627,26.565
Austria,2003,0.488,1.936,3.873
Belgium,2003,0.92,1.889,5.694
Bulgaria,2003,0.139,5.662,0.6
Croatia,2003,0.765,0.374,0.788
Cyprus,2003,1.042,0.0,0.0
Czech Republic,2003,0.152,10.103,1.107
Denmark,2003,0.626,6.388,2.872
Estonia,2003,0.024,2.362,0.318
Finland,2003,0.963,5.902,2.987
France,2003,10.641,11.518,5.728
Germany,2003,5.452,51.528,22.595
Greece,2003,2.755,5.229,1.196
Hungary,2003,0.859,1.646,4.24
Ireland,2003,0.922,1.319,2.899
Italy,2003,18.021,7.952,31.953
Latvia,2003,0.056,0.131,0.445
Lithuania,2003,0.81,0.0,1.801
Luxembourg,2003,0.004,0.0,0.475
Malta,2003,0.487,0.0,0.0
Netherlands,2003,0.366,3.841,15.15
Poland,2003,0.353,29.972,1.372
Portugal,2003,3.014,2.11,1.393
Romania,2003,1.942,8.584,3.698
Slovakia,2003,0.193,1.715,1.102
Slovenia,2003,0.195,0.992,0.288
Spain,2003,6.141,12.635,18.357
Sweden,2003,4.443,0.298,0.603
Switzerland,2003,0.107,0.0,0.402
United Kingdom,2003,5.438,29.627,28.587
Austria,2004,0.488,1.936,4.046
Belgium,2004,0.892,1.889,5.723
Bulgaria,2004,0.139,5.662,0.605
Croatia,2004,0.765,0.374,0.791
Cyprus,2004,1.042,0.0,0.0
Czech Republic,2004,0.153,10.175,1.109
Denmark,2004,0.623,6.388,2.917
Estonia,2004,0.024,2.577,0.318
Finland,2004,0.952,5.792,2.907
France,2004,10.625,11.518,5.736
Germany,2004,5.434,51.753,24.096
Greece,2004,2.736,5.229,1.456
Hungary,2004,0.834,1.642,4.537
Ireland,2004,0.922,1.289,2.955
Italy,2004,18.088,7.152,35.659
Latvia,2004,0.056,0.081,0.499
Lithuania,2004,0.81,0.0,1.801
Luxembourg,2004,0.004,0.0,0.477
Malta,2004,0.487,0.0,0.0
Netherlands,2004,0.366,3.841,15.799
Poland,2004,0.353,30.215,1.372
Portugal,2004,2.993,2.11,2.238
Romania,2004,1.942,8.584,3.958
Slovakia,2004,0.193,1.714,1.159
Slovenia,2004,0.195,0.987,0.288
Spain,2004,5.834,12.635,18.426
Sweden,2004,4.432,0.298,0.606
Switzerland,2004,0.089,0.0,0.439
United Kingdom,2004,5.341,29.567,31.003
Austria,2005,0.479,1.927,4.064
Belgium,2005,0.791,1.889,6.116
Bulgaria,2005,0.139,5.662,0.641
Croatia,2005,0.753,0.374,0.791
Cyprus,2005,1.172,0.0,0.0
Czech Republic,2005,0.153,10.118,1.103
Denmark,2005,0.661,6.388,2.931
Estonia,2005,0.024,2.545,0.318
Finland,2005,0.915,5.724,2.908
France,2005,10.088,10.091,6.504
Germany,2005,4.881,49.653,25.368
Greece,2005,2.825,5.229,2.256
Hungary,2005,0.732,1.575,4.629
Ireland,2005,0.922,1.339,3.115
Italy,2005,16.406,6.852,40.884
Latvia,2005,0.056,0.0,0.585
Lithuania,2005,0.81,0.0,1.794
Luxembourg,2005,0.004,0.0,0.477
Malta,2005,0.487,0.0,0.0
Netherlands,2005,0.366,3.841,15.28
Poland,2005,0.353,30.238,1.599
Portugal,2005,2.913,2.11,2.289
Romania,2005,1.892,8.092,3.679
Slovakia,2005,0.193,1.714,1.159
Slovenia,2005,0.195,0.987,0.304
Spain,2005,5.718,12.635,24.064
Sweden,2005,4.305,0.279,0.518
Switzerland,2005,0.1,0.0,0.409
United Kingdom,2005,5.344,29.567,32.025
Austria,2006,0.478,1.577,4.289
Belgium,2006,0.779,1.889,6.135
Bulgaria,2006,0.139,5.662,0.585
Croatia,2006,0.745,0.374,0.795
Cyprus,2006,1.177,0.0,0.001
Czech Republic,2006,0.153,10.168,1.11
Denmark,2006,0.656,6.382,2.917
Estonia,2006,0.024,2.545,0.318
Finland,2006,0.94,5.742,2.909
France,2006,9.966,9.592,6.324
Germany,2006,4.809,49.626,25.893
Greece,2006,2.81,5.229,2.244
Hungary,2006,0.727,1.575,4.653
Ireland,2006,0.922,1.339,3.167
Italy,2006,16.35,6.852,44.678
Latvia,2006,0.044,0.0,0.587
Lithuania,2006,0.81,0.0,1.799
Luxembourg,2006,0.004,0.0,0.479
Malta,2006,0.603,0.0,0.0
Netherlands,2006,0.326,3.841,15.834
Poland,2006,0.353,30.219,1.6
Portugal,2006,2.92,2.11,2.707
Romania,2006,1.897,8.114,3.697
Slovakia,2006,0.187,1.697,1.154
Slovenia,2006,0.195,0.987,0.31
Spain,2006,5.706,12.58,27.115
Sweden,2006,4.293,0.279,1.253
Switzerland,2006,0.092,0.0,0.377
United Kingdom,2006,5.424,29.567,33.329
Austria,2007,0.462,1.432,4.296
Belgium,2007,0.777,1.768,6.192
Bulgaria,2007,0.139,5.662,0.656
Croatia,2007,0.745,0.374,0.795
Cyprus,2007,1.177,0.0,0.001
Czech Republic,2007,0.15,10.26,1.125
Denmark,2007,0.787,6.382,2.927
Estonia,2007,0.024,2.545,0.318
Finland,2007,0.94,5.732,2.909
France,2007,9.962,9.581,6.258
Germany,2007,4.796,49.615,27.624
Greece,2007,2.797,5.229,2.254
Hungary,2007,0.624,1.555,4.692
Ireland,2007,0.922,1.289,3.958
Italy,2007,14.948,6.852,49.361
Latvia,2007,0.02,0.005,0.577
Lithuania,2007,0.81,0.0,1.809
Luxembourg,2007,0.004,0.0,0.48
Malta,2007,0.603,0.0,0.0
Netherlands,2007,0.227,3.841,16.51
Poland,2007,0.353,30.191,1.596
Portugal,2007,2.821,2.11,2.723
Romania,2007,1.898,8.114,3.725
Slovakia,2007,0.175,1.603,1.154
Slovenia,2007,0.18,0.987,0.31
Spain,2007,5.703,12.208,31.387
Sweden,2007,4.293,0.279,1.253
Switzerland,2007,0.09,0.0,0.389
United Kingdom,2007,5.436,29.567,33.343
Austria,2008,0.462,1.432,5.1
Belgium,2008,0.769,1.768,6.493
Bulgaria,2008,0.138,5.73,0.643
Croatia,2008,0.745,0.374,0.795
Cyprus,2008,1.177,0.0,0.007
Czech Republic,2008,0.15,10.06,1.175
Denmark,2008,0.781,6.369,2.918
Estonia,2008,0.024,2.545,0.318
Finland,2008,0.495,4.963,2.898
France,2008,10.214,9.191,6.205
Germany,2008,4.862,51.379,29.065
Greece,2008,2.847,5.229,2.604
Hungary,2008,0.624,1.555,4.622
Ireland,2008,0.909,1.239,3.789
Italy,2008,13.22,8.832,52.889
Latvia,2008,0.02,0.005,0.6
Lithuania,2008,0.81,0.0,1.854
Luxembourg,2008,0.004,0.0,0.483
Malta,2008,0.603,0.0,0.0
Netherlands,2008,0.227,3.841,16.626
Poland,2008,0.353,30.178,1.531
Portugal,2008,2.815,2.11,2.738
Romania,2008,1.898,8.064,3.628
Slovakia,2008,0.175,1.603,1.154
Slovenia,2008,0.082,0.957,0.378
Spain,2008,4.488,12.128,33.057
Sweden,2008,4.21,0.279,1.253
Switzerland,2008,0.069,0.0,0.43
United Kingdom,2008,5.411,29.567,33.775
Austria,2009,0.455,1.432,5.1
Belgium,2009,0.768,1.488,6.919
Bulgaria,2009,0.138,5.94,0.554
Croatia,2009,0.745,0.374,0.894
Cyprus,2009,1.448,0.0,0.008
Czech Republic,2009,0.137,10.244,1.175
Denmark,2009,0.778,6.369,2.916
Estonia,2009,0.024,2.534,0.318
Finland,2009,0.486,4.652,2.897
France,2009,10.573,9.186,7.362
Germany,2009,4.822,52.314,29.661
Greece,2009,2.919,5.229,2.649
Hungary,2009,0.511,1.525,4.882
Ireland,2009,0.893,1.239,3.785
Italy,2009,13.173,8.762,53.669
Latvia,2009,0.02,0.028,0.95
Lithuania,2009,0.82,0.0,1.857
Luxembourg,2009,0.004,0.0,0.483
Malta,2009,0.603,0.0,0.0
Netherlands,2009,0.151,3.841,17.707
Poland,2009,0.353,30.257,1.626
Portugal,2009,2.724,2.11,3.848
Romania,2009,1.898,8.014,3.43
Slovakia,2009,0.175,1.603,1.154
Slovenia,2009,0.082,0.957,0.382
Spain,2009,4.48,12.128,33.003
Sweden,2009,4.21,0.279,1.252
Switzerland,2009,0.058,0.0,0.431
United Kingdom,2009,5.386,29.567,34.652
Austria,2010,0.417,1.405,5.259
Belgium,2010,0.461,1.212,7.533
Bulgaria,2010,0.208,5.711,0.521
Croatia,2010,0.745,0.374,0.888
Cyprus,2010,1.505,0.0,0.008
Czech Republic,2010,0.159,10.248,1.236
Denmark,2010,0.774,6.121,2.871
Estonia,2010,0.043,2.534,0.318
Finland,2010,0.574,4.639,2.808
France,2010,10.395,8.854,9.54
Germany,2010,4.784,53.155,30.834
Greece,2010,2.874,5.229,3.083
Hungary,2010,0.523,1.469,4.899
Ireland,2010,1.059,1.239,4.403
Italy,2010,13.158,8.762,55.376
Latvia,2010,0.02,0.028,0.966
Lithuania,2010,0.83,0.0,1.857
Luxembourg,2010,0.004,0.0,0.483
Malta,2010,0.603,0.0,0.0
Netherlands,2010,0.151,3.841,19.174
Poland,2010,0.353,30.115,1.64
Portugal,2010,2.692,2.11,4.657
Romania,2010,1.899,8.014,3.407
Slovakia,2010,0.175,1.603,1.703
Slovenia,2010,0.068,0.927,0.382
Spain,2010,4.275,12.128,36.009
Sweden,2010,4.185,0.279,1.113
Switzerland,2010,0.031,0.0,0.518
United Kingdom,2010,5.399,29.567,39.89
Austria,2011,0.415,1.405,6.108
Belgium,2011,0.461,1.212,8.234
Bulgaria,2011,0.208,6.319,0.59
Croatia,2011,0.745,0.374,0.888
Cyprus,2011,1.565,0.0,0.009
Czech Republic,2011,0.156,10.405,1.237
Denmark,2011,0.774,6.121,2.859
Estonia,2011,0.043,2.534,0.318
Finland,2011,0.453,4.782,2.797
France,2011,9.577,7.732,9.783
Germany,2011,4.629,56.573,31.261
Greece,2011,2.82,4.866,3.958
Hungary,2011,0.522,1.409,5.495
Ireland,2011,1.059,1.239,4.412
Italy,2011,13.03,8.762,56.885
Latvia,2011,0.02,0.028,0.972
Lithuania,2011,0.83,0.0,1.912
Luxembourg,2011,0.004,0.0,0.484
Malta,2011,0.603,0.0,0.001
Netherlands,2011,0.151,3.841,20.244
Poland,2011,0.298,30.48,1.642
Portugal,2011,2.565,1.88,5.082
Romania,2011,1.599,7.759,3.913
Slovakia,2011,0.162,1.603,1.709
Slovenia,2011,0.067,0.927,0.392
Spain,2011,4.117,12.128,35.466
Sweden,2011,3.717,0.279,1.051
Switzerland,2011,0.027,0.0,0.512
United Kingdom,2011,5.363,29.267,38.387
Austria,2012,0.377,1.405,6.104
Belgium,2012,0.43,0.937,7.753
Bulgaria,2012,0.19,6.244,0.601
Croatia,2012,0.745,0.374,0.888
Cyprus,2012,1.495,0.0,0.009
Czech Republic,2012,0.153,10.128,1.517
Denmark,2012,0.771,6.013,2.822
Estonia,2012,0.043,2.45,0.418
Finland,2012,0.603,4.828,2.818
France,2012,9.483,7.699,10.478
Germany,2012,4.608,57.073,31.152
Greece,2012,2.59,4.866,4.395
Hungary,2012,0.522,1.354,5.281
Ireland,2012,0.999,1.239,4.292
Italy,2012,13.012,9.422,57.079
Latvia,2012,0.02,0.028,1.014
Lithuania,2012,0.83,0.0,2.382
Luxembourg,2012,0.004,0.0,0.484
Malta,2012,0.749,0.0,0.002
Netherlands,2012,0.151,3.841,20.013
Poland,2012,0.298,30.41,1.649
Portugal,2012,2.282,1.88,5.086
Romania,2012,1.405,7.759,4.377
Slovakia,2012,0.162,1.603,1.709
Slovenia,2012,0.063,0.927,0.392
Spain,2012,4.109,12.128,35.456
Sweden,2012,3.717,0.279,1.048
Switzerland,2012,0.024,0.0,0.484
United Kingdom,2012,3.889,27.867,40.764
Austria,2013,0.374,1.405,6.097
Belgium,2013,0.426,0.637,7.465
Bulgaria,2013,0.184,6.178,0.601
Croatia,2013,0.701,0.374,0.888
Cyprus,2013,1.59,0.0,0.01
Czech Republic,2013,0.153,10.058,1.795
Denmark,2013,0.461,5.251,2.713
Estonia,2013,0.043,2.45,0.398
Finland,2013,0.753,4.828,2.758
France,2013,8.997,6.047,10.92
Germany,2013,4.593,57.973,32.028
Greece,2013,2.509,4.566,4.813
Hungary,2013,0.515,1.277,4.195
Ireland,2013,0.999,1.239,4.292
Italy,2013,12.219,8.297,56.982
Latvia,2013,0.02,0.028,1.253
Lithuania,2013,0.83,0.0,2.382
Luxembourg,2013,0.004,0.0,0.484
Malta,2013,0.656,0.0,0.002
Netherlands,2013,0.041,3.841,19.966
Poland,2013,0.298,30.078,1.652
Portugal,2013,2.059,1.88,5.086
Romania,2013,0.995,7.559,4.385
Slovakia,2013,0.162,1.603,1.709
Slovenia,2013,0.048,0.927,0.393
Spain,2013,3.975,12.128,35.407
Sweden,2013,3.305,0.279,1.038
Switzerland,2013,0.028,0.0,0.571
United Kingdom,2013,2.834,22.161,40.864
Austria,2014,0.374,1.405,5.698
Belgium,2014,0.413,0.637,7.157
Bulgaria,2014,0.184,5.758,0.606
Croatia,2014,0.701,0.374,0.888
Cyprus,2014,1.59,0.0,0.01
Czech Republic,2014,0.153,9.816,2.875
Denmark,2014,0.459,5.251,2.446
Estonia,2014,0.289,2.262,0.398
Finland,2014,0.671,4.823,2.323
France,2014,8.424,4.707,10.795
Germany,2014,4.592,58.753,36.178
Greece,2014,2.469,4.266,4.813
Hungary,2014,0.515,1.037,4.595
Ireland,2014,0.879,1.239,4.549
Italy,2014,9.673,7.481,56.531
Latvia,2014,0.02,0.028,1.253
Lithuania,2014,0.83,0.0,2.082
Luxembourg,2014,0.004,0.0,0.484
Malta,2014,0.656,0.0,0.002
Netherlands,2014,0.041,4.331,19.408
Poland,2014,0.243,29.945,1.61
Portugal,2014,1.979,1.88,5.086
Romania,2014,0.995,7.559,4.367
Slovakia,2014,0.162,1.439,1.478
Slovenia,2014,0.041,0.927,0.393
Spain,2014,3.907,12.116,35.357
Sweden,2014,3.305,0.279,1.038
Switzerland,2014,0.028,0.0,0.621
United Kingdom,2014,2.426,22.161,39.244
Austria,2015,0.363,1.405,5.583
Belgium,2015,0.278,0.637,7.147
Bulgaria,2015,0.184,5.188,0.606
Croatia,2015,0.701,0.374,1.133
Cyprus,2015,1.59,0.0,0.01
Czech Republic,2015,0.153,9.702,2.873
Denmark,2015,0.432,5.251,2.265
Estonia,2015,0.289,2.08,0.396
Finland,2015,0.625,4.743,2.405
France,2015,8.348,4.646,10.77
Germany,2015,4.524,59.578,36.002
Greece,2015,1.816,4.016,5.624
Hungary,2015,0.471,0.982,4.638
Ireland,2015,0.819,1.239,4.819
Italy,2015,7.682,6.289,53.801
Latvia,2015,0.02,0.028,1.257
Lithuania,2015,0.75,0.0,1.517
Luxembourg,2015,0.004,0.0,0.483
Malta,2015,0.625,0.0,0.003
Netherlands,2015,0.018,5.131,19.782
Poland,2015,0.213,29.286,2.559
Portugal,2015,1.865,1.88,5.095
Romania,2015,0.995,7.559,4.207
Slovakia,2015,0.162,1.109,1.479
Slovenia,2015,0.113,0.724,0.392
Spain,2015,3.655,12.116,35.209
Sweden,2015,2.974,0.279,1.026
Switzerland,2015,0.028,0.0,0.6
United Kingdom,2015,2.335,17.62,39.331
