Years,Country,fts_tec_fuel-price_gas-bio-biogas[USD/TWh],fts_tec_fuel-price_gas-ff-natural[USD/Mbtu],fts_tec_fuel-price_liquid-ff-oil[USD/bbl],fts_tec_fuel-price_solid-bio-fuelwood[USD/TWh],fts_tec_fuel-price_solid-ff-coal[USD/t]
2015,Europe,85481226.41982727,10.133333333333335,115.69770580296895,14148325.519091964,125.80296896086372
2020,Europe,85481226.41982727,10.3,118.74089068825909,14148325.519091973,120.68825910931173
2025,Europe,85481226.41982727,10.466666666666667,121.78407557354922,14148325.519091982,115.57354925775974
2030,Europe,85481226.41982727,10.633333333333333,124.82726045883935,14148325.519091992,110.45883940620774
2035,Europe,85481226.41982727,10.799999999999999,127.87044534412948,14148325.519092001,105.34412955465575
2040,Europe,85481226.41982727,10.966666666666665,130.91363022941968,14148325.51909201,100.22941970310376
2045,Europe,85481226.41982727,11.133333333333331,133.95681511470988,14148325.51909202,95.11470985155177
2050,Europe,85481226.41982727,11.299999999999997,137.00000000000009,14148325.519092029,89.99999999999977
