Country,ots_ind_technology-share_steel_BF-BOF[%],Years,ots_ind_technology-share_steel_scrap-EAF[%],ots_ind_technology-share_steel_hisarna[%],ots_ind_technology-share_steel_hydrog-DRI[%],ots_ind_technology-share_cement_dry-kiln[%],ots_ind_technology-share_cement_wet-kiln[%],ots_ind_technology-share_cement_geopolym[%],ots_ind_technology-share_ammonia_amm-tech[%],ots_ind_technology-share_chem_chem-tech[%],ots_ind_technology-share_paper_woodpulp[%],ots_ind_technology-share_paper_recycled[%],ots_ind_technology-share_aluminium_prim[%],ots_ind_technology-share_aluminium_sec[%],ots_ind_technology-share_glass_glass[%],ots_ind_technology-share_lime_lime[%],ots_ind_technology-share_tra-equip_tech[%],ots_ind_technology-share_fbt_tech[%],ots_ind_technology-share_textiles_tech[%],ots_ind_technology-share_mae_tech[%],ots_ind_technology-share_wwp_tech[%],ots_ind_technology-share_ois_tech[%],ots_ind_technology-share_copper_tech[%]
Austria,0.913,1990,0.087,0.0,0.0,1.0,0.0,0.0,1.0,1.0,0.45999999999999996,0.54,0.0,1.0,1.0,1.0,1.0,1.0,1.0,1.0,1.0,1.0,1.0
Belgium,0.663,1990,0.337,0.0,0.0,0.91,0.09,0.0,1.0,1.0,0.45999999999999996,0.54,0.0,0.0,1.0,1.0,1.0,1.0,1.0,1.0,1.0,1.0,1.0
Bulgaria,0.0,1990,1.0,0.0,0.0,0.91,0.09,0.0,1.0,1.0,0.45999999999999996,0.54,0.0,1.0,1.0,1.0,1.0,1.0,1.0,1.0,1.0,1.0,1.0
Croatia,0.0,1990,1.0,0.0,0.0,0.91,0.09,0.0,1.0,1.0,0.45999999999999996,0.54,0.0,1.0,1.0,1.0,1.0,1.0,1.0,1.0,1.0,1.0,1.0
Cyprus,0.0,1990,0.0,0.0,0.0,0.91,0.09,0.0,1.0,1.0,0.45999999999999996,0.54,0.0,0.0,1.0,1.0,1.0,1.0,1.0,1.0,1.0,1.0,1.0
Czech Republic,0.9319999999999999,1990,0.068,0.0,0.0,1.0,0.0,0.0,1.0,1.0,0.45999999999999996,0.54,0.0,1.0,1.0,1.0,1.0,1.0,1.0,1.0,1.0,1.0,1.0
Denmark,0.0,1990,0.0,0.0,0.0,0.91,0.09,0.0,1.0,1.0,0.45999999999999996,0.54,0.0,0.0,1.0,1.0,1.0,1.0,1.0,1.0,1.0,1.0,1.0
Estonia,0.0,1990,0.0,0.0,0.0,0.91,0.09,0.0,1.0,1.0,0.45999999999999996,0.54,0.0,0.0,1.0,1.0,1.0,1.0,1.0,1.0,1.0,1.0,1.0
Finland,0.6579999999999999,1990,0.342,0.0,0.0,0.91,0.09,0.0,1.0,1.0,0.45999999999999996,0.54,0.0,1.0,1.0,1.0,1.0,1.0,1.0,1.0,1.0,1.0,1.0
France,0.656,1990,0.344,0.0,0.0,0.73,0.27,0.0,1.0,1.0,0.45999999999999996,0.54,0.614,0.386,1.0,1.0,1.0,1.0,1.0,1.0,1.0,1.0,1.0
Germany,0.704,1990,0.296,0.0,0.0,1.0,0.0,0.0,1.0,1.0,0.45999999999999996,0.54,0.43700000000000006,0.563,1.0,1.0,1.0,1.0,1.0,1.0,1.0,1.0,1.0
Greece,0.0,1990,1.0,0.0,0.0,0.91,0.09,0.0,1.0,1.0,0.45999999999999996,0.54,0.988,0.012,1.0,1.0,1.0,1.0,1.0,1.0,1.0,1.0,1.0
Hungary,0.9,1990,0.1,0.0,0.0,0.91,0.09,0.0,1.0,1.0,0.45999999999999996,0.54,0.11699999999999999,0.883,1.0,1.0,1.0,1.0,1.0,1.0,1.0,1.0,1.0
Ireland,0.0,1990,0.0,0.0,0.0,0.91,0.09,0.0,1.0,1.0,0.45999999999999996,0.54,0.0,0.0,1.0,1.0,1.0,1.0,1.0,1.0,1.0,1.0,1.0
Italy,0.21799999999999997,1990,0.782,0.0,0.0,1.0,0.0,0.0,1.0,1.0,0.45999999999999996,0.54,0.09899999999999998,0.901,1.0,1.0,1.0,1.0,1.0,1.0,1.0,1.0,1.0
Latvia,0.0,1990,0.0,0.0,0.0,0.91,0.09,0.0,1.0,1.0,0.45999999999999996,0.54,0.0,0.0,1.0,1.0,1.0,1.0,1.0,1.0,1.0,1.0,1.0
Lithuania,0.0,1990,0.0,0.0,0.0,0.91,0.09,0.0,1.0,1.0,0.45999999999999996,0.54,0.0,0.0,1.0,1.0,1.0,1.0,1.0,1.0,1.0,1.0,1.0
Luxembourg,0.0,1990,1.0,0.0,0.0,0.91,0.09,0.0,1.0,1.0,0.45999999999999996,0.54,0.0,0.0,1.0,1.0,1.0,1.0,1.0,1.0,1.0,1.0,1.0
Malta,0.0,1990,0.0,0.0,0.0,0.91,0.09,0.0,1.0,1.0,0.45999999999999996,0.54,0.0,0.0,1.0,1.0,1.0,1.0,1.0,1.0,1.0,1.0,1.0
Netherlands,0.985,1990,0.015,0.0,0.0,0.91,0.09,0.0,1.0,1.0,0.45999999999999996,0.54,0.825,0.175,1.0,1.0,1.0,1.0,1.0,1.0,1.0,1.0,1.0
Poland,0.5780000000000001,1990,0.422,0.0,0.0,1.0,0.0,0.0,1.0,1.0,0.45999999999999996,0.54,0.776,0.224,1.0,1.0,1.0,1.0,1.0,1.0,1.0,1.0,1.0
Portugal,0.0,1990,1.0,0.0,0.0,0.91,0.09,0.0,1.0,1.0,0.45999999999999996,0.54,0.0,1.0,1.0,1.0,1.0,1.0,1.0,1.0,1.0,1.0,1.0
Romania,0.597,1990,0.403,0.0,0.0,0.91,0.09,0.0,1.0,1.0,0.45999999999999996,0.54,0.931,0.069,1.0,1.0,1.0,1.0,1.0,1.0,1.0,1.0,1.0
Slovakia,0.929,1990,0.071,0.0,0.0,0.91,0.09,0.0,1.0,1.0,0.45999999999999996,0.54,1.0,0.0,1.0,1.0,1.0,1.0,1.0,1.0,1.0,1.0,1.0
Slovenia,0.0,1990,1.0,0.0,0.0,0.91,0.09,0.0,1.0,1.0,0.45999999999999996,0.54,0.8200000000000001,0.18,1.0,1.0,1.0,1.0,1.0,1.0,1.0,1.0,1.0
Spain,0.31699999999999995,1990,0.683,0.0,0.0,1.0,0.0,0.0,1.0,1.0,0.45999999999999996,0.54,0.6599999999999999,0.34,1.0,1.0,1.0,1.0,1.0,1.0,1.0,1.0,1.0
Sweden,0.661,1990,0.339,0.0,0.0,0.91,0.09,0.0,1.0,1.0,0.45999999999999996,0.54,0.772,0.228,1.0,1.0,1.0,1.0,1.0,1.0,1.0,1.0,1.0
Switzerland,0.0,1990,0.0,0.0,0.0,0.91,0.09,0.0,1.0,1.0,0.45999999999999996,0.54,0.0,1.0,1.0,1.0,1.0,1.0,1.0,1.0,1.0,1.0,1.0
United Kingdom,0.838,1990,0.162,0.0,0.0,1.0,0.0,0.0,1.0,1.0,0.45999999999999996,0.54,0.483,0.517,1.0,1.0,1.0,1.0,1.0,1.0,1.0,1.0,1.0
Austria,0.913,1991,0.087,0.0,0.0,1.0,0.0,0.0,1.0,1.0,0.45999999999999996,0.54,0.0,1.0,1.0,1.0,1.0,1.0,1.0,1.0,1.0,1.0,1.0
Belgium,0.663,1991,0.337,0.0,0.0,0.91,0.09,0.0,1.0,1.0,0.45999999999999996,0.54,0.0,0.0,1.0,1.0,1.0,1.0,1.0,1.0,1.0,1.0,1.0
Bulgaria,0.0,1991,1.0,0.0,0.0,0.91,0.09,0.0,1.0,1.0,0.45999999999999996,0.54,0.0,1.0,1.0,1.0,1.0,1.0,1.0,1.0,1.0,1.0,1.0
Croatia,0.0,1991,1.0,0.0,0.0,0.91,0.09,0.0,1.0,1.0,0.45999999999999996,0.54,0.0,1.0,1.0,1.0,1.0,1.0,1.0,1.0,1.0,1.0,1.0
Cyprus,0.0,1991,0.0,0.0,0.0,0.91,0.09,0.0,1.0,1.0,0.45999999999999996,0.54,0.0,0.0,1.0,1.0,1.0,1.0,1.0,1.0,1.0,1.0,1.0
Czech Republic,0.9319999999999999,1991,0.068,0.0,0.0,1.0,0.0,0.0,1.0,1.0,0.45999999999999996,0.54,0.0,1.0,1.0,1.0,1.0,1.0,1.0,1.0,1.0,1.0,1.0
Denmark,0.0,1991,0.0,0.0,0.0,0.91,0.09,0.0,1.0,1.0,0.45999999999999996,0.54,0.0,0.0,1.0,1.0,1.0,1.0,1.0,1.0,1.0,1.0,1.0
Estonia,0.0,1991,0.0,0.0,0.0,0.91,0.09,0.0,1.0,1.0,0.45999999999999996,0.54,0.0,0.0,1.0,1.0,1.0,1.0,1.0,1.0,1.0,1.0,1.0
Finland,0.6579999999999999,1991,0.342,0.0,0.0,0.91,0.09,0.0,1.0,1.0,0.45999999999999996,0.54,0.0,1.0,1.0,1.0,1.0,1.0,1.0,1.0,1.0,1.0,1.0
France,0.656,1991,0.344,0.0,0.0,0.73,0.27,0.0,1.0,1.0,0.45999999999999996,0.54,0.614,0.386,1.0,1.0,1.0,1.0,1.0,1.0,1.0,1.0,1.0
Germany,0.704,1991,0.296,0.0,0.0,1.0,0.0,0.0,1.0,1.0,0.45999999999999996,0.54,0.43700000000000006,0.563,1.0,1.0,1.0,1.0,1.0,1.0,1.0,1.0,1.0
Greece,0.0,1991,1.0,0.0,0.0,0.91,0.09,0.0,1.0,1.0,0.45999999999999996,0.54,0.988,0.012,1.0,1.0,1.0,1.0,1.0,1.0,1.0,1.0,1.0
Hungary,0.9,1991,0.1,0.0,0.0,0.91,0.09,0.0,1.0,1.0,0.45999999999999996,0.54,0.11699999999999999,0.883,1.0,1.0,1.0,1.0,1.0,1.0,1.0,1.0,1.0
Ireland,0.0,1991,0.0,0.0,0.0,0.91,0.09,0.0,1.0,1.0,0.45999999999999996,0.54,0.0,0.0,1.0,1.0,1.0,1.0,1.0,1.0,1.0,1.0,1.0
Italy,0.21799999999999997,1991,0.782,0.0,0.0,1.0,0.0,0.0,1.0,1.0,0.45999999999999996,0.54,0.09899999999999998,0.901,1.0,1.0,1.0,1.0,1.0,1.0,1.0,1.0,1.0
Latvia,0.0,1991,0.0,0.0,0.0,0.91,0.09,0.0,1.0,1.0,0.45999999999999996,0.54,0.0,0.0,1.0,1.0,1.0,1.0,1.0,1.0,1.0,1.0,1.0
Lithuania,0.0,1991,0.0,0.0,0.0,0.91,0.09,0.0,1.0,1.0,0.45999999999999996,0.54,0.0,0.0,1.0,1.0,1.0,1.0,1.0,1.0,1.0,1.0,1.0
Luxembourg,0.0,1991,1.0,0.0,0.0,0.91,0.09,0.0,1.0,1.0,0.45999999999999996,0.54,0.0,0.0,1.0,1.0,1.0,1.0,1.0,1.0,1.0,1.0,1.0
Malta,0.0,1991,0.0,0.0,0.0,0.91,0.09,0.0,1.0,1.0,0.45999999999999996,0.54,0.0,0.0,1.0,1.0,1.0,1.0,1.0,1.0,1.0,1.0,1.0
Netherlands,0.985,1991,0.015,0.0,0.0,0.91,0.09,0.0,1.0,1.0,0.45999999999999996,0.54,0.825,0.175,1.0,1.0,1.0,1.0,1.0,1.0,1.0,1.0,1.0
Poland,0.5780000000000001,1991,0.422,0.0,0.0,1.0,0.0,0.0,1.0,1.0,0.45999999999999996,0.54,0.776,0.224,1.0,1.0,1.0,1.0,1.0,1.0,1.0,1.0,1.0
Portugal,0.0,1991,1.0,0.0,0.0,0.91,0.09,0.0,1.0,1.0,0.45999999999999996,0.54,0.0,1.0,1.0,1.0,1.0,1.0,1.0,1.0,1.0,1.0,1.0
Romania,0.597,1991,0.403,0.0,0.0,0.91,0.09,0.0,1.0,1.0,0.45999999999999996,0.54,0.931,0.069,1.0,1.0,1.0,1.0,1.0,1.0,1.0,1.0,1.0
Slovakia,0.929,1991,0.071,0.0,0.0,0.91,0.09,0.0,1.0,1.0,0.45999999999999996,0.54,1.0,0.0,1.0,1.0,1.0,1.0,1.0,1.0,1.0,1.0,1.0
Slovenia,0.0,1991,1.0,0.0,0.0,0.91,0.09,0.0,1.0,1.0,0.45999999999999996,0.54,0.8200000000000001,0.18,1.0,1.0,1.0,1.0,1.0,1.0,1.0,1.0,1.0
Spain,0.31699999999999995,1991,0.683,0.0,0.0,1.0,0.0,0.0,1.0,1.0,0.45999999999999996,0.54,0.6599999999999999,0.34,1.0,1.0,1.0,1.0,1.0,1.0,1.0,1.0,1.0
Sweden,0.661,1991,0.339,0.0,0.0,0.91,0.09,0.0,1.0,1.0,0.45999999999999996,0.54,0.772,0.228,1.0,1.0,1.0,1.0,1.0,1.0,1.0,1.0,1.0
Switzerland,0.0,1991,0.0,0.0,0.0,0.91,0.09,0.0,1.0,1.0,0.45999999999999996,0.54,0.0,1.0,1.0,1.0,1.0,1.0,1.0,1.0,1.0,1.0,1.0
United Kingdom,0.838,1991,0.162,0.0,0.0,1.0,0.0,0.0,1.0,1.0,0.45999999999999996,0.54,0.483,0.517,1.0,1.0,1.0,1.0,1.0,1.0,1.0,1.0,1.0
Austria,0.913,1992,0.087,0.0,0.0,1.0,0.0,0.0,1.0,1.0,0.45999999999999996,0.54,0.0,1.0,1.0,1.0,1.0,1.0,1.0,1.0,1.0,1.0,1.0
Belgium,0.663,1992,0.337,0.0,0.0,0.91,0.09,0.0,1.0,1.0,0.45999999999999996,0.54,0.0,0.0,1.0,1.0,1.0,1.0,1.0,1.0,1.0,1.0,1.0
Bulgaria,0.0,1992,1.0,0.0,0.0,0.91,0.09,0.0,1.0,1.0,0.45999999999999996,0.54,0.0,1.0,1.0,1.0,1.0,1.0,1.0,1.0,1.0,1.0,1.0
Croatia,0.0,1992,1.0,0.0,0.0,0.91,0.09,0.0,1.0,1.0,0.45999999999999996,0.54,0.0,1.0,1.0,1.0,1.0,1.0,1.0,1.0,1.0,1.0,1.0
Cyprus,0.0,1992,0.0,0.0,0.0,0.91,0.09,0.0,1.0,1.0,0.45999999999999996,0.54,0.0,0.0,1.0,1.0,1.0,1.0,1.0,1.0,1.0,1.0,1.0
Czech Republic,0.9319999999999999,1992,0.068,0.0,0.0,1.0,0.0,0.0,1.0,1.0,0.45999999999999996,0.54,0.0,1.0,1.0,1.0,1.0,1.0,1.0,1.0,1.0,1.0,1.0
Denmark,0.0,1992,0.0,0.0,0.0,0.91,0.09,0.0,1.0,1.0,0.45999999999999996,0.54,0.0,0.0,1.0,1.0,1.0,1.0,1.0,1.0,1.0,1.0,1.0
Estonia,0.0,1992,0.0,0.0,0.0,0.91,0.09,0.0,1.0,1.0,0.45999999999999996,0.54,0.0,0.0,1.0,1.0,1.0,1.0,1.0,1.0,1.0,1.0,1.0
Finland,0.6579999999999999,1992,0.342,0.0,0.0,0.91,0.09,0.0,1.0,1.0,0.45999999999999996,0.54,0.0,1.0,1.0,1.0,1.0,1.0,1.0,1.0,1.0,1.0,1.0
France,0.656,1992,0.344,0.0,0.0,0.73,0.27,0.0,1.0,1.0,0.45999999999999996,0.54,0.614,0.386,1.0,1.0,1.0,1.0,1.0,1.0,1.0,1.0,1.0
Germany,0.704,1992,0.296,0.0,0.0,1.0,0.0,0.0,1.0,1.0,0.45999999999999996,0.54,0.43700000000000006,0.563,1.0,1.0,1.0,1.0,1.0,1.0,1.0,1.0,1.0
Greece,0.0,1992,1.0,0.0,0.0,0.91,0.09,0.0,1.0,1.0,0.45999999999999996,0.54,0.988,0.012,1.0,1.0,1.0,1.0,1.0,1.0,1.0,1.0,1.0
Hungary,0.9,1992,0.1,0.0,0.0,0.91,0.09,0.0,1.0,1.0,0.45999999999999996,0.54,0.11699999999999999,0.883,1.0,1.0,1.0,1.0,1.0,1.0,1.0,1.0,1.0
Ireland,0.0,1992,0.0,0.0,0.0,0.91,0.09,0.0,1.0,1.0,0.45999999999999996,0.54,0.0,0.0,1.0,1.0,1.0,1.0,1.0,1.0,1.0,1.0,1.0
Italy,0.21799999999999997,1992,0.782,0.0,0.0,1.0,0.0,0.0,1.0,1.0,0.45999999999999996,0.54,0.09899999999999998,0.901,1.0,1.0,1.0,1.0,1.0,1.0,1.0,1.0,1.0
Latvia,0.0,1992,0.0,0.0,0.0,0.91,0.09,0.0,1.0,1.0,0.45999999999999996,0.54,0.0,0.0,1.0,1.0,1.0,1.0,1.0,1.0,1.0,1.0,1.0
Lithuania,0.0,1992,0.0,0.0,0.0,0.91,0.09,0.0,1.0,1.0,0.45999999999999996,0.54,0.0,0.0,1.0,1.0,1.0,1.0,1.0,1.0,1.0,1.0,1.0
Luxembourg,0.0,1992,1.0,0.0,0.0,0.91,0.09,0.0,1.0,1.0,0.45999999999999996,0.54,0.0,0.0,1.0,1.0,1.0,1.0,1.0,1.0,1.0,1.0,1.0
Malta,0.0,1992,0.0,0.0,0.0,0.91,0.09,0.0,1.0,1.0,0.45999999999999996,0.54,0.0,0.0,1.0,1.0,1.0,1.0,1.0,1.0,1.0,1.0,1.0
Netherlands,0.985,1992,0.015,0.0,0.0,0.91,0.09,0.0,1.0,1.0,0.45999999999999996,0.54,0.825,0.175,1.0,1.0,1.0,1.0,1.0,1.0,1.0,1.0,1.0
Poland,0.5780000000000001,1992,0.422,0.0,0.0,1.0,0.0,0.0,1.0,1.0,0.45999999999999996,0.54,0.776,0.224,1.0,1.0,1.0,1.0,1.0,1.0,1.0,1.0,1.0
Portugal,0.0,1992,1.0,0.0,0.0,0.91,0.09,0.0,1.0,1.0,0.45999999999999996,0.54,0.0,1.0,1.0,1.0,1.0,1.0,1.0,1.0,1.0,1.0,1.0
Romania,0.597,1992,0.403,0.0,0.0,0.91,0.09,0.0,1.0,1.0,0.45999999999999996,0.54,0.931,0.069,1.0,1.0,1.0,1.0,1.0,1.0,1.0,1.0,1.0
Slovakia,0.929,1992,0.071,0.0,0.0,0.91,0.09,0.0,1.0,1.0,0.45999999999999996,0.54,1.0,0.0,1.0,1.0,1.0,1.0,1.0,1.0,1.0,1.0,1.0
Slovenia,0.0,1992,1.0,0.0,0.0,0.91,0.09,0.0,1.0,1.0,0.45999999999999996,0.54,0.8200000000000001,0.18,1.0,1.0,1.0,1.0,1.0,1.0,1.0,1.0,1.0
Spain,0.31699999999999995,1992,0.683,0.0,0.0,1.0,0.0,0.0,1.0,1.0,0.45999999999999996,0.54,0.6599999999999999,0.34,1.0,1.0,1.0,1.0,1.0,1.0,1.0,1.0,1.0
Sweden,0.661,1992,0.339,0.0,0.0,0.91,0.09,0.0,1.0,1.0,0.45999999999999996,0.54,0.772,0.228,1.0,1.0,1.0,1.0,1.0,1.0,1.0,1.0,1.0
Switzerland,0.0,1992,0.0,0.0,0.0,0.91,0.09,0.0,1.0,1.0,0.45999999999999996,0.54,0.0,1.0,1.0,1.0,1.0,1.0,1.0,1.0,1.0,1.0,1.0
United Kingdom,0.838,1992,0.162,0.0,0.0,1.0,0.0,0.0,1.0,1.0,0.45999999999999996,0.54,0.483,0.517,1.0,1.0,1.0,1.0,1.0,1.0,1.0,1.0,1.0
Austria,0.913,1993,0.087,0.0,0.0,1.0,0.0,0.0,1.0,1.0,0.45999999999999996,0.54,0.0,1.0,1.0,1.0,1.0,1.0,1.0,1.0,1.0,1.0,1.0
Belgium,0.663,1993,0.337,0.0,0.0,0.91,0.09,0.0,1.0,1.0,0.45999999999999996,0.54,0.0,0.0,1.0,1.0,1.0,1.0,1.0,1.0,1.0,1.0,1.0
Bulgaria,0.0,1993,1.0,0.0,0.0,0.91,0.09,0.0,1.0,1.0,0.45999999999999996,0.54,0.0,1.0,1.0,1.0,1.0,1.0,1.0,1.0,1.0,1.0,1.0
Croatia,0.0,1993,1.0,0.0,0.0,0.91,0.09,0.0,1.0,1.0,0.45999999999999996,0.54,0.0,1.0,1.0,1.0,1.0,1.0,1.0,1.0,1.0,1.0,1.0
Cyprus,0.0,1993,0.0,0.0,0.0,0.91,0.09,0.0,1.0,1.0,0.45999999999999996,0.54,0.0,0.0,1.0,1.0,1.0,1.0,1.0,1.0,1.0,1.0,1.0
Czech Republic,0.9319999999999999,1993,0.068,0.0,0.0,1.0,0.0,0.0,1.0,1.0,0.45999999999999996,0.54,0.0,1.0,1.0,1.0,1.0,1.0,1.0,1.0,1.0,1.0,1.0
Denmark,0.0,1993,0.0,0.0,0.0,0.91,0.09,0.0,1.0,1.0,0.45999999999999996,0.54,0.0,0.0,1.0,1.0,1.0,1.0,1.0,1.0,1.0,1.0,1.0
Estonia,0.0,1993,0.0,0.0,0.0,0.91,0.09,0.0,1.0,1.0,0.45999999999999996,0.54,0.0,0.0,1.0,1.0,1.0,1.0,1.0,1.0,1.0,1.0,1.0
Finland,0.6579999999999999,1993,0.342,0.0,0.0,0.91,0.09,0.0,1.0,1.0,0.45999999999999996,0.54,0.0,1.0,1.0,1.0,1.0,1.0,1.0,1.0,1.0,1.0,1.0
France,0.656,1993,0.344,0.0,0.0,0.73,0.27,0.0,1.0,1.0,0.45999999999999996,0.54,0.614,0.386,1.0,1.0,1.0,1.0,1.0,1.0,1.0,1.0,1.0
Germany,0.704,1993,0.296,0.0,0.0,1.0,0.0,0.0,1.0,1.0,0.45999999999999996,0.54,0.43700000000000006,0.563,1.0,1.0,1.0,1.0,1.0,1.0,1.0,1.0,1.0
Greece,0.0,1993,1.0,0.0,0.0,0.91,0.09,0.0,1.0,1.0,0.45999999999999996,0.54,0.988,0.012,1.0,1.0,1.0,1.0,1.0,1.0,1.0,1.0,1.0
Hungary,0.9,1993,0.1,0.0,0.0,0.91,0.09,0.0,1.0,1.0,0.45999999999999996,0.54,0.11699999999999999,0.883,1.0,1.0,1.0,1.0,1.0,1.0,1.0,1.0,1.0
Ireland,0.0,1993,0.0,0.0,0.0,0.91,0.09,0.0,1.0,1.0,0.45999999999999996,0.54,0.0,0.0,1.0,1.0,1.0,1.0,1.0,1.0,1.0,1.0,1.0
Italy,0.21799999999999997,1993,0.782,0.0,0.0,1.0,0.0,0.0,1.0,1.0,0.45999999999999996,0.54,0.09899999999999998,0.901,1.0,1.0,1.0,1.0,1.0,1.0,1.0,1.0,1.0
Latvia,0.0,1993,0.0,0.0,0.0,0.91,0.09,0.0,1.0,1.0,0.45999999999999996,0.54,0.0,0.0,1.0,1.0,1.0,1.0,1.0,1.0,1.0,1.0,1.0
Lithuania,0.0,1993,0.0,0.0,0.0,0.91,0.09,0.0,1.0,1.0,0.45999999999999996,0.54,0.0,0.0,1.0,1.0,1.0,1.0,1.0,1.0,1.0,1.0,1.0
Luxembourg,0.0,1993,1.0,0.0,0.0,0.91,0.09,0.0,1.0,1.0,0.45999999999999996,0.54,0.0,0.0,1.0,1.0,1.0,1.0,1.0,1.0,1.0,1.0,1.0
Malta,0.0,1993,0.0,0.0,0.0,0.91,0.09,0.0,1.0,1.0,0.45999999999999996,0.54,0.0,0.0,1.0,1.0,1.0,1.0,1.0,1.0,1.0,1.0,1.0
Netherlands,0.985,1993,0.015,0.0,0.0,0.91,0.09,0.0,1.0,1.0,0.45999999999999996,0.54,0.825,0.175,1.0,1.0,1.0,1.0,1.0,1.0,1.0,1.0,1.0
Poland,0.5780000000000001,1993,0.422,0.0,0.0,1.0,0.0,0.0,1.0,1.0,0.45999999999999996,0.54,0.776,0.224,1.0,1.0,1.0,1.0,1.0,1.0,1.0,1.0,1.0
Portugal,0.0,1993,1.0,0.0,0.0,0.91,0.09,0.0,1.0,1.0,0.45999999999999996,0.54,0.0,1.0,1.0,1.0,1.0,1.0,1.0,1.0,1.0,1.0,1.0
Romania,0.597,1993,0.403,0.0,0.0,0.91,0.09,0.0,1.0,1.0,0.45999999999999996,0.54,0.931,0.069,1.0,1.0,1.0,1.0,1.0,1.0,1.0,1.0,1.0
Slovakia,0.929,1993,0.071,0.0,0.0,0.91,0.09,0.0,1.0,1.0,0.45999999999999996,0.54,1.0,0.0,1.0,1.0,1.0,1.0,1.0,1.0,1.0,1.0,1.0
Slovenia,0.0,1993,1.0,0.0,0.0,0.91,0.09,0.0,1.0,1.0,0.45999999999999996,0.54,0.8200000000000001,0.18,1.0,1.0,1.0,1.0,1.0,1.0,1.0,1.0,1.0
Spain,0.31699999999999995,1993,0.683,0.0,0.0,1.0,0.0,0.0,1.0,1.0,0.45999999999999996,0.54,0.6599999999999999,0.34,1.0,1.0,1.0,1.0,1.0,1.0,1.0,1.0,1.0
Sweden,0.661,1993,0.339,0.0,0.0,0.91,0.09,0.0,1.0,1.0,0.45999999999999996,0.54,0.772,0.228,1.0,1.0,1.0,1.0,1.0,1.0,1.0,1.0,1.0
Switzerland,0.0,1993,0.0,0.0,0.0,0.91,0.09,0.0,1.0,1.0,0.45999999999999996,0.54,0.0,1.0,1.0,1.0,1.0,1.0,1.0,1.0,1.0,1.0,1.0
United Kingdom,0.838,1993,0.162,0.0,0.0,1.0,0.0,0.0,1.0,1.0,0.45999999999999996,0.54,0.483,0.517,1.0,1.0,1.0,1.0,1.0,1.0,1.0,1.0,1.0
Austria,0.913,1994,0.087,0.0,0.0,1.0,0.0,0.0,1.0,1.0,0.45999999999999996,0.54,0.0,1.0,1.0,1.0,1.0,1.0,1.0,1.0,1.0,1.0,1.0
Belgium,0.663,1994,0.337,0.0,0.0,0.91,0.09,0.0,1.0,1.0,0.45999999999999996,0.54,0.0,0.0,1.0,1.0,1.0,1.0,1.0,1.0,1.0,1.0,1.0
Bulgaria,0.0,1994,1.0,0.0,0.0,0.91,0.09,0.0,1.0,1.0,0.45999999999999996,0.54,0.0,1.0,1.0,1.0,1.0,1.0,1.0,1.0,1.0,1.0,1.0
Croatia,0.0,1994,1.0,0.0,0.0,0.91,0.09,0.0,1.0,1.0,0.45999999999999996,0.54,0.0,1.0,1.0,1.0,1.0,1.0,1.0,1.0,1.0,1.0,1.0
Cyprus,0.0,1994,0.0,0.0,0.0,0.91,0.09,0.0,1.0,1.0,0.45999999999999996,0.54,0.0,0.0,1.0,1.0,1.0,1.0,1.0,1.0,1.0,1.0,1.0
Czech Republic,0.9319999999999999,1994,0.068,0.0,0.0,1.0,0.0,0.0,1.0,1.0,0.45999999999999996,0.54,0.0,1.0,1.0,1.0,1.0,1.0,1.0,1.0,1.0,1.0,1.0
Denmark,0.0,1994,0.0,0.0,0.0,0.91,0.09,0.0,1.0,1.0,0.45999999999999996,0.54,0.0,0.0,1.0,1.0,1.0,1.0,1.0,1.0,1.0,1.0,1.0
Estonia,0.0,1994,0.0,0.0,0.0,0.91,0.09,0.0,1.0,1.0,0.45999999999999996,0.54,0.0,0.0,1.0,1.0,1.0,1.0,1.0,1.0,1.0,1.0,1.0
Finland,0.6579999999999999,1994,0.342,0.0,0.0,0.91,0.09,0.0,1.0,1.0,0.45999999999999996,0.54,0.0,1.0,1.0,1.0,1.0,1.0,1.0,1.0,1.0,1.0,1.0
France,0.656,1994,0.344,0.0,0.0,0.73,0.27,0.0,1.0,1.0,0.45999999999999996,0.54,0.614,0.386,1.0,1.0,1.0,1.0,1.0,1.0,1.0,1.0,1.0
Germany,0.704,1994,0.296,0.0,0.0,1.0,0.0,0.0,1.0,1.0,0.45999999999999996,0.54,0.43700000000000006,0.563,1.0,1.0,1.0,1.0,1.0,1.0,1.0,1.0,1.0
Greece,0.0,1994,1.0,0.0,0.0,0.91,0.09,0.0,1.0,1.0,0.45999999999999996,0.54,0.988,0.012,1.0,1.0,1.0,1.0,1.0,1.0,1.0,1.0,1.0
Hungary,0.9,1994,0.1,0.0,0.0,0.91,0.09,0.0,1.0,1.0,0.45999999999999996,0.54,0.11699999999999999,0.883,1.0,1.0,1.0,1.0,1.0,1.0,1.0,1.0,1.0
Ireland,0.0,1994,0.0,0.0,0.0,0.91,0.09,0.0,1.0,1.0,0.45999999999999996,0.54,0.0,0.0,1.0,1.0,1.0,1.0,1.0,1.0,1.0,1.0,1.0
Italy,0.21799999999999997,1994,0.782,0.0,0.0,1.0,0.0,0.0,1.0,1.0,0.45999999999999996,0.54,0.09899999999999998,0.901,1.0,1.0,1.0,1.0,1.0,1.0,1.0,1.0,1.0
Latvia,0.0,1994,0.0,0.0,0.0,0.91,0.09,0.0,1.0,1.0,0.45999999999999996,0.54,0.0,0.0,1.0,1.0,1.0,1.0,1.0,1.0,1.0,1.0,1.0
Lithuania,0.0,1994,0.0,0.0,0.0,0.91,0.09,0.0,1.0,1.0,0.45999999999999996,0.54,0.0,0.0,1.0,1.0,1.0,1.0,1.0,1.0,1.0,1.0,1.0
Luxembourg,0.0,1994,1.0,0.0,0.0,0.91,0.09,0.0,1.0,1.0,0.45999999999999996,0.54,0.0,0.0,1.0,1.0,1.0,1.0,1.0,1.0,1.0,1.0,1.0
Malta,0.0,1994,0.0,0.0,0.0,0.91,0.09,0.0,1.0,1.0,0.45999999999999996,0.54,0.0,0.0,1.0,1.0,1.0,1.0,1.0,1.0,1.0,1.0,1.0
Netherlands,0.985,1994,0.015,0.0,0.0,0.91,0.09,0.0,1.0,1.0,0.45999999999999996,0.54,0.825,0.175,1.0,1.0,1.0,1.0,1.0,1.0,1.0,1.0,1.0
Poland,0.5780000000000001,1994,0.422,0.0,0.0,1.0,0.0,0.0,1.0,1.0,0.45999999999999996,0.54,0.776,0.224,1.0,1.0,1.0,1.0,1.0,1.0,1.0,1.0,1.0
Portugal,0.0,1994,1.0,0.0,0.0,0.91,0.09,0.0,1.0,1.0,0.45999999999999996,0.54,0.0,1.0,1.0,1.0,1.0,1.0,1.0,1.0,1.0,1.0,1.0
Romania,0.597,1994,0.403,0.0,0.0,0.91,0.09,0.0,1.0,1.0,0.45999999999999996,0.54,0.931,0.069,1.0,1.0,1.0,1.0,1.0,1.0,1.0,1.0,1.0
Slovakia,0.929,1994,0.071,0.0,0.0,0.91,0.09,0.0,1.0,1.0,0.45999999999999996,0.54,1.0,0.0,1.0,1.0,1.0,1.0,1.0,1.0,1.0,1.0,1.0
Slovenia,0.0,1994,1.0,0.0,0.0,0.91,0.09,0.0,1.0,1.0,0.45999999999999996,0.54,0.8200000000000001,0.18,1.0,1.0,1.0,1.0,1.0,1.0,1.0,1.0,1.0
Spain,0.31699999999999995,1994,0.683,0.0,0.0,1.0,0.0,0.0,1.0,1.0,0.45999999999999996,0.54,0.6599999999999999,0.34,1.0,1.0,1.0,1.0,1.0,1.0,1.0,1.0,1.0
Sweden,0.661,1994,0.339,0.0,0.0,0.91,0.09,0.0,1.0,1.0,0.45999999999999996,0.54,0.772,0.228,1.0,1.0,1.0,1.0,1.0,1.0,1.0,1.0,1.0
Switzerland,0.0,1994,0.0,0.0,0.0,0.91,0.09,0.0,1.0,1.0,0.45999999999999996,0.54,0.0,1.0,1.0,1.0,1.0,1.0,1.0,1.0,1.0,1.0,1.0
United Kingdom,0.838,1994,0.162,0.0,0.0,1.0,0.0,0.0,1.0,1.0,0.45999999999999996,0.54,0.483,0.517,1.0,1.0,1.0,1.0,1.0,1.0,1.0,1.0,1.0
Austria,0.913,1995,0.087,0.0,0.0,1.0,0.0,0.0,1.0,1.0,0.45999999999999996,0.54,0.0,1.0,1.0,1.0,1.0,1.0,1.0,1.0,1.0,1.0,1.0
Belgium,0.663,1995,0.337,0.0,0.0,0.91,0.09,0.0,1.0,1.0,0.45999999999999996,0.54,0.0,0.0,1.0,1.0,1.0,1.0,1.0,1.0,1.0,1.0,1.0
Bulgaria,0.0,1995,1.0,0.0,0.0,0.91,0.09,0.0,1.0,1.0,0.45999999999999996,0.54,0.0,1.0,1.0,1.0,1.0,1.0,1.0,1.0,1.0,1.0,1.0
Croatia,0.0,1995,1.0,0.0,0.0,0.91,0.09,0.0,1.0,1.0,0.45999999999999996,0.54,0.0,1.0,1.0,1.0,1.0,1.0,1.0,1.0,1.0,1.0,1.0
Cyprus,0.0,1995,0.0,0.0,0.0,0.91,0.09,0.0,1.0,1.0,0.45999999999999996,0.54,0.0,0.0,1.0,1.0,1.0,1.0,1.0,1.0,1.0,1.0,1.0
Czech Republic,0.9319999999999999,1995,0.068,0.0,0.0,1.0,0.0,0.0,1.0,1.0,0.45999999999999996,0.54,0.0,1.0,1.0,1.0,1.0,1.0,1.0,1.0,1.0,1.0,1.0
Denmark,0.0,1995,0.0,0.0,0.0,0.91,0.09,0.0,1.0,1.0,0.45999999999999996,0.54,0.0,0.0,1.0,1.0,1.0,1.0,1.0,1.0,1.0,1.0,1.0
Estonia,0.0,1995,0.0,0.0,0.0,0.91,0.09,0.0,1.0,1.0,0.45999999999999996,0.54,0.0,0.0,1.0,1.0,1.0,1.0,1.0,1.0,1.0,1.0,1.0
Finland,0.6579999999999999,1995,0.342,0.0,0.0,0.91,0.09,0.0,1.0,1.0,0.45999999999999996,0.54,0.0,1.0,1.0,1.0,1.0,1.0,1.0,1.0,1.0,1.0,1.0
France,0.656,1995,0.344,0.0,0.0,0.73,0.27,0.0,1.0,1.0,0.45999999999999996,0.54,0.614,0.386,1.0,1.0,1.0,1.0,1.0,1.0,1.0,1.0,1.0
Germany,0.704,1995,0.296,0.0,0.0,1.0,0.0,0.0,1.0,1.0,0.45999999999999996,0.54,0.43700000000000006,0.563,1.0,1.0,1.0,1.0,1.0,1.0,1.0,1.0,1.0
Greece,0.0,1995,1.0,0.0,0.0,0.91,0.09,0.0,1.0,1.0,0.45999999999999996,0.54,0.988,0.012,1.0,1.0,1.0,1.0,1.0,1.0,1.0,1.0,1.0
Hungary,0.9,1995,0.1,0.0,0.0,0.91,0.09,0.0,1.0,1.0,0.45999999999999996,0.54,0.11699999999999999,0.883,1.0,1.0,1.0,1.0,1.0,1.0,1.0,1.0,1.0
Ireland,0.0,1995,0.0,0.0,0.0,0.91,0.09,0.0,1.0,1.0,0.45999999999999996,0.54,0.0,0.0,1.0,1.0,1.0,1.0,1.0,1.0,1.0,1.0,1.0
Italy,0.21799999999999997,1995,0.782,0.0,0.0,1.0,0.0,0.0,1.0,1.0,0.45999999999999996,0.54,0.09899999999999998,0.901,1.0,1.0,1.0,1.0,1.0,1.0,1.0,1.0,1.0
Latvia,0.0,1995,0.0,0.0,0.0,0.91,0.09,0.0,1.0,1.0,0.45999999999999996,0.54,0.0,0.0,1.0,1.0,1.0,1.0,1.0,1.0,1.0,1.0,1.0
Lithuania,0.0,1995,0.0,0.0,0.0,0.91,0.09,0.0,1.0,1.0,0.45999999999999996,0.54,0.0,0.0,1.0,1.0,1.0,1.0,1.0,1.0,1.0,1.0,1.0
Luxembourg,0.0,1995,1.0,0.0,0.0,0.91,0.09,0.0,1.0,1.0,0.45999999999999996,0.54,0.0,0.0,1.0,1.0,1.0,1.0,1.0,1.0,1.0,1.0,1.0
Malta,0.0,1995,0.0,0.0,0.0,0.91,0.09,0.0,1.0,1.0,0.45999999999999996,0.54,0.0,0.0,1.0,1.0,1.0,1.0,1.0,1.0,1.0,1.0,1.0
Netherlands,0.985,1995,0.015,0.0,0.0,0.91,0.09,0.0,1.0,1.0,0.45999999999999996,0.54,0.825,0.175,1.0,1.0,1.0,1.0,1.0,1.0,1.0,1.0,1.0
Poland,0.5780000000000001,1995,0.422,0.0,0.0,1.0,0.0,0.0,1.0,1.0,0.45999999999999996,0.54,0.776,0.224,1.0,1.0,1.0,1.0,1.0,1.0,1.0,1.0,1.0
Portugal,0.0,1995,1.0,0.0,0.0,0.91,0.09,0.0,1.0,1.0,0.45999999999999996,0.54,0.0,1.0,1.0,1.0,1.0,1.0,1.0,1.0,1.0,1.0,1.0
Romania,0.597,1995,0.403,0.0,0.0,0.91,0.09,0.0,1.0,1.0,0.45999999999999996,0.54,0.931,0.069,1.0,1.0,1.0,1.0,1.0,1.0,1.0,1.0,1.0
Slovakia,0.929,1995,0.071,0.0,0.0,0.91,0.09,0.0,1.0,1.0,0.45999999999999996,0.54,1.0,0.0,1.0,1.0,1.0,1.0,1.0,1.0,1.0,1.0,1.0
Slovenia,0.0,1995,1.0,0.0,0.0,0.91,0.09,0.0,1.0,1.0,0.45999999999999996,0.54,0.8200000000000001,0.18,1.0,1.0,1.0,1.0,1.0,1.0,1.0,1.0,1.0
Spain,0.31699999999999995,1995,0.683,0.0,0.0,1.0,0.0,0.0,1.0,1.0,0.45999999999999996,0.54,0.6599999999999999,0.34,1.0,1.0,1.0,1.0,1.0,1.0,1.0,1.0,1.0
Sweden,0.661,1995,0.339,0.0,0.0,0.91,0.09,0.0,1.0,1.0,0.45999999999999996,0.54,0.772,0.228,1.0,1.0,1.0,1.0,1.0,1.0,1.0,1.0,1.0
Switzerland,0.0,1995,0.0,0.0,0.0,0.91,0.09,0.0,1.0,1.0,0.45999999999999996,0.54,0.0,1.0,1.0,1.0,1.0,1.0,1.0,1.0,1.0,1.0,1.0
United Kingdom,0.838,1995,0.162,0.0,0.0,1.0,0.0,0.0,1.0,1.0,0.45999999999999996,0.54,0.483,0.517,1.0,1.0,1.0,1.0,1.0,1.0,1.0,1.0,1.0
Austria,0.913,1996,0.087,0.0,0.0,1.0,0.0,0.0,1.0,1.0,0.45999999999999996,0.54,0.0,1.0,1.0,1.0,1.0,1.0,1.0,1.0,1.0,1.0,1.0
Belgium,0.663,1996,0.337,0.0,0.0,0.91,0.09,0.0,1.0,1.0,0.45999999999999996,0.54,0.0,0.0,1.0,1.0,1.0,1.0,1.0,1.0,1.0,1.0,1.0
Bulgaria,0.0,1996,1.0,0.0,0.0,0.91,0.09,0.0,1.0,1.0,0.45999999999999996,0.54,0.0,1.0,1.0,1.0,1.0,1.0,1.0,1.0,1.0,1.0,1.0
Croatia,0.0,1996,1.0,0.0,0.0,0.91,0.09,0.0,1.0,1.0,0.45999999999999996,0.54,0.0,1.0,1.0,1.0,1.0,1.0,1.0,1.0,1.0,1.0,1.0
Cyprus,0.0,1996,0.0,0.0,0.0,0.91,0.09,0.0,1.0,1.0,0.45999999999999996,0.54,0.0,0.0,1.0,1.0,1.0,1.0,1.0,1.0,1.0,1.0,1.0
Czech Republic,0.9319999999999999,1996,0.068,0.0,0.0,1.0,0.0,0.0,1.0,1.0,0.45999999999999996,0.54,0.0,1.0,1.0,1.0,1.0,1.0,1.0,1.0,1.0,1.0,1.0
Denmark,0.0,1996,0.0,0.0,0.0,0.91,0.09,0.0,1.0,1.0,0.45999999999999996,0.54,0.0,0.0,1.0,1.0,1.0,1.0,1.0,1.0,1.0,1.0,1.0
Estonia,0.0,1996,0.0,0.0,0.0,0.91,0.09,0.0,1.0,1.0,0.45999999999999996,0.54,0.0,0.0,1.0,1.0,1.0,1.0,1.0,1.0,1.0,1.0,1.0
Finland,0.6579999999999999,1996,0.342,0.0,0.0,0.91,0.09,0.0,1.0,1.0,0.45999999999999996,0.54,0.0,1.0,1.0,1.0,1.0,1.0,1.0,1.0,1.0,1.0,1.0
France,0.656,1996,0.344,0.0,0.0,0.73,0.27,0.0,1.0,1.0,0.45999999999999996,0.54,0.614,0.386,1.0,1.0,1.0,1.0,1.0,1.0,1.0,1.0,1.0
Germany,0.704,1996,0.296,0.0,0.0,1.0,0.0,0.0,1.0,1.0,0.45999999999999996,0.54,0.43700000000000006,0.563,1.0,1.0,1.0,1.0,1.0,1.0,1.0,1.0,1.0
Greece,0.0,1996,1.0,0.0,0.0,0.91,0.09,0.0,1.0,1.0,0.45999999999999996,0.54,0.988,0.012,1.0,1.0,1.0,1.0,1.0,1.0,1.0,1.0,1.0
Hungary,0.9,1996,0.1,0.0,0.0,0.91,0.09,0.0,1.0,1.0,0.45999999999999996,0.54,0.11699999999999999,0.883,1.0,1.0,1.0,1.0,1.0,1.0,1.0,1.0,1.0
Ireland,0.0,1996,0.0,0.0,0.0,0.91,0.09,0.0,1.0,1.0,0.45999999999999996,0.54,0.0,0.0,1.0,1.0,1.0,1.0,1.0,1.0,1.0,1.0,1.0
Italy,0.21799999999999997,1996,0.782,0.0,0.0,1.0,0.0,0.0,1.0,1.0,0.45999999999999996,0.54,0.09899999999999998,0.901,1.0,1.0,1.0,1.0,1.0,1.0,1.0,1.0,1.0
Latvia,0.0,1996,0.0,0.0,0.0,0.91,0.09,0.0,1.0,1.0,0.45999999999999996,0.54,0.0,0.0,1.0,1.0,1.0,1.0,1.0,1.0,1.0,1.0,1.0
Lithuania,0.0,1996,0.0,0.0,0.0,0.91,0.09,0.0,1.0,1.0,0.45999999999999996,0.54,0.0,0.0,1.0,1.0,1.0,1.0,1.0,1.0,1.0,1.0,1.0
Luxembourg,0.0,1996,1.0,0.0,0.0,0.91,0.09,0.0,1.0,1.0,0.45999999999999996,0.54,0.0,0.0,1.0,1.0,1.0,1.0,1.0,1.0,1.0,1.0,1.0
Malta,0.0,1996,0.0,0.0,0.0,0.91,0.09,0.0,1.0,1.0,0.45999999999999996,0.54,0.0,0.0,1.0,1.0,1.0,1.0,1.0,1.0,1.0,1.0,1.0
Netherlands,0.985,1996,0.015,0.0,0.0,0.91,0.09,0.0,1.0,1.0,0.45999999999999996,0.54,0.825,0.175,1.0,1.0,1.0,1.0,1.0,1.0,1.0,1.0,1.0
Poland,0.5780000000000001,1996,0.422,0.0,0.0,1.0,0.0,0.0,1.0,1.0,0.45999999999999996,0.54,0.776,0.224,1.0,1.0,1.0,1.0,1.0,1.0,1.0,1.0,1.0
Portugal,0.0,1996,1.0,0.0,0.0,0.91,0.09,0.0,1.0,1.0,0.45999999999999996,0.54,0.0,1.0,1.0,1.0,1.0,1.0,1.0,1.0,1.0,1.0,1.0
Romania,0.597,1996,0.403,0.0,0.0,0.91,0.09,0.0,1.0,1.0,0.45999999999999996,0.54,0.931,0.069,1.0,1.0,1.0,1.0,1.0,1.0,1.0,1.0,1.0
Slovakia,0.929,1996,0.071,0.0,0.0,0.91,0.09,0.0,1.0,1.0,0.45999999999999996,0.54,1.0,0.0,1.0,1.0,1.0,1.0,1.0,1.0,1.0,1.0,1.0
Slovenia,0.0,1996,1.0,0.0,0.0,0.91,0.09,0.0,1.0,1.0,0.45999999999999996,0.54,0.8200000000000001,0.18,1.0,1.0,1.0,1.0,1.0,1.0,1.0,1.0,1.0
Spain,0.31699999999999995,1996,0.683,0.0,0.0,1.0,0.0,0.0,1.0,1.0,0.45999999999999996,0.54,0.6599999999999999,0.34,1.0,1.0,1.0,1.0,1.0,1.0,1.0,1.0,1.0
Sweden,0.661,1996,0.339,0.0,0.0,0.91,0.09,0.0,1.0,1.0,0.45999999999999996,0.54,0.772,0.228,1.0,1.0,1.0,1.0,1.0,1.0,1.0,1.0,1.0
Switzerland,0.0,1996,0.0,0.0,0.0,0.91,0.09,0.0,1.0,1.0,0.45999999999999996,0.54,0.0,1.0,1.0,1.0,1.0,1.0,1.0,1.0,1.0,1.0,1.0
United Kingdom,0.838,1996,0.162,0.0,0.0,1.0,0.0,0.0,1.0,1.0,0.45999999999999996,0.54,0.483,0.517,1.0,1.0,1.0,1.0,1.0,1.0,1.0,1.0,1.0
Austria,0.913,1997,0.087,0.0,0.0,1.0,0.0,0.0,1.0,1.0,0.45999999999999996,0.54,0.0,1.0,1.0,1.0,1.0,1.0,1.0,1.0,1.0,1.0,1.0
Belgium,0.663,1997,0.337,0.0,0.0,0.91,0.09,0.0,1.0,1.0,0.45999999999999996,0.54,0.0,0.0,1.0,1.0,1.0,1.0,1.0,1.0,1.0,1.0,1.0
Bulgaria,0.0,1997,1.0,0.0,0.0,0.91,0.09,0.0,1.0,1.0,0.45999999999999996,0.54,0.0,1.0,1.0,1.0,1.0,1.0,1.0,1.0,1.0,1.0,1.0
Croatia,0.0,1997,1.0,0.0,0.0,0.91,0.09,0.0,1.0,1.0,0.45999999999999996,0.54,0.0,1.0,1.0,1.0,1.0,1.0,1.0,1.0,1.0,1.0,1.0
Cyprus,0.0,1997,0.0,0.0,0.0,0.91,0.09,0.0,1.0,1.0,0.45999999999999996,0.54,0.0,0.0,1.0,1.0,1.0,1.0,1.0,1.0,1.0,1.0,1.0
Czech Republic,0.9319999999999999,1997,0.068,0.0,0.0,1.0,0.0,0.0,1.0,1.0,0.45999999999999996,0.54,0.0,1.0,1.0,1.0,1.0,1.0,1.0,1.0,1.0,1.0,1.0
Denmark,0.0,1997,0.0,0.0,0.0,0.91,0.09,0.0,1.0,1.0,0.45999999999999996,0.54,0.0,0.0,1.0,1.0,1.0,1.0,1.0,1.0,1.0,1.0,1.0
Estonia,0.0,1997,0.0,0.0,0.0,0.91,0.09,0.0,1.0,1.0,0.45999999999999996,0.54,0.0,0.0,1.0,1.0,1.0,1.0,1.0,1.0,1.0,1.0,1.0
Finland,0.6579999999999999,1997,0.342,0.0,0.0,0.91,0.09,0.0,1.0,1.0,0.45999999999999996,0.54,0.0,1.0,1.0,1.0,1.0,1.0,1.0,1.0,1.0,1.0,1.0
France,0.656,1997,0.344,0.0,0.0,0.73,0.27,0.0,1.0,1.0,0.45999999999999996,0.54,0.614,0.386,1.0,1.0,1.0,1.0,1.0,1.0,1.0,1.0,1.0
Germany,0.704,1997,0.296,0.0,0.0,1.0,0.0,0.0,1.0,1.0,0.45999999999999996,0.54,0.43700000000000006,0.563,1.0,1.0,1.0,1.0,1.0,1.0,1.0,1.0,1.0
Greece,0.0,1997,1.0,0.0,0.0,0.91,0.09,0.0,1.0,1.0,0.45999999999999996,0.54,0.988,0.012,1.0,1.0,1.0,1.0,1.0,1.0,1.0,1.0,1.0
Hungary,0.9,1997,0.1,0.0,0.0,0.91,0.09,0.0,1.0,1.0,0.45999999999999996,0.54,0.11699999999999999,0.883,1.0,1.0,1.0,1.0,1.0,1.0,1.0,1.0,1.0
Ireland,0.0,1997,0.0,0.0,0.0,0.91,0.09,0.0,1.0,1.0,0.45999999999999996,0.54,0.0,0.0,1.0,1.0,1.0,1.0,1.0,1.0,1.0,1.0,1.0
Italy,0.21799999999999997,1997,0.782,0.0,0.0,1.0,0.0,0.0,1.0,1.0,0.45999999999999996,0.54,0.09899999999999998,0.901,1.0,1.0,1.0,1.0,1.0,1.0,1.0,1.0,1.0
Latvia,0.0,1997,0.0,0.0,0.0,0.91,0.09,0.0,1.0,1.0,0.45999999999999996,0.54,0.0,0.0,1.0,1.0,1.0,1.0,1.0,1.0,1.0,1.0,1.0
Lithuania,0.0,1997,0.0,0.0,0.0,0.91,0.09,0.0,1.0,1.0,0.45999999999999996,0.54,0.0,0.0,1.0,1.0,1.0,1.0,1.0,1.0,1.0,1.0,1.0
Luxembourg,0.0,1997,1.0,0.0,0.0,0.91,0.09,0.0,1.0,1.0,0.45999999999999996,0.54,0.0,0.0,1.0,1.0,1.0,1.0,1.0,1.0,1.0,1.0,1.0
Malta,0.0,1997,0.0,0.0,0.0,0.91,0.09,0.0,1.0,1.0,0.45999999999999996,0.54,0.0,0.0,1.0,1.0,1.0,1.0,1.0,1.0,1.0,1.0,1.0
Netherlands,0.985,1997,0.015,0.0,0.0,0.91,0.09,0.0,1.0,1.0,0.45999999999999996,0.54,0.825,0.175,1.0,1.0,1.0,1.0,1.0,1.0,1.0,1.0,1.0
Poland,0.5780000000000001,1997,0.422,0.0,0.0,1.0,0.0,0.0,1.0,1.0,0.45999999999999996,0.54,0.776,0.224,1.0,1.0,1.0,1.0,1.0,1.0,1.0,1.0,1.0
Portugal,0.0,1997,1.0,0.0,0.0,0.91,0.09,0.0,1.0,1.0,0.45999999999999996,0.54,0.0,1.0,1.0,1.0,1.0,1.0,1.0,1.0,1.0,1.0,1.0
Romania,0.597,1997,0.403,0.0,0.0,0.91,0.09,0.0,1.0,1.0,0.45999999999999996,0.54,0.931,0.069,1.0,1.0,1.0,1.0,1.0,1.0,1.0,1.0,1.0
Slovakia,0.929,1997,0.071,0.0,0.0,0.91,0.09,0.0,1.0,1.0,0.45999999999999996,0.54,1.0,0.0,1.0,1.0,1.0,1.0,1.0,1.0,1.0,1.0,1.0
Slovenia,0.0,1997,1.0,0.0,0.0,0.91,0.09,0.0,1.0,1.0,0.45999999999999996,0.54,0.8200000000000001,0.18,1.0,1.0,1.0,1.0,1.0,1.0,1.0,1.0,1.0
Spain,0.31699999999999995,1997,0.683,0.0,0.0,1.0,0.0,0.0,1.0,1.0,0.45999999999999996,0.54,0.6599999999999999,0.34,1.0,1.0,1.0,1.0,1.0,1.0,1.0,1.0,1.0
Sweden,0.661,1997,0.339,0.0,0.0,0.91,0.09,0.0,1.0,1.0,0.45999999999999996,0.54,0.772,0.228,1.0,1.0,1.0,1.0,1.0,1.0,1.0,1.0,1.0
Switzerland,0.0,1997,0.0,0.0,0.0,0.91,0.09,0.0,1.0,1.0,0.45999999999999996,0.54,0.0,1.0,1.0,1.0,1.0,1.0,1.0,1.0,1.0,1.0,1.0
United Kingdom,0.838,1997,0.162,0.0,0.0,1.0,0.0,0.0,1.0,1.0,0.45999999999999996,0.54,0.483,0.517,1.0,1.0,1.0,1.0,1.0,1.0,1.0,1.0,1.0
Austria,0.913,1998,0.087,0.0,0.0,1.0,0.0,0.0,1.0,1.0,0.45999999999999996,0.54,0.0,1.0,1.0,1.0,1.0,1.0,1.0,1.0,1.0,1.0,1.0
Belgium,0.663,1998,0.337,0.0,0.0,0.91,0.09,0.0,1.0,1.0,0.45999999999999996,0.54,0.0,0.0,1.0,1.0,1.0,1.0,1.0,1.0,1.0,1.0,1.0
Bulgaria,0.0,1998,1.0,0.0,0.0,0.91,0.09,0.0,1.0,1.0,0.45999999999999996,0.54,0.0,1.0,1.0,1.0,1.0,1.0,1.0,1.0,1.0,1.0,1.0
Croatia,0.0,1998,1.0,0.0,0.0,0.91,0.09,0.0,1.0,1.0,0.45999999999999996,0.54,0.0,1.0,1.0,1.0,1.0,1.0,1.0,1.0,1.0,1.0,1.0
Cyprus,0.0,1998,0.0,0.0,0.0,0.91,0.09,0.0,1.0,1.0,0.45999999999999996,0.54,0.0,0.0,1.0,1.0,1.0,1.0,1.0,1.0,1.0,1.0,1.0
Czech Republic,0.9319999999999999,1998,0.068,0.0,0.0,1.0,0.0,0.0,1.0,1.0,0.45999999999999996,0.54,0.0,1.0,1.0,1.0,1.0,1.0,1.0,1.0,1.0,1.0,1.0
Denmark,0.0,1998,0.0,0.0,0.0,0.91,0.09,0.0,1.0,1.0,0.45999999999999996,0.54,0.0,0.0,1.0,1.0,1.0,1.0,1.0,1.0,1.0,1.0,1.0
Estonia,0.0,1998,0.0,0.0,0.0,0.91,0.09,0.0,1.0,1.0,0.45999999999999996,0.54,0.0,0.0,1.0,1.0,1.0,1.0,1.0,1.0,1.0,1.0,1.0
Finland,0.6579999999999999,1998,0.342,0.0,0.0,0.91,0.09,0.0,1.0,1.0,0.45999999999999996,0.54,0.0,1.0,1.0,1.0,1.0,1.0,1.0,1.0,1.0,1.0,1.0
France,0.656,1998,0.344,0.0,0.0,0.73,0.27,0.0,1.0,1.0,0.45999999999999996,0.54,0.614,0.386,1.0,1.0,1.0,1.0,1.0,1.0,1.0,1.0,1.0
Germany,0.704,1998,0.296,0.0,0.0,1.0,0.0,0.0,1.0,1.0,0.45999999999999996,0.54,0.43700000000000006,0.563,1.0,1.0,1.0,1.0,1.0,1.0,1.0,1.0,1.0
Greece,0.0,1998,1.0,0.0,0.0,0.91,0.09,0.0,1.0,1.0,0.45999999999999996,0.54,0.988,0.012,1.0,1.0,1.0,1.0,1.0,1.0,1.0,1.0,1.0
Hungary,0.9,1998,0.1,0.0,0.0,0.91,0.09,0.0,1.0,1.0,0.45999999999999996,0.54,0.11699999999999999,0.883,1.0,1.0,1.0,1.0,1.0,1.0,1.0,1.0,1.0
Ireland,0.0,1998,0.0,0.0,0.0,0.91,0.09,0.0,1.0,1.0,0.45999999999999996,0.54,0.0,0.0,1.0,1.0,1.0,1.0,1.0,1.0,1.0,1.0,1.0
Italy,0.21799999999999997,1998,0.782,0.0,0.0,1.0,0.0,0.0,1.0,1.0,0.45999999999999996,0.54,0.09899999999999998,0.901,1.0,1.0,1.0,1.0,1.0,1.0,1.0,1.0,1.0
Latvia,0.0,1998,0.0,0.0,0.0,0.91,0.09,0.0,1.0,1.0,0.45999999999999996,0.54,0.0,0.0,1.0,1.0,1.0,1.0,1.0,1.0,1.0,1.0,1.0
Lithuania,0.0,1998,0.0,0.0,0.0,0.91,0.09,0.0,1.0,1.0,0.45999999999999996,0.54,0.0,0.0,1.0,1.0,1.0,1.0,1.0,1.0,1.0,1.0,1.0
Luxembourg,0.0,1998,1.0,0.0,0.0,0.91,0.09,0.0,1.0,1.0,0.45999999999999996,0.54,0.0,0.0,1.0,1.0,1.0,1.0,1.0,1.0,1.0,1.0,1.0
Malta,0.0,1998,0.0,0.0,0.0,0.91,0.09,0.0,1.0,1.0,0.45999999999999996,0.54,0.0,0.0,1.0,1.0,1.0,1.0,1.0,1.0,1.0,1.0,1.0
Netherlands,0.985,1998,0.015,0.0,0.0,0.91,0.09,0.0,1.0,1.0,0.45999999999999996,0.54,0.825,0.175,1.0,1.0,1.0,1.0,1.0,1.0,1.0,1.0,1.0
Poland,0.5780000000000001,1998,0.422,0.0,0.0,1.0,0.0,0.0,1.0,1.0,0.45999999999999996,0.54,0.776,0.224,1.0,1.0,1.0,1.0,1.0,1.0,1.0,1.0,1.0
Portugal,0.0,1998,1.0,0.0,0.0,0.91,0.09,0.0,1.0,1.0,0.45999999999999996,0.54,0.0,1.0,1.0,1.0,1.0,1.0,1.0,1.0,1.0,1.0,1.0
Romania,0.597,1998,0.403,0.0,0.0,0.91,0.09,0.0,1.0,1.0,0.45999999999999996,0.54,0.931,0.069,1.0,1.0,1.0,1.0,1.0,1.0,1.0,1.0,1.0
Slovakia,0.929,1998,0.071,0.0,0.0,0.91,0.09,0.0,1.0,1.0,0.45999999999999996,0.54,1.0,0.0,1.0,1.0,1.0,1.0,1.0,1.0,1.0,1.0,1.0
Slovenia,0.0,1998,1.0,0.0,0.0,0.91,0.09,0.0,1.0,1.0,0.45999999999999996,0.54,0.8200000000000001,0.18,1.0,1.0,1.0,1.0,1.0,1.0,1.0,1.0,1.0
Spain,0.31699999999999995,1998,0.683,0.0,0.0,1.0,0.0,0.0,1.0,1.0,0.45999999999999996,0.54,0.6599999999999999,0.34,1.0,1.0,1.0,1.0,1.0,1.0,1.0,1.0,1.0
Sweden,0.661,1998,0.339,0.0,0.0,0.91,0.09,0.0,1.0,1.0,0.45999999999999996,0.54,0.772,0.228,1.0,1.0,1.0,1.0,1.0,1.0,1.0,1.0,1.0
Switzerland,0.0,1998,0.0,0.0,0.0,0.91,0.09,0.0,1.0,1.0,0.45999999999999996,0.54,0.0,1.0,1.0,1.0,1.0,1.0,1.0,1.0,1.0,1.0,1.0
United Kingdom,0.838,1998,0.162,0.0,0.0,1.0,0.0,0.0,1.0,1.0,0.45999999999999996,0.54,0.483,0.517,1.0,1.0,1.0,1.0,1.0,1.0,1.0,1.0,1.0
Austria,0.913,1999,0.087,0.0,0.0,1.0,0.0,0.0,1.0,1.0,0.45999999999999996,0.54,0.0,1.0,1.0,1.0,1.0,1.0,1.0,1.0,1.0,1.0,1.0
Belgium,0.663,1999,0.337,0.0,0.0,0.91,0.09,0.0,1.0,1.0,0.45999999999999996,0.54,0.0,0.0,1.0,1.0,1.0,1.0,1.0,1.0,1.0,1.0,1.0
Bulgaria,0.0,1999,1.0,0.0,0.0,0.91,0.09,0.0,1.0,1.0,0.45999999999999996,0.54,0.0,1.0,1.0,1.0,1.0,1.0,1.0,1.0,1.0,1.0,1.0
Croatia,0.0,1999,1.0,0.0,0.0,0.91,0.09,0.0,1.0,1.0,0.45999999999999996,0.54,0.0,1.0,1.0,1.0,1.0,1.0,1.0,1.0,1.0,1.0,1.0
Cyprus,0.0,1999,0.0,0.0,0.0,0.91,0.09,0.0,1.0,1.0,0.45999999999999996,0.54,0.0,0.0,1.0,1.0,1.0,1.0,1.0,1.0,1.0,1.0,1.0
Czech Republic,0.9319999999999999,1999,0.068,0.0,0.0,1.0,0.0,0.0,1.0,1.0,0.45999999999999996,0.54,0.0,1.0,1.0,1.0,1.0,1.0,1.0,1.0,1.0,1.0,1.0
Denmark,0.0,1999,0.0,0.0,0.0,0.91,0.09,0.0,1.0,1.0,0.45999999999999996,0.54,0.0,0.0,1.0,1.0,1.0,1.0,1.0,1.0,1.0,1.0,1.0
Estonia,0.0,1999,0.0,0.0,0.0,0.91,0.09,0.0,1.0,1.0,0.45999999999999996,0.54,0.0,0.0,1.0,1.0,1.0,1.0,1.0,1.0,1.0,1.0,1.0
Finland,0.6579999999999999,1999,0.342,0.0,0.0,0.91,0.09,0.0,1.0,1.0,0.45999999999999996,0.54,0.0,1.0,1.0,1.0,1.0,1.0,1.0,1.0,1.0,1.0,1.0
France,0.656,1999,0.344,0.0,0.0,0.73,0.27,0.0,1.0,1.0,0.45999999999999996,0.54,0.614,0.386,1.0,1.0,1.0,1.0,1.0,1.0,1.0,1.0,1.0
Germany,0.704,1999,0.296,0.0,0.0,1.0,0.0,0.0,1.0,1.0,0.45999999999999996,0.54,0.43700000000000006,0.563,1.0,1.0,1.0,1.0,1.0,1.0,1.0,1.0,1.0
Greece,0.0,1999,1.0,0.0,0.0,0.91,0.09,0.0,1.0,1.0,0.45999999999999996,0.54,0.988,0.012,1.0,1.0,1.0,1.0,1.0,1.0,1.0,1.0,1.0
Hungary,0.9,1999,0.1,0.0,0.0,0.91,0.09,0.0,1.0,1.0,0.45999999999999996,0.54,0.11699999999999999,0.883,1.0,1.0,1.0,1.0,1.0,1.0,1.0,1.0,1.0
Ireland,0.0,1999,0.0,0.0,0.0,0.91,0.09,0.0,1.0,1.0,0.45999999999999996,0.54,0.0,0.0,1.0,1.0,1.0,1.0,1.0,1.0,1.0,1.0,1.0
Italy,0.21799999999999997,1999,0.782,0.0,0.0,1.0,0.0,0.0,1.0,1.0,0.45999999999999996,0.54,0.09899999999999998,0.901,1.0,1.0,1.0,1.0,1.0,1.0,1.0,1.0,1.0
Latvia,0.0,1999,0.0,0.0,0.0,0.91,0.09,0.0,1.0,1.0,0.45999999999999996,0.54,0.0,0.0,1.0,1.0,1.0,1.0,1.0,1.0,1.0,1.0,1.0
Lithuania,0.0,1999,0.0,0.0,0.0,0.91,0.09,0.0,1.0,1.0,0.45999999999999996,0.54,0.0,0.0,1.0,1.0,1.0,1.0,1.0,1.0,1.0,1.0,1.0
Luxembourg,0.0,1999,1.0,0.0,0.0,0.91,0.09,0.0,1.0,1.0,0.45999999999999996,0.54,0.0,0.0,1.0,1.0,1.0,1.0,1.0,1.0,1.0,1.0,1.0
Malta,0.0,1999,0.0,0.0,0.0,0.91,0.09,0.0,1.0,1.0,0.45999999999999996,0.54,0.0,0.0,1.0,1.0,1.0,1.0,1.0,1.0,1.0,1.0,1.0
Netherlands,0.985,1999,0.015,0.0,0.0,0.91,0.09,0.0,1.0,1.0,0.45999999999999996,0.54,0.825,0.175,1.0,1.0,1.0,1.0,1.0,1.0,1.0,1.0,1.0
Poland,0.5780000000000001,1999,0.422,0.0,0.0,1.0,0.0,0.0,1.0,1.0,0.45999999999999996,0.54,0.776,0.224,1.0,1.0,1.0,1.0,1.0,1.0,1.0,1.0,1.0
Portugal,0.0,1999,1.0,0.0,0.0,0.91,0.09,0.0,1.0,1.0,0.45999999999999996,0.54,0.0,1.0,1.0,1.0,1.0,1.0,1.0,1.0,1.0,1.0,1.0
Romania,0.597,1999,0.403,0.0,0.0,0.91,0.09,0.0,1.0,1.0,0.45999999999999996,0.54,0.931,0.069,1.0,1.0,1.0,1.0,1.0,1.0,1.0,1.0,1.0
Slovakia,0.929,1999,0.071,0.0,0.0,0.91,0.09,0.0,1.0,1.0,0.45999999999999996,0.54,1.0,0.0,1.0,1.0,1.0,1.0,1.0,1.0,1.0,1.0,1.0
Slovenia,0.0,1999,1.0,0.0,0.0,0.91,0.09,0.0,1.0,1.0,0.45999999999999996,0.54,0.8200000000000001,0.18,1.0,1.0,1.0,1.0,1.0,1.0,1.0,1.0,1.0
Spain,0.31699999999999995,1999,0.683,0.0,0.0,1.0,0.0,0.0,1.0,1.0,0.45999999999999996,0.54,0.6599999999999999,0.34,1.0,1.0,1.0,1.0,1.0,1.0,1.0,1.0,1.0
Sweden,0.661,1999,0.339,0.0,0.0,0.91,0.09,0.0,1.0,1.0,0.45999999999999996,0.54,0.772,0.228,1.0,1.0,1.0,1.0,1.0,1.0,1.0,1.0,1.0
Switzerland,0.0,1999,0.0,0.0,0.0,0.91,0.09,0.0,1.0,1.0,0.45999999999999996,0.54,0.0,1.0,1.0,1.0,1.0,1.0,1.0,1.0,1.0,1.0,1.0
United Kingdom,0.838,1999,0.162,0.0,0.0,1.0,0.0,0.0,1.0,1.0,0.45999999999999996,0.54,0.483,0.517,1.0,1.0,1.0,1.0,1.0,1.0,1.0,1.0,1.0
Austria,0.913,2000,0.087,0.0,0.0,1.0,0.0,0.0,1.0,1.0,0.45999999999999996,0.54,0.0,1.0,1.0,1.0,1.0,1.0,1.0,1.0,1.0,1.0,1.0
Belgium,0.663,2000,0.337,0.0,0.0,0.91,0.09,0.0,1.0,1.0,0.45999999999999996,0.54,0.0,0.0,1.0,1.0,1.0,1.0,1.0,1.0,1.0,1.0,1.0
Bulgaria,0.0,2000,1.0,0.0,0.0,0.91,0.09,0.0,1.0,1.0,0.45999999999999996,0.54,0.0,1.0,1.0,1.0,1.0,1.0,1.0,1.0,1.0,1.0,1.0
Croatia,0.0,2000,1.0,0.0,0.0,0.91,0.09,0.0,1.0,1.0,0.45999999999999996,0.54,0.0,1.0,1.0,1.0,1.0,1.0,1.0,1.0,1.0,1.0,1.0
Cyprus,0.0,2000,0.0,0.0,0.0,0.91,0.09,0.0,1.0,1.0,0.45999999999999996,0.54,0.0,0.0,1.0,1.0,1.0,1.0,1.0,1.0,1.0,1.0,1.0
Czech Republic,0.9319999999999999,2000,0.068,0.0,0.0,1.0,0.0,0.0,1.0,1.0,0.45999999999999996,0.54,0.0,1.0,1.0,1.0,1.0,1.0,1.0,1.0,1.0,1.0,1.0
Denmark,0.0,2000,0.0,0.0,0.0,0.91,0.09,0.0,1.0,1.0,0.45999999999999996,0.54,0.0,0.0,1.0,1.0,1.0,1.0,1.0,1.0,1.0,1.0,1.0
Estonia,0.0,2000,0.0,0.0,0.0,0.91,0.09,0.0,1.0,1.0,0.45999999999999996,0.54,0.0,0.0,1.0,1.0,1.0,1.0,1.0,1.0,1.0,1.0,1.0
Finland,0.6579999999999999,2000,0.342,0.0,0.0,0.91,0.09,0.0,1.0,1.0,0.45999999999999996,0.54,0.0,1.0,1.0,1.0,1.0,1.0,1.0,1.0,1.0,1.0,1.0
France,0.656,2000,0.344,0.0,0.0,0.73,0.27,0.0,1.0,1.0,0.45999999999999996,0.54,0.614,0.386,1.0,1.0,1.0,1.0,1.0,1.0,1.0,1.0,1.0
Germany,0.704,2000,0.296,0.0,0.0,1.0,0.0,0.0,1.0,1.0,0.45999999999999996,0.54,0.43700000000000006,0.563,1.0,1.0,1.0,1.0,1.0,1.0,1.0,1.0,1.0
Greece,0.0,2000,1.0,0.0,0.0,0.91,0.09,0.0,1.0,1.0,0.45999999999999996,0.54,0.988,0.012,1.0,1.0,1.0,1.0,1.0,1.0,1.0,1.0,1.0
Hungary,0.9,2000,0.1,0.0,0.0,0.91,0.09,0.0,1.0,1.0,0.45999999999999996,0.54,0.11699999999999999,0.883,1.0,1.0,1.0,1.0,1.0,1.0,1.0,1.0,1.0
Ireland,0.0,2000,0.0,0.0,0.0,0.91,0.09,0.0,1.0,1.0,0.45999999999999996,0.54,0.0,0.0,1.0,1.0,1.0,1.0,1.0,1.0,1.0,1.0,1.0
Italy,0.21799999999999997,2000,0.782,0.0,0.0,1.0,0.0,0.0,1.0,1.0,0.45999999999999996,0.54,0.09899999999999998,0.901,1.0,1.0,1.0,1.0,1.0,1.0,1.0,1.0,1.0
Latvia,0.0,2000,0.0,0.0,0.0,0.91,0.09,0.0,1.0,1.0,0.45999999999999996,0.54,0.0,0.0,1.0,1.0,1.0,1.0,1.0,1.0,1.0,1.0,1.0
Lithuania,0.0,2000,0.0,0.0,0.0,0.91,0.09,0.0,1.0,1.0,0.45999999999999996,0.54,0.0,0.0,1.0,1.0,1.0,1.0,1.0,1.0,1.0,1.0,1.0
Luxembourg,0.0,2000,1.0,0.0,0.0,0.91,0.09,0.0,1.0,1.0,0.45999999999999996,0.54,0.0,0.0,1.0,1.0,1.0,1.0,1.0,1.0,1.0,1.0,1.0
Malta,0.0,2000,0.0,0.0,0.0,0.91,0.09,0.0,1.0,1.0,0.45999999999999996,0.54,0.0,0.0,1.0,1.0,1.0,1.0,1.0,1.0,1.0,1.0,1.0
Netherlands,0.985,2000,0.015,0.0,0.0,0.91,0.09,0.0,1.0,1.0,0.45999999999999996,0.54,0.825,0.175,1.0,1.0,1.0,1.0,1.0,1.0,1.0,1.0,1.0
Poland,0.5780000000000001,2000,0.422,0.0,0.0,1.0,0.0,0.0,1.0,1.0,0.45999999999999996,0.54,0.776,0.224,1.0,1.0,1.0,1.0,1.0,1.0,1.0,1.0,1.0
Portugal,0.0,2000,1.0,0.0,0.0,0.91,0.09,0.0,1.0,1.0,0.45999999999999996,0.54,0.0,1.0,1.0,1.0,1.0,1.0,1.0,1.0,1.0,1.0,1.0
Romania,0.597,2000,0.403,0.0,0.0,0.91,0.09,0.0,1.0,1.0,0.45999999999999996,0.54,0.931,0.069,1.0,1.0,1.0,1.0,1.0,1.0,1.0,1.0,1.0
Slovakia,0.929,2000,0.071,0.0,0.0,0.91,0.09,0.0,1.0,1.0,0.45999999999999996,0.54,1.0,0.0,1.0,1.0,1.0,1.0,1.0,1.0,1.0,1.0,1.0
Slovenia,0.0,2000,1.0,0.0,0.0,0.91,0.09,0.0,1.0,1.0,0.45999999999999996,0.54,0.8200000000000001,0.18,1.0,1.0,1.0,1.0,1.0,1.0,1.0,1.0,1.0
Spain,0.31699999999999995,2000,0.683,0.0,0.0,1.0,0.0,0.0,1.0,1.0,0.45999999999999996,0.54,0.6599999999999999,0.34,1.0,1.0,1.0,1.0,1.0,1.0,1.0,1.0,1.0
Sweden,0.661,2000,0.339,0.0,0.0,0.91,0.09,0.0,1.0,1.0,0.45999999999999996,0.54,0.772,0.228,1.0,1.0,1.0,1.0,1.0,1.0,1.0,1.0,1.0
Switzerland,0.0,2000,0.0,0.0,0.0,0.91,0.09,0.0,1.0,1.0,0.45999999999999996,0.54,0.0,1.0,1.0,1.0,1.0,1.0,1.0,1.0,1.0,1.0,1.0
United Kingdom,0.838,2000,0.162,0.0,0.0,1.0,0.0,0.0,1.0,1.0,0.45999999999999996,0.54,0.483,0.517,1.0,1.0,1.0,1.0,1.0,1.0,1.0,1.0,1.0
Austria,0.913,2001,0.087,0.0,0.0,1.0,0.0,0.0,1.0,1.0,0.45999999999999996,0.54,0.0,1.0,1.0,1.0,1.0,1.0,1.0,1.0,1.0,1.0,1.0
Belgium,0.663,2001,0.337,0.0,0.0,0.91,0.09,0.0,1.0,1.0,0.45999999999999996,0.54,0.0,0.0,1.0,1.0,1.0,1.0,1.0,1.0,1.0,1.0,1.0
Bulgaria,0.0,2001,1.0,0.0,0.0,0.91,0.09,0.0,1.0,1.0,0.45999999999999996,0.54,0.0,1.0,1.0,1.0,1.0,1.0,1.0,1.0,1.0,1.0,1.0
Croatia,0.0,2001,1.0,0.0,0.0,0.91,0.09,0.0,1.0,1.0,0.45999999999999996,0.54,0.0,1.0,1.0,1.0,1.0,1.0,1.0,1.0,1.0,1.0,1.0
Cyprus,0.0,2001,0.0,0.0,0.0,0.91,0.09,0.0,1.0,1.0,0.45999999999999996,0.54,0.0,0.0,1.0,1.0,1.0,1.0,1.0,1.0,1.0,1.0,1.0
Czech Republic,0.9319999999999999,2001,0.068,0.0,0.0,1.0,0.0,0.0,1.0,1.0,0.45999999999999996,0.54,0.0,1.0,1.0,1.0,1.0,1.0,1.0,1.0,1.0,1.0,1.0
Denmark,0.0,2001,0.0,0.0,0.0,0.91,0.09,0.0,1.0,1.0,0.45999999999999996,0.54,0.0,0.0,1.0,1.0,1.0,1.0,1.0,1.0,1.0,1.0,1.0
Estonia,0.0,2001,0.0,0.0,0.0,0.91,0.09,0.0,1.0,1.0,0.45999999999999996,0.54,0.0,0.0,1.0,1.0,1.0,1.0,1.0,1.0,1.0,1.0,1.0
Finland,0.6579999999999999,2001,0.342,0.0,0.0,0.91,0.09,0.0,1.0,1.0,0.45999999999999996,0.54,0.0,1.0,1.0,1.0,1.0,1.0,1.0,1.0,1.0,1.0,1.0
France,0.656,2001,0.344,0.0,0.0,0.73,0.27,0.0,1.0,1.0,0.45999999999999996,0.54,0.614,0.386,1.0,1.0,1.0,1.0,1.0,1.0,1.0,1.0,1.0
Germany,0.704,2001,0.296,0.0,0.0,1.0,0.0,0.0,1.0,1.0,0.45999999999999996,0.54,0.43700000000000006,0.563,1.0,1.0,1.0,1.0,1.0,1.0,1.0,1.0,1.0
Greece,0.0,2001,1.0,0.0,0.0,0.91,0.09,0.0,1.0,1.0,0.45999999999999996,0.54,0.988,0.012,1.0,1.0,1.0,1.0,1.0,1.0,1.0,1.0,1.0
Hungary,0.9,2001,0.1,0.0,0.0,0.91,0.09,0.0,1.0,1.0,0.45999999999999996,0.54,0.11699999999999999,0.883,1.0,1.0,1.0,1.0,1.0,1.0,1.0,1.0,1.0
Ireland,0.0,2001,0.0,0.0,0.0,0.91,0.09,0.0,1.0,1.0,0.45999999999999996,0.54,0.0,0.0,1.0,1.0,1.0,1.0,1.0,1.0,1.0,1.0,1.0
Italy,0.21799999999999997,2001,0.782,0.0,0.0,1.0,0.0,0.0,1.0,1.0,0.45999999999999996,0.54,0.09899999999999998,0.901,1.0,1.0,1.0,1.0,1.0,1.0,1.0,1.0,1.0
Latvia,0.0,2001,0.0,0.0,0.0,0.91,0.09,0.0,1.0,1.0,0.45999999999999996,0.54,0.0,0.0,1.0,1.0,1.0,1.0,1.0,1.0,1.0,1.0,1.0
Lithuania,0.0,2001,0.0,0.0,0.0,0.91,0.09,0.0,1.0,1.0,0.45999999999999996,0.54,0.0,0.0,1.0,1.0,1.0,1.0,1.0,1.0,1.0,1.0,1.0
Luxembourg,0.0,2001,1.0,0.0,0.0,0.91,0.09,0.0,1.0,1.0,0.45999999999999996,0.54,0.0,0.0,1.0,1.0,1.0,1.0,1.0,1.0,1.0,1.0,1.0
Malta,0.0,2001,0.0,0.0,0.0,0.91,0.09,0.0,1.0,1.0,0.45999999999999996,0.54,0.0,0.0,1.0,1.0,1.0,1.0,1.0,1.0,1.0,1.0,1.0
Netherlands,0.985,2001,0.015,0.0,0.0,0.91,0.09,0.0,1.0,1.0,0.45999999999999996,0.54,0.825,0.175,1.0,1.0,1.0,1.0,1.0,1.0,1.0,1.0,1.0
Poland,0.5780000000000001,2001,0.422,0.0,0.0,1.0,0.0,0.0,1.0,1.0,0.45999999999999996,0.54,0.776,0.224,1.0,1.0,1.0,1.0,1.0,1.0,1.0,1.0,1.0
Portugal,0.0,2001,1.0,0.0,0.0,0.91,0.09,0.0,1.0,1.0,0.45999999999999996,0.54,0.0,1.0,1.0,1.0,1.0,1.0,1.0,1.0,1.0,1.0,1.0
Romania,0.597,2001,0.403,0.0,0.0,0.91,0.09,0.0,1.0,1.0,0.45999999999999996,0.54,0.931,0.069,1.0,1.0,1.0,1.0,1.0,1.0,1.0,1.0,1.0
Slovakia,0.929,2001,0.071,0.0,0.0,0.91,0.09,0.0,1.0,1.0,0.45999999999999996,0.54,1.0,0.0,1.0,1.0,1.0,1.0,1.0,1.0,1.0,1.0,1.0
Slovenia,0.0,2001,1.0,0.0,0.0,0.91,0.09,0.0,1.0,1.0,0.45999999999999996,0.54,0.8200000000000001,0.18,1.0,1.0,1.0,1.0,1.0,1.0,1.0,1.0,1.0
Spain,0.31699999999999995,2001,0.683,0.0,0.0,1.0,0.0,0.0,1.0,1.0,0.45999999999999996,0.54,0.6599999999999999,0.34,1.0,1.0,1.0,1.0,1.0,1.0,1.0,1.0,1.0
Sweden,0.661,2001,0.339,0.0,0.0,0.91,0.09,0.0,1.0,1.0,0.45999999999999996,0.54,0.772,0.228,1.0,1.0,1.0,1.0,1.0,1.0,1.0,1.0,1.0
Switzerland,0.0,2001,0.0,0.0,0.0,0.91,0.09,0.0,1.0,1.0,0.45999999999999996,0.54,0.0,1.0,1.0,1.0,1.0,1.0,1.0,1.0,1.0,1.0,1.0
United Kingdom,0.838,2001,0.162,0.0,0.0,1.0,0.0,0.0,1.0,1.0,0.45999999999999996,0.54,0.483,0.517,1.0,1.0,1.0,1.0,1.0,1.0,1.0,1.0,1.0
Austria,0.913,2002,0.087,0.0,0.0,1.0,0.0,0.0,1.0,1.0,0.45999999999999996,0.54,0.0,1.0,1.0,1.0,1.0,1.0,1.0,1.0,1.0,1.0,1.0
Belgium,0.663,2002,0.337,0.0,0.0,0.91,0.09,0.0,1.0,1.0,0.45999999999999996,0.54,0.0,0.0,1.0,1.0,1.0,1.0,1.0,1.0,1.0,1.0,1.0
Bulgaria,0.0,2002,1.0,0.0,0.0,0.91,0.09,0.0,1.0,1.0,0.45999999999999996,0.54,0.0,1.0,1.0,1.0,1.0,1.0,1.0,1.0,1.0,1.0,1.0
Croatia,0.0,2002,1.0,0.0,0.0,0.91,0.09,0.0,1.0,1.0,0.45999999999999996,0.54,0.0,1.0,1.0,1.0,1.0,1.0,1.0,1.0,1.0,1.0,1.0
Cyprus,0.0,2002,0.0,0.0,0.0,0.91,0.09,0.0,1.0,1.0,0.45999999999999996,0.54,0.0,0.0,1.0,1.0,1.0,1.0,1.0,1.0,1.0,1.0,1.0
Czech Republic,0.9319999999999999,2002,0.068,0.0,0.0,1.0,0.0,0.0,1.0,1.0,0.45999999999999996,0.54,0.0,1.0,1.0,1.0,1.0,1.0,1.0,1.0,1.0,1.0,1.0
Denmark,0.0,2002,0.0,0.0,0.0,0.91,0.09,0.0,1.0,1.0,0.45999999999999996,0.54,0.0,0.0,1.0,1.0,1.0,1.0,1.0,1.0,1.0,1.0,1.0
Estonia,0.0,2002,0.0,0.0,0.0,0.91,0.09,0.0,1.0,1.0,0.45999999999999996,0.54,0.0,0.0,1.0,1.0,1.0,1.0,1.0,1.0,1.0,1.0,1.0
Finland,0.6579999999999999,2002,0.342,0.0,0.0,0.91,0.09,0.0,1.0,1.0,0.45999999999999996,0.54,0.0,1.0,1.0,1.0,1.0,1.0,1.0,1.0,1.0,1.0,1.0
France,0.656,2002,0.344,0.0,0.0,0.73,0.27,0.0,1.0,1.0,0.45999999999999996,0.54,0.614,0.386,1.0,1.0,1.0,1.0,1.0,1.0,1.0,1.0,1.0
Germany,0.704,2002,0.296,0.0,0.0,1.0,0.0,0.0,1.0,1.0,0.45999999999999996,0.54,0.43700000000000006,0.563,1.0,1.0,1.0,1.0,1.0,1.0,1.0,1.0,1.0
Greece,0.0,2002,1.0,0.0,0.0,0.91,0.09,0.0,1.0,1.0,0.45999999999999996,0.54,0.988,0.012,1.0,1.0,1.0,1.0,1.0,1.0,1.0,1.0,1.0
Hungary,0.9,2002,0.1,0.0,0.0,0.91,0.09,0.0,1.0,1.0,0.45999999999999996,0.54,0.11699999999999999,0.883,1.0,1.0,1.0,1.0,1.0,1.0,1.0,1.0,1.0
Ireland,0.0,2002,0.0,0.0,0.0,0.91,0.09,0.0,1.0,1.0,0.45999999999999996,0.54,0.0,0.0,1.0,1.0,1.0,1.0,1.0,1.0,1.0,1.0,1.0
Italy,0.21799999999999997,2002,0.782,0.0,0.0,1.0,0.0,0.0,1.0,1.0,0.45999999999999996,0.54,0.09899999999999998,0.901,1.0,1.0,1.0,1.0,1.0,1.0,1.0,1.0,1.0
Latvia,0.0,2002,0.0,0.0,0.0,0.91,0.09,0.0,1.0,1.0,0.45999999999999996,0.54,0.0,0.0,1.0,1.0,1.0,1.0,1.0,1.0,1.0,1.0,1.0
Lithuania,0.0,2002,0.0,0.0,0.0,0.91,0.09,0.0,1.0,1.0,0.45999999999999996,0.54,0.0,0.0,1.0,1.0,1.0,1.0,1.0,1.0,1.0,1.0,1.0
Luxembourg,0.0,2002,1.0,0.0,0.0,0.91,0.09,0.0,1.0,1.0,0.45999999999999996,0.54,0.0,0.0,1.0,1.0,1.0,1.0,1.0,1.0,1.0,1.0,1.0
Malta,0.0,2002,0.0,0.0,0.0,0.91,0.09,0.0,1.0,1.0,0.45999999999999996,0.54,0.0,0.0,1.0,1.0,1.0,1.0,1.0,1.0,1.0,1.0,1.0
Netherlands,0.985,2002,0.015,0.0,0.0,0.91,0.09,0.0,1.0,1.0,0.45999999999999996,0.54,0.825,0.175,1.0,1.0,1.0,1.0,1.0,1.0,1.0,1.0,1.0
Poland,0.5780000000000001,2002,0.422,0.0,0.0,1.0,0.0,0.0,1.0,1.0,0.45999999999999996,0.54,0.776,0.224,1.0,1.0,1.0,1.0,1.0,1.0,1.0,1.0,1.0
Portugal,0.0,2002,1.0,0.0,0.0,0.91,0.09,0.0,1.0,1.0,0.45999999999999996,0.54,0.0,1.0,1.0,1.0,1.0,1.0,1.0,1.0,1.0,1.0,1.0
Romania,0.597,2002,0.403,0.0,0.0,0.91,0.09,0.0,1.0,1.0,0.45999999999999996,0.54,0.931,0.069,1.0,1.0,1.0,1.0,1.0,1.0,1.0,1.0,1.0
Slovakia,0.929,2002,0.071,0.0,0.0,0.91,0.09,0.0,1.0,1.0,0.45999999999999996,0.54,1.0,0.0,1.0,1.0,1.0,1.0,1.0,1.0,1.0,1.0,1.0
Slovenia,0.0,2002,1.0,0.0,0.0,0.91,0.09,0.0,1.0,1.0,0.45999999999999996,0.54,0.8200000000000001,0.18,1.0,1.0,1.0,1.0,1.0,1.0,1.0,1.0,1.0
Spain,0.31699999999999995,2002,0.683,0.0,0.0,1.0,0.0,0.0,1.0,1.0,0.45999999999999996,0.54,0.6599999999999999,0.34,1.0,1.0,1.0,1.0,1.0,1.0,1.0,1.0,1.0
Sweden,0.661,2002,0.339,0.0,0.0,0.91,0.09,0.0,1.0,1.0,0.45999999999999996,0.54,0.772,0.228,1.0,1.0,1.0,1.0,1.0,1.0,1.0,1.0,1.0
Switzerland,0.0,2002,0.0,0.0,0.0,0.91,0.09,0.0,1.0,1.0,0.45999999999999996,0.54,0.0,1.0,1.0,1.0,1.0,1.0,1.0,1.0,1.0,1.0,1.0
United Kingdom,0.838,2002,0.162,0.0,0.0,1.0,0.0,0.0,1.0,1.0,0.45999999999999996,0.54,0.483,0.517,1.0,1.0,1.0,1.0,1.0,1.0,1.0,1.0,1.0
Austria,0.913,2003,0.087,0.0,0.0,1.0,0.0,0.0,1.0,1.0,0.45999999999999996,0.54,0.0,1.0,1.0,1.0,1.0,1.0,1.0,1.0,1.0,1.0,1.0
Belgium,0.663,2003,0.337,0.0,0.0,0.91,0.09,0.0,1.0,1.0,0.45999999999999996,0.54,0.0,0.0,1.0,1.0,1.0,1.0,1.0,1.0,1.0,1.0,1.0
Bulgaria,0.0,2003,1.0,0.0,0.0,0.91,0.09,0.0,1.0,1.0,0.45999999999999996,0.54,0.0,1.0,1.0,1.0,1.0,1.0,1.0,1.0,1.0,1.0,1.0
Croatia,0.0,2003,1.0,0.0,0.0,0.91,0.09,0.0,1.0,1.0,0.45999999999999996,0.54,0.0,1.0,1.0,1.0,1.0,1.0,1.0,1.0,1.0,1.0,1.0
Cyprus,0.0,2003,0.0,0.0,0.0,0.91,0.09,0.0,1.0,1.0,0.45999999999999996,0.54,0.0,0.0,1.0,1.0,1.0,1.0,1.0,1.0,1.0,1.0,1.0
Czech Republic,0.9319999999999999,2003,0.068,0.0,0.0,1.0,0.0,0.0,1.0,1.0,0.45999999999999996,0.54,0.0,1.0,1.0,1.0,1.0,1.0,1.0,1.0,1.0,1.0,1.0
Denmark,0.0,2003,0.0,0.0,0.0,0.91,0.09,0.0,1.0,1.0,0.45999999999999996,0.54,0.0,0.0,1.0,1.0,1.0,1.0,1.0,1.0,1.0,1.0,1.0
Estonia,0.0,2003,0.0,0.0,0.0,0.91,0.09,0.0,1.0,1.0,0.45999999999999996,0.54,0.0,0.0,1.0,1.0,1.0,1.0,1.0,1.0,1.0,1.0,1.0
Finland,0.6579999999999999,2003,0.342,0.0,0.0,0.91,0.09,0.0,1.0,1.0,0.45999999999999996,0.54,0.0,1.0,1.0,1.0,1.0,1.0,1.0,1.0,1.0,1.0,1.0
France,0.656,2003,0.344,0.0,0.0,0.73,0.27,0.0,1.0,1.0,0.45999999999999996,0.54,0.614,0.386,1.0,1.0,1.0,1.0,1.0,1.0,1.0,1.0,1.0
Germany,0.704,2003,0.296,0.0,0.0,1.0,0.0,0.0,1.0,1.0,0.45999999999999996,0.54,0.43700000000000006,0.563,1.0,1.0,1.0,1.0,1.0,1.0,1.0,1.0,1.0
Greece,0.0,2003,1.0,0.0,0.0,0.91,0.09,0.0,1.0,1.0,0.45999999999999996,0.54,0.988,0.012,1.0,1.0,1.0,1.0,1.0,1.0,1.0,1.0,1.0
Hungary,0.9,2003,0.1,0.0,0.0,0.91,0.09,0.0,1.0,1.0,0.45999999999999996,0.54,0.11699999999999999,0.883,1.0,1.0,1.0,1.0,1.0,1.0,1.0,1.0,1.0
Ireland,0.0,2003,0.0,0.0,0.0,0.91,0.09,0.0,1.0,1.0,0.45999999999999996,0.54,0.0,0.0,1.0,1.0,1.0,1.0,1.0,1.0,1.0,1.0,1.0
Italy,0.21799999999999997,2003,0.782,0.0,0.0,1.0,0.0,0.0,1.0,1.0,0.45999999999999996,0.54,0.09899999999999998,0.901,1.0,1.0,1.0,1.0,1.0,1.0,1.0,1.0,1.0
Latvia,0.0,2003,0.0,0.0,0.0,0.91,0.09,0.0,1.0,1.0,0.45999999999999996,0.54,0.0,0.0,1.0,1.0,1.0,1.0,1.0,1.0,1.0,1.0,1.0
Lithuania,0.0,2003,0.0,0.0,0.0,0.91,0.09,0.0,1.0,1.0,0.45999999999999996,0.54,0.0,0.0,1.0,1.0,1.0,1.0,1.0,1.0,1.0,1.0,1.0
Luxembourg,0.0,2003,1.0,0.0,0.0,0.91,0.09,0.0,1.0,1.0,0.45999999999999996,0.54,0.0,0.0,1.0,1.0,1.0,1.0,1.0,1.0,1.0,1.0,1.0
Malta,0.0,2003,0.0,0.0,0.0,0.91,0.09,0.0,1.0,1.0,0.45999999999999996,0.54,0.0,0.0,1.0,1.0,1.0,1.0,1.0,1.0,1.0,1.0,1.0
Netherlands,0.985,2003,0.015,0.0,0.0,0.91,0.09,0.0,1.0,1.0,0.45999999999999996,0.54,0.825,0.175,1.0,1.0,1.0,1.0,1.0,1.0,1.0,1.0,1.0
Poland,0.5780000000000001,2003,0.422,0.0,0.0,1.0,0.0,0.0,1.0,1.0,0.45999999999999996,0.54,0.776,0.224,1.0,1.0,1.0,1.0,1.0,1.0,1.0,1.0,1.0
Portugal,0.0,2003,1.0,0.0,0.0,0.91,0.09,0.0,1.0,1.0,0.45999999999999996,0.54,0.0,1.0,1.0,1.0,1.0,1.0,1.0,1.0,1.0,1.0,1.0
Romania,0.597,2003,0.403,0.0,0.0,0.91,0.09,0.0,1.0,1.0,0.45999999999999996,0.54,0.931,0.069,1.0,1.0,1.0,1.0,1.0,1.0,1.0,1.0,1.0
Slovakia,0.929,2003,0.071,0.0,0.0,0.91,0.09,0.0,1.0,1.0,0.45999999999999996,0.54,1.0,0.0,1.0,1.0,1.0,1.0,1.0,1.0,1.0,1.0,1.0
Slovenia,0.0,2003,1.0,0.0,0.0,0.91,0.09,0.0,1.0,1.0,0.45999999999999996,0.54,0.8200000000000001,0.18,1.0,1.0,1.0,1.0,1.0,1.0,1.0,1.0,1.0
Spain,0.31699999999999995,2003,0.683,0.0,0.0,1.0,0.0,0.0,1.0,1.0,0.45999999999999996,0.54,0.6599999999999999,0.34,1.0,1.0,1.0,1.0,1.0,1.0,1.0,1.0,1.0
Sweden,0.661,2003,0.339,0.0,0.0,0.91,0.09,0.0,1.0,1.0,0.45999999999999996,0.54,0.772,0.228,1.0,1.0,1.0,1.0,1.0,1.0,1.0,1.0,1.0
Switzerland,0.0,2003,0.0,0.0,0.0,0.91,0.09,0.0,1.0,1.0,0.45999999999999996,0.54,0.0,1.0,1.0,1.0,1.0,1.0,1.0,1.0,1.0,1.0,1.0
United Kingdom,0.838,2003,0.162,0.0,0.0,1.0,0.0,0.0,1.0,1.0,0.45999999999999996,0.54,0.483,0.517,1.0,1.0,1.0,1.0,1.0,1.0,1.0,1.0,1.0
Austria,0.913,2004,0.087,0.0,0.0,1.0,0.0,0.0,1.0,1.0,0.45999999999999996,0.54,0.0,1.0,1.0,1.0,1.0,1.0,1.0,1.0,1.0,1.0,1.0
Belgium,0.663,2004,0.337,0.0,0.0,0.91,0.09,0.0,1.0,1.0,0.45999999999999996,0.54,0.0,0.0,1.0,1.0,1.0,1.0,1.0,1.0,1.0,1.0,1.0
Bulgaria,0.0,2004,1.0,0.0,0.0,0.91,0.09,0.0,1.0,1.0,0.45999999999999996,0.54,0.0,1.0,1.0,1.0,1.0,1.0,1.0,1.0,1.0,1.0,1.0
Croatia,0.0,2004,1.0,0.0,0.0,0.91,0.09,0.0,1.0,1.0,0.45999999999999996,0.54,0.0,1.0,1.0,1.0,1.0,1.0,1.0,1.0,1.0,1.0,1.0
Cyprus,0.0,2004,0.0,0.0,0.0,0.91,0.09,0.0,1.0,1.0,0.45999999999999996,0.54,0.0,0.0,1.0,1.0,1.0,1.0,1.0,1.0,1.0,1.0,1.0
Czech Republic,0.9319999999999999,2004,0.068,0.0,0.0,1.0,0.0,0.0,1.0,1.0,0.45999999999999996,0.54,0.0,1.0,1.0,1.0,1.0,1.0,1.0,1.0,1.0,1.0,1.0
Denmark,0.0,2004,0.0,0.0,0.0,0.91,0.09,0.0,1.0,1.0,0.45999999999999996,0.54,0.0,0.0,1.0,1.0,1.0,1.0,1.0,1.0,1.0,1.0,1.0
Estonia,0.0,2004,0.0,0.0,0.0,0.91,0.09,0.0,1.0,1.0,0.45999999999999996,0.54,0.0,0.0,1.0,1.0,1.0,1.0,1.0,1.0,1.0,1.0,1.0
Finland,0.6579999999999999,2004,0.342,0.0,0.0,0.91,0.09,0.0,1.0,1.0,0.45999999999999996,0.54,0.0,1.0,1.0,1.0,1.0,1.0,1.0,1.0,1.0,1.0,1.0
France,0.656,2004,0.344,0.0,0.0,0.73,0.27,0.0,1.0,1.0,0.45999999999999996,0.54,0.614,0.386,1.0,1.0,1.0,1.0,1.0,1.0,1.0,1.0,1.0
Germany,0.704,2004,0.296,0.0,0.0,1.0,0.0,0.0,1.0,1.0,0.45999999999999996,0.54,0.43700000000000006,0.563,1.0,1.0,1.0,1.0,1.0,1.0,1.0,1.0,1.0
Greece,0.0,2004,1.0,0.0,0.0,0.91,0.09,0.0,1.0,1.0,0.45999999999999996,0.54,0.988,0.012,1.0,1.0,1.0,1.0,1.0,1.0,1.0,1.0,1.0
Hungary,0.9,2004,0.1,0.0,0.0,0.91,0.09,0.0,1.0,1.0,0.45999999999999996,0.54,0.11699999999999999,0.883,1.0,1.0,1.0,1.0,1.0,1.0,1.0,1.0,1.0
Ireland,0.0,2004,0.0,0.0,0.0,0.91,0.09,0.0,1.0,1.0,0.45999999999999996,0.54,0.0,0.0,1.0,1.0,1.0,1.0,1.0,1.0,1.0,1.0,1.0
Italy,0.21799999999999997,2004,0.782,0.0,0.0,1.0,0.0,0.0,1.0,1.0,0.45999999999999996,0.54,0.09899999999999998,0.901,1.0,1.0,1.0,1.0,1.0,1.0,1.0,1.0,1.0
Latvia,0.0,2004,0.0,0.0,0.0,0.91,0.09,0.0,1.0,1.0,0.45999999999999996,0.54,0.0,0.0,1.0,1.0,1.0,1.0,1.0,1.0,1.0,1.0,1.0
Lithuania,0.0,2004,0.0,0.0,0.0,0.91,0.09,0.0,1.0,1.0,0.45999999999999996,0.54,0.0,0.0,1.0,1.0,1.0,1.0,1.0,1.0,1.0,1.0,1.0
Luxembourg,0.0,2004,1.0,0.0,0.0,0.91,0.09,0.0,1.0,1.0,0.45999999999999996,0.54,0.0,0.0,1.0,1.0,1.0,1.0,1.0,1.0,1.0,1.0,1.0
Malta,0.0,2004,0.0,0.0,0.0,0.91,0.09,0.0,1.0,1.0,0.45999999999999996,0.54,0.0,0.0,1.0,1.0,1.0,1.0,1.0,1.0,1.0,1.0,1.0
Netherlands,0.985,2004,0.015,0.0,0.0,0.91,0.09,0.0,1.0,1.0,0.45999999999999996,0.54,0.825,0.175,1.0,1.0,1.0,1.0,1.0,1.0,1.0,1.0,1.0
Poland,0.5780000000000001,2004,0.422,0.0,0.0,1.0,0.0,0.0,1.0,1.0,0.45999999999999996,0.54,0.776,0.224,1.0,1.0,1.0,1.0,1.0,1.0,1.0,1.0,1.0
Portugal,0.0,2004,1.0,0.0,0.0,0.91,0.09,0.0,1.0,1.0,0.45999999999999996,0.54,0.0,1.0,1.0,1.0,1.0,1.0,1.0,1.0,1.0,1.0,1.0
Romania,0.597,2004,0.403,0.0,0.0,0.91,0.09,0.0,1.0,1.0,0.45999999999999996,0.54,0.931,0.069,1.0,1.0,1.0,1.0,1.0,1.0,1.0,1.0,1.0
Slovakia,0.929,2004,0.071,0.0,0.0,0.91,0.09,0.0,1.0,1.0,0.45999999999999996,0.54,1.0,0.0,1.0,1.0,1.0,1.0,1.0,1.0,1.0,1.0,1.0
Slovenia,0.0,2004,1.0,0.0,0.0,0.91,0.09,0.0,1.0,1.0,0.45999999999999996,0.54,0.8200000000000001,0.18,1.0,1.0,1.0,1.0,1.0,1.0,1.0,1.0,1.0
Spain,0.31699999999999995,2004,0.683,0.0,0.0,1.0,0.0,0.0,1.0,1.0,0.45999999999999996,0.54,0.6599999999999999,0.34,1.0,1.0,1.0,1.0,1.0,1.0,1.0,1.0,1.0
Sweden,0.661,2004,0.339,0.0,0.0,0.91,0.09,0.0,1.0,1.0,0.45999999999999996,0.54,0.772,0.228,1.0,1.0,1.0,1.0,1.0,1.0,1.0,1.0,1.0
Switzerland,0.0,2004,0.0,0.0,0.0,0.91,0.09,0.0,1.0,1.0,0.45999999999999996,0.54,0.0,1.0,1.0,1.0,1.0,1.0,1.0,1.0,1.0,1.0,1.0
United Kingdom,0.838,2004,0.162,0.0,0.0,1.0,0.0,0.0,1.0,1.0,0.45999999999999996,0.54,0.483,0.517,1.0,1.0,1.0,1.0,1.0,1.0,1.0,1.0,1.0
Austria,0.913,2005,0.087,0.0,0.0,1.0,0.0,0.0,1.0,1.0,0.45999999999999996,0.54,0.0,1.0,1.0,1.0,1.0,1.0,1.0,1.0,1.0,1.0,1.0
Belgium,0.663,2005,0.337,0.0,0.0,0.91,0.09,0.0,1.0,1.0,0.45999999999999996,0.54,0.0,0.0,1.0,1.0,1.0,1.0,1.0,1.0,1.0,1.0,1.0
Bulgaria,0.0,2005,1.0,0.0,0.0,0.91,0.09,0.0,1.0,1.0,0.45999999999999996,0.54,0.0,1.0,1.0,1.0,1.0,1.0,1.0,1.0,1.0,1.0,1.0
Croatia,0.0,2005,1.0,0.0,0.0,0.91,0.09,0.0,1.0,1.0,0.45999999999999996,0.54,0.0,1.0,1.0,1.0,1.0,1.0,1.0,1.0,1.0,1.0,1.0
Cyprus,0.0,2005,0.0,0.0,0.0,0.91,0.09,0.0,1.0,1.0,0.45999999999999996,0.54,0.0,0.0,1.0,1.0,1.0,1.0,1.0,1.0,1.0,1.0,1.0
Czech Republic,0.9319999999999999,2005,0.068,0.0,0.0,1.0,0.0,0.0,1.0,1.0,0.45999999999999996,0.54,0.0,1.0,1.0,1.0,1.0,1.0,1.0,1.0,1.0,1.0,1.0
Denmark,0.0,2005,0.0,0.0,0.0,0.91,0.09,0.0,1.0,1.0,0.45999999999999996,0.54,0.0,0.0,1.0,1.0,1.0,1.0,1.0,1.0,1.0,1.0,1.0
Estonia,0.0,2005,0.0,0.0,0.0,0.91,0.09,0.0,1.0,1.0,0.45999999999999996,0.54,0.0,0.0,1.0,1.0,1.0,1.0,1.0,1.0,1.0,1.0,1.0
Finland,0.6579999999999999,2005,0.342,0.0,0.0,0.91,0.09,0.0,1.0,1.0,0.45999999999999996,0.54,0.0,1.0,1.0,1.0,1.0,1.0,1.0,1.0,1.0,1.0,1.0
France,0.656,2005,0.344,0.0,0.0,0.73,0.27,0.0,1.0,1.0,0.45999999999999996,0.54,0.614,0.386,1.0,1.0,1.0,1.0,1.0,1.0,1.0,1.0,1.0
Germany,0.704,2005,0.296,0.0,0.0,1.0,0.0,0.0,1.0,1.0,0.45999999999999996,0.54,0.43700000000000006,0.563,1.0,1.0,1.0,1.0,1.0,1.0,1.0,1.0,1.0
Greece,0.0,2005,1.0,0.0,0.0,0.91,0.09,0.0,1.0,1.0,0.45999999999999996,0.54,0.988,0.012,1.0,1.0,1.0,1.0,1.0,1.0,1.0,1.0,1.0
Hungary,0.9,2005,0.1,0.0,0.0,0.91,0.09,0.0,1.0,1.0,0.45999999999999996,0.54,0.11699999999999999,0.883,1.0,1.0,1.0,1.0,1.0,1.0,1.0,1.0,1.0
Ireland,0.0,2005,0.0,0.0,0.0,0.91,0.09,0.0,1.0,1.0,0.45999999999999996,0.54,0.0,0.0,1.0,1.0,1.0,1.0,1.0,1.0,1.0,1.0,1.0
Italy,0.21799999999999997,2005,0.782,0.0,0.0,1.0,0.0,0.0,1.0,1.0,0.45999999999999996,0.54,0.09899999999999998,0.901,1.0,1.0,1.0,1.0,1.0,1.0,1.0,1.0,1.0
Latvia,0.0,2005,0.0,0.0,0.0,0.91,0.09,0.0,1.0,1.0,0.45999999999999996,0.54,0.0,0.0,1.0,1.0,1.0,1.0,1.0,1.0,1.0,1.0,1.0
Lithuania,0.0,2005,0.0,0.0,0.0,0.91,0.09,0.0,1.0,1.0,0.45999999999999996,0.54,0.0,0.0,1.0,1.0,1.0,1.0,1.0,1.0,1.0,1.0,1.0
Luxembourg,0.0,2005,1.0,0.0,0.0,0.91,0.09,0.0,1.0,1.0,0.45999999999999996,0.54,0.0,0.0,1.0,1.0,1.0,1.0,1.0,1.0,1.0,1.0,1.0
Malta,0.0,2005,0.0,0.0,0.0,0.91,0.09,0.0,1.0,1.0,0.45999999999999996,0.54,0.0,0.0,1.0,1.0,1.0,1.0,1.0,1.0,1.0,1.0,1.0
Netherlands,0.985,2005,0.015,0.0,0.0,0.91,0.09,0.0,1.0,1.0,0.45999999999999996,0.54,0.825,0.175,1.0,1.0,1.0,1.0,1.0,1.0,1.0,1.0,1.0
Poland,0.5780000000000001,2005,0.422,0.0,0.0,1.0,0.0,0.0,1.0,1.0,0.45999999999999996,0.54,0.776,0.224,1.0,1.0,1.0,1.0,1.0,1.0,1.0,1.0,1.0
Portugal,0.0,2005,1.0,0.0,0.0,0.91,0.09,0.0,1.0,1.0,0.45999999999999996,0.54,0.0,1.0,1.0,1.0,1.0,1.0,1.0,1.0,1.0,1.0,1.0
Romania,0.597,2005,0.403,0.0,0.0,0.91,0.09,0.0,1.0,1.0,0.45999999999999996,0.54,0.931,0.069,1.0,1.0,1.0,1.0,1.0,1.0,1.0,1.0,1.0
Slovakia,0.929,2005,0.071,0.0,0.0,0.91,0.09,0.0,1.0,1.0,0.45999999999999996,0.54,1.0,0.0,1.0,1.0,1.0,1.0,1.0,1.0,1.0,1.0,1.0
Slovenia,0.0,2005,1.0,0.0,0.0,0.91,0.09,0.0,1.0,1.0,0.45999999999999996,0.54,0.8200000000000001,0.18,1.0,1.0,1.0,1.0,1.0,1.0,1.0,1.0,1.0
Spain,0.31699999999999995,2005,0.683,0.0,0.0,1.0,0.0,0.0,1.0,1.0,0.45999999999999996,0.54,0.6599999999999999,0.34,1.0,1.0,1.0,1.0,1.0,1.0,1.0,1.0,1.0
Sweden,0.661,2005,0.339,0.0,0.0,0.91,0.09,0.0,1.0,1.0,0.45999999999999996,0.54,0.772,0.228,1.0,1.0,1.0,1.0,1.0,1.0,1.0,1.0,1.0
Switzerland,0.0,2005,0.0,0.0,0.0,0.91,0.09,0.0,1.0,1.0,0.45999999999999996,0.54,0.0,1.0,1.0,1.0,1.0,1.0,1.0,1.0,1.0,1.0,1.0
United Kingdom,0.838,2005,0.162,0.0,0.0,1.0,0.0,0.0,1.0,1.0,0.45999999999999996,0.54,0.483,0.517,1.0,1.0,1.0,1.0,1.0,1.0,1.0,1.0,1.0
Austria,0.913,2006,0.087,0.0,0.0,1.0,0.0,0.0,1.0,1.0,0.45999999999999996,0.54,0.0,1.0,1.0,1.0,1.0,1.0,1.0,1.0,1.0,1.0,1.0
Belgium,0.663,2006,0.337,0.0,0.0,0.91,0.09,0.0,1.0,1.0,0.45999999999999996,0.54,0.0,0.0,1.0,1.0,1.0,1.0,1.0,1.0,1.0,1.0,1.0
Bulgaria,0.0,2006,1.0,0.0,0.0,0.91,0.09,0.0,1.0,1.0,0.45999999999999996,0.54,0.0,1.0,1.0,1.0,1.0,1.0,1.0,1.0,1.0,1.0,1.0
Croatia,0.0,2006,1.0,0.0,0.0,0.91,0.09,0.0,1.0,1.0,0.45999999999999996,0.54,0.0,1.0,1.0,1.0,1.0,1.0,1.0,1.0,1.0,1.0,1.0
Cyprus,0.0,2006,0.0,0.0,0.0,0.91,0.09,0.0,1.0,1.0,0.45999999999999996,0.54,0.0,0.0,1.0,1.0,1.0,1.0,1.0,1.0,1.0,1.0,1.0
Czech Republic,0.9319999999999999,2006,0.068,0.0,0.0,1.0,0.0,0.0,1.0,1.0,0.45999999999999996,0.54,0.0,1.0,1.0,1.0,1.0,1.0,1.0,1.0,1.0,1.0,1.0
Denmark,0.0,2006,0.0,0.0,0.0,0.91,0.09,0.0,1.0,1.0,0.45999999999999996,0.54,0.0,0.0,1.0,1.0,1.0,1.0,1.0,1.0,1.0,1.0,1.0
Estonia,0.0,2006,0.0,0.0,0.0,0.91,0.09,0.0,1.0,1.0,0.45999999999999996,0.54,0.0,0.0,1.0,1.0,1.0,1.0,1.0,1.0,1.0,1.0,1.0
Finland,0.6579999999999999,2006,0.342,0.0,0.0,0.91,0.09,0.0,1.0,1.0,0.45999999999999996,0.54,0.0,1.0,1.0,1.0,1.0,1.0,1.0,1.0,1.0,1.0,1.0
France,0.656,2006,0.344,0.0,0.0,0.73,0.27,0.0,1.0,1.0,0.45999999999999996,0.54,0.614,0.386,1.0,1.0,1.0,1.0,1.0,1.0,1.0,1.0,1.0
Germany,0.704,2006,0.296,0.0,0.0,1.0,0.0,0.0,1.0,1.0,0.45999999999999996,0.54,0.43700000000000006,0.563,1.0,1.0,1.0,1.0,1.0,1.0,1.0,1.0,1.0
Greece,0.0,2006,1.0,0.0,0.0,0.91,0.09,0.0,1.0,1.0,0.45999999999999996,0.54,0.988,0.012,1.0,1.0,1.0,1.0,1.0,1.0,1.0,1.0,1.0
Hungary,0.9,2006,0.1,0.0,0.0,0.91,0.09,0.0,1.0,1.0,0.45999999999999996,0.54,0.11699999999999999,0.883,1.0,1.0,1.0,1.0,1.0,1.0,1.0,1.0,1.0
Ireland,0.0,2006,0.0,0.0,0.0,0.91,0.09,0.0,1.0,1.0,0.45999999999999996,0.54,0.0,0.0,1.0,1.0,1.0,1.0,1.0,1.0,1.0,1.0,1.0
Italy,0.21799999999999997,2006,0.782,0.0,0.0,1.0,0.0,0.0,1.0,1.0,0.45999999999999996,0.54,0.09899999999999998,0.901,1.0,1.0,1.0,1.0,1.0,1.0,1.0,1.0,1.0
Latvia,0.0,2006,0.0,0.0,0.0,0.91,0.09,0.0,1.0,1.0,0.45999999999999996,0.54,0.0,0.0,1.0,1.0,1.0,1.0,1.0,1.0,1.0,1.0,1.0
Lithuania,0.0,2006,0.0,0.0,0.0,0.91,0.09,0.0,1.0,1.0,0.45999999999999996,0.54,0.0,0.0,1.0,1.0,1.0,1.0,1.0,1.0,1.0,1.0,1.0
Luxembourg,0.0,2006,1.0,0.0,0.0,0.91,0.09,0.0,1.0,1.0,0.45999999999999996,0.54,0.0,0.0,1.0,1.0,1.0,1.0,1.0,1.0,1.0,1.0,1.0
Malta,0.0,2006,0.0,0.0,0.0,0.91,0.09,0.0,1.0,1.0,0.45999999999999996,0.54,0.0,0.0,1.0,1.0,1.0,1.0,1.0,1.0,1.0,1.0,1.0
Netherlands,0.985,2006,0.015,0.0,0.0,0.91,0.09,0.0,1.0,1.0,0.45999999999999996,0.54,0.825,0.175,1.0,1.0,1.0,1.0,1.0,1.0,1.0,1.0,1.0
Poland,0.5780000000000001,2006,0.422,0.0,0.0,1.0,0.0,0.0,1.0,1.0,0.45999999999999996,0.54,0.776,0.224,1.0,1.0,1.0,1.0,1.0,1.0,1.0,1.0,1.0
Portugal,0.0,2006,1.0,0.0,0.0,0.91,0.09,0.0,1.0,1.0,0.45999999999999996,0.54,0.0,1.0,1.0,1.0,1.0,1.0,1.0,1.0,1.0,1.0,1.0
Romania,0.597,2006,0.403,0.0,0.0,0.91,0.09,0.0,1.0,1.0,0.45999999999999996,0.54,0.931,0.069,1.0,1.0,1.0,1.0,1.0,1.0,1.0,1.0,1.0
Slovakia,0.929,2006,0.071,0.0,0.0,0.91,0.09,0.0,1.0,1.0,0.45999999999999996,0.54,1.0,0.0,1.0,1.0,1.0,1.0,1.0,1.0,1.0,1.0,1.0
Slovenia,0.0,2006,1.0,0.0,0.0,0.91,0.09,0.0,1.0,1.0,0.45999999999999996,0.54,0.8200000000000001,0.18,1.0,1.0,1.0,1.0,1.0,1.0,1.0,1.0,1.0
Spain,0.31699999999999995,2006,0.683,0.0,0.0,1.0,0.0,0.0,1.0,1.0,0.45999999999999996,0.54,0.6599999999999999,0.34,1.0,1.0,1.0,1.0,1.0,1.0,1.0,1.0,1.0
Sweden,0.661,2006,0.339,0.0,0.0,0.91,0.09,0.0,1.0,1.0,0.45999999999999996,0.54,0.772,0.228,1.0,1.0,1.0,1.0,1.0,1.0,1.0,1.0,1.0
Switzerland,0.0,2006,0.0,0.0,0.0,0.91,0.09,0.0,1.0,1.0,0.45999999999999996,0.54,0.0,1.0,1.0,1.0,1.0,1.0,1.0,1.0,1.0,1.0,1.0
United Kingdom,0.838,2006,0.162,0.0,0.0,1.0,0.0,0.0,1.0,1.0,0.45999999999999996,0.54,0.483,0.517,1.0,1.0,1.0,1.0,1.0,1.0,1.0,1.0,1.0
Austria,0.913,2007,0.087,0.0,0.0,1.0,0.0,0.0,1.0,1.0,0.45999999999999996,0.54,0.0,1.0,1.0,1.0,1.0,1.0,1.0,1.0,1.0,1.0,1.0
Belgium,0.663,2007,0.337,0.0,0.0,0.91,0.09,0.0,1.0,1.0,0.45999999999999996,0.54,0.0,0.0,1.0,1.0,1.0,1.0,1.0,1.0,1.0,1.0,1.0
Bulgaria,0.0,2007,1.0,0.0,0.0,0.91,0.09,0.0,1.0,1.0,0.45999999999999996,0.54,0.0,1.0,1.0,1.0,1.0,1.0,1.0,1.0,1.0,1.0,1.0
Croatia,0.0,2007,1.0,0.0,0.0,0.91,0.09,0.0,1.0,1.0,0.45999999999999996,0.54,0.0,1.0,1.0,1.0,1.0,1.0,1.0,1.0,1.0,1.0,1.0
Cyprus,0.0,2007,0.0,0.0,0.0,0.91,0.09,0.0,1.0,1.0,0.45999999999999996,0.54,0.0,0.0,1.0,1.0,1.0,1.0,1.0,1.0,1.0,1.0,1.0
Czech Republic,0.9319999999999999,2007,0.068,0.0,0.0,1.0,0.0,0.0,1.0,1.0,0.45999999999999996,0.54,0.0,1.0,1.0,1.0,1.0,1.0,1.0,1.0,1.0,1.0,1.0
Denmark,0.0,2007,0.0,0.0,0.0,0.91,0.09,0.0,1.0,1.0,0.45999999999999996,0.54,0.0,0.0,1.0,1.0,1.0,1.0,1.0,1.0,1.0,1.0,1.0
Estonia,0.0,2007,0.0,0.0,0.0,0.91,0.09,0.0,1.0,1.0,0.45999999999999996,0.54,0.0,0.0,1.0,1.0,1.0,1.0,1.0,1.0,1.0,1.0,1.0
Finland,0.6579999999999999,2007,0.342,0.0,0.0,0.91,0.09,0.0,1.0,1.0,0.45999999999999996,0.54,0.0,1.0,1.0,1.0,1.0,1.0,1.0,1.0,1.0,1.0,1.0
France,0.656,2007,0.344,0.0,0.0,0.73,0.27,0.0,1.0,1.0,0.45999999999999996,0.54,0.614,0.386,1.0,1.0,1.0,1.0,1.0,1.0,1.0,1.0,1.0
Germany,0.704,2007,0.296,0.0,0.0,1.0,0.0,0.0,1.0,1.0,0.45999999999999996,0.54,0.43700000000000006,0.563,1.0,1.0,1.0,1.0,1.0,1.0,1.0,1.0,1.0
Greece,0.0,2007,1.0,0.0,0.0,0.91,0.09,0.0,1.0,1.0,0.45999999999999996,0.54,0.988,0.012,1.0,1.0,1.0,1.0,1.0,1.0,1.0,1.0,1.0
Hungary,0.9,2007,0.1,0.0,0.0,0.91,0.09,0.0,1.0,1.0,0.45999999999999996,0.54,0.11699999999999999,0.883,1.0,1.0,1.0,1.0,1.0,1.0,1.0,1.0,1.0
Ireland,0.0,2007,0.0,0.0,0.0,0.91,0.09,0.0,1.0,1.0,0.45999999999999996,0.54,0.0,0.0,1.0,1.0,1.0,1.0,1.0,1.0,1.0,1.0,1.0
Italy,0.21799999999999997,2007,0.782,0.0,0.0,1.0,0.0,0.0,1.0,1.0,0.45999999999999996,0.54,0.09899999999999998,0.901,1.0,1.0,1.0,1.0,1.0,1.0,1.0,1.0,1.0
Latvia,0.0,2007,0.0,0.0,0.0,0.91,0.09,0.0,1.0,1.0,0.45999999999999996,0.54,0.0,0.0,1.0,1.0,1.0,1.0,1.0,1.0,1.0,1.0,1.0
Lithuania,0.0,2007,0.0,0.0,0.0,0.91,0.09,0.0,1.0,1.0,0.45999999999999996,0.54,0.0,0.0,1.0,1.0,1.0,1.0,1.0,1.0,1.0,1.0,1.0
Luxembourg,0.0,2007,1.0,0.0,0.0,0.91,0.09,0.0,1.0,1.0,0.45999999999999996,0.54,0.0,0.0,1.0,1.0,1.0,1.0,1.0,1.0,1.0,1.0,1.0
Malta,0.0,2007,0.0,0.0,0.0,0.91,0.09,0.0,1.0,1.0,0.45999999999999996,0.54,0.0,0.0,1.0,1.0,1.0,1.0,1.0,1.0,1.0,1.0,1.0
Netherlands,0.985,2007,0.015,0.0,0.0,0.91,0.09,0.0,1.0,1.0,0.45999999999999996,0.54,0.825,0.175,1.0,1.0,1.0,1.0,1.0,1.0,1.0,1.0,1.0
Poland,0.5780000000000001,2007,0.422,0.0,0.0,1.0,0.0,0.0,1.0,1.0,0.45999999999999996,0.54,0.776,0.224,1.0,1.0,1.0,1.0,1.0,1.0,1.0,1.0,1.0
Portugal,0.0,2007,1.0,0.0,0.0,0.91,0.09,0.0,1.0,1.0,0.45999999999999996,0.54,0.0,1.0,1.0,1.0,1.0,1.0,1.0,1.0,1.0,1.0,1.0
Romania,0.597,2007,0.403,0.0,0.0,0.91,0.09,0.0,1.0,1.0,0.45999999999999996,0.54,0.931,0.069,1.0,1.0,1.0,1.0,1.0,1.0,1.0,1.0,1.0
Slovakia,0.929,2007,0.071,0.0,0.0,0.91,0.09,0.0,1.0,1.0,0.45999999999999996,0.54,1.0,0.0,1.0,1.0,1.0,1.0,1.0,1.0,1.0,1.0,1.0
Slovenia,0.0,2007,1.0,0.0,0.0,0.91,0.09,0.0,1.0,1.0,0.45999999999999996,0.54,0.8200000000000001,0.18,1.0,1.0,1.0,1.0,1.0,1.0,1.0,1.0,1.0
Spain,0.31699999999999995,2007,0.683,0.0,0.0,1.0,0.0,0.0,1.0,1.0,0.45999999999999996,0.54,0.6599999999999999,0.34,1.0,1.0,1.0,1.0,1.0,1.0,1.0,1.0,1.0
Sweden,0.661,2007,0.339,0.0,0.0,0.91,0.09,0.0,1.0,1.0,0.45999999999999996,0.54,0.772,0.228,1.0,1.0,1.0,1.0,1.0,1.0,1.0,1.0,1.0
Switzerland,0.0,2007,0.0,0.0,0.0,0.91,0.09,0.0,1.0,1.0,0.45999999999999996,0.54,0.0,1.0,1.0,1.0,1.0,1.0,1.0,1.0,1.0,1.0,1.0
United Kingdom,0.838,2007,0.162,0.0,0.0,1.0,0.0,0.0,1.0,1.0,0.45999999999999996,0.54,0.483,0.517,1.0,1.0,1.0,1.0,1.0,1.0,1.0,1.0,1.0
Austria,0.913,2008,0.087,0.0,0.0,1.0,0.0,0.0,1.0,1.0,0.45999999999999996,0.54,0.0,1.0,1.0,1.0,1.0,1.0,1.0,1.0,1.0,1.0,1.0
Belgium,0.663,2008,0.337,0.0,0.0,0.91,0.09,0.0,1.0,1.0,0.45999999999999996,0.54,0.0,0.0,1.0,1.0,1.0,1.0,1.0,1.0,1.0,1.0,1.0
Bulgaria,0.0,2008,1.0,0.0,0.0,0.91,0.09,0.0,1.0,1.0,0.45999999999999996,0.54,0.0,1.0,1.0,1.0,1.0,1.0,1.0,1.0,1.0,1.0,1.0
Croatia,0.0,2008,1.0,0.0,0.0,0.91,0.09,0.0,1.0,1.0,0.45999999999999996,0.54,0.0,1.0,1.0,1.0,1.0,1.0,1.0,1.0,1.0,1.0,1.0
Cyprus,0.0,2008,0.0,0.0,0.0,0.91,0.09,0.0,1.0,1.0,0.45999999999999996,0.54,0.0,0.0,1.0,1.0,1.0,1.0,1.0,1.0,1.0,1.0,1.0
Czech Republic,0.9319999999999999,2008,0.068,0.0,0.0,1.0,0.0,0.0,1.0,1.0,0.45999999999999996,0.54,0.0,1.0,1.0,1.0,1.0,1.0,1.0,1.0,1.0,1.0,1.0
Denmark,0.0,2008,0.0,0.0,0.0,0.91,0.09,0.0,1.0,1.0,0.45999999999999996,0.54,0.0,0.0,1.0,1.0,1.0,1.0,1.0,1.0,1.0,1.0,1.0
Estonia,0.0,2008,0.0,0.0,0.0,0.91,0.09,0.0,1.0,1.0,0.45999999999999996,0.54,0.0,0.0,1.0,1.0,1.0,1.0,1.0,1.0,1.0,1.0,1.0
Finland,0.6579999999999999,2008,0.342,0.0,0.0,0.91,0.09,0.0,1.0,1.0,0.45999999999999996,0.54,0.0,1.0,1.0,1.0,1.0,1.0,1.0,1.0,1.0,1.0,1.0
France,0.656,2008,0.344,0.0,0.0,0.73,0.27,0.0,1.0,1.0,0.45999999999999996,0.54,0.614,0.386,1.0,1.0,1.0,1.0,1.0,1.0,1.0,1.0,1.0
Germany,0.704,2008,0.296,0.0,0.0,1.0,0.0,0.0,1.0,1.0,0.45999999999999996,0.54,0.43700000000000006,0.563,1.0,1.0,1.0,1.0,1.0,1.0,1.0,1.0,1.0
Greece,0.0,2008,1.0,0.0,0.0,0.91,0.09,0.0,1.0,1.0,0.45999999999999996,0.54,0.988,0.012,1.0,1.0,1.0,1.0,1.0,1.0,1.0,1.0,1.0
Hungary,0.9,2008,0.1,0.0,0.0,0.91,0.09,0.0,1.0,1.0,0.45999999999999996,0.54,0.11699999999999999,0.883,1.0,1.0,1.0,1.0,1.0,1.0,1.0,1.0,1.0
Ireland,0.0,2008,0.0,0.0,0.0,0.91,0.09,0.0,1.0,1.0,0.45999999999999996,0.54,0.0,0.0,1.0,1.0,1.0,1.0,1.0,1.0,1.0,1.0,1.0
Italy,0.21799999999999997,2008,0.782,0.0,0.0,1.0,0.0,0.0,1.0,1.0,0.45999999999999996,0.54,0.09899999999999998,0.901,1.0,1.0,1.0,1.0,1.0,1.0,1.0,1.0,1.0
Latvia,0.0,2008,0.0,0.0,0.0,0.91,0.09,0.0,1.0,1.0,0.45999999999999996,0.54,0.0,0.0,1.0,1.0,1.0,1.0,1.0,1.0,1.0,1.0,1.0
Lithuania,0.0,2008,0.0,0.0,0.0,0.91,0.09,0.0,1.0,1.0,0.45999999999999996,0.54,0.0,0.0,1.0,1.0,1.0,1.0,1.0,1.0,1.0,1.0,1.0
Luxembourg,0.0,2008,1.0,0.0,0.0,0.91,0.09,0.0,1.0,1.0,0.45999999999999996,0.54,0.0,0.0,1.0,1.0,1.0,1.0,1.0,1.0,1.0,1.0,1.0
Malta,0.0,2008,0.0,0.0,0.0,0.91,0.09,0.0,1.0,1.0,0.45999999999999996,0.54,0.0,0.0,1.0,1.0,1.0,1.0,1.0,1.0,1.0,1.0,1.0
Netherlands,0.985,2008,0.015,0.0,0.0,0.91,0.09,0.0,1.0,1.0,0.45999999999999996,0.54,0.825,0.175,1.0,1.0,1.0,1.0,1.0,1.0,1.0,1.0,1.0
Poland,0.5780000000000001,2008,0.422,0.0,0.0,1.0,0.0,0.0,1.0,1.0,0.45999999999999996,0.54,0.776,0.224,1.0,1.0,1.0,1.0,1.0,1.0,1.0,1.0,1.0
Portugal,0.0,2008,1.0,0.0,0.0,0.91,0.09,0.0,1.0,1.0,0.45999999999999996,0.54,0.0,1.0,1.0,1.0,1.0,1.0,1.0,1.0,1.0,1.0,1.0
Romania,0.597,2008,0.403,0.0,0.0,0.91,0.09,0.0,1.0,1.0,0.45999999999999996,0.54,0.931,0.069,1.0,1.0,1.0,1.0,1.0,1.0,1.0,1.0,1.0
Slovakia,0.929,2008,0.071,0.0,0.0,0.91,0.09,0.0,1.0,1.0,0.45999999999999996,0.54,1.0,0.0,1.0,1.0,1.0,1.0,1.0,1.0,1.0,1.0,1.0
Slovenia,0.0,2008,1.0,0.0,0.0,0.91,0.09,0.0,1.0,1.0,0.45999999999999996,0.54,0.8200000000000001,0.18,1.0,1.0,1.0,1.0,1.0,1.0,1.0,1.0,1.0
Spain,0.31699999999999995,2008,0.683,0.0,0.0,1.0,0.0,0.0,1.0,1.0,0.45999999999999996,0.54,0.6599999999999999,0.34,1.0,1.0,1.0,1.0,1.0,1.0,1.0,1.0,1.0
Sweden,0.661,2008,0.339,0.0,0.0,0.91,0.09,0.0,1.0,1.0,0.45999999999999996,0.54,0.772,0.228,1.0,1.0,1.0,1.0,1.0,1.0,1.0,1.0,1.0
Switzerland,0.0,2008,0.0,0.0,0.0,0.91,0.09,0.0,1.0,1.0,0.45999999999999996,0.54,0.0,1.0,1.0,1.0,1.0,1.0,1.0,1.0,1.0,1.0,1.0
United Kingdom,0.838,2008,0.162,0.0,0.0,1.0,0.0,0.0,1.0,1.0,0.45999999999999996,0.54,0.483,0.517,1.0,1.0,1.0,1.0,1.0,1.0,1.0,1.0,1.0
Austria,0.913,2009,0.087,0.0,0.0,1.0,0.0,0.0,1.0,1.0,0.45999999999999996,0.54,0.0,1.0,1.0,1.0,1.0,1.0,1.0,1.0,1.0,1.0,1.0
Belgium,0.663,2009,0.337,0.0,0.0,0.91,0.09,0.0,1.0,1.0,0.45999999999999996,0.54,0.0,0.0,1.0,1.0,1.0,1.0,1.0,1.0,1.0,1.0,1.0
Bulgaria,0.0,2009,1.0,0.0,0.0,0.91,0.09,0.0,1.0,1.0,0.45999999999999996,0.54,0.0,1.0,1.0,1.0,1.0,1.0,1.0,1.0,1.0,1.0,1.0
Croatia,0.0,2009,1.0,0.0,0.0,0.91,0.09,0.0,1.0,1.0,0.45999999999999996,0.54,0.0,1.0,1.0,1.0,1.0,1.0,1.0,1.0,1.0,1.0,1.0
Cyprus,0.0,2009,0.0,0.0,0.0,0.91,0.09,0.0,1.0,1.0,0.45999999999999996,0.54,0.0,0.0,1.0,1.0,1.0,1.0,1.0,1.0,1.0,1.0,1.0
Czech Republic,0.9319999999999999,2009,0.068,0.0,0.0,1.0,0.0,0.0,1.0,1.0,0.45999999999999996,0.54,0.0,1.0,1.0,1.0,1.0,1.0,1.0,1.0,1.0,1.0,1.0
Denmark,0.0,2009,0.0,0.0,0.0,0.91,0.09,0.0,1.0,1.0,0.45999999999999996,0.54,0.0,0.0,1.0,1.0,1.0,1.0,1.0,1.0,1.0,1.0,1.0
Estonia,0.0,2009,0.0,0.0,0.0,0.91,0.09,0.0,1.0,1.0,0.45999999999999996,0.54,0.0,0.0,1.0,1.0,1.0,1.0,1.0,1.0,1.0,1.0,1.0
Finland,0.6579999999999999,2009,0.342,0.0,0.0,0.91,0.09,0.0,1.0,1.0,0.45999999999999996,0.54,0.0,1.0,1.0,1.0,1.0,1.0,1.0,1.0,1.0,1.0,1.0
France,0.656,2009,0.344,0.0,0.0,0.73,0.27,0.0,1.0,1.0,0.45999999999999996,0.54,0.614,0.386,1.0,1.0,1.0,1.0,1.0,1.0,1.0,1.0,1.0
Germany,0.704,2009,0.296,0.0,0.0,1.0,0.0,0.0,1.0,1.0,0.45999999999999996,0.54,0.43700000000000006,0.563,1.0,1.0,1.0,1.0,1.0,1.0,1.0,1.0,1.0
Greece,0.0,2009,1.0,0.0,0.0,0.91,0.09,0.0,1.0,1.0,0.45999999999999996,0.54,0.988,0.012,1.0,1.0,1.0,1.0,1.0,1.0,1.0,1.0,1.0
Hungary,0.9,2009,0.1,0.0,0.0,0.91,0.09,0.0,1.0,1.0,0.45999999999999996,0.54,0.11699999999999999,0.883,1.0,1.0,1.0,1.0,1.0,1.0,1.0,1.0,1.0
Ireland,0.0,2009,0.0,0.0,0.0,0.91,0.09,0.0,1.0,1.0,0.45999999999999996,0.54,0.0,0.0,1.0,1.0,1.0,1.0,1.0,1.0,1.0,1.0,1.0
Italy,0.21799999999999997,2009,0.782,0.0,0.0,1.0,0.0,0.0,1.0,1.0,0.45999999999999996,0.54,0.09899999999999998,0.901,1.0,1.0,1.0,1.0,1.0,1.0,1.0,1.0,1.0
Latvia,0.0,2009,0.0,0.0,0.0,0.91,0.09,0.0,1.0,1.0,0.45999999999999996,0.54,0.0,0.0,1.0,1.0,1.0,1.0,1.0,1.0,1.0,1.0,1.0
Lithuania,0.0,2009,0.0,0.0,0.0,0.91,0.09,0.0,1.0,1.0,0.45999999999999996,0.54,0.0,0.0,1.0,1.0,1.0,1.0,1.0,1.0,1.0,1.0,1.0
Luxembourg,0.0,2009,1.0,0.0,0.0,0.91,0.09,0.0,1.0,1.0,0.45999999999999996,0.54,0.0,0.0,1.0,1.0,1.0,1.0,1.0,1.0,1.0,1.0,1.0
Malta,0.0,2009,0.0,0.0,0.0,0.91,0.09,0.0,1.0,1.0,0.45999999999999996,0.54,0.0,0.0,1.0,1.0,1.0,1.0,1.0,1.0,1.0,1.0,1.0
Netherlands,0.985,2009,0.015,0.0,0.0,0.91,0.09,0.0,1.0,1.0,0.45999999999999996,0.54,0.825,0.175,1.0,1.0,1.0,1.0,1.0,1.0,1.0,1.0,1.0
Poland,0.5780000000000001,2009,0.422,0.0,0.0,1.0,0.0,0.0,1.0,1.0,0.45999999999999996,0.54,0.776,0.224,1.0,1.0,1.0,1.0,1.0,1.0,1.0,1.0,1.0
Portugal,0.0,2009,1.0,0.0,0.0,0.91,0.09,0.0,1.0,1.0,0.45999999999999996,0.54,0.0,1.0,1.0,1.0,1.0,1.0,1.0,1.0,1.0,1.0,1.0
Romania,0.597,2009,0.403,0.0,0.0,0.91,0.09,0.0,1.0,1.0,0.45999999999999996,0.54,0.931,0.069,1.0,1.0,1.0,1.0,1.0,1.0,1.0,1.0,1.0
Slovakia,0.929,2009,0.071,0.0,0.0,0.91,0.09,0.0,1.0,1.0,0.45999999999999996,0.54,1.0,0.0,1.0,1.0,1.0,1.0,1.0,1.0,1.0,1.0,1.0
Slovenia,0.0,2009,1.0,0.0,0.0,0.91,0.09,0.0,1.0,1.0,0.45999999999999996,0.54,0.8200000000000001,0.18,1.0,1.0,1.0,1.0,1.0,1.0,1.0,1.0,1.0
Spain,0.31699999999999995,2009,0.683,0.0,0.0,1.0,0.0,0.0,1.0,1.0,0.45999999999999996,0.54,0.6599999999999999,0.34,1.0,1.0,1.0,1.0,1.0,1.0,1.0,1.0,1.0
Sweden,0.661,2009,0.339,0.0,0.0,0.91,0.09,0.0,1.0,1.0,0.45999999999999996,0.54,0.772,0.228,1.0,1.0,1.0,1.0,1.0,1.0,1.0,1.0,1.0
Switzerland,0.0,2009,0.0,0.0,0.0,0.91,0.09,0.0,1.0,1.0,0.45999999999999996,0.54,0.0,1.0,1.0,1.0,1.0,1.0,1.0,1.0,1.0,1.0,1.0
United Kingdom,0.838,2009,0.162,0.0,0.0,1.0,0.0,0.0,1.0,1.0,0.45999999999999996,0.54,0.483,0.517,1.0,1.0,1.0,1.0,1.0,1.0,1.0,1.0,1.0
Austria,0.913,2010,0.087,0.0,0.0,1.0,0.0,0.0,1.0,1.0,0.45999999999999996,0.54,0.0,1.0,1.0,1.0,1.0,1.0,1.0,1.0,1.0,1.0,1.0
Belgium,0.663,2010,0.337,0.0,0.0,0.91,0.09,0.0,1.0,1.0,0.45999999999999996,0.54,0.0,0.0,1.0,1.0,1.0,1.0,1.0,1.0,1.0,1.0,1.0
Bulgaria,0.0,2010,1.0,0.0,0.0,0.91,0.09,0.0,1.0,1.0,0.45999999999999996,0.54,0.0,1.0,1.0,1.0,1.0,1.0,1.0,1.0,1.0,1.0,1.0
Croatia,0.0,2010,1.0,0.0,0.0,0.91,0.09,0.0,1.0,1.0,0.45999999999999996,0.54,0.0,1.0,1.0,1.0,1.0,1.0,1.0,1.0,1.0,1.0,1.0
Cyprus,0.0,2010,0.0,0.0,0.0,0.91,0.09,0.0,1.0,1.0,0.45999999999999996,0.54,0.0,0.0,1.0,1.0,1.0,1.0,1.0,1.0,1.0,1.0,1.0
Czech Republic,0.9319999999999999,2010,0.068,0.0,0.0,1.0,0.0,0.0,1.0,1.0,0.45999999999999996,0.54,0.0,1.0,1.0,1.0,1.0,1.0,1.0,1.0,1.0,1.0,1.0
Denmark,0.0,2010,0.0,0.0,0.0,0.91,0.09,0.0,1.0,1.0,0.45999999999999996,0.54,0.0,0.0,1.0,1.0,1.0,1.0,1.0,1.0,1.0,1.0,1.0
Estonia,0.0,2010,0.0,0.0,0.0,0.91,0.09,0.0,1.0,1.0,0.45999999999999996,0.54,0.0,0.0,1.0,1.0,1.0,1.0,1.0,1.0,1.0,1.0,1.0
Finland,0.6579999999999999,2010,0.342,0.0,0.0,0.91,0.09,0.0,1.0,1.0,0.45999999999999996,0.54,0.0,1.0,1.0,1.0,1.0,1.0,1.0,1.0,1.0,1.0,1.0
France,0.656,2010,0.344,0.0,0.0,0.73,0.27,0.0,1.0,1.0,0.45999999999999996,0.54,0.614,0.386,1.0,1.0,1.0,1.0,1.0,1.0,1.0,1.0,1.0
Germany,0.704,2010,0.296,0.0,0.0,1.0,0.0,0.0,1.0,1.0,0.45999999999999996,0.54,0.43700000000000006,0.563,1.0,1.0,1.0,1.0,1.0,1.0,1.0,1.0,1.0
Greece,0.0,2010,1.0,0.0,0.0,0.91,0.09,0.0,1.0,1.0,0.45999999999999996,0.54,0.988,0.012,1.0,1.0,1.0,1.0,1.0,1.0,1.0,1.0,1.0
Hungary,0.9,2010,0.1,0.0,0.0,0.91,0.09,0.0,1.0,1.0,0.45999999999999996,0.54,0.11699999999999999,0.883,1.0,1.0,1.0,1.0,1.0,1.0,1.0,1.0,1.0
Ireland,0.0,2010,0.0,0.0,0.0,0.91,0.09,0.0,1.0,1.0,0.45999999999999996,0.54,0.0,0.0,1.0,1.0,1.0,1.0,1.0,1.0,1.0,1.0,1.0
Italy,0.21799999999999997,2010,0.782,0.0,0.0,1.0,0.0,0.0,1.0,1.0,0.45999999999999996,0.54,0.09899999999999998,0.901,1.0,1.0,1.0,1.0,1.0,1.0,1.0,1.0,1.0
Latvia,0.0,2010,0.0,0.0,0.0,0.91,0.09,0.0,1.0,1.0,0.45999999999999996,0.54,0.0,0.0,1.0,1.0,1.0,1.0,1.0,1.0,1.0,1.0,1.0
Lithuania,0.0,2010,0.0,0.0,0.0,0.91,0.09,0.0,1.0,1.0,0.45999999999999996,0.54,0.0,0.0,1.0,1.0,1.0,1.0,1.0,1.0,1.0,1.0,1.0
Luxembourg,0.0,2010,1.0,0.0,0.0,0.91,0.09,0.0,1.0,1.0,0.45999999999999996,0.54,0.0,0.0,1.0,1.0,1.0,1.0,1.0,1.0,1.0,1.0,1.0
Malta,0.0,2010,0.0,0.0,0.0,0.91,0.09,0.0,1.0,1.0,0.45999999999999996,0.54,0.0,0.0,1.0,1.0,1.0,1.0,1.0,1.0,1.0,1.0,1.0
Netherlands,0.985,2010,0.015,0.0,0.0,0.91,0.09,0.0,1.0,1.0,0.45999999999999996,0.54,0.825,0.175,1.0,1.0,1.0,1.0,1.0,1.0,1.0,1.0,1.0
Poland,0.5780000000000001,2010,0.422,0.0,0.0,1.0,0.0,0.0,1.0,1.0,0.45999999999999996,0.54,0.776,0.224,1.0,1.0,1.0,1.0,1.0,1.0,1.0,1.0,1.0
Portugal,0.0,2010,1.0,0.0,0.0,0.91,0.09,0.0,1.0,1.0,0.45999999999999996,0.54,0.0,1.0,1.0,1.0,1.0,1.0,1.0,1.0,1.0,1.0,1.0
Romania,0.597,2010,0.403,0.0,0.0,0.91,0.09,0.0,1.0,1.0,0.45999999999999996,0.54,0.931,0.069,1.0,1.0,1.0,1.0,1.0,1.0,1.0,1.0,1.0
Slovakia,0.929,2010,0.071,0.0,0.0,0.91,0.09,0.0,1.0,1.0,0.45999999999999996,0.54,1.0,0.0,1.0,1.0,1.0,1.0,1.0,1.0,1.0,1.0,1.0
Slovenia,0.0,2010,1.0,0.0,0.0,0.91,0.09,0.0,1.0,1.0,0.45999999999999996,0.54,0.8200000000000001,0.18,1.0,1.0,1.0,1.0,1.0,1.0,1.0,1.0,1.0
Spain,0.31699999999999995,2010,0.683,0.0,0.0,1.0,0.0,0.0,1.0,1.0,0.45999999999999996,0.54,0.6599999999999999,0.34,1.0,1.0,1.0,1.0,1.0,1.0,1.0,1.0,1.0
Sweden,0.661,2010,0.339,0.0,0.0,0.91,0.09,0.0,1.0,1.0,0.45999999999999996,0.54,0.772,0.228,1.0,1.0,1.0,1.0,1.0,1.0,1.0,1.0,1.0
Switzerland,0.0,2010,0.0,0.0,0.0,0.91,0.09,0.0,1.0,1.0,0.45999999999999996,0.54,0.0,1.0,1.0,1.0,1.0,1.0,1.0,1.0,1.0,1.0,1.0
United Kingdom,0.838,2010,0.162,0.0,0.0,1.0,0.0,0.0,1.0,1.0,0.45999999999999996,0.54,0.483,0.517,1.0,1.0,1.0,1.0,1.0,1.0,1.0,1.0,1.0
Austria,0.913,2011,0.087,0.0,0.0,1.0,0.0,0.0,1.0,1.0,0.45999999999999996,0.54,0.0,1.0,1.0,1.0,1.0,1.0,1.0,1.0,1.0,1.0,1.0
Belgium,0.663,2011,0.337,0.0,0.0,0.91,0.09,0.0,1.0,1.0,0.45999999999999996,0.54,0.0,0.0,1.0,1.0,1.0,1.0,1.0,1.0,1.0,1.0,1.0
Bulgaria,0.0,2011,1.0,0.0,0.0,0.91,0.09,0.0,1.0,1.0,0.45999999999999996,0.54,0.0,1.0,1.0,1.0,1.0,1.0,1.0,1.0,1.0,1.0,1.0
Croatia,0.0,2011,1.0,0.0,0.0,0.91,0.09,0.0,1.0,1.0,0.45999999999999996,0.54,0.0,1.0,1.0,1.0,1.0,1.0,1.0,1.0,1.0,1.0,1.0
Cyprus,0.0,2011,0.0,0.0,0.0,0.91,0.09,0.0,1.0,1.0,0.45999999999999996,0.54,0.0,0.0,1.0,1.0,1.0,1.0,1.0,1.0,1.0,1.0,1.0
Czech Republic,0.9319999999999999,2011,0.068,0.0,0.0,1.0,0.0,0.0,1.0,1.0,0.45999999999999996,0.54,0.0,1.0,1.0,1.0,1.0,1.0,1.0,1.0,1.0,1.0,1.0
Denmark,0.0,2011,0.0,0.0,0.0,0.91,0.09,0.0,1.0,1.0,0.45999999999999996,0.54,0.0,0.0,1.0,1.0,1.0,1.0,1.0,1.0,1.0,1.0,1.0
Estonia,0.0,2011,0.0,0.0,0.0,0.91,0.09,0.0,1.0,1.0,0.45999999999999996,0.54,0.0,0.0,1.0,1.0,1.0,1.0,1.0,1.0,1.0,1.0,1.0
Finland,0.6579999999999999,2011,0.342,0.0,0.0,0.91,0.09,0.0,1.0,1.0,0.45999999999999996,0.54,0.0,1.0,1.0,1.0,1.0,1.0,1.0,1.0,1.0,1.0,1.0
France,0.656,2011,0.344,0.0,0.0,0.73,0.27,0.0,1.0,1.0,0.45999999999999996,0.54,0.614,0.386,1.0,1.0,1.0,1.0,1.0,1.0,1.0,1.0,1.0
Germany,0.704,2011,0.296,0.0,0.0,1.0,0.0,0.0,1.0,1.0,0.45999999999999996,0.54,0.43700000000000006,0.563,1.0,1.0,1.0,1.0,1.0,1.0,1.0,1.0,1.0
Greece,0.0,2011,1.0,0.0,0.0,0.91,0.09,0.0,1.0,1.0,0.45999999999999996,0.54,0.988,0.012,1.0,1.0,1.0,1.0,1.0,1.0,1.0,1.0,1.0
Hungary,0.9,2011,0.1,0.0,0.0,0.91,0.09,0.0,1.0,1.0,0.45999999999999996,0.54,0.11699999999999999,0.883,1.0,1.0,1.0,1.0,1.0,1.0,1.0,1.0,1.0
Ireland,0.0,2011,0.0,0.0,0.0,0.91,0.09,0.0,1.0,1.0,0.45999999999999996,0.54,0.0,0.0,1.0,1.0,1.0,1.0,1.0,1.0,1.0,1.0,1.0
Italy,0.21799999999999997,2011,0.782,0.0,0.0,1.0,0.0,0.0,1.0,1.0,0.45999999999999996,0.54,0.09899999999999998,0.901,1.0,1.0,1.0,1.0,1.0,1.0,1.0,1.0,1.0
Latvia,0.0,2011,0.0,0.0,0.0,0.91,0.09,0.0,1.0,1.0,0.45999999999999996,0.54,0.0,0.0,1.0,1.0,1.0,1.0,1.0,1.0,1.0,1.0,1.0
Lithuania,0.0,2011,0.0,0.0,0.0,0.91,0.09,0.0,1.0,1.0,0.45999999999999996,0.54,0.0,0.0,1.0,1.0,1.0,1.0,1.0,1.0,1.0,1.0,1.0
Luxembourg,0.0,2011,1.0,0.0,0.0,0.91,0.09,0.0,1.0,1.0,0.45999999999999996,0.54,0.0,0.0,1.0,1.0,1.0,1.0,1.0,1.0,1.0,1.0,1.0
Malta,0.0,2011,0.0,0.0,0.0,0.91,0.09,0.0,1.0,1.0,0.45999999999999996,0.54,0.0,0.0,1.0,1.0,1.0,1.0,1.0,1.0,1.0,1.0,1.0
Netherlands,0.985,2011,0.015,0.0,0.0,0.91,0.09,0.0,1.0,1.0,0.45999999999999996,0.54,0.825,0.175,1.0,1.0,1.0,1.0,1.0,1.0,1.0,1.0,1.0
Poland,0.5780000000000001,2011,0.422,0.0,0.0,1.0,0.0,0.0,1.0,1.0,0.45999999999999996,0.54,0.776,0.224,1.0,1.0,1.0,1.0,1.0,1.0,1.0,1.0,1.0
Portugal,0.0,2011,1.0,0.0,0.0,0.91,0.09,0.0,1.0,1.0,0.45999999999999996,0.54,0.0,1.0,1.0,1.0,1.0,1.0,1.0,1.0,1.0,1.0,1.0
Romania,0.597,2011,0.403,0.0,0.0,0.91,0.09,0.0,1.0,1.0,0.45999999999999996,0.54,0.931,0.069,1.0,1.0,1.0,1.0,1.0,1.0,1.0,1.0,1.0
Slovakia,0.929,2011,0.071,0.0,0.0,0.91,0.09,0.0,1.0,1.0,0.45999999999999996,0.54,1.0,0.0,1.0,1.0,1.0,1.0,1.0,1.0,1.0,1.0,1.0
Slovenia,0.0,2011,1.0,0.0,0.0,0.91,0.09,0.0,1.0,1.0,0.45999999999999996,0.54,0.8200000000000001,0.18,1.0,1.0,1.0,1.0,1.0,1.0,1.0,1.0,1.0
Spain,0.31699999999999995,2011,0.683,0.0,0.0,1.0,0.0,0.0,1.0,1.0,0.45999999999999996,0.54,0.6599999999999999,0.34,1.0,1.0,1.0,1.0,1.0,1.0,1.0,1.0,1.0
Sweden,0.661,2011,0.339,0.0,0.0,0.91,0.09,0.0,1.0,1.0,0.45999999999999996,0.54,0.772,0.228,1.0,1.0,1.0,1.0,1.0,1.0,1.0,1.0,1.0
Switzerland,0.0,2011,0.0,0.0,0.0,0.91,0.09,0.0,1.0,1.0,0.45999999999999996,0.54,0.0,1.0,1.0,1.0,1.0,1.0,1.0,1.0,1.0,1.0,1.0
United Kingdom,0.838,2011,0.162,0.0,0.0,1.0,0.0,0.0,1.0,1.0,0.45999999999999996,0.54,0.483,0.517,1.0,1.0,1.0,1.0,1.0,1.0,1.0,1.0,1.0
Austria,0.913,2012,0.087,0.0,0.0,1.0,0.0,0.0,1.0,1.0,0.45999999999999996,0.54,0.0,1.0,1.0,1.0,1.0,1.0,1.0,1.0,1.0,1.0,1.0
Belgium,0.663,2012,0.337,0.0,0.0,0.91,0.09,0.0,1.0,1.0,0.45999999999999996,0.54,0.0,0.0,1.0,1.0,1.0,1.0,1.0,1.0,1.0,1.0,1.0
Bulgaria,0.0,2012,1.0,0.0,0.0,0.91,0.09,0.0,1.0,1.0,0.45999999999999996,0.54,0.0,1.0,1.0,1.0,1.0,1.0,1.0,1.0,1.0,1.0,1.0
Croatia,0.0,2012,1.0,0.0,0.0,0.91,0.09,0.0,1.0,1.0,0.45999999999999996,0.54,0.0,1.0,1.0,1.0,1.0,1.0,1.0,1.0,1.0,1.0,1.0
Cyprus,0.0,2012,0.0,0.0,0.0,0.91,0.09,0.0,1.0,1.0,0.45999999999999996,0.54,0.0,0.0,1.0,1.0,1.0,1.0,1.0,1.0,1.0,1.0,1.0
Czech Republic,0.9319999999999999,2012,0.068,0.0,0.0,1.0,0.0,0.0,1.0,1.0,0.45999999999999996,0.54,0.0,1.0,1.0,1.0,1.0,1.0,1.0,1.0,1.0,1.0,1.0
Denmark,0.0,2012,0.0,0.0,0.0,0.91,0.09,0.0,1.0,1.0,0.45999999999999996,0.54,0.0,0.0,1.0,1.0,1.0,1.0,1.0,1.0,1.0,1.0,1.0
Estonia,0.0,2012,0.0,0.0,0.0,0.91,0.09,0.0,1.0,1.0,0.45999999999999996,0.54,0.0,0.0,1.0,1.0,1.0,1.0,1.0,1.0,1.0,1.0,1.0
Finland,0.6579999999999999,2012,0.342,0.0,0.0,0.91,0.09,0.0,1.0,1.0,0.45999999999999996,0.54,0.0,1.0,1.0,1.0,1.0,1.0,1.0,1.0,1.0,1.0,1.0
France,0.656,2012,0.344,0.0,0.0,0.73,0.27,0.0,1.0,1.0,0.45999999999999996,0.54,0.614,0.386,1.0,1.0,1.0,1.0,1.0,1.0,1.0,1.0,1.0
Germany,0.704,2012,0.296,0.0,0.0,1.0,0.0,0.0,1.0,1.0,0.45999999999999996,0.54,0.43700000000000006,0.563,1.0,1.0,1.0,1.0,1.0,1.0,1.0,1.0,1.0
Greece,0.0,2012,1.0,0.0,0.0,0.91,0.09,0.0,1.0,1.0,0.45999999999999996,0.54,0.988,0.012,1.0,1.0,1.0,1.0,1.0,1.0,1.0,1.0,1.0
Hungary,0.9,2012,0.1,0.0,0.0,0.91,0.09,0.0,1.0,1.0,0.45999999999999996,0.54,0.11699999999999999,0.883,1.0,1.0,1.0,1.0,1.0,1.0,1.0,1.0,1.0
Ireland,0.0,2012,0.0,0.0,0.0,0.91,0.09,0.0,1.0,1.0,0.45999999999999996,0.54,0.0,0.0,1.0,1.0,1.0,1.0,1.0,1.0,1.0,1.0,1.0
Italy,0.21799999999999997,2012,0.782,0.0,0.0,1.0,0.0,0.0,1.0,1.0,0.45999999999999996,0.54,0.09899999999999998,0.901,1.0,1.0,1.0,1.0,1.0,1.0,1.0,1.0,1.0
Latvia,0.0,2012,0.0,0.0,0.0,0.91,0.09,0.0,1.0,1.0,0.45999999999999996,0.54,0.0,0.0,1.0,1.0,1.0,1.0,1.0,1.0,1.0,1.0,1.0
Lithuania,0.0,2012,0.0,0.0,0.0,0.91,0.09,0.0,1.0,1.0,0.45999999999999996,0.54,0.0,0.0,1.0,1.0,1.0,1.0,1.0,1.0,1.0,1.0,1.0
Luxembourg,0.0,2012,1.0,0.0,0.0,0.91,0.09,0.0,1.0,1.0,0.45999999999999996,0.54,0.0,0.0,1.0,1.0,1.0,1.0,1.0,1.0,1.0,1.0,1.0
Malta,0.0,2012,0.0,0.0,0.0,0.91,0.09,0.0,1.0,1.0,0.45999999999999996,0.54,0.0,0.0,1.0,1.0,1.0,1.0,1.0,1.0,1.0,1.0,1.0
Netherlands,0.985,2012,0.015,0.0,0.0,0.91,0.09,0.0,1.0,1.0,0.45999999999999996,0.54,0.825,0.175,1.0,1.0,1.0,1.0,1.0,1.0,1.0,1.0,1.0
Poland,0.5780000000000001,2012,0.422,0.0,0.0,1.0,0.0,0.0,1.0,1.0,0.45999999999999996,0.54,0.776,0.224,1.0,1.0,1.0,1.0,1.0,1.0,1.0,1.0,1.0
Portugal,0.0,2012,1.0,0.0,0.0,0.91,0.09,0.0,1.0,1.0,0.45999999999999996,0.54,0.0,1.0,1.0,1.0,1.0,1.0,1.0,1.0,1.0,1.0,1.0
Romania,0.597,2012,0.403,0.0,0.0,0.91,0.09,0.0,1.0,1.0,0.45999999999999996,0.54,0.931,0.069,1.0,1.0,1.0,1.0,1.0,1.0,1.0,1.0,1.0
Slovakia,0.929,2012,0.071,0.0,0.0,0.91,0.09,0.0,1.0,1.0,0.45999999999999996,0.54,1.0,0.0,1.0,1.0,1.0,1.0,1.0,1.0,1.0,1.0,1.0
Slovenia,0.0,2012,1.0,0.0,0.0,0.91,0.09,0.0,1.0,1.0,0.45999999999999996,0.54,0.8200000000000001,0.18,1.0,1.0,1.0,1.0,1.0,1.0,1.0,1.0,1.0
Spain,0.31699999999999995,2012,0.683,0.0,0.0,1.0,0.0,0.0,1.0,1.0,0.45999999999999996,0.54,0.6599999999999999,0.34,1.0,1.0,1.0,1.0,1.0,1.0,1.0,1.0,1.0
Sweden,0.661,2012,0.339,0.0,0.0,0.91,0.09,0.0,1.0,1.0,0.45999999999999996,0.54,0.772,0.228,1.0,1.0,1.0,1.0,1.0,1.0,1.0,1.0,1.0
Switzerland,0.0,2012,0.0,0.0,0.0,0.91,0.09,0.0,1.0,1.0,0.45999999999999996,0.54,0.0,1.0,1.0,1.0,1.0,1.0,1.0,1.0,1.0,1.0,1.0
United Kingdom,0.838,2012,0.162,0.0,0.0,1.0,0.0,0.0,1.0,1.0,0.45999999999999996,0.54,0.483,0.517,1.0,1.0,1.0,1.0,1.0,1.0,1.0,1.0,1.0
Austria,0.913,2013,0.087,0.0,0.0,1.0,0.0,0.0,1.0,1.0,0.45999999999999996,0.54,0.0,1.0,1.0,1.0,1.0,1.0,1.0,1.0,1.0,1.0,1.0
Belgium,0.663,2013,0.337,0.0,0.0,0.91,0.09,0.0,1.0,1.0,0.45999999999999996,0.54,0.0,0.0,1.0,1.0,1.0,1.0,1.0,1.0,1.0,1.0,1.0
Bulgaria,0.0,2013,1.0,0.0,0.0,0.91,0.09,0.0,1.0,1.0,0.45999999999999996,0.54,0.0,1.0,1.0,1.0,1.0,1.0,1.0,1.0,1.0,1.0,1.0
Croatia,0.0,2013,1.0,0.0,0.0,0.91,0.09,0.0,1.0,1.0,0.45999999999999996,0.54,0.0,1.0,1.0,1.0,1.0,1.0,1.0,1.0,1.0,1.0,1.0
Cyprus,0.0,2013,0.0,0.0,0.0,0.91,0.09,0.0,1.0,1.0,0.45999999999999996,0.54,0.0,0.0,1.0,1.0,1.0,1.0,1.0,1.0,1.0,1.0,1.0
Czech Republic,0.9319999999999999,2013,0.068,0.0,0.0,1.0,0.0,0.0,1.0,1.0,0.45999999999999996,0.54,0.0,1.0,1.0,1.0,1.0,1.0,1.0,1.0,1.0,1.0,1.0
Denmark,0.0,2013,0.0,0.0,0.0,0.91,0.09,0.0,1.0,1.0,0.45999999999999996,0.54,0.0,0.0,1.0,1.0,1.0,1.0,1.0,1.0,1.0,1.0,1.0
Estonia,0.0,2013,0.0,0.0,0.0,0.91,0.09,0.0,1.0,1.0,0.45999999999999996,0.54,0.0,0.0,1.0,1.0,1.0,1.0,1.0,1.0,1.0,1.0,1.0
Finland,0.6579999999999999,2013,0.342,0.0,0.0,0.91,0.09,0.0,1.0,1.0,0.45999999999999996,0.54,0.0,1.0,1.0,1.0,1.0,1.0,1.0,1.0,1.0,1.0,1.0
France,0.656,2013,0.344,0.0,0.0,0.73,0.27,0.0,1.0,1.0,0.45999999999999996,0.54,0.614,0.386,1.0,1.0,1.0,1.0,1.0,1.0,1.0,1.0,1.0
Germany,0.704,2013,0.296,0.0,0.0,1.0,0.0,0.0,1.0,1.0,0.45999999999999996,0.54,0.43700000000000006,0.563,1.0,1.0,1.0,1.0,1.0,1.0,1.0,1.0,1.0
Greece,0.0,2013,1.0,0.0,0.0,0.91,0.09,0.0,1.0,1.0,0.45999999999999996,0.54,0.988,0.012,1.0,1.0,1.0,1.0,1.0,1.0,1.0,1.0,1.0
Hungary,0.9,2013,0.1,0.0,0.0,0.91,0.09,0.0,1.0,1.0,0.45999999999999996,0.54,0.11699999999999999,0.883,1.0,1.0,1.0,1.0,1.0,1.0,1.0,1.0,1.0
Ireland,0.0,2013,0.0,0.0,0.0,0.91,0.09,0.0,1.0,1.0,0.45999999999999996,0.54,0.0,0.0,1.0,1.0,1.0,1.0,1.0,1.0,1.0,1.0,1.0
Italy,0.21799999999999997,2013,0.782,0.0,0.0,1.0,0.0,0.0,1.0,1.0,0.45999999999999996,0.54,0.09899999999999998,0.901,1.0,1.0,1.0,1.0,1.0,1.0,1.0,1.0,1.0
Latvia,0.0,2013,0.0,0.0,0.0,0.91,0.09,0.0,1.0,1.0,0.45999999999999996,0.54,0.0,0.0,1.0,1.0,1.0,1.0,1.0,1.0,1.0,1.0,1.0
Lithuania,0.0,2013,0.0,0.0,0.0,0.91,0.09,0.0,1.0,1.0,0.45999999999999996,0.54,0.0,0.0,1.0,1.0,1.0,1.0,1.0,1.0,1.0,1.0,1.0
Luxembourg,0.0,2013,1.0,0.0,0.0,0.91,0.09,0.0,1.0,1.0,0.45999999999999996,0.54,0.0,0.0,1.0,1.0,1.0,1.0,1.0,1.0,1.0,1.0,1.0
Malta,0.0,2013,0.0,0.0,0.0,0.91,0.09,0.0,1.0,1.0,0.45999999999999996,0.54,0.0,0.0,1.0,1.0,1.0,1.0,1.0,1.0,1.0,1.0,1.0
Netherlands,0.985,2013,0.015,0.0,0.0,0.91,0.09,0.0,1.0,1.0,0.45999999999999996,0.54,0.825,0.175,1.0,1.0,1.0,1.0,1.0,1.0,1.0,1.0,1.0
Poland,0.5780000000000001,2013,0.422,0.0,0.0,1.0,0.0,0.0,1.0,1.0,0.45999999999999996,0.54,0.776,0.224,1.0,1.0,1.0,1.0,1.0,1.0,1.0,1.0,1.0
Portugal,0.0,2013,1.0,0.0,0.0,0.91,0.09,0.0,1.0,1.0,0.45999999999999996,0.54,0.0,1.0,1.0,1.0,1.0,1.0,1.0,1.0,1.0,1.0,1.0
Romania,0.597,2013,0.403,0.0,0.0,0.91,0.09,0.0,1.0,1.0,0.45999999999999996,0.54,0.931,0.069,1.0,1.0,1.0,1.0,1.0,1.0,1.0,1.0,1.0
Slovakia,0.929,2013,0.071,0.0,0.0,0.91,0.09,0.0,1.0,1.0,0.45999999999999996,0.54,1.0,0.0,1.0,1.0,1.0,1.0,1.0,1.0,1.0,1.0,1.0
Slovenia,0.0,2013,1.0,0.0,0.0,0.91,0.09,0.0,1.0,1.0,0.45999999999999996,0.54,0.8200000000000001,0.18,1.0,1.0,1.0,1.0,1.0,1.0,1.0,1.0,1.0
Spain,0.31699999999999995,2013,0.683,0.0,0.0,1.0,0.0,0.0,1.0,1.0,0.45999999999999996,0.54,0.6599999999999999,0.34,1.0,1.0,1.0,1.0,1.0,1.0,1.0,1.0,1.0
Sweden,0.661,2013,0.339,0.0,0.0,0.91,0.09,0.0,1.0,1.0,0.45999999999999996,0.54,0.772,0.228,1.0,1.0,1.0,1.0,1.0,1.0,1.0,1.0,1.0
Switzerland,0.0,2013,0.0,0.0,0.0,0.91,0.09,0.0,1.0,1.0,0.45999999999999996,0.54,0.0,1.0,1.0,1.0,1.0,1.0,1.0,1.0,1.0,1.0,1.0
United Kingdom,0.838,2013,0.162,0.0,0.0,1.0,0.0,0.0,1.0,1.0,0.45999999999999996,0.54,0.483,0.517,1.0,1.0,1.0,1.0,1.0,1.0,1.0,1.0,1.0
Austria,0.913,2014,0.087,0.0,0.0,1.0,0.0,0.0,1.0,1.0,0.45999999999999996,0.54,0.0,1.0,1.0,1.0,1.0,1.0,1.0,1.0,1.0,1.0,1.0
Belgium,0.663,2014,0.337,0.0,0.0,0.91,0.09,0.0,1.0,1.0,0.45999999999999996,0.54,0.0,0.0,1.0,1.0,1.0,1.0,1.0,1.0,1.0,1.0,1.0
Bulgaria,0.0,2014,1.0,0.0,0.0,0.91,0.09,0.0,1.0,1.0,0.45999999999999996,0.54,0.0,1.0,1.0,1.0,1.0,1.0,1.0,1.0,1.0,1.0,1.0
Croatia,0.0,2014,1.0,0.0,0.0,0.91,0.09,0.0,1.0,1.0,0.45999999999999996,0.54,0.0,1.0,1.0,1.0,1.0,1.0,1.0,1.0,1.0,1.0,1.0
Cyprus,0.0,2014,0.0,0.0,0.0,0.91,0.09,0.0,1.0,1.0,0.45999999999999996,0.54,0.0,0.0,1.0,1.0,1.0,1.0,1.0,1.0,1.0,1.0,1.0
Czech Republic,0.9319999999999999,2014,0.068,0.0,0.0,1.0,0.0,0.0,1.0,1.0,0.45999999999999996,0.54,0.0,1.0,1.0,1.0,1.0,1.0,1.0,1.0,1.0,1.0,1.0
Denmark,0.0,2014,0.0,0.0,0.0,0.91,0.09,0.0,1.0,1.0,0.45999999999999996,0.54,0.0,0.0,1.0,1.0,1.0,1.0,1.0,1.0,1.0,1.0,1.0
Estonia,0.0,2014,0.0,0.0,0.0,0.91,0.09,0.0,1.0,1.0,0.45999999999999996,0.54,0.0,0.0,1.0,1.0,1.0,1.0,1.0,1.0,1.0,1.0,1.0
Finland,0.6579999999999999,2014,0.342,0.0,0.0,0.91,0.09,0.0,1.0,1.0,0.45999999999999996,0.54,0.0,1.0,1.0,1.0,1.0,1.0,1.0,1.0,1.0,1.0,1.0
France,0.656,2014,0.344,0.0,0.0,0.73,0.27,0.0,1.0,1.0,0.45999999999999996,0.54,0.614,0.386,1.0,1.0,1.0,1.0,1.0,1.0,1.0,1.0,1.0
Germany,0.704,2014,0.296,0.0,0.0,1.0,0.0,0.0,1.0,1.0,0.45999999999999996,0.54,0.43700000000000006,0.563,1.0,1.0,1.0,1.0,1.0,1.0,1.0,1.0,1.0
Greece,0.0,2014,1.0,0.0,0.0,0.91,0.09,0.0,1.0,1.0,0.45999999999999996,0.54,0.988,0.012,1.0,1.0,1.0,1.0,1.0,1.0,1.0,1.0,1.0
Hungary,0.9,2014,0.1,0.0,0.0,0.91,0.09,0.0,1.0,1.0,0.45999999999999996,0.54,0.11699999999999999,0.883,1.0,1.0,1.0,1.0,1.0,1.0,1.0,1.0,1.0
Ireland,0.0,2014,0.0,0.0,0.0,0.91,0.09,0.0,1.0,1.0,0.45999999999999996,0.54,0.0,0.0,1.0,1.0,1.0,1.0,1.0,1.0,1.0,1.0,1.0
Italy,0.21799999999999997,2014,0.782,0.0,0.0,1.0,0.0,0.0,1.0,1.0,0.45999999999999996,0.54,0.09899999999999998,0.901,1.0,1.0,1.0,1.0,1.0,1.0,1.0,1.0,1.0
Latvia,0.0,2014,0.0,0.0,0.0,0.91,0.09,0.0,1.0,1.0,0.45999999999999996,0.54,0.0,0.0,1.0,1.0,1.0,1.0,1.0,1.0,1.0,1.0,1.0
Lithuania,0.0,2014,0.0,0.0,0.0,0.91,0.09,0.0,1.0,1.0,0.45999999999999996,0.54,0.0,0.0,1.0,1.0,1.0,1.0,1.0,1.0,1.0,1.0,1.0
Luxembourg,0.0,2014,1.0,0.0,0.0,0.91,0.09,0.0,1.0,1.0,0.45999999999999996,0.54,0.0,0.0,1.0,1.0,1.0,1.0,1.0,1.0,1.0,1.0,1.0
Malta,0.0,2014,0.0,0.0,0.0,0.91,0.09,0.0,1.0,1.0,0.45999999999999996,0.54,0.0,0.0,1.0,1.0,1.0,1.0,1.0,1.0,1.0,1.0,1.0
Netherlands,0.985,2014,0.015,0.0,0.0,0.91,0.09,0.0,1.0,1.0,0.45999999999999996,0.54,0.825,0.175,1.0,1.0,1.0,1.0,1.0,1.0,1.0,1.0,1.0
Poland,0.5780000000000001,2014,0.422,0.0,0.0,1.0,0.0,0.0,1.0,1.0,0.45999999999999996,0.54,0.776,0.224,1.0,1.0,1.0,1.0,1.0,1.0,1.0,1.0,1.0
Portugal,0.0,2014,1.0,0.0,0.0,0.91,0.09,0.0,1.0,1.0,0.45999999999999996,0.54,0.0,1.0,1.0,1.0,1.0,1.0,1.0,1.0,1.0,1.0,1.0
Romania,0.597,2014,0.403,0.0,0.0,0.91,0.09,0.0,1.0,1.0,0.45999999999999996,0.54,0.931,0.069,1.0,1.0,1.0,1.0,1.0,1.0,1.0,1.0,1.0
Slovakia,0.929,2014,0.071,0.0,0.0,0.91,0.09,0.0,1.0,1.0,0.45999999999999996,0.54,1.0,0.0,1.0,1.0,1.0,1.0,1.0,1.0,1.0,1.0,1.0
Slovenia,0.0,2014,1.0,0.0,0.0,0.91,0.09,0.0,1.0,1.0,0.45999999999999996,0.54,0.8200000000000001,0.18,1.0,1.0,1.0,1.0,1.0,1.0,1.0,1.0,1.0
Spain,0.31699999999999995,2014,0.683,0.0,0.0,1.0,0.0,0.0,1.0,1.0,0.45999999999999996,0.54,0.6599999999999999,0.34,1.0,1.0,1.0,1.0,1.0,1.0,1.0,1.0,1.0
Sweden,0.661,2014,0.339,0.0,0.0,0.91,0.09,0.0,1.0,1.0,0.45999999999999996,0.54,0.772,0.228,1.0,1.0,1.0,1.0,1.0,1.0,1.0,1.0,1.0
Switzerland,0.0,2014,0.0,0.0,0.0,0.91,0.09,0.0,1.0,1.0,0.45999999999999996,0.54,0.0,1.0,1.0,1.0,1.0,1.0,1.0,1.0,1.0,1.0,1.0
United Kingdom,0.838,2014,0.162,0.0,0.0,1.0,0.0,0.0,1.0,1.0,0.45999999999999996,0.54,0.483,0.517,1.0,1.0,1.0,1.0,1.0,1.0,1.0,1.0,1.0
Austria,0.913,2015,0.087,0.0,0.0,1.0,0.0,0.0,1.0,1.0,0.45999999999999996,0.54,0.0,1.0,1.0,1.0,1.0,1.0,1.0,1.0,1.0,1.0,1.0
Belgium,0.663,2015,0.337,0.0,0.0,0.91,0.09,0.0,1.0,1.0,0.45999999999999996,0.54,0.0,0.0,1.0,1.0,1.0,1.0,1.0,1.0,1.0,1.0,1.0
Bulgaria,0.0,2015,1.0,0.0,0.0,0.91,0.09,0.0,1.0,1.0,0.45999999999999996,0.54,0.0,1.0,1.0,1.0,1.0,1.0,1.0,1.0,1.0,1.0,1.0
Croatia,0.0,2015,1.0,0.0,0.0,0.91,0.09,0.0,1.0,1.0,0.45999999999999996,0.54,0.0,1.0,1.0,1.0,1.0,1.0,1.0,1.0,1.0,1.0,1.0
Cyprus,0.0,2015,0.0,0.0,0.0,0.91,0.09,0.0,1.0,1.0,0.45999999999999996,0.54,0.0,0.0,1.0,1.0,1.0,1.0,1.0,1.0,1.0,1.0,1.0
Czech Republic,0.9319999999999999,2015,0.068,0.0,0.0,1.0,0.0,0.0,1.0,1.0,0.45999999999999996,0.54,0.0,1.0,1.0,1.0,1.0,1.0,1.0,1.0,1.0,1.0,1.0
Denmark,0.0,2015,0.0,0.0,0.0,0.91,0.09,0.0,1.0,1.0,0.45999999999999996,0.54,0.0,0.0,1.0,1.0,1.0,1.0,1.0,1.0,1.0,1.0,1.0
Estonia,0.0,2015,0.0,0.0,0.0,0.91,0.09,0.0,1.0,1.0,0.45999999999999996,0.54,0.0,0.0,1.0,1.0,1.0,1.0,1.0,1.0,1.0,1.0,1.0
Finland,0.6579999999999999,2015,0.342,0.0,0.0,0.91,0.09,0.0,1.0,1.0,0.45999999999999996,0.54,0.0,1.0,1.0,1.0,1.0,1.0,1.0,1.0,1.0,1.0,1.0
France,0.656,2015,0.344,0.0,0.0,0.73,0.27,0.0,1.0,1.0,0.45999999999999996,0.54,0.614,0.386,1.0,1.0,1.0,1.0,1.0,1.0,1.0,1.0,1.0
Germany,0.704,2015,0.296,0.0,0.0,1.0,0.0,0.0,1.0,1.0,0.45999999999999996,0.54,0.43700000000000006,0.563,1.0,1.0,1.0,1.0,1.0,1.0,1.0,1.0,1.0
Greece,0.0,2015,1.0,0.0,0.0,0.91,0.09,0.0,1.0,1.0,0.45999999999999996,0.54,0.988,0.012,1.0,1.0,1.0,1.0,1.0,1.0,1.0,1.0,1.0
Hungary,0.9,2015,0.1,0.0,0.0,0.91,0.09,0.0,1.0,1.0,0.45999999999999996,0.54,0.11699999999999999,0.883,1.0,1.0,1.0,1.0,1.0,1.0,1.0,1.0,1.0
Ireland,0.0,2015,0.0,0.0,0.0,0.91,0.09,0.0,1.0,1.0,0.45999999999999996,0.54,0.0,0.0,1.0,1.0,1.0,1.0,1.0,1.0,1.0,1.0,1.0
Italy,0.21799999999999997,2015,0.782,0.0,0.0,1.0,0.0,0.0,1.0,1.0,0.45999999999999996,0.54,0.09899999999999998,0.901,1.0,1.0,1.0,1.0,1.0,1.0,1.0,1.0,1.0
Latvia,0.0,2015,0.0,0.0,0.0,0.91,0.09,0.0,1.0,1.0,0.45999999999999996,0.54,0.0,0.0,1.0,1.0,1.0,1.0,1.0,1.0,1.0,1.0,1.0
Lithuania,0.0,2015,0.0,0.0,0.0,0.91,0.09,0.0,1.0,1.0,0.45999999999999996,0.54,0.0,0.0,1.0,1.0,1.0,1.0,1.0,1.0,1.0,1.0,1.0
Luxembourg,0.0,2015,1.0,0.0,0.0,0.91,0.09,0.0,1.0,1.0,0.45999999999999996,0.54,0.0,0.0,1.0,1.0,1.0,1.0,1.0,1.0,1.0,1.0,1.0
Malta,0.0,2015,0.0,0.0,0.0,0.91,0.09,0.0,1.0,1.0,0.45999999999999996,0.54,0.0,0.0,1.0,1.0,1.0,1.0,1.0,1.0,1.0,1.0,1.0
Netherlands,0.985,2015,0.015,0.0,0.0,0.91,0.09,0.0,1.0,1.0,0.45999999999999996,0.54,0.825,0.175,1.0,1.0,1.0,1.0,1.0,1.0,1.0,1.0,1.0
Poland,0.5780000000000001,2015,0.422,0.0,0.0,1.0,0.0,0.0,1.0,1.0,0.45999999999999996,0.54,0.776,0.224,1.0,1.0,1.0,1.0,1.0,1.0,1.0,1.0,1.0
Portugal,0.0,2015,1.0,0.0,0.0,0.91,0.09,0.0,1.0,1.0,0.45999999999999996,0.54,0.0,1.0,1.0,1.0,1.0,1.0,1.0,1.0,1.0,1.0,1.0
Romania,0.597,2015,0.403,0.0,0.0,0.91,0.09,0.0,1.0,1.0,0.45999999999999996,0.54,0.931,0.069,1.0,1.0,1.0,1.0,1.0,1.0,1.0,1.0,1.0
Slovakia,0.929,2015,0.071,0.0,0.0,0.91,0.09,0.0,1.0,1.0,0.45999999999999996,0.54,1.0,0.0,1.0,1.0,1.0,1.0,1.0,1.0,1.0,1.0,1.0
Slovenia,0.0,2015,1.0,0.0,0.0,0.91,0.09,0.0,1.0,1.0,0.45999999999999996,0.54,0.8200000000000001,0.18,1.0,1.0,1.0,1.0,1.0,1.0,1.0,1.0,1.0
Spain,0.31699999999999995,2015,0.683,0.0,0.0,1.0,0.0,0.0,1.0,1.0,0.45999999999999996,0.54,0.6599999999999999,0.34,1.0,1.0,1.0,1.0,1.0,1.0,1.0,1.0,1.0
Sweden,0.661,2015,0.339,0.0,0.0,0.91,0.09,0.0,1.0,1.0,0.45999999999999996,0.54,0.772,0.228,1.0,1.0,1.0,1.0,1.0,1.0,1.0,1.0,1.0
Switzerland,0.0,2015,0.0,0.0,0.0,0.91,0.09,0.0,1.0,1.0,0.45999999999999996,0.54,0.0,1.0,1.0,1.0,1.0,1.0,1.0,1.0,1.0,1.0,1.0
United Kingdom,0.838,2015,0.162,0.0,0.0,1.0,0.0,0.0,1.0,1.0,0.45999999999999996,0.54,0.483,0.517,1.0,1.0,1.0,1.0,1.0,1.0,1.0,1.0,1.0
