Country,Years,ots_bdy_biodiversity_protected-agriculture[%],ots_bdy_biodiversity_protected-natural[%],ots_bdy_biodiversity_CO2[Mt],ots_bdy_biodiversity_CH4[Mt],ots_bdy_biodiversity_N2O[Mt]
Austria,1990,2.060142241687756,15.14774714743321,-0.9773468522812943,0.01976593286009803,0.000814973988170445
Belgium,1990,1.94116402618535,4.989333285881779,-0.1659019030493795,0.01091912491221577,0.0005774603578298867
Bulgaria,1990,0.2908705871108993,1.546908383939115,-0.2398743886107338,0.0004996162128411746,0.0001491445412297689
Croatia,1990,0.8622924620438603,6.508153541093255,-0.651470750131703,0.001670254062792872,0.0001202696773058404
Cyprus,1990,0.03645042308526796,0.05207203297895421,-0.0002415689980099172,1.556072508269142e-05,8.130428343734843e-07
Czech Republic,1990,2.34690762945067,11.48760674271034,-1.653518040805158,0.008566646488333014,0.0006621655277566238
Denmark,1990,3.07951187479479,4.457152238152567,0.8875849475452667,0.0117030065848975,0.0006594198557923905
Estonia,1990,0.5551681949140279,8.629664224102019,-0.2819254480503087,0.000666167563900037,6.031171548980468e-05
Finland,1990,0.005627755945190807,4.451272951803359,-0.9023785126927579,0.004033634888402123,0.0002301390429302246
France,1990,2.128149190037412,7.386507161925539,-7.336517457321603,0.08852293259303767,0.006521178759959851
Germany,1990,4.340703309353291,10.13891365472164,-3.234608326714886,0.1555092385092058,0.01022813911161548
Greece,1990,2.457519029696559,6.90314020048211,-0.4518322103875583,0.01402039515670339,0.0006880579817824189
Hungary,1990,1.149863893518955,4.053841557379627,-0.8300271725509353,0.002318638049427385,0.0002344102676064825
Ireland,1990,0.006444844369245528,0.3146552497744304,0.01579443727345354,0.0005790752753164788,2.093888708827239e-05
Italy,1990,0.9733025436863444,4.139691951352109,-3.494927675924883,0.01863505315910925,0.00084104750963909
Latvia,1990,0.9852264635619316,5.248141460439051,-0.02658554382978789,0.003182277851601537,0.0003330312670244286
Lithuania,1990,0.2469907952751483,1.543231353913664,-0.2423562110252235,0.0003989043524334453,5.82044965754345e-05
Luxembourg,1990,5.582553323917363,10.63845067388026,-0.075856260897571,0.003681840575318192,0.0001274924097256744
Malta,1990,,,0.0,0.0,0.0
Netherlands,1990,0.2513204047270022,1.065193913533331,0.1580458709838255,0.004145440722620832,0.0001527896548138441
Poland,1990,4.905700420049963,8.568484926479027,-6.368735824174504,0.05692767700743816,0.004818410939480428
Portugal,1990,1.698313215970485,6.336729105751463,0.03106326302235981,0.01169929350891513,0.0005957901326046248
Romania,1990,0.0653438587812448,1.931221256597619,-1.173891352087584,0.0007476521430153648,0.0003238471393103179
Slovakia,1990,0.7201462157917685,5.546630721522456,-0.7176447666548333,0.00103130637519463,8.572310106097214e-05
Slovenia,1990,1.202908743481203,5.755118831194681,-0.4088345962799975,0.00252478368110503,8.744845076714035e-05
Spain,1990,1.202071100608018,6.660299158656771,-5.416116248947436,0.0285381680482078,0.001224779520739684
Sweden,1990,0.09772076112338167,3.638817678127836,-2.023745221551466,0.00303795351575225,0.0003254613032163811
Switzerland,1990,0.0174641152123557,0.3800826528943596,-0.007891626214061415,0.0003376476059815328,1.657204159867492e-05
United Kingdom,1990,3.203258444129004,17.42413224106623,-4.273275038994815,0.146162947078454,0.006567798145422034
Austria,1991,2.088919906526451,15.94675054766051,-1.029288821651417,0.02005158782070653,0.000829954433236878
Belgium,1991,1.94452517799276,5.001393889426014,-0.1663076507698132,0.01093803152491771,0.0005785045285809696
Bulgaria,1991,0.3678953318603268,1.941903850482709,-0.3011234736628244,0.0006317200120848537,0.0001879857370509649
Croatia,1991,0.8626476072094469,6.526621089703749,-0.6533228121817941,0.001671133599483895,0.0001204224326730435
Cyprus,1991,0.03645042308526796,0.05207203297895421,-0.0002415689980099172,1.556072508269142e-05,8.130428343734843e-07
Czech Republic,1991,2.758067642099333,12.13949937345178,-1.745376100313674,0.01002219971551947,0.0007755583382418737
Denmark,1991,3.091575711144497,4.464241296626105,0.8890140549236147,0.01174750079962954,0.0006619486486998937
Estonia,1991,0.5570319112081705,9.010629760698828,-0.2943816848304337,0.0006684191717189163,6.085817475343465e-05
Finland,1991,0.005738104100978862,9.478134145103411,-1.922001169619885,0.008473946964082546,0.0004786700375792505
France,1991,2.35358000593239,7.812359464553971,-7.755429624428618,0.09746139624744407,0.007132778524717422
Germany,1991,4.475009679662769,10.33536127725207,-3.29389803283222,0.1602162861426217,0.01053762192439695
Greece,1991,2.47669830221501,6.964032992822032,-0.4558193702058985,0.01412987865789085,0.0006934340145128955
Hungary,1991,1.197946696578643,4.356595485947311,-0.892120450203219,0.002419934252566503,0.0002451598139424618
Ireland,1991,0.006689585294659916,0.3215079956860333,0.01614437713541728,0.0005999684274603665,2.167092865018993e-05
Italy,1991,1.249971466624802,5.306066451785118,-4.479615723401459,0.02392885618507854,0.001079686636541193
Latvia,1991,0.9852264635619316,5.248141460439051,-0.02658554382978789,0.003182277851601537,0.0003330312670244286
Lithuania,1991,0.4004168493666354,2.868228817772606,-0.4504801219756965,0.0006472620905736259,9.930702551011841e-05
Luxembourg,1991,5.623249467359299,10.73181241471764,-0.0765233181244694,0.003708680751038779,0.0001284334048786924
Malta,1991,,,0.0,0.0,0.0
Netherlands,1991,0.2601905366585435,1.24648696090606,0.1848798199698658,0.004291801057879202,0.0001595418937090986
Poland,1991,5.372447687542732,9.49102948929104,-7.055218160797802,0.06234891277275774,0.005286898077052017
Portugal,1991,1.698633471149812,6.34777790943824,0.03111492584374803,0.01170385708643295,0.0005962091711164484
Romania,1991,0.3789273042583906,3.137315731296438,-1.906532685644627,0.004325507243458229,0.0006207065956095666
Slovakia,1991,0.7211751798436232,5.551646921275247,-0.7182931135172864,0.001032719056648181,8.583883803099941e-05
Slovenia,1991,1.20324048885999,5.75843628498255,-0.4090705247315692,0.002525480264950255,8.747523688739207e-05
Spain,1991,1.259531285566177,6.752615547018513,-5.490727100952235,0.02986508672503307,0.00127877811070184
Sweden,1991,0.09799345210518898,3.642460050527691,-2.025767889328751,0.003044800664934366,0.0003260626919667925
Switzerland,1991,0.05382122779080531,0.4489865256412902,-0.008922180218981262,0.001034010395710222,4.940963480372181e-05
United Kingdom,1991,3.227095372142622,17.73960622034226,-4.352225653775266,0.1472534262388249,0.00662993754841007
Austria,1992,2.090997438480047,15.95860017435879,-1.03005109884892,0.02007146490449617,0.0008307553117275772
Belgium,1992,1.949072618673373,5.005348185670026,-0.1664284746496006,0.01096361105974975,0.0005797571951276082
Bulgaria,1992,0.3713535857062195,2.714917901053698,-0.4210781620045959,0.0006478870728658923,0.0002234447458920768
Croatia,1992,0.8626476072094469,6.530409304803339,-0.6537028424142881,0.001671179580708683,0.0001204472012014086
Cyprus,1992,0.03645042308526796,1.025819049685398,-0.004800296693865638,1.56034936426216e-05,8.140585673831933e-07
Czech Republic,1992,2.790787818678435,12.35951705960957,-1.777132174313619,0.01014362540554104,0.0007849051091695959
Denmark,1992,6.74890803625618,6.829250698956292,1.364891778151484,0.02526471965580914,0.00142972328092601
Estonia,1992,0.5814794837725126,9.161590780524383,-0.2993067509845826,0.000697744817214504,6.329023272573373e-05
Finland,1992,0.00590975678776028,9.502410739376783,-1.926909998550137,0.008498539401536971,0.000480181749327789
France,1992,2.357180105443446,7.821533140052243,-7.764503412215893,0.09760706094227717,0.007143072561806647
Germany,1992,4.677636167585605,10.62051255703277,-3.379442115424879,0.1673077416563568,0.01100386609723116
Greece,1992,3.245155276620467,7.369034365565881,-0.4819443868662186,0.01849806107669495,0.0009070365891742127
Hungary,1992,1.211784480017332,4.43396127517271,-0.9079835020956856,0.002448768324559483,0.0002481840038958188
Ireland,1992,0.006771165603131379,0.3223237987707479,0.01618903082211966,0.000606616701575506,2.189675875508038e-05
Italy,1992,1.255212290640727,5.334576534431748,-4.503698259615152,0.02403121283784726,0.001084476488768239
Latvia,1992,0.9863605838127016,5.253245001567517,-0.0266112405396528,0.003185645585394788,0.0003333876418636777
Lithuania,1992,2.598601391565927,7.843760296523097,-1.230900483929192,0.004183929110468778,0.000499049043264674
Luxembourg,1992,5.623249467359299,10.73181241471764,-0.0765233181244694,0.003708680751038779,0.0001284334048786924
Malta,1992,,,0.0,0.0,0.0
Netherlands,1992,0.2726398446326365,1.28056694148514,0.1899448187632578,0.004497141379070744,0.0001669336245780902
Poland,1992,6.200619294302515,10.68935531004037,-7.944102396221484,0.07194796935420135,0.006077100447683392
Portugal,1992,1.698633471149812,6.34777790943824,0.03111492584374803,0.01170385708643295,0.0005962091711164484
Romania,1992,0.3802129404876194,3.152715417433507,-1.915892021221089,0.004340188919771128,0.0006235541608292042
Slovakia,1992,0.7219469028825142,5.589461350180905,-0.7231930180903223,0.00103449118460975,8.600461460890026e-05
Slovenia,1992,1.514085908783291,5.999946920739395,-0.4260386195815548,0.003177708961449696,0.000108151377048813
Spain,1992,1.511572878619931,8.223731617887898,-6.687182038494193,0.03586105684872932,0.001537082287641952
Sweden,1992,0.09973672659602867,3.670011578653867,-2.041073273382953,0.003089641640996759,0.0003301083017521218
Switzerland,1992,0.1936929141733996,3.489171454744921,-0.07204312309268676,0.003738225073225883,0.0001821275746415869
United Kingdom,1992,3.238968171536379,17.86127958182174,-4.382551702767239,0.1477960399549834,0.006658356734844858
Austria,1993,2.092305514154533,15.96521749835914,-1.030476065013461,0.02008396639236656,0.0008312544041211077
Belgium,1993,1.974380114635048,5.01365220778245,-0.1666263699805886,0.01110596673185849,0.00058655118224391
Bulgaria,1993,0.3713535857062195,2.714980778396351,-0.4210879193478637,0.0006478879250063795,0.0002234475526899367
Croatia,1993,1.01630708218651,6.710112758590074,-0.6714772723532125,0.001956921124992741,0.0001354712953546463
Cyprus,1993,0.0486005641136906,1.039704925146453,-0.004864567544553952,2.079024953093431e-05,1.085069224356138e-06
Czech Republic,1993,2.826018896098139,12.43429482526876,-1.787753869368449,0.01026897669832629,0.0007946577401164335
Denmark,1993,6.75151979464117,6.8324843045758,1.365536626949929,0.02527457383738248,0.001430279670734363
Estonia,1993,0.581698744513,9.164331539780477,-0.299396270170618,0.0006980078876248688,6.331340021631536e-05
Finland,1993,0.007013238345640831,9.551000710642123,-1.936667102373451,0.008561743570253983,0.0004845906196757934
France,1993,2.359954932973563,7.829953306350528,-7.772852813128953,0.09772099386363828,0.007151306462534115
Germany,1993,4.860685054835751,10.92821333741676,-3.474149853100266,0.1737587121192457,0.0114280476310775
Greece,1993,3.253766378567526,7.383572589632345,-0.4828938483130631,0.01854710055196284,0.0009094389987691795
Hungary,1993,1.317804265252138,4.622798097654216,-0.9465033863348838,0.002656527722460559,0.0002684820699307779
Ireland,1993,0.006771165603131379,0.3223237987707479,0.01618903082211966,0.000606616701575506,2.189675875508038e-05
Italy,1993,1.393896140377684,5.921106265742853,-4.998868032201473,0.02668540518082307,0.001204175918512359
Latvia,1993,0.9863605838127016,5.253245001567517,-0.0266112405396528,0.003185645585394788,0.0003333876418636777
Lithuania,1993,2.62333400684297,7.95484746683524,-1.2483413659051,0.004223806610015863,0.0005042907656658247
Luxembourg,1993,5.628037248940703,10.73899408708975,-0.07657436012258258,0.003711838418770612,0.0001285413225561653
Malta,1993,,,0.0,0.0,0.0
Netherlands,1993,0.296137913433737,1.390432084356511,0.2062411771636948,0.004884737290783937,0.0001813164059867834
Poland,1993,6.572203401565583,11.45066059187798,-8.510775802106625,0.07626512240575935,0.006452583546457268
Portugal,1993,1.698633471149812,6.34777790943824,0.03111492584374803,0.01170385708643295,0.0005962091711164484
Romania,1993,0.3814706281031695,3.19695807288719,-1.942785308287168,0.004354588011689618,0.0006308902329117169
Slovakia,1993,0.8029778219660673,5.815833441588926,-0.7523904987442092,0.001142210410464461,9.47277604459085e-05
Slovenia,1993,1.529346196207487,6.22420679679932,-0.4419925691178956,0.003209763574770535,0.0001094940743562671
Spain,1993,1.624376824785597,8.290434959634615,-6.740287963646135,0.03844715546307786,0.001640786773005163
Sweden,1993,0.1006132333232665,3.731435222305966,-2.075247817878045,0.0031240972742199,0.000334383797926495
Switzerland,1993,0.1938516788571483,3.489171454744921,-0.0720412093139015,0.003741263227055589,0.0001822702777982767
United Kingdom,1993,3.303720592845406,18.27011486248444,-4.483300264743662,0.1507515149455321,0.006795163560291095
Austria,1994,2.092536351038266,15.98291499277865,-1.03162853397126,0.02008644124953088,0.0008314436783441438
Belgium,1994,2.364076009482402,5.220659616156464,-0.1724142038193918,0.01329802165159543,0.0006921923906676474
Bulgaria,1994,0.3719194817900928,2.725229785248724,-0.4226780243346224,0.0006489580531909569,0.0002240608811696538
Croatia,1994,1.01630708218651,6.710112758590074,-0.6714772723532125,0.001956921124992741,0.0001354712953546463
Cyprus,1994,0.0486005641136906,1.039704925146453,-0.004864567544553952,2.079024953093431e-05,1.085069224356138e-06
Czech Republic,1994,2.828294399984935,12.44065054302154,-1.788661765537043,0.0102771236400251,0.0007952905737869196
Denmark,1994,6.767190344951097,6.841687643646711,1.367391980542625,0.02533236977779176,0.001433564467585297
Estonia,1994,0.6207271563197524,9.967922153666697,-0.3256548331018067,0.000744848111665262,6.77457690984115e-05
Finland,1994,0.007135847407627558,9.57958088299123,-1.942453243447322,0.008589233317935095,0.0004862256644865386
France,1994,2.389736487068347,7.864626690013492,-7.806509770626565,0.09887529931192553,0.007227311710869027
Germany,1994,4.994000791835032,11.27540512704788,-3.585946781239866,0.1785667841506328,0.01174431687326447
Greece,1994,3.77826076988843,9.245024432603868,-0.6048166269956561,0.02154292307056208,0.001056630540754726
Hungary,1994,1.318503143203587,4.622798097654216,-0.9465014598302112,0.002657856717778764,0.0002686070223947826
Ireland,1994,0.008402771772560626,0.3428820365055564,0.01729008414314036,0.0007404953903508949,2.646589168357087e-05
Italy,1994,1.399789155826702,5.951246826972215,-5.024324716490485,0.02679987842252168,0.001209481326146308
Latvia,1994,0.9863605838127016,5.253245001567517,-0.0266112405396528,0.003185645585394788,0.0003333876418636777
Lithuania,1994,2.62333400684297,7.95660809368547,-1.248618055917303,0.004223809329153528,0.0005043145388229174
Luxembourg,1994,5.733368443731597,11.03823043592751,-0.0787164555131653,0.003781307108870955,0.0001310190669254135
Malta,1994,2.462936394069823,0.7890961262553802,0.0006351216666666679,7.849070613236253e-05,4.617107839225996e-06
Netherlands,1994,0.3236820073264177,1.581217729059486,0.2345150870279926,0.005339093431526473,0.0001987623651007662
Poland,1994,6.946741367301577,12.22438336793299,-9.086731474818565,0.0806168857726676,0.006831647383610685
Portugal,1994,1.698633471149812,6.353622566460956,0.03114209439123673,0.01170525534579142,0.000596391078441426
Romania,1994,0.4106489807839306,3.252436071039786,-1.976459298369147,0.004687429584201473,0.0006496625063003328
Slovakia,1994,0.8042640270308857,5.817376887666708,-0.7525882734642485,0.001143877343792167,9.486146928261078e-05
Slovenia,1994,1.529346196207487,6.224538542178108,-0.4420161859732847,0.003209763629198501,0.0001094945860959702
Spain,1994,1.655633668069025,8.625592976582995,-7.013166314166763,0.03921589819224332,0.001675892216157991
Sweden,1994,0.1028629339231769,3.74858553726892,-2.084754795104999,0.003177356787270316,0.0003387374830716483
Switzerland,1994,0.2149673817957238,3.686833486012037,-0.07600019663568998,0.004147132215424392,0.0002017046825510043
United Kingdom,1994,3.311529241677453,18.66088978868472,-4.582100557826794,0.1511130923253518,0.006836039496439668
Austria,1995,2.12200652652816,16.31431981219111,-1.053087154921809,0.02037105627230366,0.000843804146883964
Belgium,1995,2.367832590914213,5.227579634583484,-0.1726405325582294,0.01331915257167407,0.000693274494620154
Bulgaria,1995,0.4192032434648434,3.621860691474712,-0.5617891661832413,0.0007389189568098958,0.000277105481126473
Croatia,1995,1.215188374914913,6.785285151972535,-0.6786907106219376,0.0023248453682255,0.0001538877190361389
Cyprus,1995,0.0486005641136906,1.039704925146453,-0.004864567544553952,2.079024953093431e-05,1.085069224356138e-06
Czech Republic,1995,2.830805300825537,12.4513218715941,-1.790195439193414,0.01028623504245336,0.0007959958993250893
Denmark,1995,6.771543275592745,6.84193638254052,1.367451673009346,0.02534812343618712,0.001434464795282557
Estonia,1995,0.6207271563197524,10.00980095509979,-0.3270242165969642,0.0007448499276236857,6.778669556485996e-05
Finland,1995,0.009661594084554151,9.635797137912144,-1.953629984648143,0.008685339717629924,0.0004936000047552169
France,1995,3.446443436576054,10.1570408856484,-10.06775850363415,0.141138713928864,0.01015996078179555
Germany,1995,5.448902965956131,12.19140513107758,-3.873949722958558,0.1947333158682401,0.01280748465751127
Greece,1995,5.761610030032616,16.10113906985561,-1.053851939995098,0.03286981325252444,0.001613066280289495
Hungary,1995,1.354635133293497,4.647398601545219,-0.9514580666146198,0.002727367065316032,0.0002752419935737589
Ireland,1995,0.09960955664365559,3.207411407864015,0.1629355107807295,0.00859356913009093,0.0003031212637722592
Italy,1995,3.089360940907264,10.84529134090093,-9.151341142807684,0.05840627432744726,0.002573221560004087
Latvia,1995,0.9878997470101755,5.302417215297337,-0.02686716327377595,0.003203527368493666,0.0003350870560248523
Lithuania,1995,2.62333400684297,7.95660809368547,-1.248618055917303,0.004223809329153528,0.0005043145388229174
Luxembourg,1995,5.733368443731597,11.03823043592751,-0.0787164555131653,0.003781307108870955,0.0001310190669254135
Malta,1995,2.510760401721664,0.8130081300813009,0.0006543677777777792,8.001479751357345e-05,4.706760418628442e-06
Netherlands,1995,0.3795482768601601,1.758775984039987,0.2608867113951365,0.00626056680452406,0.0002321657516443828
Poland,1995,8.155226956046963,13.24369031371482,-9.83643716892196,0.09459061460849391,0.00791645603971365
Portugal,1995,2.064284822146286,6.872836275944673,0.03390169516772441,0.01402196477170662,0.0006983636146313137
Romania,1995,0.4265237933535402,3.268310883609396,-1.986081674068154,0.004868497863863928,0.0006576442754252074
Slovakia,1995,0.8868383921922207,6.460608040582343,-0.835813697967505,0.001262281798411718,0.0001047075474069002
Slovenia,1995,1.539298557571093,6.254727371647713,-0.444158116744111,0.003230649769110494,0.0001101912161055677
Spain,1995,1.711855673145851,8.70567154053621,-7.077814489349256,0.04051253570803418,0.001728521067308249
Sweden,1995,0.1255449802313647,9.76037961701136,-5.430665496416063,0.00517615900331213,0.0006577419288771019
Switzerland,1995,0.2171900873682055,3.717792599343032,-0.07663335263273215,0.004189947439850308,0.0002037737737792253
United Kingdom,1995,3.333402591329797,18.96307536556235,-4.657770007700195,0.1521139349935385,0.006893966725204395
Austria,1996,2.377542956820422,16.99374970664479,-1.096129218956829,0.02280328897220207,0.0009375486390311262
Belgium,1996,2.981934797609232,5.410663550681226,-0.1768047604497033,0.01677350192768774,0.0008578964181832332
Bulgaria,1996,0.4196433848634116,3.621860691474712,-0.5617889002097802,0.0007396432462539141,0.0002772266747931343
Croatia,1996,1.237444138624996,6.828731243895943,-0.6830125014630086,0.002366443083862182,0.00015617766735832
Cyprus,1996,0.05814710349316554,1.040572792362769,-0.00486805092579068,2.486511664748937e-05,1.297995693646469e-06
Czech Republic,1996,2.836768690321968,12.46324865058696,-1.791887115438389,0.01030742833648538,0.0007976452756595419
Denmark,1996,6.803257484553314,6.867556488602784,1.372587638899798,0.02546600298167587,0.001441149319165565
Estonia,1996,0.6207271563197524,10.00980095509979,-0.3270242165969642,0.0007448499276236857,6.778669556485996e-05
Finland,1996,0.03241783598929084,11.87852531705477,-2.406501772884414,0.0110841760260414,0.0006458118318705934
France,1996,4.159251179301701,11.65108218273675,-11.54053562383873,0.1695833893345809,0.01212657896829958
Germany,1996,5.784643706137191,12.73982980583923,-4.04211100777817,0.206551196815239,0.01358455067639229
Greece,1996,5.79230804931142,16.18378328204882,-1.059260478821098,0.03304491596106635,0.001621657963285582
Hungary,1996,1.4429034185615,5.008928165829761,-1.025520883176928,0.002906994943973186,0.0002935942472500458
Ireland,1996,0.1642211609530538,4.707346959420323,0.2401611221347764,0.01404280259355505,0.0004925515467284318
Italy,1996,3.304584113827903,11.85334637095065,-10.00258274661139,0.06255699743452794,0.002763090431450596
Latvia,1996,0.9878997470101755,5.302417215297337,-0.02686716327377595,0.003203527368493666,0.0003350870560248523
Lithuania,1996,2.62333400684297,7.95660809368547,-1.248618055917303,0.004223809329153528,0.0005043145388229174
Luxembourg,1996,6.978191654896704,20.41510066310775,-0.1461762018442275,0.004602300719147739,0.0001645836544787943
Malta,1996,6.838833094213295,1.315160210425634,0.001058536111111113,0.000217945067513162,1.282031885454985e-05
Netherlands,1996,0.7813496917240114,2.771838420431804,0.4115098604765497,0.0128878950441425,0.0004699119159928059
Poland,1996,8.857662026662993,13.72595944897934,-10.18949291015065,0.1027078273556246,0.00853668724743308
Portugal,1996,2.081018155266116,6.903901028339381,0.03406193491071578,0.01412973190970965,0.0007032575176321804
Romania,1996,0.4265517419672191,3.268478575291469,-1.986183565946394,0.004868816821253539,0.0006576801214429633
Slovakia,1996,0.9081893962682046,6.471283542620335,-0.8371595893595382,0.001289640120809497,0.0001068924521078131
Slovenia,1996,1.539962048328667,6.38012712482915,-0.453084807876553,0.00323206242201252,0.0001104279911597908
Spain,1996,1.753061147801388,8.800291519374852,-7.154486685417668,0.04146876795016532,0.001767815830880954
Sweden,1996,0.1391990072490028,10.07440276048976,-5.605219724790465,0.005551964123312174,0.0006940569866791807
Switzerland,1996,0.2205241457269279,3.888782163740369,-0.08023811181843991,0.00425530104597873,0.000207164042922147
United Kingdom,1996,3.342558346246905,19.36686470648271,-4.759810462375325,0.1525370661878531,0.006938010687649571
Austria,1997,2.513736718222802,18.24080749819755,-1.176753456559725,0.02411398674980273,0.0009929296534250493
Belgium,1997,3.67314578106248,5.538585034175005,-0.1787855004959907,0.02066159122215772,0.001042177193117052
Bulgaria,1997,0.4203979129752426,3.622929606299806,-0.5619543190908267,0.0007408993716890843,0.0002774821509281709
Croatia,1997,1.238391192399893,6.829204770783391,-0.6830584443532259,0.002368196506769106,0.0001562661202014931
Cyprus,1997,0.05814710349316554,1.040572792362769,-0.00486805092579068,2.486511664748937e-05,1.297995693646469e-06
Czech Republic,1997,2.839671919418915,12.47352765090318,-1.793360960892552,0.01031789488661443,0.0007984568521128115
Denmark,1997,6.812460823624225,6.873277483160376,1.373739660013215,0.02549998779527375,0.001443080143858868
Estonia,1997,0.6302649985309531,10.55236165743579,-0.344760904243299,0.0007563118473422356,6.920819226953481e-05
Finland,1997,0.03346001301617802,12.16890035855794,-2.465307276121604,0.01135972743780816,0.0006620534556653711
France,1997,4.301604615782071,11.82663786587058,-11.71127816669609,0.1751129549343581,0.01249205831293496
Germany,1997,6.296650013952819,13.46918777806993,-4.261337583616789,0.2244780963322303,0.01476320459182744
Greece,1997,6.016699946152655,16.87792756497608,-1.104708365418935,0.03432567478204079,0.001684539811927863
Hungary,1997,1.815405366683789,6.29563236224242,-1.288953796174895,0.003657260080874611,0.0003693433820174965
Ireland,1997,0.1818425075828897,6.954068654724398,0.351316355335082,0.01592454480770569,0.0005669699355904764
Italy,1997,3.63801698399662,12.31356059720238,-10.38912337805951,0.06863065637943888,0.003010990088105601
Latvia,1997,2.959405785795468,10.61091007479523,-0.05289262899225647,0.007935096072950053,0.0008520489494382438
Lithuania,1997,2.62333400684297,7.95660809368547,-1.248618055917303,0.004223809329153528,0.0005043145388229174
Luxembourg,1997,6.994948890431618,20.52043185789864,-0.1469335309219477,0.004613352556209157,0.0001650201647918524
Malta,1997,6.838833094213295,1.315160210425634,0.001058536111111113,0.000217945067513162,1.282031885454985e-05
Netherlands,1997,0.7843064023678583,2.818212092635301,0.4183751423983689,0.01293667686645211,0.0004720296524233489
Poland,1997,9.834467276328004,14.91531080799882,-11.0697579811527,0.1140193802907487,0.009447736361323662
Portugal,1997,3.751709362019658,11.54503908714464,0.05721719928380135,0.02525775172511662,0.00123979213485462
Romania,1997,0.4266635364219346,3.270602669931065,-1.987474624649266,0.004870094472965881,0.0006580501590301652
Slovakia,1997,1.305369520284097,12.00273704437793,-1.553408972132509,0.001910172430206888,0.0001599048906812402
Slovenia,1997,1.546928701283191,6.390079486192757,-0.4537882713895187,0.003246680885728485,0.0001108983865385137
Spain,1997,2.491462677731004,13.39665999537266,-10.89325512986802,0.05908223427366519,0.002530327068513082
Sweden,1997,0.1440100552851749,10.23391724588341,-5.693925231462784,0.005696614917636636,0.0007091552039287857
Switzerland,1997,0.2205241457269279,3.888782163740369,-0.08023811181843991,0.00425530104597873,0.000207164042922147
United Kingdom,1997,3.347124807552197,19.5228093600584,-4.799171113745045,0.1527474161677099,0.006956733275843579
Austria,1998,3.077517333926328,19.41168911811846,-1.25032741531237,0.02947479817647355,0.00119774584541844
Belgium,1998,3.764687739111351,5.897041988694667,-0.1908744622467509,0.02117651837986356,0.001071003609520761
Bulgaria,1998,0.4205236676605478,3.627393897628141,-0.5626470144704169,0.0007411668135048227,0.0002777160603381222
Croatia,1998,1.256503595844802,6.893249282310811,-0.6894534784721768,0.002402398166080084,0.0001583173114967278
Cyprus,1998,0.06335430679106097,1.044044261228032,-0.00488398689847972,2.708790311920595e-05,1.414140531526624e-06
Czech Republic,1998,2.846812293684378,12.5094649191843,-1.798535178139899,0.01034399139007608,0.0008004733598697739
Denmark,1998,7.00262170794074,7.240789198762275,1.446770002931751,0.02623467939215866,0.001484284023949148
Estonia,1998,0.635856147413381,10.74289924091932,-0.3509886867762603,0.0007630253743830981,6.991686792943604e-05
Finland,1998,0.04299899803874545,12.25712983956359,-2.482349985691857,0.01161313840950414,0.0006837743700732464
France,1998,4.765539034168651,12.42134799207739,-12.29040621573021,0.1931617460890451,0.01368817833589286
Germany,1998,6.889233427796096,14.76159485918399,-4.671006627699525,0.2456260606005871,0.01615406149743182
Greece,1998,6.192668373603282,17.13877685447629,-1.121730705132903,0.0353274701693933,0.001733601163254307
Hungary,1998,1.90479185667411,6.438483015518585,-1.318067871407127,0.003831891525010284,0.0003863405818416003
Ireland,1998,0.2120272217173307,7.521541280451889,0.3808609412454276,0.01844158700482238,0.0006538163125672309
Italy,1998,4.125110814312248,12.8440018652675,-10.83373859909599,0.07745737864505359,0.00336717628215367
Latvia,1998,2.959405785795468,10.61091007479523,-0.05289262899225647,0.007935096072950053,0.0008520489494382438
Lithuania,1998,2.623753203712072,8.051681943597899,-1.263559029453864,0.004224629144534997,0.0005056617087871846
Luxembourg,1998,7.13140066550164,20.80051708041079,-0.148932361768358,0.00470334608656642,0.0001681511066869931
Malta,1998,6.838833094213295,1.315160210425634,0.001058536111111113,0.000217945067513162,1.282031885454985e-05
Netherlands,1998,1.117481007024522,5.899727048922668,0.8748329843203335,0.01843286208159539,0.0006903780700704446
Poland,1998,11.67902959916705,17.65129870056567,-13.09982321549445,0.1354021470655696,0.01121400205227824
Portugal,1998,4.345862783465866,12.78298548283272,0.0635340499622401,0.02911653758737254,0.001417760171382035
Romania,1998,0.4266635364219346,3.270602669931065,-1.987474624649266,0.004870094472965881,0.0006580501590301652
Slovakia,1998,1.38781526493895,12.14254753492368,-1.571384372097398,0.002017878265924498,0.000168570425563905
Slovenia,1998,1.618253957722369,6.568890245358883,-0.4664661344455733,0.0033963587289997,0.0001158329897308922
Spain,1998,2.664476719986628,14.47928992975345,-11.7738959679957,0.06321015827230227,0.002709104080196995
Sweden,1998,0.1809012495382514,10.82937696051425,-6.024727848559476,0.006648648124533719,0.0007953533501891077
Switzerland,1998,0.2211592044619227,3.922916570746337,-0.08095809267000513,0.004267763559882966,0.0002078134099716302
United Kingdom,1998,3.354864959464664,19.58240168009244,-4.813934918411601,0.1531008598853653,0.006973851900471763
Austria,1999,3.219789799933673,19.50664002296057,-1.255823015255962,0.03082436221125394,0.001248204423048492
Belgium,1999,3.788611231387621,6.021997750005437,-0.1951168974989148,0.02131108897615385,0.001078941949336165
Bulgaria,1999,0.420649422345853,3.628714321823846,-0.5628518426866215,0.0007413916482962017,0.0002778096298550819
Croatia,1999,1.352629553996863,8.287904347568736,-0.8292055535360553,0.002596715479631495,0.0001760997128960978
Cyprus,1999,0.09980472987632892,1.604686482968106,-0.007506495673469542,4.267096543551508e-05,2.227713864602148e-06
Czech Republic,1999,2.84940166017625,12.61766905228402,-1.814248661413126,0.01035662049279575,0.0008013874218042016
Denmark,1999,7.003243555175262,7.242157262678221,1.447041649660183,0.02623710358408501,0.00148441963809743
Estonia,1999,0.6360754081538684,10.79508329715531,-0.3526949388322326,0.0007632905887653192,6.998835436339007e-05
Finland,1999,0.04344039066189766,12.26213228929265,-2.483325174140046,0.01162567651614714,0.0006848248922023864
France,1999,4.938858110629503,12.65582091837223,-12.51911463378179,0.1999196356151326,0.01413776182510729
Germany,1999,7.296165443150576,15.69823025877693,-4.969420524810387,0.2601923640463344,0.01711210219468202
Greece,1999,6.203068795435445,17.15823570822679,-1.123002214160901,0.03538671693639722,0.001736504454615781
Hungary,1999,1.937010130235906,6.489361330384067,-1.328436215085231,0.003894815421732526,0.0003924626749750315
Ireland,1999,0.2478409771363027,8.164475691515486,0.4144265392870582,0.02142148710667335,0.0007564823657277758
Italy,1999,4.296776916522758,13.13732496230101,-11.08046668169025,0.08060263384355862,0.00349717369987057
Latvia,1999,2.97188110855394,11.51553299196314,-0.05761491567400806,0.008239489989385777,0.0008803869008686418
Lithuania,1999,2.624004721833534,8.052855694831386,-1.263743317188549,0.004225034746462004,0.0005057156092473335
Luxembourg,1999,9.249994015273023,24.99221985493022,-0.178834023924811,0.006100614057902869,0.0002166479965850574
Malta,1999,6.958393113342898,1.315160210425634,0.001058536111111113,0.0002217552959661893,1.304445030305597e-05
Netherlands,1999,1.118570321472255,5.902683759566515,0.8752724311547061,0.01845082935078414,0.0006910246072509624
Poland,1999,11.71039317925857,17.80587768918711,-13.2154418998934,0.1357706752796559,0.0112541496964214
Portugal,1999,5.115756234567703,14.80363553679572,0.07365557990895888,0.03421633589911097,0.001661332290680015
Romania,1999,0.4275578920596592,3.275661369006944,-1.990548272385851,0.004880300723977779,0.0006591492856622403
Slovakia,1999,1.393217326211187,12.47528878519218,-1.614502657466375,0.002031707049568508,0.0001698886601620012
Slovenia,1999,1.632519009010204,6.621306015207209,-0.4701872731973172,0.0034262970299378,0.0001168455997024648
Spain,1999,3.043129404626963,16.1318569430001,-13.11684678575617,0.07212631985515103,0.003085950054646588
Sweden,1999,0.1843975374835667,11.25138573278835,-6.25956685210841,0.006830400838723988,0.000820747351027348
Switzerland,1999,0.2211592044619227,3.922916570746337,-0.08095809267000513,0.004267763559882966,0.0002078134099716302
United Kingdom,1999,3.358038650071842,19.63370587285739,-4.826806838739548,0.1532461890185226,0.006982789288884217
Austria,2000,3.22686879770148,19.78856880362629,-1.274165761151451,0.03089601827966383,0.001252412184989682
Belgium,2000,4.229910692219329,6.131531755964562,-0.197346392131632,0.02379341600855002,0.001196955574457205
Bulgaria,2000,0.5806722593967045,3.66009011580749,-0.5676240566260299,0.00100514781426019,0.0003232727765090061
Croatia,2000,1.354523661546657,8.296782976708396,-0.830093127615774,0.002600318598634741,0.0001763284776887084
Cyprus,2000,0.5224560642221739,10.00564113690605,-0.04681103245372563,0.0002234437420193747,1.166327247582438e-05
Czech Republic,2000,2.850421713642744,12.62520175480583,-1.815336599649319,0.0103604283519881,0.0008016801018339778
Denmark,2000,7.007596485816908,7.246012715532252,1.447813518184726,0.02625332730738148,0.001485338901379767
Estonia,2000,0.6360754081538684,10.79508329715531,-0.3526949388322326,0.0007632905887653192,6.998835436339007e-05
Finland,2000,0.04928884291866457,14.40289877248712,-2.917028160003992,0.01362339560430063,0.0008012251427040182
France,2000,4.97062510166394,12.67214695103865,-12.53426118550107,0.2011254841990634,0.01421424699084762
Germany,2000,7.67156509652966,16.86417208408764,-5.349729659858584,0.273899208275056,0.01801389541864403
Greece,2000,6.217830684487547,17.21745101317443,-1.126881924533994,0.03547109637577888,0.001740653193659285
Hungary,2000,1.937848783777645,6.489850544950082,-1.328534452852158,0.00389642615085046,0.0003926160966293643
Ireland,2000,0.2509410288582183,8.213913358449192,0.417027290663593,0.02167809045887187,0.0007652922167854209
Italy,2000,4.361250698194222,13.21891876909116,-11.148951065551,0.08177466296758486,0.003544797953830739
Latvia,2000,2.97188110855394,11.51553299196314,-0.05761491567400806,0.008239489989385777,0.0008803869008686418
Lithuania,2000,2.624004721833534,8.052855694831386,-1.263743317188549,0.004225034746462004,0.0005057156092473335
Luxembourg,2000,9.249994015273023,24.99700763651162,-0.1788685721089497,0.006100614057902869,0.0002166515069397979
Malta,2000,7.484457197513152,1.315160210425634,0.001058536111111113,0.0002385203011595095,1.403062867648288e-05
Netherlands,2000,1.294105563906966,6.796699688456068,1.007852250183644,0.02134627366053849,0.0007991604167834191
Poland,2000,11.72461685445304,17.83330906277645,-13.23584971384839,0.1359358509752704,0.01126836252343211
Portugal,2000,5.922879350266292,14.95439566246385,0.07512027106553724,0.03909202101407399,0.001855443748815754
Romania,2000,0.5702355648903925,4.038518779372246,-2.454043943140639,0.006508461334798611,0.0008276068702206124
Slovakia,2000,1.393989049250078,12.47914740038663,-1.615001420855215,0.002032768579403349,0.0001699756866114774
Slovenia,2000,1.632519009010204,6.621306015207209,-0.4701872731973172,0.0034262970299378,0.0001168455997024648
Spain,2000,4.512488987757712,18.69995719640945,-15.19386264612368,0.1060921634599575,0.004470962458031823
Sweden,2000,0.2020542785555909,11.61212668482854,-6.460055405756482,0.007305023139390862,0.0008655720386418582
Switzerland,2000,0.2211592044619227,3.922916570746337,-0.08095809267000513,0.004267763559882966,0.0002078134099716302
United Kingdom,2000,3.366326777340945,19.79599790764743,-4.867605984760083,0.1536261462164092,0.007008150496852271
Austria,2001,3.464246059806759,20.12566759950416,-1.294981835391608,0.03315062924519727,0.001337694679156413
Belgium,2001,4.524308047586,10.85276375650234,-0.3597989627841431,0.02544941285050248,0.001335853181468237
Bulgaria,2001,0.6097215917022029,3.721521279579074,-0.5771394267501581,0.001053783458821368,0.0003340138000177094
Croatia,2001,1.539199147651602,8.378703128237,-0.838006908068795,0.002942109617116766,0.000193508668654441
Cyprus,2001,0.5398134085484921,10.2703406378824,-0.04804920486829628,0.000230864148051044,1.20506859777254e-05
Czech Republic,2001,2.852069492319389,12.63171440386114,-1.816271771864641,0.01036639139818197,0.0008021420297659637
Denmark,2001,7.026625011193251,7.266782413165253,1.451960906026221,0.02632475851111295,0.001489377953792066
Estonia,2001,0.6368428207455743,10.81646121935283,-0.3533936191397162,0.0007642118462370165,7.00809578451986e-05
Finland,2001,0.04943597379304866,14.4076805259046,-2.917984911473307,0.01363032460319719,0.0008017291636775402
France,2001,5.157088727502368,13.54089521677144,-13.3996514488954,0.2091541825279088,0.01483481289310554
Germany,2001,8.393552085316697,18.48456274285208,-5.864777144587972,0.2997061063562952,0.01971120312780437
Greece,2001,6.678356889916008,18.83628226297523,-1.232910656336021,0.03810140174606623,0.001869879227169389
Hungary,2001,1.948821167615393,6.526192198425427,-1.335973603545592,0.003918475100598412,0.0003948362678448193
Ireland,2001,0.2573042929189924,8.302754314374614,0.4217461569258917,0.02220208239369955,0.0007832191193261183
Italy,2001,4.378557063722364,13.30745375613351,-11.22372765017444,0.0821108495708939,0.003560379472588614
Latvia,2001,2.975850529431636,11.5293854607404,-0.05768387255339628,0.008250013570187158,0.0008815188144390254
Lithuania,2001,2.624004721833534,8.052855694831386,-1.263743317188549,0.004225034746462004,0.0005057156092473335
Luxembourg,2001,9.295477940296363,25.05446101548847,-0.1792757376767125,0.006130611901355289,0.0002176688265776246
Malta,2001,9.062649450023912,1.315160210425634,0.001058536111111113,0.0002888153167394699,1.698916379676362e-05
Netherlands,2001,1.294261180256642,6.797166537505096,1.007921605111718,0.02134884042895536,0.0007992531999331963
Poland,2001,12.34633821265599,18.92256789264963,-14.04549216610918,0.1431507030078789,0.01187933361723011
Portugal,2001,5.923359733035283,14.95471591764318,0.07512221440528799,0.03909497807007992,0.001855566454707182
Romania,2001,0.5702355648903925,4.038518779372246,-2.454043943140639,0.006508461334798611,0.0008276068702206124
Slovakia,2001,1.598109793036743,14.97489970816007,-1.938123913876011,0.00234441386433792,0.0001964153386452909
Slovenia,2001,1.640149152722303,6.634244084979896,-0.4711028082041459,0.003442308062636598,0.0001173639381849568
Spain,2001,4.807420556003236,19.75390742935284,-16.04974743585448,0.1129985218607834,0.004759795331539189
Sweden,2001,0.2145883247550918,11.9300648916886,-6.636808413019231,0.007657431550357096,0.0009003064279125068
Switzerland,2001,0.3286428953597846,4.471607317781803,-0.09135878955301423,0.00632957514218114,0.0003056861637247438
United Kingdom,2001,3.376281662986479,19.97023123875081,-4.911358192279922,0.1540822002203289,0.007037134387762326
Austria,2002,3.473094807016518,20.39059139640156,-1.312207498621306,0.03323877711301987,0.001342418763482482
Belgium,2002,5.359257699509074,15.68827491849207,-0.5242936699625239,0.03014603787640259,0.001619049432371587
Bulgaria,2002,6.136262746809289,7.811440909759695,-1.208475938172946,0.01020359698788385,0.002038327078969855
Croatia,2002,1.539317529373465,8.38083399923052,-0.8382204799634675,0.002942353940962439,0.0001935332705487875
Cyprus,2002,0.5398134085484921,10.2703406378824,-0.04804920486829628,0.000230864148051044,1.20506859777254e-05
Czech Republic,2002,2.854972721416337,12.64097335071086,-1.817597310985728,0.0103768240200797,0.0008029516469581629
Denmark,2002,7.053861920065269,7.30496383336484,1.459566330148504,0.02642810476077269,0.001495203717615403
Estonia,2002,0.6402413622231284,11.12123364863028,-0.3633577372357357,0.0007683008111069091,7.069638005125043e-05
Finland,2002,0.04960762647983007,14.41117488417122,-2.918678337776538,0.01363656813168946,0.0008022142197286145
France,2002,5.317406780147544,13.59224148654209,-13.44490204191825,0.2152015357358494,0.01521391609651949
Germany,2002,8.500926661904911,18.77109083503,-5.957218542479911,0.3035847518735247,0.01996634215035463
Greece,2002,7.098511565436826,19.7794775074103,-1.294593901227693,0.04049627197149978,0.001987304866621554
Hungary,2002,2.093349127975036,7.115206535906601,-1.45663688770996,0.00421249675465125,0.0004248647892235648
Ireland,2002,0.2577937747698212,8.315644003113103,0.4224060405754012,0.02224369308135797,0.0007846731003671299
Italy,2002,4.435437473708532,13.33715175889042,-11.24835828745235,0.08313114549328167,0.003600619169334961
Latvia,2002,3.052727680715986,12.53478306304817,-0.06287626272241303,0.00868608406927538,0.0009246537234602072
Lithuania,2002,2.703149090720071,8.135353638670743,-1.276654011905074,0.00435222114919199,0.000518803149526532
Luxembourg,2002,9.731166064204151,26.5482488688866,-0.1899837658213616,0.006417959664952165,0.0002281054024846127
Malta,2002,9.062649450023912,1.315160210425634,0.001058536111111113,0.0002888153167394699,1.698916379676362e-05
Netherlands,2002,1.497029283884682,7.110266633053536,1.054624353847887,0.0246932355978354,0.0009173564368677012
Poland,2002,12.47342938453254,19.25298612514351,-14.29187033596157,0.1446304876394813,0.01201431410845564
Portugal,2002,5.923359733035283,14.95471591764318,0.07512221440528799,0.03909497807007992,0.001855566454707182
Romania,2002,0.5702914621177504,4.039049803032145,-2.454366658403454,0.00650909949486778,0.0008277090733063791
Slovakia,2002,1.698176547079607,16.44387451268906,-2.128346120637235,0.002502329787817724,0.0002099462349923949
Slovenia,2002,1.758582252949216,7.632465929749599,-0.5420802095419291,0.003690957961293278,0.0001266394971413614
Spain,2002,4.932635095863198,19.8114396015134,-16.09523672758689,0.1158664214421151,0.004874577198292756
Sweden,2002,0.2161660368641199,11.94745868074246,-6.646462650856292,0.007696125887426878,0.0009036125044519854
Switzerland,2002,0.3286428953597846,4.471607317781803,-0.09135878955301423,0.00632957514218114,0.0003056861637247438
United Kingdom,2002,3.382172398070304,20.58588155193014,-5.067310758748463,0.1543598265980957,0.007090876804075045
Austria,2003,3.494024017808296,20.54786825985154,-1.322357396818848,0.03343963648747474,0.001350718923301471
Belgium,2003,5.67856712121302,16.02083123261345,-0.534678647800062,0.03194216608308709,0.001707719020352714
Bulgaria,2003,6.509502652795087,8.330241863986247,-1.288758231979905,0.01082482544757101,0.002164258197440133
Croatia,2003,1.549853502619196,8.442866021486282,-0.844426110132161,0.002962549770717142,0.0001948884493463091
Cyprus,2003,0.5441527446300716,10.2920373182903,-0.04815051731738226,0.0002327172960039734,1.214749295719642e-05
Czech Republic,2003,2.994170786767238,12.70398126867973,-1.825769143329437,0.01086435604371105,0.000841037857464794
Denmark,2003,7.060453500751191,7.311306675156954,1.460834794111493,0.02645273787596739,0.00149659839398785
Estonia,2003,0.650217725915304,11.33380693653279,-0.3703040561986922,0.0007802743249635283,7.18363714561141e-05
Finland,2003,0.05001223638438628,14.41714594548997,-2.919853287362512,0.01364928465670969,0.0008032456420601568
France,2003,5.663805723799409,13.91328424759116,-13.75374300485819,0.2285264642851534,0.01607969406415687
Germany,2003,8.69552734097565,19.33707826305378,-6.140999941929413,0.3106558782174368,0.02043152690363214
Greece,2003,7.136870110473728,19.88062999716505,-1.301213206513786,0.04071505139049793,0.001998038687670008
Hungary,2003,2.828219293923606,8.247947919615058,-1.687426521136316,0.005646831074956626,0.0005643069807700296
Ireland,2003,0.2744361576979995,8.935083285336919,0.453725212786939,0.02369746091512233,0.0008363521283565977
Italy,2003,4.523739535239068,13.54976616607869,-11.42751836175557,0.08476900801022724,0.003670079851854883
Latvia,2003,3.28352115174772,14.05912168867265,-0.07064728449740997,0.009524478555673475,0.00101115552461394
Lithuania,2003,2.876696594528475,8.964525045755337,-1.406842963257108,0.004632116259857937,0.0005562548397021323
Luxembourg,2003,10.60014842122902,27.11560098628301,-0.1939361051675652,0.006991076358279994,0.0002471527439046026
Malta,2003,9.923481587757053,1.315160210425634,0.001058536111111113,0.0003162489616012665,1.860291022600765e-05
Netherlands,2003,1.534065975107609,7.47051848255385,1.107983975276161,0.02530421431941156,0.0009417961932874171
Poland,2003,12.80520225275922,20.01558959955839,-14.86002258293778,0.1484889011340905,0.01235732514100252
Portugal,2003,5.925201200316412,14.95535642800183,0.07512693461385418,0.03910617298702555,0.001856018553495785
Romania,2003,0.570347359345108,4.039105700259503,-2.454400540008029,0.006509737059232788,0.0008277371781272413
Slovakia,2003,2.241726807471823,19.90106510641418,-2.575483318525462,0.003265474985697475,0.0002729567676049591
Slovenia,2003,3.197693706126674,8.505288021337863,-0.603174592209085,0.006710520796720106,0.0002219848056305208
Spain,2003,5.237097769706892,20.14207682215087,-16.36134725407418,0.1228712183829048,0.005157509421346129
Sweden,2003,0.2202077067730499,12.16590363509739,-6.76798368953943,0.007838784696320203,0.0009202747680380932
Switzerland,2003,0.3388038351197006,4.535748250016273,-0.09260358645749807,0.006524599308345173,0.0003149667749937312
United Kingdom,2003,3.386601865536437,21.84643036294919,-5.386977961933602,0.1545806596806222,0.007188230538247301
Austria,2004,3.71154930791255,20.68998683460307,-1.330560662748658,0.03550298191478212,0.001427848082096976
Belgium,2004,5.776040523627909,16.77570638559529,-0.5604745081895803,0.03249045785144341,0.001743244093646081
Bulgaria,2004,9.453797099845447,11.6560131489099,-1.803074178969701,0.01571498021515884,0.003123434533080689
Croatia,2004,1.663618337328716,8.72047115925301,-0.8720876988346707,0.003175858822211891,0.0002069570009179942
Cyprus,2004,0.5554350184421784,11.49403341288783,-0.05377713873895372,0.000237585796634449,1.240038608383251e-05
Czech Republic,2004,3.382497294896673,14.5935126168844,-2.097730638718912,0.0122814455883541,0.0009505801939141787
Denmark,2004,7.064308953605221,7.31503775856408,1.46158089605505,0.02646714867697204,0.001497414258970995
Estonia,2004,0.8373567679212766,15.33082060524735,-0.5009158346788891,0.001004876805066763,9.3229902056026e-05
Finland,2004,0.05221919950014738,14.46556426406853,-2.929476842355656,0.01373264071630153,0.0008096545274707292
France,2004,5.934865707915913,14.76886404301939,-14.6025625220517,0.2396966962831788,0.01689136456403537
Germany,2004,9.31089532095344,21.14483294060599,-6.728411413122692,0.3330322965802953,0.02190360990130235
Greece,2004,7.380217614847777,20.02802522270043,-1.310743401345526,0.04209849908808061,0.002065697207217373
Hungary,2004,7.815482243258448,13.22612545558106,-2.696856877020943,0.01529282416322511,0.001491378988232674
Ireland,2004,0.2772914684945006,9.256346540097537,0.4696386833226593,0.02399316175576161,0.0008478808093447876
Italy,2004,4.571139876894208,13.64943499258598,-11.51145136704139,0.08564352402133746,0.003706758909091338
Latvia,2004,3.298831775133118,14.17018446465879,-0.07121481483765327,0.009583228724119486,0.001017180016257283
Lithuania,2004,3.323308938870198,10.36866687850082,-1.627203935623041,0.005351279803865885,0.000642781613841351
Luxembourg,2004,10.60014842122902,27.11560098628301,-0.1939361051675652,0.006991076358279994,0.0002471527439046026
Malta,2004,10.3299856527977,1.410808225729316,0.001135520555555558,0.0003292037383415593,1.936495715092844e-05
Netherlands,2004,1.538423232898541,7.487636281018228,1.110524402870108,0.02537608526156582,0.0009444324047641869
Poland,2004,13.77662658826336,21.54773905651879,-15.99763603753824,0.1597541499836432,0.01329605830255659
Portugal,2004,5.926562284828552,14.98842277526733,0.07528192978298302,0.03912224493122023,0.001857367125789068
Romania,2004,0.5711019719144381,4.039245443327897,-2.454484156935584,0.006518343407249138,0.0008280207013366523
Slovakia,2004,5.663932623433884,27.99103772310835,-3.617996387414598,0.007784044110973444,0.0006379539753931078
Slovenia,2004,9.67270000928887,42.28824692472034,-3.003487126832859,0.020301363654967,0.0006970274463751885
Spain,2004,5.470163536207187,20.45690565314061,-16.61537580781949,0.1282435481926975,0.005375335294341086
Sweden,2004,0.2215322058275426,12.17877854502415,-6.775127035001681,0.007870836387193715,0.0009229688555940359
Switzerland,2004,0.3389625998034493,4.536065779383771,-0.09260844138537984,0.006527640344952419,0.000315110208889237
United Kingdom,2004,3.389478736158771,21.85508380712272,-5.389040721244514,0.1547118238252928,0.007193629725663164
Austria,2005,3.718012740657069,20.70676098148765,-1.331622555583752,0.03556449511989847,0.001430216699813571
Belgium,2005,5.78335597167933,16.83600940331647,-0.5625368737829053,0.03253160753791234,0.001745957512098091
Bulgaria,2005,10.23247011125517,12.44914794912972,-1.925682761899893,0.01700710061165287,0.003373248390989447
Croatia,2005,1.663618337328716,8.72047115925301,-0.8720876988346707,0.003175858822211891,0.0002069570009179942
Cyprus,2005,1.033629854632241,12.08244738555001,-0.05650284244258422,0.0004417235296578113,2.306663493859712e-05
Czech Republic,2005,3.728687748294745,16.99707244655116,-2.444726474341774,0.01356868799171609,0.001049617566395671
Denmark,2005,7.070029948162815,7.317773886395972,1.462135068584911,0.02648816747924037,0.001498610195399396
Estonia,2005,0.8388915931046882,15.36666973631703,-0.5020873545603615,0.001006719020519633,9.340835936679947e-05
Finland,2005,0.05408285724234564,14.47547107627706,-2.931319562350556,0.01377567783398749,0.0008135360548805215
France,2005,6.201775411200735,15.31635425936026,-15.14203527507444,0.2503330589174887,0.01762510792999945
Germany,2005,9.61617828444474,21.60920489755676,-6.86938500187251,0.3437474880737246,0.02260813796662993
Greece,2005,7.430038990398621,20.62878937412386,-1.350166105472378,0.04238692454521771,0.002080053700559842
Hungary,2005,7.816111233414752,13.22689422132766,-2.697013149637863,0.01529404529931105,0.001491496911974964
Ireland,2005,0.2848784371823467,9.804403052408823,0.4969412040590527,0.02471309815353512,0.0008747300946377649
Italy,2005,4.749397771089193,13.76559494533005,-11.60818255912968,0.08884851558846293,0.003833835896638957
Latvia,2005,3.299884886794547,14.17034648183747,-0.07121472736742697,0.00958491374302747,0.001017379218422895
Lithuania,2005,3.488388665922732,11.87081693924244,-1.863160150083906,0.005618620037191623,0.0006880392367805277
Luxembourg,2005,10.60972398439183,27.12278265865512,-0.1939863668875834,0.006997391693743661,0.0002473633137274378
Malta,2005,10.3299856527977,1.410808225729316,0.001135520555555558,0.0003292037383415593,1.936495715092844e-05
Netherlands,2005,1.538423232898541,7.487636281018228,1.110524402870108,0.02537608526156582,0.0009444324047641869
Poland,2005,13.78364435393471,21.55381610293124,-16.00210810927348,0.1598353036991691,0.01330237264394936
Portugal,2005,5.933127516004753,15.00075259967142,0.07534545783332829,0.03916456068425483,0.001859291633167546
Romania,2005,0.9747079020512885,5.488688497328812,-3.334900135194713,0.01112318815477509,0.001194054917591314
Slovakia,2005,5.664704346472775,27.99476771779632,-3.618478479814105,0.007785102949148716,0.000638040703546643
Slovenia,2005,9.67270000928887,42.28957390623548,-3.003581594254415,0.02030136387267886,0.000697029493334001
Spain,2005,5.74932990712643,20.49559157571203,-16.64376416570332,0.1346227875792693,0.005629440012683618
Sweden,2005,0.2229540945183951,12.23517688344009,-6.806494849844356,0.007915904365458793,0.0009278671188005145
Switzerland,2005,0.339121364487198,4.541146249263728,-0.09271482691326711,0.006530724623222744,0.0003152646038669834
United Kingdom,2005,3.408954693625837,21.94289685802347,-5.410422723802709,0.1556002267917671,0.00723226817071992
Austria,2006,3.766257649357235,20.78970836837565,-1.336794172503346,0.03602296027280029,0.00144763801526461
Belgium,2006,5.784937690176934,16.84273170693129,-0.5627640618665637,0.03254050476741913,0.001746462436103713
Bulgaria,2006,12.45769926773047,22.96991067644703,-3.556956266313567,0.02081148295136444,0.00445560797437
Croatia,2006,1.686584391369973,8.943028796353843,-0.8943766234392111,0.003220941344073421,0.0002104820538047871
Cyprus,2006,1.052722933391191,12.1093512692558,-0.05662763728275803,0.0004498743693171585,2.349251413052652e-05
Czech Republic,2006,3.730178595668853,17.00256504213998,-2.445514455145971,0.01357406983087043,0.001050034733275766
Denmark,2006,7.079855134468247,7.318644472524302,1.462330846671894,0.02652376602803856,0.001500643986680504
Estonia,2006,0.8388915931046882,15.4150167295945,-0.5036682396948234,0.00100672111695331,9.345560693670462e-05
Finland,2006,0.05437711899111379,14.47924743538625,-2.932059218657945,0.01378442628309028,0.0008142582080433751
France,2006,6.669561098831702,16.31736133038628,-16.12918226450249,0.26902535376429,0.01892027521859506
Germany,2006,9.862224734065329,22.26775777370107,-7.081901250153447,0.3526370839611195,0.02319290134742289
Greece,2006,7.769618354843382,20.76226145430329,-1.358722810013684,0.04431680064880231,0.002174403955682746
Hungary,2006,7.827992158589385,13.23122726462664,-2.697870980986584,0.01531677935595445,0.001493651915183998
Ireland,2006,0.2881416495212052,10.92327698309493,0.551982124614561,0.0252128626601151,0.0008972142221126971
Italy,2006,4.814430573989021,14.1914526585885,-11.96802293452638,0.09014199695496763,0.003896299311806108
Latvia,2006,3.300775981277295,14.17091354196285,-0.07121690313000092,0.009586475007100775,0.001017560147819162
Lithuania,2006,3.503312074462778,11.88649490214688,-1.865613787205939,0.005642602407799881,0.0006905086646168778
Luxembourg,2006,10.62169343834534,27.13953989419003,-0.1941053348368316,0.007005285863073245,0.000247632230332435
Malta,2006,10.85604973696796,1.458632233381157,0.00117401277777778,0.0003459687435348795,2.035113552435536e-05
Netherlands,2006,1.538734465597893,7.516269689358642,1.114760464657119,0.02538122856431343,0.0009448800643089269
Poland,2006,13.82640945144402,21.6172958385214,-16.04920960193854,0.1603310528023625,0.0133433269224594
Portugal,2006,5.933127516004753,15.00075259967142,0.07534545783332829,0.03916456068425483,0.001859291633167546
Romania,2006,2.392121844776195,11.5092391129669,-6.99234136507331,0.02729599786255224,0.002624604337884754
Slovakia,2006,5.666890895082967,27.99746874843244,-3.618824699431772,0.007787938350801559,0.0006382681875466015
Slovenia,2006,9.67270000928887,42.28957390623548,-3.003581594254415,0.02030136387267886,0.000697029493334001
Spain,2006,5.795099370414325,20.60538645681725,-16.73275591157021,0.1356857070048084,0.005673181564504822
Sweden,2006,0.2256323095182885,12.25262910627576,-6.816162391567662,0.007978566273415536,0.00093291038445981
Switzerland,2006,0.3392801291709467,4.57004142170599,-0.09332886544118206,0.006534025109808472,0.0003154738042559326
United Kingdom,2006,3.425964761988046,22.06856587314508,-5.441525005130254,0.1563768887466455,0.007269510841523833
Austria,2007,3.768642963822475,20.84826399121589,-1.340599435281298,0.03604651283841982,0.001448832740449782
Belgium,2007,5.787112553111141,16.84807000686071,-0.5629412203787076,0.03255273845799098,0.001747106159320149
Bulgaria,2007,14.60081061470148,24.17105655313953,-3.742055731978823,0.02435443016393608,0.00509933551024132
Croatia,2007,1.686584391369973,8.943028796353843,-0.8943766234392111,0.003220941344073421,0.0002104820538047871
Cyprus,2007,1.734866565415491,13.21241050119332,-0.06175033846509777,0.0007410878713671707,3.870816414287875e-05
Czech Republic,2007,3.777414917732688,17.05607861630532,-2.452959242036091,0.01374058067935376,0.001063020858162633
Denmark,2007,7.089555951326773,7.334688131174944,1.465522373564278,0.02656089291295898,0.001502731751672182
Estonia,2007,0.8426190256929736,15.48912685987923,-0.5060898440178553,0.001011194507137797,9.387634575062016e-05
Finland,2007,0.05511277336303415,14.48333031715041,-2.932821556507242,0.01380156674318268,0.000815798901546502
France,2007,6.768067476150835,16.5106065390246,-16.31942787636861,0.2729399969975058,0.01918911559993995
Germany,2007,10.32009880811701,22.87657749959451,-7.262842898093721,0.3686299166061857,0.02424435346798968
Greece,2007,7.79120202595744,20.76863590639397,-1.359128169944593,0.04443944443802517,0.002180398994888688
Hungary,2007,7.836378694006772,13.24164054610323,-2.699988132403017,0.01533306648201247,0.001495225391313702
Ireland,2007,0.2919759240193639,11.71933763315946,0.591229201808904,0.02568844426886334,0.0009172110515688922
Italy,2007,4.939767791898757,14.36572752653138,-12.11440715030203,0.09242549658216216,0.003989538419622165
Latvia,2007,3.300775981277295,14.17156161067758,-0.07122029409648804,0.009586679207096736,0.001017578798060292
Lithuania,2007,3.503312074462778,11.88649490214688,-1.865613787205939,0.005642602407799881,0.0006905086646168778
Luxembourg,2007,10.62648121992675,27.13953989419003,-0.1941045545587366,0.007008443530805084,0.0002477348824777974
Malta,2007,10.9038737446198,1.602104256336681,0.001289489444444447,0.0003474928349160904,2.044078810375781e-05
Netherlands,2007,1.538734465597893,7.516269689358642,1.114760464657119,0.02538122856431343,0.0009448800643089269
Poland,2007,14.39050234784713,22.37145165399141,-16.60807754802625,0.1668664188022173,0.01387574832714754
Portugal,2007,5.933127516004753,15.00075259967142,0.07534545783332829,0.03916456068425483,0.001859291633167546
Romania,2007,4.423371189730561,14.1088235170815,-8.569061019587872,0.05046516188990128,0.003734540024187496
Slovakia,2007,6.500866259111156,28.06975347307523,-3.626717290100454,0.008849347368375551,0.0007228116585254328
Slovenia,2007,9.67270000928887,42.28957390623548,-3.003581594254415,0.02030136387267886,0.000697029493334001
Spain,2007,5.81675312089718,20.70269875702577,-16.81184355414797,0.136196051931298,0.005694788481004655
Sweden,2007,0.2264698603909824,12.28754329091073,-6.835581824157568,0.008005537086947592,0.0009358754431413978
Switzerland,2007,0.3519813038708418,4.590998359960817,-0.09362249777838479,0.006777267679502548,0.000326938285552976
United Kingdom,2007,3.429275446434382,22.0795482125843,-5.444158664600094,0.1565278471142051,0.007275797297312432
Austria,2008,3.788110207683944,20.89012241279945,-1.343233019528829,0.03623164391395344,0.001455913750050857
Belgium,2008,5.788298841984345,16.84866315129731,-0.5629575575267706,0.03255941138012108,0.001747427266802638
Bulgaria,2008,14.60081061470148,24.17218834530727,-3.742231364157641,0.02435444550246485,0.005099386032602796
Croatia,2008,1.686584391369973,8.943028796353843,-0.8943766234392111,0.003220941344073421,0.0002104820538047871
Cyprus,2008,2.25211542633977,14.49164677804296,-0.06770784843005072,0.0009619257014283244,5.024619273226632e-05
Czech Republic,2008,3.777414917732688,17.05615708195659,-2.452970650215558,0.01374058328921771,0.001063021008875023
Denmark,2008,7.093908881968421,7.46651974489339,1.491564213243963,0.02659379583567763,0.001504322901749151
Estonia,2008,0.8426190256929736,15.49110020654362,-0.5061543699417109,0.001011194592706518,9.387827422286119e-05
Finland,2008,0.05578712320396115,14.49074816540061,-2.934265833422164,0.01382052371977853,0.000817392761473227
France,2008,6.776236472715791,16.52997052941796,-16.3385585135289,0.2732687391952898,0.01921215142321127
Germany,2008,10.7926141066855,23.41635512088581,-7.418779798037117,0.3850552012016318,0.02532415308899092
Greece,2008,8.484843062667014,21.3293081091418,-1.39552235600689,0.04838412023034711,0.002373378024563753
Hungary,2008,7.837776449909669,13.243457628777,-2.700357749234512,0.01533578365881148,0.001495488217118241
Ireland,2008,0.2921390846363068,11.72627195937953,0.5915784836660248,0.02570288232518437,0.0009177283753170249
Italy,2008,4.945008615914682,14.41217287358806,-12.1536688424772,0.09253366310436123,0.003995081389210679
Latvia,2008,3.300775981277295,14.17156161067758,-0.07122029409648804,0.009586679207096736,0.001017578798060292
Lithuania,2008,3.51219904808775,11.89211214019285,-1.866490473106764,0.005656878300433105,0.0006919290053111825
Luxembourg,2008,10.62887511071745,27.13953989419003,-0.1941041644196891,0.007010022364670999,0.0002477862085504784
Malta,2008,11.69296987087518,1.769488283118125,0.001424212222222225,0.0003726403427060708,2.192005566389818e-05
Netherlands,2008,1.538734465597893,7.516269689358642,1.114760464657119,0.02538122856431343,0.0009448800643089269
Poland,2008,14.95790657604154,22.82137886113516,-16.93857088934239,0.1734260055856764,0.0143824018103823
Portugal,2008,6.210788756481164,15.08674111532069,0.0760079594175999,0.04085002610930234,0.001927130689531646
Romania,2008,4.560906317644378,14.12355243649027,-8.577771702094557,0.05203373503800031,0.003784539713801978
Slovakia,2008,6.500866259111156,28.07078243712708,-3.626850658015125,0.008849368901652117,0.0007228140448929609
Slovenia,2008,9.674358736182805,42.29056914237185,-3.003651244308986,0.02030484423379061,0.0006971393721692124
Spain,2008,5.821331506970017,20.71585801762506,-16.82251972921716,0.1363027357788206,0.005699207789120178
Sweden,2008,0.2285150427545373,12.36368250861679,-6.877926992995625,0.008069113674171591,0.0009426861692755602
Switzerland,2008,0.3675402428782132,5.111587757972766,-0.1045322420380325,0.007079733068588474,0.0003421212411974692
United Kingdom,2008,3.432334975508927,22.55978011575523,-5.565878956059435,0.1566744701236526,0.007315166539701646
Austria,2009,3.79257305410278,21.11280305997373,-1.357726487496716,0.03627754899767049,0.001458841621291133
Belgium,2009,5.788694271608747,16.8488608661095,-0.5629630032427911,0.03256163568749778,0.001747534302630135
Bulgaria,2009,14.60099924672943,24.17552084446786,-3.742748389362204,0.02435480107567238,0.005099586733032221
Croatia,2009,1.686584391369973,8.943028796353843,-0.8943766234392111,0.003220941344073421,0.0002104820538047871
Cyprus,2009,2.676502495118247,14.62529832935561,-0.06830778781232967,0.001143076242552095,5.971184130998232e-05
Czech Republic,2009,3.797502124457508,17.2293307743069,-2.478005792290411,0.01381639494640155,0.001068832260344861
Denmark,2009,7.19825484792104,7.618126100669604,1.521753708307751,0.02699041535540096,0.001526669686012782
Estonia,2009,0.8481005442051579,15.56279846868299,-0.5084963080254735,0.001017771490826358,9.446056847045716e-05
Finland,2009,0.05604460223413328,14.49651079131398,-2.935411668813086,0.01383034908840536,0.0008181460876543468
France,2009,6.808780893877199,16.88060347714595,-16.68952332441286,0.2749148060898893,0.01936464911037983
Germany,2009,10.9257619397339,23.52018692411044,-7.445928630853231,0.3896405515329011,0.0256255483051853
Greece,2009,8.64929274335729,21.84988836321404,-1.429608797040724,0.04932285547462362,0.00241947262094307
Hungary,2009,7.837986113295105,13.24499516027019,-2.70067318422536,0.01533623243800608,0.001495536635906813
Ireland,2009,0.2925469861786641,11.73141151881324,0.5918537469962805,0.02573635199737822,0.0009188706585491475
Italy,2009,5.091774980911755,14.58749590633413,-12.3007503954118,0.09519826460734922,0.004103054616694969
Latvia,2009,3.300775981277295,14.17164261926692,-0.07122071796729894,0.00958670473209623,0.001017581129340433
Lithuania,2009,3.797420597825039,11.97477776277985,-1.879286369872565,0.006114902887571687,0.0007361958266860382
Luxembourg,2009,10.62887511071745,27.13953989419003,-0.1941041644196891,0.007010022364670999,0.0002477862085504784
Malta,2009,11.7168818747011,1.769488283118125,0.001424212222222225,0.0003734023883966761,2.19648819535994e-05
Netherlands,2009,1.539045698297246,7.5172033874567,1.114899174513267,0.02538636210114719,0.0009450656306084822
Poland,2009,15.07235448107856,22.99853511197005,-17.07008159418549,0.1747530619755012,0.01449268432393713
Portugal,2009,6.212710287557126,15.09146487921576,0.07603173616758938,0.04086267796555092,0.001927728663987412
Romania,2009,4.560906317644378,14.12355243649027,-8.577771702094557,0.05203373503800031,0.003784539713801978
Slovakia,2009,6.502152464175974,28.07695622143821,-3.627648588351192,0.008851132734724378,0.0007229584923835392
Slovenia,2009,9.674358736182805,42.29056914237185,-3.003651244308986,0.02030484423379061,0.0006971393721692124
Spain,2009,5.878618922642408,20.95294067001944,-17.01515038496673,0.137649555416841,0.00575596159671561
Sweden,2009,0.2301511886453813,12.41305905425119,-6.905382569497117,0.008117087075663668,0.0009475912656898928
Switzerland,2009,0.6075924447062298,5.878421180478929,-0.1179850351155945,0.01168038356686067,0.0005596531483531931
United Kingdom,2009,3.436216467618423,22.5965172969563,-5.575021657729566,0.1568518170364639,0.007324240352535452
Austria,2010,3.792649999730691,21.11649645011346,-1.357966862477369,0.03627833809232734,0.001458891208401938
Belgium,2010,5.789485130857548,16.84905858092171,-0.562967047834181,0.03256608430225118,0.001747745814928606
Bulgaria,2010,14.64595654672604,24.26751039676861,-3.756996215273636,0.02443002875041556,0.005116072145681563
Croatia,2010,1.686821154813697,8.947408920062742,-0.8948156431733211,0.003221431428678037,0.0002105320316099911
Cyprus,2010,2.676502495118247,14.62529832935561,-0.06830778781232967,0.001143076242552095,5.971184130998232e-05
Czech Republic,2010,3.797737521411314,17.22988003386578,-2.478083977163759,0.01381723413366149,0.001068897518017821
Denmark,2010,7.22138756504522,7.628448764762654,1.523848213844653,0.02707530787538032,0.001531501539644329
Estonia,2010,0.8991882967387158,15.62495888861116,-0.5105055390587885,0.00107904190086705,9.929526560690613e-05
Finland,2010,0.05632660307670276,14.5056329055258,-2.937236738091403,0.01384359178102121,0.0008191100079155796
France,2010,6.818241620499278,16.91466687717082,-16.723370151949,0.2753098450827704,0.01939391147317828
Germany,2010,10.99470330196552,23.61384374791169,-7.473864240129368,0.3920503395612371,0.02578398221187005
Greece,2010,9.443806688589564,23.64116531694167,-1.546757140787183,0.05385163328388622,0.002641531712508177
Hungary,2010,7.943167244988171,13.28916424680176,-2.709461435249461,0.01553768491242548,0.001514656058430539
Ireland,2010,0.2930364680294929,11.76877530009316,0.5937135128783261,0.02578323118391703,0.0009206277020748603
Italy,2010,5.103048575683788,14.68124842484123,-12.37999615504043,0.09542894847891198,0.004114719639861742
Latvia,2010,3.300775981277295,14.17164261926692,-0.07122071796729894,0.00958670473209623,0.001017581129340433
Lithuania,2010,3.798678188432346,11.97603535338715,-1.879483144228313,0.006116923775655694,0.0007364030659563011
Luxembourg,2010,10.62887511071745,27.13953989419003,-0.1941041644196891,0.007010022364670999,0.0002477862085504784
Malta,2010,11.86035389765662,1.769488283118125,0.001424212222222225,0.0003779746625403089,2.223383969180673e-05
Netherlands,2010,1.540446245444331,7.53665543116622,1.117779214311013,0.02540946839363815,0.0009460449774847262
Poland,2010,15.07498849500346,22.99898665721432,-17.07038711275244,0.1747834379900987,0.01449488306893902
Portugal,2010,6.212710287557126,15.09146487921576,0.07603173616758938,0.04086267796555092,0.001927728663987412
Romania,2010,4.560934266258058,14.12355243649027,-8.577771652681653,0.0520340537851414,0.003784549407490944
Slovakia,2010,6.504081771773201,28.08107207764563,-3.628178644281927,0.00885367081794993,0.0007231632317817666
Slovenia,2010,9.674358736182805,42.29056914237185,-3.003651244308986,0.02030484423379061,0.0006971393721692124
Spain,2010,5.879943487166626,20.98005105044446,-17.03723664648789,0.1376842582966483,0.005757708888062008
Sweden,2010,0.2315730773362337,12.52057721279236,-6.965204886136853,0.00817495345028059,0.0009548981324962907
Switzerland,2010,0.648236203745894,6.321215883454021,-0.126934069193746,0.01246217098054325,0.0005972041717447479
United Kingdom,2010,3.74694132713695,23.58364923732105,-5.811136027924235,0.1710193803200789,0.007911142851678446
Austria,2011,3.792803890986512,21.12434490416037,-1.358477706207221,0.03627992378674756,0.001458993209104289
Belgium,2011,5.791857708603955,16.85380373641452,-0.5631229652620514,0.03257943014651137,0.001748434098310966
Bulgaria,2011,14.65570253483719,24.28341836445971,-3.759458933708015,0.02444628217964779,0.005119465839587601
Croatia,2011,2.294948060019533,9.739856166207938,-0.9733109316839247,0.004353276098501026,0.0002705230186502895
Cyprus,2011,2.676502495118247,14.62529832935561,-0.06830778781232967,0.001143076242552095,5.971184130998232e-05
Czech Republic,2011,3.798129849667658,17.23270479731145,-2.478491884319708,0.01381869628578414,0.001069009948140914
Denmark,2011,7.223253106748784,7.631184892594546,1.524393018283876,0.02708240215067963,0.001531901199625871
Estonia,2011,0.9000653397006653,15.65236648117208,-0.5114013318350599,0.001080094895581189,9.940400617124124e-05
Finland,2011,0.05653503848208019,14.51704780919676,-2.939533451578139,0.01385750524452714,0.0008200532937823404
France,2011,6.840619647692588,17.00230119317584,-16.81052477123517,0.2762529410548027,0.01946469557182707
Germany,2011,11.03293503158105,23.71142952416356,-7.50523594792579,0.3934274119776269,0.02587456256919104
Greece,2011,9.443806688589564,23.64116531694167,-1.546757140787183,0.05385163328388622,0.002641531712508177
Hungary,2011,7.951344117020125,13.3009053963861,-2.711852084885602,0.01555361659131455,0.001516201491000044
Ireland,2011,0.2940154317311505,11.7841123980858,0.5945213304247965,0.02586420466637827,0.0009234063574967448
Italy,2011,5.103118453337333,14.68129500994359,-12.38003496264877,0.09543020518580139,0.004114769498531328
Latvia,2011,3.300775981277295,14.17164261926692,-0.07122071796729894,0.00958670473209623,0.001017581129340433
Lithuania,2011,3.799516582170551,11.97905357084469,-1.879956895718684,0.006118274400929757,0.0007365706589024009
Luxembourg,2011,10.62887511071745,27.13953989419003,-0.1941041644196891,0.007010022364670999,0.0002477862085504784
Malta,2011,12.45815399330464,1.769488283118125,0.001424212222222225,0.0003970258048054455,2.335449693433732e-05
Netherlands,2011,1.540446245444331,7.53665543116622,1.117779214311013,0.02540946839363815,0.0009460449774847262
Poland,2011,15.08964490105703,23.06022748096831,-17.11616444337263,0.1749551498297802,0.01451261508557007
Portugal,2011,6.240652551953396,15.14086424062693,0.07628781182361358,0.04104204166861879,0.001935823769666185
Romania,2011,5.64961661489186,16.45740142174598,-9.994614791338794,0.06445313730562924,0.004526122709721261
Slovakia,2011,7.009045880220867,29.74889418519552,-3.843457353113608,0.009530330645493131,0.0007781199927007983
Slovenia,2011,9.674358736182805,42.29056914237185,-3.003651244308986,0.02030484423379061,0.0006971393721692124
Spain,2011,5.935848748552877,21.10159424298186,-17.13569161957724,0.1389804949110368,0.005810884380799491
Sweden,2011,0.2323327164998398,12.55641659897275,-6.985140668635949,0.008200460114503426,0.0009577839918143228
Switzerland,2011,0.648236203745894,6.321215883454021,-0.126934069193746,0.01246217098054325,0.0005972041717447479
United Kingdom,2011,3.748722247046013,23.58960846932445,-5.812565821196765,0.1711005862904312,0.007914528207324582
Austria,2012,3.806500212754661,21.64857546711767,-1.392582400537587,0.03641821741242877,0.001467004275133805
Belgium,2012,5.794428001162563,16.85479231047552,-0.563148092155209,0.03259388814445992,0.001749125992154911
Bulgaria,2012,14.65689720434759,24.28360699648767,-3.759487483809854,0.02444825066456016,0.00511980321421926
Croatia,2012,2.298499511675397,9.788866199058866,-0.9782217194836481,0.004360424762798558,0.0002711635494002415
Cyprus,2012,2.676502495118247,14.62529832935561,-0.06830778781232967,0.001143076242552095,5.971184130998232e-05
Czech Republic,2012,3.79867910922654,17.23278326296272,-2.478499390272355,0.01382061437147682,0.001069159905121174
Denmark,2012,7.223253106748784,7.631184892594546,1.524393018283876,0.02708240215067963,0.001531901199625871
Estonia,2012,0.9002846004411527,15.65729984783304,-0.5115625464920456,0.001080358061067912,9.942931640875735e-05
Finland,2012,0.05678025660605365,14.52924741086444,-2.941986039664946,0.01387278830970399,0.0008211022940571635
France,2012,6.869241036828659,17.10096305652037,-16.90851119330549,0.2774426471339079,0.01955224787483808
Germany,2012,11.06537407489121,23.76510841726012,-7.521723777024858,0.3945698634857936,0.02594968330757176
Greece,2012,9.444589516039295,23.64172447940577,-1.546793381024014,0.05385608448587372,0.002641749439159733
Hungary,2012,7.956096487089977,13.30642653220255,-2.712973758400996,0.01556283359435704,0.001517090427341652
Ireland,2012,0.2945049135819792,11.78566242394676,0.5946252686398977,0.02590337428288877,0.0009247199195865115
Italy,2012,5.112249133400634,14.69336055145581,-12.39016554212632,0.09559635150916174,0.004121535403811091
Latvia,2012,3.300775981277295,14.17164261926692,-0.07122071796729894,0.00958670473209623,0.001017581129340433
Lithuania,2012,3.799516582170551,11.97905357084469,-1.879956895718684,0.006118274400929757,0.0007365706589024009
Luxembourg,2012,10.62887511071745,27.13953989419003,-0.1941041644196891,0.007010022364670999,0.0002477862085504784
Malta,2012,15.01673840267815,1.769488283118125,0.001424212222222225,0.0004785646937002301,2.815090993236822e-05
Netherlands,2012,1.540446245444331,7.53665543116622,1.117779214311013,0.02540946839363815,0.0009460449774847262
Poland,2012,15.09463071312917,23.07288956219302,-17.12560453006207,0.1750131883167984,0.01451788228679777
Portugal,2012,6.264831817992576,15.45343329564997,0.0777636550180287,0.04126180191203089,0.001951226571524904
Romania,2012,5.64961661489186,16.45740142174598,-9.994614791338794,0.06445313730562924,0.004526122709721261
Slovakia,2012,7.009174500727348,29.74889418519552,-3.843457125398412,0.009530494108834418,0.0007781330056293393
Slovenia,2012,9.674358736182805,42.29056914237185,-3.003651244308986,0.02030484423379061,0.0006971393721692124
Spain,2012,5.936064710160087,21.10278923054175,-17.13666337322521,0.1389856217577048,0.005811104390211447
Sweden,2012,0.2339493844634118,12.60593922906169,-7.01267789941018,0.008248046143943852,0.0009626652732836514
Switzerland,2012,0.6488712624808887,6.324391177128994,-0.1269941011452752,0.01247435242363746,0.0005977822917596674
United Kingdom,2012,3.750891316166026,23.59956335496999,-5.814991577788491,0.1711995318258971,0.007918843927563654
Austria,2013,3.808654690336168,21.68435518409626,-1.394904162903722,0.03643921256471201,0.001467978634807789
Belgium,2013,5.80016173071638,16.85637402897313,-0.5631825505732722,0.03262614060142205,0.00175066137583622
Bulgaria,2013,14.67506875637419,24.28505317536868,-3.759700921800692,0.02447817307083726,0.005124871337665055
Croatia,2013,9.557074787652786,26.73544644706857,-2.666323727108286,0.01796096029542457,0.001036171909737396
Cyprus,2013,2.801475374267737,14.73898893469299,-0.06883245745753956,0.001196424452008407,6.249934910418211e-05
Czech Republic,2013,3.799699162693035,17.23505876684952,-2.47882298048424,0.01382424736978467,0.001069442487420816
Denmark,2013,7.223501845642592,7.632677325957396,1.524688316217989,0.02708349501687254,0.001531960407714376
Estonia,2013,0.9003942308113962,15.66541249523108,-0.5118277696582368,0.001080489888632892,9.944748910087167e-05
Finland,2013,0.05703773563622578,14.54443867364459,-2.945044349758039,0.01389093834558267,0.0008223214009057466
France,2013,6.871991943431792,17.10658447436155,-16.91404988088761,0.2775522446836847,0.01955980547760194
Germany,2013,11.2337145760442,24.03753257756407,-7.605150674452137,0.4004930724582001,0.02633915210821918
Greece,2013,9.444589516039295,23.64172447940577,-1.546793381024014,0.05385608448587372,0.002641749439159733
Hungary,2013,7.957214691812295,13.30698563456371,-2.7130855897907,0.01556497819799312,0.001517294326938377
Ireland,2013,0.2945049135819792,11.78574400425523,0.5946292682473394,0.02590339184455171,0.0009247209297947939
Italy,2013,5.121403106015115,14.69343042910935,-12.39014362272336,0.0957590258828667,0.004127813568232581
Latvia,2013,3.300775981277295,14.17237169657099,-0.07122453280459694,0.009586934457091686,0.001017602110861704
Lithuania,2013,3.799516582170551,11.97905357084469,-1.879956895718684,0.006118274400929757,0.0007365706589024009
Luxembourg,2013,10.62887511071745,27.13953989419003,-0.1941041644196891,0.007010022364670999,0.0002477862085504784
Malta,2013,15.01673840267815,1.769488283118125,0.001424212222222225,0.0004785646937002301,2.815090993236822e-05
Netherlands,2013,1.540446245444331,7.53665543116622,1.117779214311013,0.02540946839363815,0.0009460449774847262
Poland,2013,15.09463071312917,23.07288956219302,-17.12560453006207,0.1750131883167984,0.01451788228679777
Portugal,2013,6.299819696334039,15.69490570086245,0.07891923925486366,0.0415293630710205,0.00196695319616228
Romania,2013,5.64961661489186,16.45740142174598,-9.994614791338794,0.06445313730562924,0.004526122709721261
Slovakia,2013,7.009174500727348,29.74889418519552,-3.843457125398412,0.009530494108834418,0.0007781330056293393
Slovenia,2013,9.888666250879126,42.5290940697196,-3.020476657235414,0.02075452492685699,0.0007115053082161597
Spain,2013,5.936309466648257,21.1095848224486,-17.14220058474344,0.1389923284355934,0.005811463186233771
Sweden,2013,0.2353128393724484,12.6419733945148,-7.032711554221282,0.008286743895059973,0.000966511947382032
Switzerland,2013,0.6488712624808887,6.324391177128994,-0.1269941011452752,0.01247435242363746,0.0005977822917596674
United Kingdom,2013,3.751758943814032,23.60666420229972,-5.816753319048415,0.1712391572574959,0.007920792876658238
Austria,2014,3.814810340569044,21.71651845656304,-1.396970682027946,0.03649805972482842,0.001470333567489576
Belgium,2014,5.932630654890772,17.86195156382531,-0.5975362053802521,0.03337128357261624,0.001798677880879786
Bulgaria,2014,14.67506875637419,24.28511605271133,-3.759710679143959,0.02447817392297774,0.005124874144462914
Croatia,2014,9.557074787652786,26.73544644706857,-2.666323727108286,0.01796096029542457,0.001036171909737396
Cyprus,2014,8.263831633760036,25.35040138858755,-0.1181795442570242,0.003528433587670468,0.0001843425544074889
Czech Republic,2014,3.802210063533638,17.23631421726982,-2.478987672604536,0.01383304558853918,0.001070129727472179
Denmark,2014,7.229098470753281,7.633050434298108,1.524775588444528,0.02710375666729564,0.0015331182517328
Estonia,2014,0.9164002648669746,15.75300716105578,-0.5146846925790501,0.001099689151172401,0.0001010287929955929
Finland,2014,0.05757721550896738,14.57238127887137,-2.950663870237176,0.01392553536732371,0.0008246837142022583
France,2014,7.167451273071734,17.13000306187865,-16.9259059251786,0.2886096694438401,0.02024266496520702
Germany,2014,11.32898327777392,24.23930275533741,-7.668922449356862,0.4038876386671967,0.02656239996193168
Greece,2014,9.444589516039295,23.64172447940577,-1.546793381024014,0.05385608448587372,0.002641749439159733
Hungary,2014,7.957214691812295,13.307125410154,-2.713114318239996,0.01556498275077486,0.001517295320851956
Ireland,2014,0.2945049135819792,11.7858255845637,0.5946332678547811,0.02590340940621464,0.0009247219400030761
Italy,2014,5.12603832370031,14.69357018441644,-12.39022085673259,0.09584143170376777,0.004130996970545718
Latvia,2014,3.300775981277295,14.17237169657099,-0.07122453280459694,0.009586934457091686,0.001017602110861704
Lithuania,2014,3.800103457787295,12.00437306173848,-1.883935559637081,0.006119255679445673,0.0007370013268162561
Luxembourg,2014,10.62887511071745,27.14432767577143,-0.1941387126038278,0.007010022364670999,0.0002477897189052189
Malta,2014,15.01673840267815,1.769488283118125,0.001424212222222225,0.0004785646937002301,2.815090993236822e-05
Netherlands,2014,1.540446245444331,7.53665543116622,1.117779214311013,0.02540946839363815,0.0009460449774847262
Poland,2014,15.09555261800288,23.08222149724125,-17.13259674270846,0.1750242402830229,0.01451951061818276
Portugal,2014,6.310388117251827,15.70627475972855,0.07898209001108397,0.04159545263199149,0.00196978728735655
Romania,2014,5.64961661489186,16.45740142174598,-9.994614791338794,0.06445313730562924,0.004526122709721261
Slovakia,2014,7.009174500727348,29.74889418519552,-3.843457125398412,0.009530494108834418,0.0007781330056293393
Slovenia,2014,9.888997996257912,42.5294258150984,-3.020500033988485,0.02075522102085053,0.0007115274886790833
Spain,2014,5.937461261886707,21.11086619465138,-17.14323220361344,0.1390188329134508,0.005812534145531137
Sweden,2014,0.2364912539724015,12.69673558703989,-7.063172904133729,0.008326102923307547,0.0009709493958316351
Switzerland,2014,0.6488712624808887,6.333599528786419,-0.1271903936386193,0.01247443602418608,0.0005978034831853324
United Kingdom,2014,3.752443913009825,23.61308008043365,-5.818349696282613,0.1712704527548688,0.007922389343564337
Austria,2015,3.84535775484969,21.75383708609985,-1.3992543200659,0.03678810074799683,0.001481271221505659
Belgium,2015,5.93875981406899,18.23424855519901,-0.6104070888970912,0.03340576033695507,0.001805116534509343
Bulgaria,2015,14.67506875637419,24.28511605271133,-3.759710679143959,0.02447817392297774,0.005124874144462914
Croatia,2015,9.564887981295687,26.74468022137382,-2.667237173467023,0.01797549069550405,0.001036936476436587
Cyprus,2015,8.263831633760036,25.35040138858755,-0.1181795442570242,0.003528433587670468,0.0001843425544074889
Czech Republic,2015,3.808251918681338,17.64370787865758,-2.538176015903633,0.01386766623627295,0.001072560095147957
Denmark,2015,7.281955485687563,7.637527734386659,1.525788102568706,0.02729524096910075,0.00154405845119941
Estonia,2015,0.9179350900503862,15.75717311512505,-0.5148202129052862,0.001101529992771908,0.0001011762876131632
Finland,2015,0.05768756366475544,14.57523807001566,-2.951233459528656,0.01393008801025233,0.0008250256909860876
France,2015,7.266077255025786,17.27550210025739,-17.06818040440501,0.2924700491385452,0.02050117812174555
Germany,2015,11.40742800362538,24.41622314838041,-7.725183197746572,0.4066923579305002,0.0267468658478942
Greece,2015,9.444589516039295,23.64172447940577,-1.546793381024014,0.05385608448587372,0.002641749439159733
Hungary,2015,7.957354467402585,13.307125410154,-2.713113932939062,0.0155652485498385,0.001517320311344757
Ireland,2015,0.2945049135819792,11.7858255845637,0.5946332678547811,0.02590340940621464,0.0009247219400030761
Italy,2015,5.12603832370031,14.69357018441644,-12.39022085673259,0.09584143170376777,0.004130996970545718
Latvia,2015,3.300775981277295,14.17237169657099,-0.07122453280459694,0.009586934457091686,0.001017602110861704
Lithuania,2015,3.800187297161115,12.0052952948505,-1.884080435076132,0.006119391700145399,0.0007370264633186033
Luxembourg,2015,13.29088166997822,31.58978287410528,-0.2257828669558545,0.008765685623570585,0.0003081236761031411
Malta,2015,15.01673840267815,1.769488283118125,0.001424212222222225,0.0004785646937002301,2.815090993236822e-05
Netherlands,2015,1.540446245444331,7.53665543116622,1.117779214311013,0.02540946839363815,0.0009460449774847262
Poland,2015,15.09559024677324,23.08244726986338,-17.13276571494184,0.1750246842757391,0.0145195625596131
Portugal,2015,6.326881258987161,15.74062212771136,0.07915736147518646,0.0417025648742164,0.001974726988301758
Romania,2015,5.64961661489186,16.45740142174598,-9.994614791338794,0.06445313730562924,0.004526122709721261
Slovakia,2015,7.009174500727348,29.74889418519552,-3.843457125398412,0.009530494108834418,0.0007781330056293393
Slovenia,2015,9.889329741636699,42.53008930585597,-3.020547027596943,0.02075591716927203,0.00071155018088171
Spain,2015,5.937979569744009,21.11757540191535,-17.14869590551555,0.1390317700494869,0.005813139435185005
Sweden,2015,0.2397051119722735,12.74668673152881,-7.090920759126965,0.00840855979684756,0.0009783681019504176
Switzerland,2015,0.6488712624808887,6.333599528786419,-0.1271903936386193,0.01247443602418608,0.0005978034831853324
United Kingdom,2015,3.752717900688143,23.61712139868883,-5.819362529277763,0.1712829932835753,0.007923133229745024
