Country,ots_air_value-statistical-life[MEUR/death]
Austria,3.2663
Belgium,3.115
Bulgaria,1.5753000000000001
Croatia,1.8422999999999998
Cyprus,2.5543
Czech Republic,2.4475000000000002
Denmark,3.0794
Estonia,2.0203
Finland,2.9548
France,2.8124000000000002
Germany,3.0972
Greece,2.5098
Hungary,2.0648
Ireland,3.3375
Italy,2.67
Latvia,1.8690000000000002
Lithuania,1.9135
Luxembourg,5.5892
Malta,2.3585
Netherlands,3.3464
Poland,1.8690000000000002
Portugal,2.225
Romania,1.4863
Slovakia,2.1538
Slovenia,2.581
Spain,2.7234000000000003
Sweden,3.115
Switzerland,3.4265000000000003
United Kingdom,3.1595
