Country,Years,ots_tec_price-indices_pli[%],sector,technology_code,cost_classification,evolution_method,capex_unit,capex_lr,capex_2050,opex_unit,opex_lr,opex_2050,capex_baseyear,opex_baseyear,capex_b_factor,opex_b_factor,capex_d_factor,opex_d_factor
EU28,2015,100.0,tra,LDV_ICE-diesel,final consumption goods,1,new vehicle,0.01,22770.0,km,0.01,,25300.0,0.03,-0.01449956969511509,-0.01449956969511509,-72.28571428571429,
EU28,2015,100.0,tra,LDV_ICE-gasoline,final consumption goods,1,new vehicle,0.01,22770.0,km,0.01,,25300.0,0.03,-0.01449956969511509,-0.01449956969511509,-72.28571428571429,
EU28,2015,100.0,tra,LDV_ICE-gas,final consumption goods,1,new vehicle,0.01,25274.7,km,0.01,,28083.0,0.03,-0.01449956969511509,-0.01449956969511509,-80.23714285714284,
EU28,2015,100.0,tra,LDV_PHEV-diesel,final consumption goods,2,new vehicle,0.05,,km,0.05,,27989.0,0.03,-0.07400058144377693,-0.07400058144377693,,
EU28,2015,100.0,tra,LDV_PHEV-gasoline,final consumption goods,2,new vehicle,0.05,,km,0.05,,27989.0,0.03,-0.07400058144377693,-0.07400058144377693,,
EU28,2015,100.0,tra,LDV_BEV,final consumption goods,2,new vehicle,0.1,,km,0.1,,31087.0,0.02,-0.15200309344504997,-0.15200309344504997,,
EU28,2015,100.0,tra,LDV_FCEV,final consumption goods,2,new vehicle,0.1,,km,0.1,,39696.0,0.03,-0.15200309344504997,-0.15200309344504997,,
EU28,2015,100.0,tra,bus_ICE-diesel,productive assets,1,new vehicle,0.01,208800.0,vehicle/year,0.01,,232000.0,5021.0,-0.01449956969511509,-0.01449956969511509,-662.8571428571429,
EU28,2015,100.0,tra,bus_ICE-gasoline,productive assets,1,new vehicle,0.01,208800.0,vehicle/year,0.01,,232000.0,5021.0,-0.01449956969511509,-0.01449956969511509,-662.8571428571429,
EU28,2015,100.0,tra,bus_ICE-gas,productive assets,1,new vehicle,0.01,231768.0,vehicle/year,0.01,,257519.99999999997,5585.0,-0.01449956969511509,-0.01449956969511509,-735.7714285714277,
EU28,2015,100.0,tra,bus_PHEV-diesel,productive assets,2,new vehicle,0.05,,vehicle/year,0.05,,331000.0,4350.0,-0.07400058144377693,-0.07400058144377693,,
EU28,2015,100.0,tra,bus_BEV,productive assets,2,new vehicle,0.1,,vehicle/year,0.1,,285058.0,3345.0000000000005,-0.15200309344504997,-0.15200309344504997,,
EU28,2015,100.0,tra,bus_FCEV,productive assets,2,new vehicle,0.1,,vehicle/year,0.1,,700000.0,14907.0,-0.15200309344504997,-0.15200309344504997,,
EU28,2015,100.0,tra,HDVL_ICE-diesel,productive assets,1,new vehicle,0.01,122688.9,km,0.01,,136321.0,0.22,-0.01449956969511509,-0.01449956969511509,-389.4885714285716,
EU28,2015,100.0,tra,HDVL_ICE-gasoline,productive assets,1,new vehicle,0.01,122688.9,km,0.01,,136321.0,0.22,-0.01449956969511509,-0.01449956969511509,-389.4885714285716,
EU28,2015,100.0,tra,HDVL_ICE-gas,productive assets,1,new vehicle,0.01,137521.8,km,0.01,,152802.0,0.22,-0.01449956969511509,-0.01449956969511509,-436.5771428571432,
EU28,2015,100.0,tra,HDVL_CEV,productive assets,2,new vehicle,0.05,,km,0.05,,150807.0,0.22,-0.07400058144377693,-0.07400058144377693,,
EU28,2015,100.0,tra,HDVL_PHEV-diesel,productive assets,2,new vehicle,0.05,,km,0.05,,169142.0,0.2,-0.07400058144377693,-0.07400058144377693,,
EU28,2015,100.0,tra,HDVL_PHEV-gasoline,productive assets,2,new vehicle,0.05,,km,0.05,,169142.0,0.2,-0.07400058144377693,-0.07400058144377693,,
EU28,2015,100.0,tra,HDVL_BEV,productive assets,2,new vehicle,0.1,,km,0.1,,214292.99999999997,0.2,-0.15200309344504997,-0.15200309344504997,,
EU28,2015,100.0,tra,HDVL_FCEV,productive assets,2,new vehicle,0.1,,km,0.1,,186887.0,0.2,-0.15200309344504997,-0.15200309344504997,,
EU28,2015,100.0,tra,HDVM_ICE-diesel,productive assets,1,new vehicle,0.01,122688.9,km,0.01,,136321.0,0.22,-0.01449956969511509,-0.01449956969511509,-389.4885714285716,
EU28,2015,100.0,tra,HDVM_ICE-gasoline,productive assets,1,new vehicle,0.01,122688.9,km,0.01,,136321.0,0.22,-0.01449956969511509,-0.01449956969511509,-389.4885714285716,
EU28,2015,100.0,tra,HDVM_ICE-gas,productive assets,1,new vehicle,0.01,137521.8,km,0.01,,152802.0,0.22,-0.01449956969511509,-0.01449956969511509,-436.5771428571432,
EU28,2015,100.0,tra,HDVM_CEV,productive assets,2,new vehicle,0.05,,km,0.05,,150807.0,0.22,-0.07400058144377693,-0.07400058144377693,,
EU28,2015,100.0,tra,HDVM_PHEV-diesel,productive assets,2,new vehicle,0.05,,km,0.05,,169142.0,0.2,-0.07400058144377693,-0.07400058144377693,,
EU28,2015,100.0,tra,HDVM_PHEV-gasoline,productive assets,2,new vehicle,0.05,,km,0.05,,169142.0,0.2,-0.07400058144377693,-0.07400058144377693,,
EU28,2015,100.0,tra,HDVM_BEV,productive assets,2,new vehicle,0.1,,km,0.1,,214292.99999999997,0.2,-0.15200309344504997,-0.15200309344504997,,
EU28,2015,100.0,tra,HDVM_FCEV,productive assets,2,new vehicle,0.1,,km,0.1,,186887.0,0.2,-0.15200309344504997,-0.15200309344504997,,
EU28,2015,100.0,tra,HDVH_ICE-diesel,productive assets,1,new vehicle,0.01,122688.9,km,0.01,,136321.0,0.22,-0.01449956969511509,-0.01449956969511509,-389.4885714285716,
EU28,2015,100.0,tra,HDVH_ICE-gasoline,productive assets,1,new vehicle,0.01,122688.9,km,0.01,,136321.0,0.22,-0.01449956969511509,-0.01449956969511509,-389.4885714285716,
EU28,2015,100.0,tra,HDVH_ICE-gas,productive assets,1,new vehicle,0.01,137521.8,km,0.01,,152802.0,0.22,-0.01449956969511509,-0.01449956969511509,-436.5771428571432,
EU28,2015,100.0,tra,HDVH_CEV,productive assets,2,new vehicle,0.05,,km,0.05,,150807.0,0.22,-0.07400058144377693,-0.07400058144377693,,
EU28,2015,100.0,tra,HDVH_PHEV-diesel,productive assets,2,new vehicle,0.05,,km,0.05,,169142.0,0.2,-0.07400058144377693,-0.07400058144377693,,
EU28,2015,100.0,tra,HDVH_PHEV-gasoline,productive assets,2,new vehicle,0.05,,km,0.05,,169142.0,0.2,-0.07400058144377693,-0.07400058144377693,,
EU28,2015,100.0,tra,HDVH_BEV,productive assets,2,new vehicle,0.1,,km,0.1,,214292.99999999997,0.2,-0.15200309344504997,-0.15200309344504997,,
EU28,2015,100.0,tra,HDVH_FCEV,productive assets,2,new vehicle,0.1,,km,0.1,,186887.0,0.2,-0.15200309344504997,-0.15200309344504997,,
EU28,2015,100.0,tra,aviation_ICE,productive assets,1,new vehicle,,126000000.0,new vehicle,,,140000000.0,,,,-400000.0,
EU28,2015,100.0,tra,aviation_BEV,productive assets,2,new vehicle,0.1,,new vehicle,,,172022924.9,,-0.15200309344504997,,,
EU28,2015,100.0,tra,IWW_BEV,productive assets,2,new vehicle,0.1,,new vehicle,,,63894229.25,,-0.15200309344504997,,,
EU28,2015,100.0,tra,IWW_FCEV,productive assets,2,new vehicle,0.1,,new vehicle,,,81588616.6,,-0.15200309344504997,,,
EU28,2015,100.0,tra,IWW_ICE,productive assets,1,new vehicle,,46800000.0,new vehicle,,,52000000.0,,,,-148571.42857142858,
EU28,2015,100.0,tra,marine_BEV,productive assets,2,new vehicle,0.1,,new vehicle,,,127788458.5,,-0.15200309344504997,,,
EU28,2015,100.0,tra,marine_FCEV,productive assets,2,new vehicle,0.1,,new vehicle,,,163177233.2,,-0.15200309344504997,,,
EU28,2015,100.0,tra,marine_ICE,productive assets,1,new vehicle,,93600000.0,new vehicle,,,104000000.0,,,,-297142.85714285716,
EU28,2015,100.0,tra,rail_CEV,productive assets,1,new vehicle,,,new vehicle,,,,,,,,
EU28,2015,100.0,tra,rail_FCEV,productive assets,2,new vehicle,,,new vehicle,,,,,,,,
EU28,2015,100.0,tra,rail_ICE-diesel,productive assets,1,new vehicle,,,new vehicle,,,,,,,,
EU28,2015,100.0,tra,2W_BEV,final consumption goods,2,new vehicle,0.1,,new vehicle,,,6143.68,,-0.15200309344504997,,,
EU28,2015,100.0,tra,2W_FCEV,final consumption goods,2,new vehicle,0.1,,new vehicle,,,7845.060000000001,,-0.15200309344504997,,,
EU28,2015,100.0,tra,2W_ICE-diesel,final consumption goods,1,new vehicle,,4500.0,new vehicle,,,5000.0,,,,-14.285714285714286,
EU28,2015,100.0,tra,2W_ICE-gas,final consumption goods,1,new vehicle,,4995.0,new vehicle,,,5550.0,,,,-15.857142857142858,
EU28,2015,100.0,tra,2W_ICE-gasoline,final consumption goods,1,new vehicle,,4500.0,new vehicle,,,5000.0,,,,-14.285714285714286,
EU28,2015,100.0,tra,2W_PHEV,final consumption goods,2,new vehicle,0.05,,new vehicle,,,5531.42,,-0.07400058144377693,,,
EU28,2015,100.0,ind,steel_BF-BOF,productive assets,1,t,,192.26,t,,108.15,192.26,108.15,,,0.0,-0.0
EU28,2015,100.0,ind,steel_scrap-EAF,productive assets,1,t,,96.13,t,,38.45,96.13,38.45,,,0.0,-0.0
EU28,2015,100.0,ind,steel_DRI-EAF,productive assets,2,t,0.08,,t,0.1,,175.0,15.7,-0.12029423371771177,-0.15200309344504997,,
EU28,2015,100.0,ind,steel_hisarna,productive assets,2,t,0.01,,t,0.06,,144.2,97.33,-0.01449956969511509,-0.08926733809708741,,
EU28,2015,100.0,ind,cement_wet-kiln,productive assets,1,t,,14.99,t,,17.81,14.99,17.81,,,0.0,-0.0
EU28,2015,100.0,ind,cement_dry-kiln,productive assets,1,t,,14.99,t,,17.81,14.99,17.81,,,0.0,-0.0
EU28,2015,100.0,ind,cement_geopolym,productive assets,2,t,0.08,,t,0.08,,18.0,21.37,-0.12029423371771177,-0.12029423371771177,,
EU28,2015,100.0,ind,amm-tech,productive assets,1,t,,670.0,t,,150.0,670.0,150.0,,,0.0,-0.0
EU28,2015,100.0,ind,chem_chem-tech,productive assets,1,t,,1200.0,t,,180.0,1200.0,180.0,,,0.0,-0.0
EU28,2015,100.0,ind,paper_woodpulp,productive assets,1,t,,0.82,t,,0.76,0.8199999999999998,0.76,,,3.1720657846433043e-18,-0.0
EU28,2015,100.0,ind,paper_recycled,productive assets,1,t,,2.17,t,,1.63,2.17,1.63,,,0.0,-0.0
EU28,2015,100.0,ind,aluminium_prim,productive assets,1,t,,188.55,t,,112.2,188.55,112.20000000000002,,,0.0,5.043781620302397e-19
EU28,2015,100.0,ind,aluminium_sec,productive assets,1,t,,100.0,t,,30.0,100.0,30.0,,,0.0,-0.0
EU28,2015,100.0,ind,glass_glass,productive assets,1,t,,2.36,t,,3.56,2.36,3.56,,,0.0,-0.0
EU28,2015,100.0,ind,lime_lime,productive assets,1,t,,100.0,t,,30.0,100.0,30.0,,,0.0,-0.0
EU28,2015,100.0,ind,CC_steel_BF-BOF,productive assets,1,t,,90.0,t,,5.0,85.0,5.0,,,0.14285714285714285,-0.0
EU28,2015,100.0,ind,CC_steel_scrap-EAF,productive assets,1,t,,0.0,t,,0.0,0.0,0.0,,,0.0,-0.0
EU28,2015,100.0,ind,CC_steel_DRI-EAF,productive assets,1,t,,1.0,t,,0.0,1.0,0.0,,,0.0,-0.0
EU28,2015,100.0,ind,CC_steel_hisarna,productive assets,1,t,,0.0,t,,0.0,0.0,0.0,,,0.0,-0.0
EU28,2015,100.0,ind,CC_cement_wet-kiln,productive assets,1,t,,50.0,t,,5.0,120.0,5.0,,,-2.0,-0.0
EU28,2015,100.0,ind,CC_cement_dry-kiln,productive assets,1,t,,50.0,t,,5.0,120.0,5.0,,,-2.0,-0.0
EU28,2015,100.0,ind,CC_cement_geopolym,productive assets,1,t,,50.0,t,,5.0,120.0,5.0,,,-2.0,-0.0
EU28,2015,100.0,ind,CC_chem_chem-tech,productive assets,1,t,,145.0,t,,5.0,160.0,5.0,,,-0.42857142857142855,-0.0
EU28,2015,100.0,ind,CC_paper_woodpulp,productive assets,1,t,,250.0,t,,5.0,250.0,5.0,,,0.0,-0.0
EU28,2015,100.0,ind,CC_ammonia_amm-tech,productive assets,1,t,,160.0,t,,5.0,160.0,5.0,,,0.0,-0.0
EU28,2015,100.0,bld,bld_liquid-ff-heatingoil,final consumption goods,1,kW,,174.0,kWh,,0.21,162.0,0.21,,,0.34285714285714286,-0.0
EU28,2015,100.0,bld,bld_gas-ff-natural,final consumption goods,1,kW,,179.0,kWh,,0.24,157.0,0.24,,,0.6285714285714286,-0.0
EU28,2015,100.0,bld,bld_solid-bio-woodlogs,final consumption goods,1,kW,,442.0,kWh,,0.3,409.99999999999994,0.3,,,0.9142857142857159,-0.0
EU28,2015,100.0,bld,bld_solid-bio-pellets,final consumption goods,1,kW,,442.0,kWh,,1.93,409.99999999999994,1.9299999999999997,,,0.9142857142857159,-7.880908781722496e-21
EU28,2015,100.0,bld,bld_electricity,final consumption goods,1,kW,,69.0,kWh,,1.6,60.0,1.6200000000000003,,,0.2571428571428571,7.098491570541345e-07
EU28,2015,100.0,bld,bld_solid-ff-coal,final consumption goods,1,kW,,16.87,kWh,,0.35,17.04,0.36,,,-0.004857142857142805,3.5492457852706333e-07
EU28,2015,100.0,bld,dh_chp,shared infrastructures ,1,kW,,100.0,kWh,,0.05,91.0,0.05,,,0.2571428571428571,-0.0
EU28,2015,100.0,bld,dh_solid-ff-waste,shared infrastructures ,1,kW,,100.0,kWh,,0.05,91.0,0.05,,,0.2571428571428571,-0.0
EU28,2015,100.0,bld,dh_heat-geothermal,shared infrastructures ,1,kW,,1514.02,kW,,56.17,1514.02,56.169999999999995,,,0.0,-2.5218908101511986e-19
EU28,2015,100.0,bld,dh_heat-solar,shared infrastructures ,1,kW,,717.76,kW,,8.07,717.76,8.07,,,0.0,-0.0
EU28,2015,100.0,bld,dh_heat-ambient,shared infrastructures ,1,kW,,343.93,kW,,11.96,343.93,11.96,,,0.0,-0.0
EU28,2015,100.0,bld,dh_gas-ff-natural,shared infrastructures ,1,kW,,58.79,kW,,1.18,58.79,1.18,,,0.0,-0.0
EU28,2015,100.0,bld,dh_solid-bio-woodlogs,shared infrastructures ,1,kW,,114.96,kW,,2.3,114.96,2.3,,,0.0,-0.0
EU28,2015,100.0,bld,dh_liquid-ff-heatingoil,shared infrastructures ,1,kW,,54.77,kW,,1.18,54.77000000000001,1.18,,,-2.0301221021717148e-16,-0.0
EU28,2015,100.0,bld,dh_solid-ff-coal,shared infrastructures ,1,kW,,114.95,kW,,2.3,114.95,2.3,,,0.0,-0.0
EU28,2015,100.0,elc,RES_wind_onshore,productive assets,2,kW,0.05,,kW,0.05,,1487.0,45.0,-0.07400058144377693,-0.07400058144377693,,
EU28,2015,100.0,elc,RES_wind_offshore,productive assets,2,kW,0.11,,kW,0.11,,4185.0,84.0,-0.16812275880832692,-0.16812275880832692,,
EU28,2015,100.0,elc,RES_solar_Pvutility,productive assets,2,kW,0.2,,kW,0.2,,1019.9999999999999,17.34,-0.3219280948873623,-0.3219280948873623,,
EU28,2015,100.0,elc,RES_solar_Pvroof,productive assets,2,kW,0.2,,kW,0.2,,1250.0,28.13,-0.3219280948873623,-0.3219280948873623,,
EU28,2015,100.0,elc,RES_solar_csp,productive assets,2,kW,0.1,,kW,0.1,,5470.0,93.0,-0.15200309344504997,-0.15200309344504997,,
EU28,2015,100.0,elc,RES_other_geothermal,productive assets,2,kW,0.05,,kW,0.05,,7433.0,149.0,-0.07400058144377693,-0.07400058144377693,,
EU28,2015,100.0,elc,RES_other_marine,productive assets,2,kW,0.14,,kW,0.14,,7041.0,390.0,-0.2175914350726268,-0.2175914350726268,,
EU28,2015,100.0,elc,RES_other_hydroelectric,productive assets,2,kW,0.01,,kW,0.01,,2848.0,14.000000000000002,-0.01449956969511509,-0.01449956969511509,,
EU28,2015,100.0,elc,nuclear,productive assets,1,kW,,4000.0,kW,,149.0,5940.0,153.0,,,-55.42857142857143,0.0001419698314108252
EU28,2015,100.0,elc,fossil_coal,productive assets,1,kW,,1845.0,kW,,56.0,1889.9999999999998,59.0,,,-1.2857142857142791,0.0001064773735581189
EU28,2015,100.0,elc,fossil_gas,productive assets,1,kW,,840.0,kW,,20.25,840.0,20.25,,,0.0,-0.0
EU28,2015,100.0,elc,fossil_oil,productive assets,1,kW,,1200.0,kw,,23.5,1200.0,23.5,,,0.0,-0.0
EU28,2015,100.0,str,battery,productive assets,2,MWh,0.15,,kW,0.15,,600000.0,40.5,-0.23446525363702297,-0.23446525363702297,,
EU28,2015,100.0,elc,RES_bio_mass,productive assets,2,kW,0.02,,kW,0.02,,3600.0,72.0,-0.029146345659516508,-0.029146345659516508,,
EU28,2015,100.0,elc,RES_bio_gas,productive assets,2,kW,0.02,,kW,0.02,,3600.0,72.0,-0.029146345659516508,-0.029146345659516508,,
EU28,2015,100.0,str,PHS,productive assets,2,MWh,0.07,,kW,0.07,,100000.0,22.5,-0.1046973786666934,-0.1046973786666934,,
EU28,2015,100.0,str,CAES,productive assets,2,MWh,0.23,,kW,0.23,,125000.0,38.5,-0.3770696490798233,-0.3770696490798233,,
EU28,2015,100.0,str,flywheel,productive assets,2,MWh,0.19,,kW,0.19,,1750000.0,52.5,-0.3040061868900999,-0.3040061868900999,,
EU28,2015,100.0,str,Ptx,productive assets,2,MWh H2,0.18,,kW,0.18,,6000.0,0.0,-0.2863041851566409,-0.2863041851566409,,
EU28,2015,100.0,ccu,methanol-formation,productive assets,1,tCO2-eq,,630.63,-,,0.0,630.63,0.0,,,0.0,-0.0
EU28,2015,100.0,ccu,methane-formation,productive assets,1,tCO2-eq,,807.21,-,,0.0,807.21,0.0,,,0.0,-0.0
EU28,2015,100.0,ccu,dimethyl-carbonate,productive assets,1,tCO2-eq,,440.54,-,,0.0,440.54,0.0,,,0.0,-0.0
EU28,2015,100.0,ccu,dimethyl-ether,productive assets,1,tCO2-eq,,513.51,-,,0.0,513.51,0.0,,,0.0,-0.0
EU28,2015,100.0,ccu,fischer-tropsch,productive assets,1,tCO2-eq,,329.73,-,,0.0,329.73,0.0,,,0.0,-0.0
EU28,2015,100.0,ccu,enhanced-oil-recovery,productive assets,1,tCO2-eq,,2.25,-,,0.0,2.25,0.0,,,0.0,-0.0
EU28,2015,100.0,ccu,depleted-oil-gas-reservoirs,productive assets,1,tCO2-eq,,2.25,-,,0.0,2.25,0.0,,,0.0,-0.0
EU28,2015,100.0,ccu,unmineable-coal-seams,productive assets,1,tCO2-eq,,2.25,-,,0.0,2.25,0.0,,,0.0,-0.0
EU28,2015,100.0,ccu,deep-saline-formation,productive assets,1,tCO2-eq,,3.64,-,,0.0,3.64,0.0,,,0.0,-0.0
EU28,2015,100.0,ccu,ocean-storage,productive assets,1,tCO2-eq,,8.74,-,,0.0,8.74,0.0,,,0.0,-0.0
EU28,2015,100.0,ccu,deep-ocean-injection,productive assets,1,tCO2-eq,,13.74,-,,0.0,13.74,0.0,,,0.0,-0.0
EU28,2015,100.0,ccu,mineral-storage,productive assets,1,tCO2-eq,,12.61,-,,0.0,12.61,0.0,,,0.0,-0.0
EU28,2015,100.0,bld,dryer,final consumption goods,1,new unit,,680.0,,,,587.0,,,,2.657142857142857,
EU28,2015,100.0,bld,dishwasher,final consumption goods,1,new unit,,539.0,,,,533.0,,,,0.17142857142857143,
EU28,2015,100.0,bld,fridge,final consumption goods,1,new unit,,72.0,,,,580.0,,,,-14.514285714285714,
EU28,2015,100.0,bld,freezer,final consumption goods,1,new unit,,72.0,,,,580.0,,,,-14.514285714285714,
EU28,2015,100.0,bld,wmachine,final consumption goods,1,new unit,,538.0,,,,586.0,,,,-1.3714285714285714,
EU28,2015,100.0,bld,tv,final consumption goods,1,new unit,,700.0,,,,700.0,,,,0.0,
EU28,2015,100.0,bld,comp,final consumption goods,1,new unit,,1500.0,,,,1500.0,,,,0.0,
EU28,2015,100.0,bld,phone,final consumption goods,1,new unit,,300.0,,,,300.0,,,,0.0,
EU28,2015,100.0,bld,dh_pipes,shared infrastructures ,1,km,,20000.0,,,,20000.0,,,,0.0,
EU28,2015,100.0,bld,reno-shl-sfh,final consumption goods,1,m2,,28.7,,,,41.0,,,,-0.3514285714285714,
EU28,2015,100.0,bld,reno-med-sfh,final consumption goods,1,m2,,69.3,,,,99.0,,,,-0.8485714285714286,
EU28,2015,100.0,bld,reno-dep-sfh,final consumption goods,1,m2,,138.6,,,,198.0,,,,-1.6971428571428573,
EU28,2015,100.0,bld,reno-shl-mfh,final consumption goods,1,m2,,11.9,,,,17.0,,,,-0.1457142857142857,
EU28,2015,100.0,bld,reno-med-mfh,final consumption goods,1,m2,,28.7,,,,41.0,,,,-0.3514285714285714,
EU28,2015,100.0,bld,reno-dep-mfh,final consumption goods,1,m2,,57.4,,,,82.0,,,,-0.7028571428571428,
EU28,2015,100.0,bld,reno-shl-off,final consumption goods,1,m2,,18.2,,,,26.0,,,,-0.22285714285714286,
EU28,2015,100.0,bld,reno-med-off,final consumption goods,1,m2,,44.1,,,,63.0,,,,-0.5399999999999999,
EU28,2015,100.0,bld,reno-dep-off,final consumption goods,1,m2,,88.2,,,,126.0,,,,-1.0799999999999998,
EU28,2015,100.0,bld,reno-shl-sco,final consumption goods,1,m2,,10.5,,,,15.0,,,,-0.12857142857142856,
EU28,2015,100.0,bld,reno-med-sco,final consumption goods,1,m2,,25.2,,,,36.0,,,,-0.3085714285714286,
EU28,2015,100.0,bld,reno-dep-sco,final consumption goods,1,m2,,51.1,,,,73.0,,,,-0.6257142857142857,
EU28,2015,100.0,elc,Ccs_new,productive assets,1,t,,194.0,,,,194.0,,,,0.0,
EU28,2015,100.0,elc,Ccs_old,productive assets,1,t,,102.0,,,,132.0,,,,-0.8571428571428571,
Belgium,2015,106.4,,,,,,,,,,,,,,,,
Bulgaria,2015,46.2,,,,,,,,,,,,,,,,
Czech Republic,2015,63.1,,,,,,,,,,,,,,,,
Denmark,2015,130.3,,,,,,,,,,,,,,,,
Germany,2015,103.5,,,,,,,,,,,,,,,,
Estonia,2015,71.5,,,,,,,,,,,,,,,,
Ireland,2015,107.7,,,,,,,,,,,,,,,,
Greece,2015,81.0,,,,,,,,,,,,,,,,
Spain,2015,88.4,,,,,,,,,,,,,,,,
France,2015,107.6,,,,,,,,,,,,,,,,
Croatia,2015,61.4,,,,,,,,,,,,,,,,
Italy,2015,98.3,,,,,,,,,,,,,,,,
Cyprus,2015,88.2,,,,,,,,,,,,,,,,
Latvia,2015,66.2,,,,,,,,,,,,,,,,
Lithuania,2015,59.3,,,,,,,,,,,,,,,,
Luxembourg,2015,117.3,,,,,,,,,,,,,,,,
Hungary,2015,56.9,,,,,,,,,,,,,,,,
Malta,2015,79.8,,,,,,,,,,,,,,,,
Netherlands,2015,107.8,,,,,,,,,,,,,,,,
Austria,2015,106.3,,,,,,,,,,,,,,,,
Poland,2015,56.1,,,,,,,,,,,,,,,,
Portugal,2015,77.8,,,,,,,,,,,,,,,,
Romania,2015,49.8,,,,,,,,,,,,,,,,
Slovenia,2015,79.2,,,,,,,,,,,,,,,,
Slovakia,2015,65.4,,,,,,,,,,,,,,,,
Finland,2015,120.8,,,,,,,,,,,,,,,,
Sweden,2015,126.0,,,,,,,,,,,,,,,,
United Kingdom,2015,127.0,,,,,,,,,,,,,,,,
Switzerland,2015,154.0,,,,,,,,,,,,,,,,
