Country,Trade_zone
Austria,Central_Western_Europe
Belgium,Central_Western_Europe
Bulgaria,South_Eastern_Europe
Croatia,Central_Eastern_Europe
Cyprus,Cyprus
Czech Republic,Central_Eastern_Europe
Denmark,Northern_Europe
Estonia,Baltic
Finland,Northern_Europe
France,Central_Western_Europe
Germany,Central_Western_Europe
Greece,South_Eastern_Europe
Hungary,Central_Eastern_Europe
Ireland,British_Isles
Italy,Appenine
Latvia,Baltic
Lithuania,Baltic
Luxembourg,Central_Western_Europe
Malta,Appenine
Netherlands,Central_Western_Europe
Poland,Central_Eastern_Europe
Portugal,Iberian
Romania,South_Eastern_Europe
Slovakia,Central_Eastern_Europe
Slovenia,Central_Eastern_Europe
Spain,Iberian
Sweden,Northern_Europe
United Kingdom,British_Isles
Switzerland,Central_Western_Europe
