Years,EU28_EUStat[TWh],Switzerland_IEA[TWh],Total_stat[TWh]
2011,2897.267808,62.11,2959.377808
2012,2896.344481,61.58,2957.924481
2013,2870.8460649999997,63.15,2933.996065
2014,2807.103701,63.06,2870.163701
2015,2845.7844569999997,62.73,2908.5144569999998
