Country,Years,lever_capacity_RES_other,ll_elc_capacity_RES_other_hydroelectric[GW],ll_elc_capacity_RES_other_marine[GW],ll_elc_capacity_RES_other_geothermal[GW],fts_elc_capacity_RES_other_hydroelectric[GW],fts_elc_capacity_RES_other_marine[GW],fts_elc_capacity_RES_other_geothermal[GW]
Austria,2015,1,0.0,0.0,0.0,8.318,0.0,0.001
Austria,2015,2,0.0,0.0,0.0,8.318,0.0,0.001
Austria,2015,3,0.0,0.0,0.0,8.318,0.0,0.001
Austria,2015,4,0.0,0.0,0.0,8.318,0.0,0.001
Belgium,2015,1,0.0,0.0,0.0,0.117,0.0,0.0
Belgium,2015,2,0.0,0.0,0.0,0.117,0.0,0.0
Belgium,2015,3,0.0,0.0,0.0,0.117,0.0,0.0
Belgium,2015,4,0.0,0.0,0.0,0.117,0.0,0.0
Bulgaria,2015,1,0.0,0.0,0.0,2.206,0.0,0.0
Bulgaria,2015,2,0.0,0.0,0.0,2.206,0.0,0.0
Bulgaria,2015,3,0.0,0.0,0.0,2.206,0.0,0.0
Bulgaria,2015,4,0.0,0.0,0.0,2.206,0.0,0.0
Croatia,2015,1,0.0,0.0,0.0,1.91,0.0,0.0
Croatia,2015,2,0.0,0.0,0.0,1.91,0.0,0.0
Croatia,2015,3,0.0,0.0,0.0,1.91,0.0,0.0
Croatia,2015,4,0.0,0.0,0.0,1.91,0.0,0.0
Cyprus,2015,1,0.0,0.0,0.0,0.0,0.0,0.011
Cyprus,2015,2,0.0,0.0,0.0,0.0,0.0,0.011
Cyprus,2015,3,0.0,0.0,0.0,0.0,0.0,0.011
Cyprus,2015,4,0.0,0.0,0.0,0.0,0.0,0.011
Czech Republic,2015,1,0.0,0.0,0.0,1.088,0.0,0.0
Czech Republic,2015,2,0.0,0.0,0.0,1.088,0.0,0.0
Czech Republic,2015,3,0.0,0.0,0.0,1.088,0.0,0.0
Czech Republic,2015,4,0.0,0.0,0.0,1.088,0.0,0.0
Denmark,2015,1,0.0,0.0,0.0,0.009,0.0,0.0
Denmark,2015,2,0.0,0.0,0.0,0.009,0.0,0.0
Denmark,2015,3,0.0,0.0,0.0,0.009,0.0,0.0
Denmark,2015,4,0.0,0.0,0.0,0.009,0.0,0.0
Estonia,2015,1,0.0,0.0,0.0,0.008,0.0,0.0
Estonia,2015,2,0.0,0.0,0.0,0.008,0.0,0.0
Estonia,2015,3,0.0,0.0,0.0,0.008,0.0,0.0
Estonia,2015,4,0.0,0.0,0.0,0.008,0.0,0.0
Finland,2015,1,0.0,0.0,0.0,3.251,0.0,0.0
Finland,2015,2,0.0,0.0,0.0,3.251,0.0,0.0
Finland,2015,3,0.0,0.0,0.0,3.251,0.0,0.0
Finland,2015,4,0.0,0.0,0.0,3.251,0.0,0.0
France,2015,1,0.0,0.0,0.0,18.353,0.24,0.002
France,2015,2,0.0,0.0,0.0,18.353,0.24,0.002
France,2015,3,0.0,0.0,0.0,18.353,0.24,0.002
France,2015,4,0.0,0.0,0.0,18.353,0.24,0.002
Germany,2015,1,0.0,0.0,0.0,4.596,0.0,0.027
Germany,2015,2,0.0,0.0,0.0,4.596,0.0,0.027
Germany,2015,3,0.0,0.0,0.0,4.596,0.0,0.027
Germany,2015,4,0.0,0.0,0.0,4.596,0.0,0.027
Greece,2015,1,0.0,0.0,0.0,2.693,0.0,0.001
Greece,2015,2,0.0,0.0,0.0,2.693,0.0,0.001
Greece,2015,3,0.0,0.0,0.0,2.693,0.0,0.001
Greece,2015,4,0.0,0.0,0.0,2.693,0.0,0.001
Hungary,2015,1,0.0,0.0,0.0,0.057,0.0,0.0
Hungary,2015,2,0.0,0.0,0.0,0.057,0.0,0.0
Hungary,2015,3,0.0,0.0,0.0,0.057,0.0,0.0
Hungary,2015,4,0.0,0.0,0.0,0.057,0.0,0.0
Ireland,2015,1,0.0,0.0,0.0,0.238,0.0,0.0
Ireland,2015,2,0.0,0.0,0.0,0.238,0.0,0.0
Ireland,2015,3,0.0,0.0,0.0,0.238,0.0,0.0
Ireland,2015,4,0.0,0.0,0.0,0.238,0.0,0.0
Italy,2015,1,0.0,0.0,0.0,14.54,0.0,0.879
Italy,2015,2,0.0,0.0,0.0,14.54,0.0,0.879
Italy,2015,3,0.0,0.0,0.0,14.54,0.0,0.879
Italy,2015,4,0.0,0.0,0.0,14.54,0.0,0.879
Latvia,2015,1,0.0,0.0,0.0,1.59,0.0,0.0
Latvia,2015,2,0.0,0.0,0.0,1.59,0.0,0.0
Latvia,2015,3,0.0,0.0,0.0,1.59,0.0,0.0
Latvia,2015,4,0.0,0.0,0.0,1.59,0.0,0.0
Lithuania,2015,1,0.0,0.0,0.0,0.117,0.0,0.0
Lithuania,2015,2,0.0,0.0,0.0,0.117,0.0,0.0
Lithuania,2015,3,0.0,0.0,0.0,0.117,0.0,0.0
Lithuania,2015,4,0.0,0.0,0.0,0.117,0.0,0.0
Luxembourg,2015,1,0.0,0.0,0.0,0.035,0.0,0.0
Luxembourg,2015,2,0.0,0.0,0.0,0.035,0.0,0.0
Luxembourg,2015,3,0.0,0.0,0.0,0.035,0.0,0.0
Luxembourg,2015,4,0.0,0.0,0.0,0.035,0.0,0.0
Malta,2015,1,0.0,0.0,0.0,0.0,0.0,0.0
Malta,2015,2,0.0,0.0,0.0,0.0,0.0,0.0
Malta,2015,3,0.0,0.0,0.0,0.0,0.0,0.0
Malta,2015,4,0.0,0.0,0.0,0.0,0.0,0.0
Netherlands,2015,1,0.0,0.0,0.0,0.037,0.001,0.0
Netherlands,2015,2,0.0,0.0,0.0,0.037,0.001,0.0
Netherlands,2015,3,0.0,0.0,0.0,0.037,0.001,0.0
Netherlands,2015,4,0.0,0.0,0.0,0.037,0.001,0.0
Poland,2015,1,0.0,0.0,0.0,0.588,0.0,0.0
Poland,2015,2,0.0,0.0,0.0,0.588,0.0,0.0
Poland,2015,3,0.0,0.0,0.0,0.588,0.0,0.0
Poland,2015,4,0.0,0.0,0.0,0.588,0.0,0.0
Portugal,2015,1,0.0,0.0,0.0,4.462,0.001,0.027
Portugal,2015,2,0.0,0.0,0.0,4.462,0.001,0.027
Portugal,2015,3,0.0,0.0,0.0,4.462,0.001,0.027
Portugal,2015,4,0.0,0.0,0.0,4.462,0.001,0.027
Romania,2015,1,0.0,0.0,0.0,6.634,0.0,0.001
Romania,2015,2,0.0,0.0,0.0,6.634,0.0,0.001
Romania,2015,3,0.0,0.0,0.0,6.634,0.0,0.001
Romania,2015,4,0.0,0.0,0.0,6.634,0.0,0.001
Slovakia,2015,1,0.0,0.0,0.0,1.608,0.0,0.0
Slovakia,2015,2,0.0,0.0,0.0,1.608,0.0,0.0
Slovakia,2015,3,0.0,0.0,0.0,1.608,0.0,0.0
Slovakia,2015,4,0.0,0.0,0.0,1.608,0.0,0.0
Slovenia,2015,1,0.0,0.0,0.0,1.117,0.0,0.0
Slovenia,2015,2,0.0,0.0,0.0,1.117,0.0,0.0
Slovenia,2015,3,0.0,0.0,0.0,1.117,0.0,0.0
Slovenia,2015,4,0.0,0.0,0.0,1.117,0.0,0.0
Spain,2015,1,0.0,0.0,0.0,14.118,0.0,0.0
Spain,2015,2,0.0,0.0,0.0,14.118,0.0,0.0
Spain,2015,3,0.0,0.0,0.0,14.118,0.0,0.0
Spain,2015,4,0.0,0.0,0.0,14.118,0.0,0.0
Sweden,2015,1,0.0,0.0,0.0,16.291,0.0,0.0
Sweden,2015,2,0.0,0.0,0.0,16.291,0.0,0.0
Sweden,2015,3,0.0,0.0,0.0,16.291,0.0,0.0
Sweden,2015,4,0.0,0.0,0.0,16.291,0.0,0.0
Switzerland,2015,1,0.0,0.0,0.0,14.718,0.0,0.0
Switzerland,2015,2,0.0,0.0,0.0,14.718,0.0,0.0
Switzerland,2015,3,0.0,0.0,0.0,14.718,0.0,0.0
Switzerland,2015,4,0.0,0.0,0.0,14.718,0.0,0.0
United Kingdom,2015,1,0.0,0.0,0.0,1.777,0.003,0.0
United Kingdom,2015,2,0.0,0.0,0.0,1.777,0.003,0.0
United Kingdom,2015,3,0.0,0.0,0.0,1.777,0.003,0.0
United Kingdom,2015,4,0.0,0.0,0.0,1.777,0.003,0.0
Austria,2020,1,0.7,0.0,0.0,8.318,0.0,0.001
Austria,2020,2,0.7,0.0,0.0,8.318,0.0,0.001
Austria,2020,3,0.7,0.0,0.0,8.318,0.0,0.001
Austria,2020,4,0.7,0.0,0.0,8.318,0.0,0.001
Belgium,2020,1,0.0,0.0,0.0,0.117,0.0,0.0
Belgium,2020,2,0.0,0.0,0.0,0.117,0.0,0.0
Belgium,2020,3,0.0,0.0,0.0,0.117,0.0,0.0
Belgium,2020,4,0.0,0.0,0.0,0.117,0.0,0.0
Bulgaria,2020,1,0.2,0.0,0.0,2.206,0.0,0.0
Bulgaria,2020,2,0.2,0.0,0.0,2.206,0.0,0.0
Bulgaria,2020,3,0.2,0.0,0.0,2.206,0.0,0.0
Bulgaria,2020,4,0.2,0.0,0.0,2.206,0.0,0.0
Croatia,2020,1,0.0,0.0,0.0,1.91,0.0,0.0
Croatia,2020,2,0.0,0.0,0.0,1.91,0.0,0.0
Croatia,2020,3,0.0,0.0,0.0,1.91,0.0,0.0
Croatia,2020,4,0.0,0.0,0.0,1.91,0.0,0.0
Cyprus,2020,1,0.0,0.0,0.0,0.0,0.0,0.011
Cyprus,2020,2,0.0,0.0,0.0,0.0,0.0,0.011
Cyprus,2020,3,0.0,0.0,0.0,0.0,0.0,0.011
Cyprus,2020,4,0.0,0.0,0.0,0.0,0.0,0.011
Czech Republic,2020,1,0.0,0.0,0.0,1.088,0.0,0.0
Czech Republic,2020,2,0.0,0.0,0.0,1.088,0.0,0.0
Czech Republic,2020,3,0.0,0.0,0.0,1.088,0.0,0.0
Czech Republic,2020,4,0.0,0.0,0.0,1.088,0.0,0.0
Denmark,2020,1,0.0,0.0,0.0,0.009,0.0,0.0
Denmark,2020,2,0.0,0.0,0.0,0.009,0.0,0.0
Denmark,2020,3,0.0,0.0,0.0,0.009,0.0,0.0
Denmark,2020,4,0.0,0.0,0.0,0.009,0.0,0.0
Estonia,2020,1,0.0,0.0,0.0,0.008,0.0,0.0
Estonia,2020,2,0.0,0.0,0.0,0.008,0.0,0.0
Estonia,2020,3,0.0,0.0,0.0,0.008,0.0,0.0
Estonia,2020,4,0.0,0.0,0.0,0.008,0.0,0.0
Finland,2020,1,0.06,0.0,0.0,3.251,0.0,0.0
Finland,2020,2,0.06,0.0,0.0,3.251,0.0,0.0
Finland,2020,3,0.06,0.0,0.0,3.251,0.0,0.0
Finland,2020,4,0.06,0.0,0.0,3.251,0.0,0.0
France,2020,1,0.3,0.0,0.0,18.353,0.24,0.002
France,2020,2,0.3,0.0,0.0,18.353,0.24,0.002
France,2020,3,0.3,0.0,0.0,18.353,0.24,0.002
France,2020,4,0.3,0.0,0.0,18.353,0.24,0.002
Germany,2020,1,0.0,0.0,0.01,4.596,0.0,0.027
Germany,2020,2,0.0,0.0,0.01,4.596,0.0,0.027
Germany,2020,3,0.0,0.0,0.01,4.596,0.0,0.027
Germany,2020,4,0.0,0.0,0.01,4.596,0.0,0.027
Greece,2020,1,0.0,0.0,0.0,2.693,0.0,0.001
Greece,2020,2,0.0,0.0,0.0,2.693,0.0,0.001
Greece,2020,3,0.0,0.0,0.0,2.693,0.0,0.001
Greece,2020,4,0.0,0.0,0.0,2.693,0.0,0.001
Hungary,2020,1,0.0,0.0,0.003,0.057,0.0,0.0
Hungary,2020,2,0.0,0.0,0.003,0.057,0.0,0.0
Hungary,2020,3,0.0,0.0,0.003,0.057,0.0,0.0
Hungary,2020,4,0.0,0.0,0.003,0.057,0.0,0.0
Ireland,2020,1,0.0,0.0,0.0,0.238,0.0,0.0
Ireland,2020,2,0.0,0.0,0.0,0.238,0.0,0.0
Ireland,2020,3,0.0,0.0,0.0,0.238,0.0,0.0
Ireland,2020,4,0.0,0.0,0.0,0.238,0.0,0.0
Italy,2020,1,0.5,0.0,0.0,14.54,0.0,0.879
Italy,2020,2,0.5,0.0,0.0,14.54,0.0,0.879
Italy,2020,3,0.5,0.0,0.0,14.54,0.0,0.879
Italy,2020,4,0.5,0.0,0.0,14.54,0.0,0.879
Latvia,2020,1,0.0,0.0,0.0,1.59,0.0,0.0
Latvia,2020,2,0.0,0.0,0.0,1.59,0.0,0.0
Latvia,2020,3,0.0,0.0,0.0,1.59,0.0,0.0
Latvia,2020,4,0.0,0.0,0.0,1.59,0.0,0.0
Lithuania,2020,1,0.0,0.0,0.0,0.117,0.0,0.0
Lithuania,2020,2,0.0,0.0,0.0,0.117,0.0,0.0
Lithuania,2020,3,0.0,0.0,0.0,0.117,0.0,0.0
Lithuania,2020,4,0.0,0.0,0.0,0.117,0.0,0.0
Luxembourg,2020,1,0.0,0.0,0.0,0.035,0.0,0.0
Luxembourg,2020,2,0.0,0.0,0.0,0.035,0.0,0.0
Luxembourg,2020,3,0.0,0.0,0.0,0.035,0.0,0.0
Luxembourg,2020,4,0.0,0.0,0.0,0.035,0.0,0.0
Malta,2020,1,0.0,0.0,0.0,0.0,0.0,0.0
Malta,2020,2,0.0,0.0,0.0,0.0,0.0,0.0
Malta,2020,3,0.0,0.0,0.0,0.0,0.0,0.0
Malta,2020,4,0.0,0.0,0.0,0.0,0.0,0.0
Netherlands,2020,1,0.0,0.0,0.0,0.037,0.001,0.0
Netherlands,2020,2,0.0,0.0,0.0,0.037,0.001,0.0
Netherlands,2020,3,0.0,0.0,0.0,0.037,0.001,0.0
Netherlands,2020,4,0.0,0.0,0.0,0.037,0.001,0.0
Poland,2020,1,0.005,0.0,0.0,0.588,0.0,0.0
Poland,2020,2,0.005,0.0,0.0,0.588,0.0,0.0
Poland,2020,3,0.005,0.0,0.0,0.588,0.0,0.0
Poland,2020,4,0.005,0.0,0.0,0.588,0.0,0.0
Portugal,2020,1,0.001,0.0,0.005,4.462,0.001,0.027
Portugal,2020,2,0.001,0.0,0.005,4.462,0.001,0.027
Portugal,2020,3,0.001,0.0,0.005,4.462,0.001,0.027
Portugal,2020,4,0.001,0.0,0.005,4.462,0.001,0.027
Romania,2020,1,0.0,0.0,0.0,6.634,0.0,0.001
Romania,2020,2,0.0,0.0,0.0,6.634,0.0,0.001
Romania,2020,3,0.0,0.0,0.0,6.634,0.0,0.001
Romania,2020,4,0.0,0.0,0.0,6.634,0.0,0.001
Slovakia,2020,1,0.0,0.0,0.0,1.608,0.0,0.0
Slovakia,2020,2,0.0,0.0,0.0,1.608,0.0,0.0
Slovakia,2020,3,0.0,0.0,0.0,1.608,0.0,0.0
Slovakia,2020,4,0.0,0.0,0.0,1.608,0.0,0.0
Slovenia,2020,1,0.075,0.0,0.0,1.117,0.0,0.0
Slovenia,2020,2,0.075,0.0,0.0,1.117,0.0,0.0
Slovenia,2020,3,0.075,0.0,0.0,1.117,0.0,0.0
Slovenia,2020,4,0.075,0.0,0.0,1.117,0.0,0.0
Spain,2020,1,0.0,0.005,0.0,14.118,0.0,0.0
Spain,2020,2,0.0,0.005,0.0,14.118,0.0,0.0
Spain,2020,3,0.0,0.005,0.0,14.118,0.0,0.0
Spain,2020,4,0.0,0.005,0.0,14.118,0.0,0.0
Sweden,2020,1,0.22,0.0,0.0,16.291,0.0,0.0
Sweden,2020,2,0.22,0.0,0.0,16.291,0.0,0.0
Sweden,2020,3,0.22,0.0,0.0,16.291,0.0,0.0
Sweden,2020,4,0.22,0.0,0.0,16.291,0.0,0.0
Switzerland,2020,1,0.0,0.0,0.0,14.718,0.0,0.0
Switzerland,2020,2,0.0,0.0,0.0,14.718,0.0,0.0
Switzerland,2020,3,0.0,0.0,0.0,14.718,0.0,0.0
Switzerland,2020,4,0.0,0.0,0.0,14.718,0.0,0.0
United Kingdom,2020,1,0.2,0.009,0.0,1.777,0.003,0.0
United Kingdom,2020,2,0.2,0.009,0.0,1.777,0.003,0.0
United Kingdom,2020,3,0.2,0.009,0.0,1.777,0.003,0.0
United Kingdom,2020,4,0.2,0.009,0.0,1.777,0.003,0.0
Austria,2025,1,0.75,0.0,0.0,8.318,0.0,0.001
Austria,2025,2,1.0658333333333334,0.0,0.016666666666666666,8.318,0.0,0.001
Austria,2025,3,1.4563333333333333,0.0,0.03333333333333333,8.318,0.0,0.001
Austria,2025,4,1.8468333333333333,0.0,0.049999999999999996,8.318,0.0,0.001
Belgium,2025,1,0.012833333333333334,0.0031666666666666666,0.0,0.117,0.0,0.0
Belgium,2025,2,0.12333333333333334,0.0031666666666666666,0.0055000000000000005,0.117,0.0,0.0
Belgium,2025,3,0.23383333333333334,0.0031666666666666666,0.011000000000000001,0.117,0.0,0.0
Belgium,2025,4,0.3443333333333333,0.0031666666666666666,0.016666666666666666,0.117,0.0,0.0
Bulgaria,2025,1,0.20833333333333334,0.0,0.0,2.206,0.0,0.0
Bulgaria,2025,2,0.34167702394010635,0.0,0.047466009833635685,2.206,0.0,0.0
Bulgaria,2025,3,0.5134535537537487,0.0,0.09498683030218319,2.206,0.0,0.0
Bulgaria,2025,4,0.6852300835673909,0.0,0.1425076507707307,2.206,0.0,0.0
Croatia,2025,1,0.0008088920422480967,0.0,0.0,1.91,0.0,0.0
Croatia,2025,2,0.036400141901164355,0.0,0.025002117669486623,1.91,0.0,0.0
Croatia,2025,3,0.0719913917600806,0.0,0.050004235338973246,1.91,0.0,0.0
Croatia,2025,4,0.10760715349906497,0.0,0.07500635300845987,1.91,0.0,0.0
Cyprus,2025,1,0.0,0.0,0.0,0.0,0.0,0.011
Cyprus,2025,2,0.0,0.0,0.0,0.0,0.0,0.011
Cyprus,2025,3,0.0,0.0,0.0,0.0,0.0,0.011
Cyprus,2025,4,4.974614334086365e-05,0.0,0.0,0.0,0.0,0.011
Czech Republic,2025,1,0.04816666666666666,0.0,0.0,1.088,0.0,0.0
Czech Republic,2025,2,0.05833333333333333,0.0,0.022166666666666668,1.088,0.0,0.0
Czech Republic,2025,3,0.06849999999999999,0.0,0.044333333333333336,1.088,0.0,0.0
Czech Republic,2025,4,0.07866666666666666,0.0,0.06666666666666667,1.088,0.0,0.0
Denmark,2025,1,0.0,0.002218449749111466,0.0,0.009,0.0,0.0
Denmark,2025,2,0.0,0.00969714117137383,0.00457412319404426,0.009,0.0,0.0
Denmark,2025,3,0.0,0.017175832593636194,0.00914824638808852,0.009,0.0,0.0
Denmark,2025,4,0.0,0.037164750951609614,0.013722369582132778,0.009,0.0,0.0
Estonia,2025,1,0.0002455129469246557,0.0,0.0,0.008,0.0,0.0
Estonia,2025,2,0.00188226592642236,0.0,0.0018004282774474747,0.008,0.0,0.0
Estonia,2025,3,0.003519018905920064,0.0,0.003621315967138671,0.008,0.0,0.0
Estonia,2025,4,0.0051557718854177694,0.0,0.005442203656829868,0.008,0.0,0.0
Finland,2025,1,0.07252080240722528,0.0,0.0,3.251,0.0,0.0
Finland,2025,2,0.09229258668023527,0.0,5.286573335029407e-05,3.251,0.0,0.0
Finland,2025,3,0.11206437095324523,0.0,0.00010573146670058814,3.251,0.0,0.0
Finland,2025,4,0.13188902095960553,0.0,0.0001585972000508822,3.251,0.0,0.0
France,2025,1,0.6499749124136974,0.4649942685317412,0.0004022543537516232,18.353,0.0,0.002
France,2025,2,1.1132378431509833,1.2181485035393638,1.314299058491137,18.353,0.0,0.002
France,2025,3,1.5765007738882697,1.9714368233315702,2.6281958626285222,18.353,0.0,0.002
France,2025,4,2.0398977894101393,3.981769998597599,3.942092666765907,18.353,0.0,0.002
Germany,2025,1,0.23933333333333331,0.004,0.03666666666666667,4.596,0.0,0.027
Germany,2025,2,0.7486666666666667,0.017333333333333333,0.5493333333333333,4.596,0.0,0.027
Germany,2025,3,1.258,0.030833333333333334,1.0621666666666667,4.596,0.0,0.027
Germany,2025,4,1.7673333333333332,0.06666666666666667,1.5750000000000002,4.596,0.0,0.027
Greece,2025,1,0.008921865903203416,0.0,0.0,2.693,0.0,0.001
Greece,2025,2,0.08112888424933674,0.0,0.07858638360334615,2.693,0.0,0.001
Greece,2025,3,0.15328967531099755,0.0,0.1571727672066923,2.693,0.0,0.001
Greece,2025,4,0.22549669365713088,0.0,0.23575915081003843,2.693,0.0,0.001
Hungary,2025,1,0.019311371247012467,0.0,0.007304743085381092,0.057,0.0,0.0
Hungary,2025,2,0.0757671025002403,0.0,0.30750878701621126,0.057,0.0,0.0
Hungary,2025,3,0.13222283375346813,0.0,0.6077128309470414,0.057,0.0,0.0
Hungary,2025,4,0.18877096391218406,0.0,0.9080092737833597,0.057,0.0,0.0
Ireland,2025,1,0.0023993326139570984,0.013131322828110031,0.0,0.238,0.0,0.0
Ireland,2025,2,0.003817657311862772,0.05712302720815102,0.0,0.238,0.0,0.0
Ireland,2025,3,0.005224162637285899,0.10110291221570945,0.0,0.238,0.0,0.0
Ireland,2025,4,0.006642487335191572,0.21849291971236906,0.0,0.238,0.0,0.0
Italy,2025,1,0.5221261626091702,0.0,0.014960533145331896,14.54,0.0,0.879
Italy,2025,2,1.6276114601925065,0.0,0.18774242824182893,14.54,0.0,0.879
Italy,2025,3,2.733096757775843,0.0,0.36052432333832596,14.54,0.0,0.879
Italy,2025,4,3.838582055359179,0.0,0.5333062184348231,14.54,0.0,0.879
Latvia,2025,1,0.0009687410885126981,0.0,0.0,1.59,0.0,0.0
Latvia,2025,2,0.0032397242960096793,0.0,0.0013975281276904497,1.59,0.0,0.0
Latvia,2025,3,0.00551070750350666,0.0,0.002810937256831927,1.59,0.0,0.0
Latvia,2025,4,0.007781690711003641,0.0,0.0042243463859734055,1.59,0.0,0.0
Lithuania,2025,1,0.004952047770338777,0.0,0.0,0.117,0.0,0.0
Lithuania,2025,2,0.015357243383014899,0.0,0.002593929784463169,0.117,0.0,0.0
Lithuania,2025,3,0.025762438995691018,0.0,0.005217336043749782,0.117,0.0,0.0
Lithuania,2025,4,0.036167634608367145,0.0,0.007840742303036398,0.117,0.0,0.0
Luxembourg,2025,1,0.0023333333333333335,0.0,0.0,0.035,0.0,0.0
Luxembourg,2025,2,0.07416666666666667,0.0,0.0,0.035,0.0,0.0
Luxembourg,2025,3,0.14616666666666667,0.0,0.0,0.035,0.0,0.0
Luxembourg,2025,4,0.21816666666666665,0.0,0.0,0.035,0.0,0.0
Malta,2025,1,0.0,0.0,0.0,0.0,0.0,0.0
Malta,2025,2,0.0,0.0,0.0,0.0,0.0,0.0
Malta,2025,3,0.0,0.0,0.0,0.0,0.0,0.0
Malta,2025,4,0.0,0.0,0.0,0.0,0.0,0.0
Netherlands,2025,1,0.0,0.008871512532868815,0.0,0.037,0.001,0.0
Netherlands,2025,2,0.12316616566466204,0.03859107951797935,0.029571708442896052,0.037,0.001,0.0
Netherlands,2025,3,0.2464801898715386,0.06831064650308988,0.059143416885792104,0.037,0.001,0.0
Netherlands,2025,4,0.3697942140784151,0.14785854221448025,0.08871512532868814,0.037,0.001,0.0
Poland,2025,1,0.06332573155789797,0.0,0.0,0.588,0.0,0.0
Poland,2025,2,0.1772617083854546,0.0,0.16755290709934798,0.588,0.0,0.0
Poland,2025,3,0.2911976852130112,0.0,0.33510581419869595,0.588,0.0,0.0
Poland,2025,4,0.4052625488921827,0.0,0.5026587212980439,0.588,0.0,0.0
Portugal,2025,1,0.10068099646960559,0.005752129777747285,0.005,4.462,0.001,0.027
Portugal,2025,2,0.2273940981054143,0.025069976025557536,0.005833333333333334,4.462,0.001,0.027
Portugal,2025,3,0.35414044904629666,0.0443545729682941,0.006666666666666666,4.462,0.001,0.027
Portugal,2025,4,0.48088679998717915,0.09589099583250388,0.0075,4.462,0.001,0.027
Romania,2025,1,0.0008750999087766138,0.0,0.0,6.634,0.0,0.001
Romania,2025,2,0.05273628397627489,0.0,0.03219446506499227,6.634,0.0,0.001
Romania,2025,3,0.10455141015383755,0.0,0.06443498801992015,6.634,0.0,0.001
Romania,2025,4,0.15641259422133583,0.0,0.09667551097484804,6.634,0.0,0.001
Slovakia,2025,1,0.04633333333333334,0.0,0.0,1.608,0.0,0.0
Slovakia,2025,2,0.123,0.0,0.03333333333333333,1.608,0.0,0.0
Slovakia,2025,3,0.19966666666666666,0.0,0.06666666666666667,1.608,0.0,0.0
Slovakia,2025,4,0.2763333333333333,0.0,0.09999999999999999,1.608,0.0,0.0
Slovenia,2025,1,0.09957930271107307,0.0,0.0,1.117,0.0,0.0
Slovenia,2025,2,0.15934158795183667,0.0,0.04775364743092744,1.117,0.0,0.0
Slovenia,2025,3,0.2191740991447046,0.0,0.09550729486185489,1.117,0.0,0.0
Slovenia,2025,4,0.2790066103375725,0.0,0.14326094229278233,1.117,0.0,0.0
Spain,2025,1,0.0,0.019644607075328575,0.0,14.118,0.0,0.0
Spain,2025,2,0.41785939702105573,0.07147770983921962,0.1259832358844574,14.118,0.0,0.0
Spain,2025,3,0.8357187940421115,0.12335580661592654,0.2519664717689148,14.118,0.0,0.0
Spain,2025,4,1.253623185075983,0.2617123960247503,0.3779497076533722,14.118,0.0,0.0
Sweden,2025,1,0.24690808375087697,0.0,0.0,16.291,0.0,0.0
Sweden,2025,2,0.3027368503197504,0.0,0.0,16.291,0.0,0.0
Sweden,2025,3,0.35860681893037205,0.0,0.0,16.291,0.0,0.0
Sweden,2025,4,0.4144767875409937,0.0,0.0,16.291,0.0,0.0
Switzerland,2025,1,0.49700000000000005,0.0,0.0,14.718,0.0,0.0
Switzerland,2025,2,0.6136666666666667,0.0,0.03333333333333333,14.718,0.0,0.0
Switzerland,2025,3,0.7303333333333333,0.0,0.06666666666666667,14.718,0.0,0.0
Switzerland,2025,4,0.847,0.0,0.09999999999999999,14.718,0.0,0.0
United Kingdom,2025,1,0.20833333333333334,0.08932723548762775,0.0,1.777,0.002,0.0
United Kingdom,2025,2,0.23976540154989975,0.35985695872729345,0.013943503173762079,1.777,0.002,0.0
United Kingdom,2025,3,0.3113506383981055,0.6303866819669591,0.027887006347524158,1.777,0.002,0.0
United Kingdom,2025,4,0.38293587524631134,1.352454053018384,0.041862711607137885,1.777,0.002,0.0
Austria,2030,1,0.7999999999999999,0.0,0.0,8.318,0.0,0.001
Austria,2030,2,1.4316666666666666,0.0,0.03333333333333333,8.318,0.0,0.001
Austria,2030,3,2.212666666666667,0.0,0.06666666666666667,8.318,0.0,0.001
Austria,2030,4,2.993666666666667,0.0,0.09999999999999999,8.318,0.0,0.001
Belgium,2030,1,0.025666666666666667,0.006333333333333333,0.0,0.117,0.0,0.0
Belgium,2030,2,0.24666666666666667,0.006333333333333333,0.011000000000000001,0.117,0.0,0.0
Belgium,2030,3,0.4676666666666667,0.006333333333333333,0.022000000000000002,0.117,0.0,0.0
Belgium,2030,4,0.6886666666666666,0.006333333333333333,0.03333333333333333,0.117,0.0,0.0
Bulgaria,2030,1,0.21666666666666667,0.0,0.0,2.206,0.0,0.0
Bulgaria,2030,2,0.48335404788021263,0.0,0.09493201966727137,2.206,0.0,0.0
Bulgaria,2030,3,0.8269071075074974,0.0,0.18997366060436638,2.206,0.0,0.0
Bulgaria,2030,4,1.1704601671347818,0.0,0.2850153015414614,2.206,0.0,0.0
Croatia,2030,1,0.0016177840844961934,0.0,0.0,1.91,0.0,0.0
Croatia,2030,2,0.07280028380232871,0.0,0.050004235338973246,1.91,0.0,0.0
Croatia,2030,3,0.1439827835201612,0.0,0.10000847067794649,1.91,0.0,0.0
Croatia,2030,4,0.21521430699812993,0.0,0.15001270601691974,1.91,0.0,0.0
Cyprus,2030,1,0.0,0.0,0.0,0.0,0.0,0.011
Cyprus,2030,2,0.0,0.0,0.0,0.0,0.0,0.011
Cyprus,2030,3,0.0,0.0,0.0,0.0,0.0,0.011
Cyprus,2030,4,9.94922866817273e-05,0.0,0.0,0.0,0.0,0.011
Czech Republic,2030,1,0.09633333333333333,0.0,0.0,1.088,0.0,0.0
Czech Republic,2030,2,0.11666666666666665,0.0,0.044333333333333336,1.088,0.0,0.0
Czech Republic,2030,3,0.13699999999999998,0.0,0.08866666666666667,1.088,0.0,0.0
Czech Republic,2030,4,0.15733333333333333,0.0,0.13333333333333333,1.088,0.0,0.0
Denmark,2030,1,0.0,0.004436899498222932,0.0,0.009,0.0,0.0
Denmark,2030,2,0.0,0.01939428234274766,0.00914824638808852,0.009,0.0,0.0
Denmark,2030,3,0.0,0.03435166518727239,0.01829649277617704,0.009,0.0,0.0
Denmark,2030,4,0.0,0.07432950190321923,0.027444739164265555,0.009,0.0,0.0
Estonia,2030,1,0.0004910258938493114,0.0,0.0,0.008,0.0,0.0
Estonia,2030,2,0.00376453185284472,0.0,0.0036008565548949494,0.008,0.0,0.0
Estonia,2030,3,0.007038037811840128,0.0,0.007242631934277342,0.008,0.0,0.0
Estonia,2030,4,0.010311543770835539,0.0,0.010884407313659736,0.008,0.0,0.0
Finland,2030,1,0.08504160481445054,0.0,0.0,3.251,0.0,0.0
Finland,2030,2,0.12458517336047052,0.0,0.00010573146670058814,3.251,0.0,0.0
Finland,2030,3,0.16412874190649046,0.0,0.00021146293340117627,3.251,0.0,0.0
Finland,2030,4,0.20377804191921103,0.0,0.0003171944001017644,3.251,0.0,0.0
France,2030,1,0.9999498248273948,0.6899885370634824,0.0008045087075032464,18.353,0.0,0.002
France,2030,2,1.9264756863019667,2.1962970070787278,2.628598116982274,18.353,0.0,0.002
France,2030,3,2.853001547776539,3.7028736466631402,5.2563917252570445,18.353,0.0,0.002
France,2030,4,3.7797955788202784,7.723539997195198,7.884185333531814,18.353,0.0,0.002
Germany,2030,1,0.47866666666666663,0.008,0.06333333333333334,4.596,0.0,0.027
Germany,2030,2,1.4973333333333334,0.034666666666666665,1.0886666666666667,4.596,0.0,0.027
Germany,2030,3,2.516,0.06166666666666667,2.114333333333333,4.596,0.0,0.027
Germany,2030,4,3.5346666666666664,0.13333333333333333,3.14,4.596,0.0,0.027
Greece,2030,1,0.017843731806406832,0.0,0.0,2.693,0.0,0.001
Greece,2030,2,0.1622577684986735,0.0,0.1571727672066923,2.693,0.0,0.001
Greece,2030,3,0.3065793506219951,0.0,0.3143455344133846,2.693,0.0,0.001
Greece,2030,4,0.45099338731426175,0.0,0.47151830162007685,2.693,0.0,0.001
Hungary,2030,1,0.038622742494024934,0.0,0.011609486170762184,0.057,0.0,0.0
Hungary,2030,2,0.1515342050004806,0.0,0.6120175740324225,0.057,0.0,0.0
Hungary,2030,3,0.26444566750693627,0.0,1.2124256618940827,0.057,0.0,0.0
Hungary,2030,4,0.37754192782436813,0.0,1.8130185475667193,0.057,0.0,0.0
Ireland,2030,1,0.004798665227914197,0.026262645656220062,0.0,0.238,0.0,0.0
Ireland,2030,2,0.007635314623725544,0.11424605441630203,0.0,0.238,0.0,0.0
Ireland,2030,3,0.010448325274571797,0.2022058244314189,0.0,0.238,0.0,0.0
Ireland,2030,4,0.013284974670383145,0.4369858394247381,0.0,0.238,0.0,0.0
Italy,2030,1,0.5442523252183403,0.0,0.02992106629066379,14.54,0.0,0.879
Italy,2030,2,2.755222920385013,0.0,0.37548485648365787,14.54,0.0,0.879
Italy,2030,3,4.966193515551686,0.0,0.7210486466766519,14.54,0.0,0.879
Italy,2030,4,7.177164110718358,0.0,1.0666124368696461,14.54,0.0,0.879
Latvia,2030,1,0.0019374821770253962,0.0,0.0,1.59,0.0,0.0
Latvia,2030,2,0.0064794485920193585,0.0,0.0027950562553808993,1.59,0.0,0.0
Latvia,2030,3,0.01102141500701332,0.0,0.005621874513663854,1.59,0.0,0.0
Latvia,2030,4,0.015563381422007283,0.0,0.008448692771946811,1.59,0.0,0.0
Lithuania,2030,1,0.009904095540677555,0.0,0.0,0.117,0.0,0.0
Lithuania,2030,2,0.030714486766029798,0.0,0.005187859568926338,0.117,0.0,0.0
Lithuania,2030,3,0.051524877991382036,0.0,0.010434672087499564,0.117,0.0,0.0
Lithuania,2030,4,0.07233526921673429,0.0,0.015681484606072795,0.117,0.0,0.0
Luxembourg,2030,1,0.004666666666666667,0.0,0.0,0.035,0.0,0.0
Luxembourg,2030,2,0.14833333333333334,0.0,0.0,0.035,0.0,0.0
Luxembourg,2030,3,0.29233333333333333,0.0,0.0,0.035,0.0,0.0
Luxembourg,2030,4,0.4363333333333333,0.0,0.0,0.035,0.0,0.0
Malta,2030,1,0.0,0.0,0.0,0.0,0.0,0.0
Malta,2030,2,0.0,0.0,0.0,0.0,0.0,0.0
Malta,2030,3,0.0,0.0,0.0,0.0,0.0,0.0
Malta,2030,4,0.0,0.0,0.0,0.0,0.0,0.0
Netherlands,2030,1,0.0,0.01774302506573763,0.0,0.037,0.001,0.0
Netherlands,2030,2,0.24633233132932408,0.0771821590359587,0.059143416885792104,0.037,0.001,0.0
Netherlands,2030,3,0.4929603797430772,0.13662129300617976,0.11828683377158421,0.037,0.001,0.0
Netherlands,2030,4,0.7395884281568302,0.2957170844289605,0.17743025065737628,0.037,0.001,0.0
Poland,2030,1,0.12165146311579596,0.0,0.0,0.588,0.0,0.0
Poland,2030,2,0.3495234167709092,0.0,0.33510581419869595,0.588,0.0,0.0
Poland,2030,3,0.5773953704260224,0.0,0.6702116283973919,0.588,0.0,0.0
Poland,2030,4,0.8055250977843654,0.0,1.0053174425960878,0.588,0.0,0.0
Portugal,2030,1,0.20036199293921117,0.01150425955549457,0.005,4.462,0.001,0.027
Portugal,2030,2,0.4537881962108286,0.05013995205111507,0.006666666666666667,4.462,0.001,0.027
Portugal,2030,3,0.7072808980925933,0.0887091459365882,0.008333333333333333,4.462,0.001,0.027
Portugal,2030,4,0.9607735999743583,0.19178199166500776,0.01,4.462,0.001,0.027
Romania,2030,1,0.0017501998175532276,0.0,0.0,6.634,0.0,0.001
Romania,2030,2,0.10547256795254978,0.0,0.06438893012998453,6.634,0.0,0.001
Romania,2030,3,0.2091028203076751,0.0,0.1288699760398403,6.634,0.0,0.001
Romania,2030,4,0.31282518844267165,0.0,0.19335102194969608,6.634,0.0,0.001
Slovakia,2030,1,0.09266666666666667,0.0,0.0,1.608,0.0,0.0
Slovakia,2030,2,0.246,0.0,0.06666666666666667,1.608,0.0,0.0
Slovakia,2030,3,0.3993333333333333,0.0,0.13333333333333333,1.608,0.0,0.0
Slovakia,2030,4,0.5526666666666666,0.0,0.19999999999999998,1.608,0.0,0.0
Slovenia,2030,1,0.12415860542214613,0.0,0.0,1.117,0.0,0.0
Slovenia,2030,2,0.24368317590367333,0.0,0.09550729486185489,1.117,0.0,0.0
Slovenia,2030,3,0.3633481982894092,0.0,0.19101458972370977,1.117,0.0,0.0
Slovenia,2030,4,0.483013220675145,0.0,0.28652188458556466,1.117,0.0,0.0
Spain,2030,1,0.0,0.034289214150657145,0.0,14.118,0.0,0.0
Spain,2030,2,0.8357187940421115,0.13795541967843925,0.2519664717689148,14.118,0.0,0.0
Spain,2030,3,1.671437588084223,0.24171161323185308,0.5039329435378296,14.118,0.0,0.0
Spain,2030,4,2.507246370151966,0.5184247920495006,0.7558994153067444,14.118,0.0,0.0
Sweden,2030,1,0.27381616750175397,0.0,0.0,16.291,0.0,0.0
Sweden,2030,2,0.3854737006395008,0.0,0.0,16.291,0.0,0.0
Sweden,2030,3,0.49721363786074413,0.0,0.0,16.291,0.0,0.0
Sweden,2030,4,0.6089535750819874,0.0,0.0,16.291,0.0,0.0
Switzerland,2030,1,0.9940000000000001,0.0,0.0,14.718,0.0,0.0
Switzerland,2030,2,1.2273333333333334,0.0,0.06666666666666667,14.718,0.0,0.0
Switzerland,2030,3,1.4606666666666666,0.0,0.13333333333333333,14.718,0.0,0.0
Switzerland,2030,4,1.694,0.0,0.19999999999999998,14.718,0.0,0.0
United Kingdom,2030,1,0.21666666666666667,0.16765447097525552,0.0,1.777,0.003,0.0
United Kingdom,2030,2,0.2795308030997995,0.7087139174545869,0.027887006347524158,1.777,0.003,0.0
United Kingdom,2030,3,0.42270127679621106,1.2497733639339181,0.055774012695048315,1.777,0.003,0.0
United Kingdom,2030,4,0.5658717504926226,2.6939081060367682,0.08372542321427577,1.777,0.003,0.0
Austria,2035,1,0.85,0.0,0.0,8.318,0.0,0.001
Austria,2035,2,1.7975,0.0,0.05000000000000001,8.318,0.0,0.001
Austria,2035,3,2.9690000000000003,0.0,0.10000000000000002,8.318,0.0,0.001
Austria,2035,4,4.1405,0.0,0.15,8.318,0.0,0.001
Belgium,2035,1,0.0385,0.0095,0.0,0.117,0.0,0.0
Belgium,2035,2,0.36999999999999994,0.0095,0.0165,0.117,0.0,0.0
Belgium,2035,3,0.7014999999999999,0.0095,0.033,0.117,0.0,0.0
Belgium,2035,4,1.033,0.0095,0.05000000000000001,0.117,0.0,0.0
Bulgaria,2035,1,0.225,0.0,0.0,2.206,0.0,0.0
Bulgaria,2035,2,0.6250310718203189,0.0,0.14239802950090705,2.206,0.0,0.0
Bulgaria,2035,3,1.140360661261246,0.0,0.28496049090654957,2.206,0.0,0.0
Bulgaria,2035,4,1.6556902507021727,0.0,0.4275229523121921,2.206,0.0,0.0
Croatia,2035,1,0.00242667612674429,0.0,0.0,1.91,0.0,0.0
Croatia,2035,2,0.10920042570349305,0.0,0.07500635300845987,1.91,0.0,0.0
Croatia,2035,3,0.2159741752802418,0.0,0.15001270601691974,1.91,0.0,0.0
Croatia,2035,4,0.3228214604971949,0.0,0.22501905902537964,1.91,0.0,0.0
Cyprus,2035,1,0.0,0.0,0.0,0.0,0.0,0.011
Cyprus,2035,2,0.0,0.0,0.0,0.0,0.0,0.011
Cyprus,2035,3,0.0,0.0,0.0,0.0,0.0,0.011
Cyprus,2035,4,0.00014923843002259094,0.0,0.0,0.0,0.0,0.011
Czech Republic,2035,1,0.1445,0.0,0.0,1.088,0.0,0.0
Czech Republic,2035,2,0.17499999999999996,0.0,0.0665,1.088,0.0,0.0
Czech Republic,2035,3,0.2055,0.0,0.133,1.088,0.0,0.0
Czech Republic,2035,4,0.236,0.0,0.20000000000000004,1.088,0.0,0.0
Denmark,2035,1,0.0,0.006655349247334398,0.0,0.009,0.0,0.0
Denmark,2035,2,0.0,0.02909142351412149,0.01372236958213278,0.009,0.0,0.0
Denmark,2035,3,0.0,0.051527497780908586,0.02744473916426556,0.009,0.0,0.0
Denmark,2035,4,0.0,0.11149425285482883,0.04116710874639833,0.009,0.0,0.0
Estonia,2035,1,0.0007365388407739671,0.0,0.0,0.008,0.0,0.0
Estonia,2035,2,0.00564679777926708,0.0,0.005401284832342424,0.008,0.0,0.0
Estonia,2035,3,0.010557056717760192,0.0,0.010863947901416015,0.008,0.0,0.0
Estonia,2035,4,0.015467315656253306,0.0,0.016326610970489604,0.008,0.0,0.0
Finland,2035,1,0.09756240722167582,0.0,0.0,3.251,0.0,0.0
Finland,2035,2,0.15687776004070575,0.0,0.0001585972000508822,3.251,0.0,0.0
Finland,2035,3,0.2161931128597357,0.0,0.0003171944001017644,3.251,0.0,0.0
Finland,2035,4,0.27566706287881654,0.0,0.00047579160015264664,3.251,0.0,0.0
France,2035,1,1.3499247372410923,0.9149828055952237,0.0012067630612548697,18.353,0.0,0.002
France,2035,2,2.73971352945295,3.1744455106180913,3.942897175473411,18.353,0.0,0.002
France,2035,3,4.129502321664809,5.434310469994711,7.884587587885567,18.353,0.0,0.002
France,2035,4,5.519693368230418,11.465309995792797,11.826278000297721,18.353,0.0,0.002
Germany,2035,1,0.718,0.012000000000000002,0.09,4.596,0.0,0.027
Germany,2035,2,2.246,0.052,1.6280000000000001,4.596,0.0,0.027
Germany,2035,3,3.7739999999999996,0.09249999999999999,3.1664999999999996,4.596,0.0,0.027
Germany,2035,4,5.302,0.20000000000000004,4.705,4.596,0.0,0.027
Greece,2035,1,0.026765597709610248,0.0,0.0,2.693,0.0,0.001
Greece,2035,2,0.24338665274801027,0.0,0.23575915081003843,2.693,0.0,0.001
Greece,2035,3,0.45986902593299267,0.0,0.47151830162007685,2.693,0.0,0.001
Greece,2035,4,0.6764900809713926,0.0,0.7072774524301154,2.693,0.0,0.001
Hungary,2035,1,0.0579341137410374,0.0,0.01591422925614328,0.057,0.0,0.0
Hungary,2035,2,0.2273013075007209,0.0,0.9165263610486338,0.057,0.0,0.0
Hungary,2035,3,0.3966685012604045,0.0,1.817138492841124,0.057,0.0,0.0
Hungary,2035,4,0.5663128917365522,0.0,2.7180278213500793,0.057,0.0,0.0
Ireland,2035,1,0.007197997841871295,0.03939396848433009,0.0,0.238,0.0,0.0
Ireland,2035,2,0.011452971935588316,0.17136908162445305,0.0,0.238,0.0,0.0
Ireland,2035,3,0.015672487911857696,0.3033087366471284,0.0,0.238,0.0,0.0
Ireland,2035,4,0.019927462005574718,0.6554787591371072,0.0,0.238,0.0,0.0
Italy,2035,1,0.5663784878275105,0.0,0.6958815994359957,14.54,0.0,0.22799999999999998
Italy,2035,2,3.882834380577519,0.0,1.214227284725487,14.54,0.0,0.22799999999999998
Italy,2035,3,7.19929027332753,0.0,1.732572970014978,14.54,0.0,0.22799999999999998
Italy,2035,4,10.515746166077538,0.0,2.2509186553044693,14.54,0.0,0.22799999999999998
Latvia,2035,1,0.0029062232655380944,0.0,0.0,1.59,0.0,0.0
Latvia,2035,2,0.009719172888029037,0.0,0.004192584383071349,1.59,0.0,0.0
Latvia,2035,3,0.01653212251051998,0.0,0.008432811770495782,1.59,0.0,0.0
Latvia,2035,4,0.02334507213301092,0.0,0.012673039157920216,1.59,0.0,0.0
Lithuania,2035,1,0.014856143311016333,0.0,0.0,0.117,0.0,0.0
Lithuania,2035,2,0.0460717301490447,0.0,0.007781789353389507,0.117,0.0,0.0
Lithuania,2035,3,0.07728731698707306,0.0,0.015652008131249347,0.117,0.0,0.0
Lithuania,2035,4,0.10850290382510143,0.0,0.023522226909109194,0.117,0.0,0.0
Luxembourg,2035,1,0.007,0.0,0.0,0.035,0.0,0.0
Luxembourg,2035,2,0.2225,0.0,0.0,0.035,0.0,0.0
Luxembourg,2035,3,0.43850000000000006,0.0,0.0,0.035,0.0,0.0
Luxembourg,2035,4,0.6545,0.0,0.0,0.035,0.0,0.0
Malta,2035,1,0.0,0.0,0.0,0.0,0.0,0.0
Malta,2035,2,0.0,0.0,0.0,0.0,0.0,0.0
Malta,2035,3,0.0,0.0,0.0,0.0,0.0,0.0
Malta,2035,4,0.0,0.0,0.0,0.0,0.0,0.0
Netherlands,2035,1,0.0,0.026614537598606446,0.0,0.037,0.001,0.0
Netherlands,2035,2,0.3694984969939861,0.11577323855393802,0.08871512532868815,0.037,0.001,0.0
Netherlands,2035,3,0.7394405696146157,0.2049319395092696,0.1774302506573763,0.037,0.001,0.0
Netherlands,2035,4,1.1093826422352453,0.44357562664344075,0.2661453759860644,0.037,0.001,0.0
Poland,2035,1,0.1799771946736939,0.0,0.0,0.588,0.0,0.0
Poland,2035,2,0.5217851251563638,0.0,0.5026587212980439,0.588,0.0,0.0
Poland,2035,3,0.8635930556390334,0.0,1.0053174425960878,0.588,0.0,0.0
Poland,2035,4,1.205787646676548,0.0,1.5079761638941316,0.588,0.0,0.0
Portugal,2035,1,0.30004298940881674,0.017256389333241855,0.02,4.462,0.001,0.012
Portugal,2035,2,0.6801822943162429,0.07520992807667261,0.0225,4.462,0.001,0.012
Portugal,2035,3,1.06042134713889,0.1330637189048823,0.024999999999999998,4.462,0.001,0.012
Portugal,2035,4,1.4406603999615373,0.28767298749751163,0.0275,4.462,0.001,0.012
Romania,2035,1,0.0026252997263298415,0.0,0.001,6.634,0.0,0.0
Romania,2035,2,0.15820885192882467,0.0,0.09758339519497679,6.634,0.0,0.0
Romania,2035,3,0.31365423046151264,0.0,0.19430496405976047,6.634,0.0,0.0
Romania,2035,4,0.46923778266400745,0.0,0.2910265329245441,6.634,0.0,0.0
Slovakia,2035,1,0.139,0.0,0.0,1.608,0.0,0.0
Slovakia,2035,2,0.369,0.0,0.10000000000000002,1.608,0.0,0.0
Slovakia,2035,3,0.599,0.0,0.20000000000000004,1.608,0.0,0.0
Slovakia,2035,4,0.8290000000000001,0.0,0.3,1.608,0.0,0.0
Slovenia,2035,1,0.1487379081332192,0.0,0.0,1.117,0.0,0.0
Slovenia,2035,2,0.32802476385551005,0.0,0.14326094229278233,1.117,0.0,0.0
Slovenia,2035,3,0.5075222974341137,0.0,0.28652188458556466,1.117,0.0,0.0
Slovenia,2035,4,0.6870198310127175,0.0,0.42978282687834696,1.117,0.0,0.0
Spain,2035,1,0.0,0.04893382122598572,0.0,14.118,0.0,0.0
Spain,2035,2,1.2535781910631671,0.20443312951765888,0.37794970765337216,14.118,0.0,0.0
Spain,2035,3,2.5071563821263343,0.3600674198477796,0.7558994153067443,14.118,0.0,0.0
Spain,2035,4,3.7608695552279485,0.775137188074251,1.1338491229601166,14.118,0.0,0.0
Sweden,2035,1,0.30072425125263097,0.0,0.0,16.291,0.0,0.0
Sweden,2035,2,0.46821055095925124,0.0,0.0,16.291,0.0,0.0
Sweden,2035,3,0.6358204567911161,0.0,0.0,16.291,0.0,0.0
Sweden,2035,4,0.8034303626229811,0.0,0.0,16.291,0.0,0.0
Switzerland,2035,1,1.4910000000000003,0.0,0.0,14.718,0.0,0.0
Switzerland,2035,2,1.841,0.0,0.10000000000000002,14.718,0.0,0.0
Switzerland,2035,3,2.191,0.0,0.20000000000000004,14.718,0.0,0.0
Switzerland,2035,4,2.541,0.0,0.3,14.718,0.0,0.0
United Kingdom,2035,1,0.225,0.24798170646288323,0.0,1.777,0.002,0.0
United Kingdom,2035,2,0.3192962046496992,1.05957087618188,0.04183050952128623,1.777,0.002,0.0
United Kingdom,2035,3,0.5340519151943166,1.8711600459008768,0.08366101904257246,1.777,0.002,0.0
United Kingdom,2035,4,0.748807625738934,4.037362159055153,0.12558813482141365,1.777,0.002,0.0
Austria,2040,1,0.9,0.0,0.001,8.318,0.0,0.0
Austria,2040,2,2.1633333333333336,0.0,0.06766666666666667,8.318,0.0,0.0
Austria,2040,3,3.7253333333333334,0.0,0.13433333333333333,8.318,0.0,0.0
Austria,2040,4,5.287333333333334,0.0,0.20099999999999998,8.318,0.0,0.0
Belgium,2040,1,0.051333333333333335,0.012666666666666666,0.0,0.117,0.0,0.0
Belgium,2040,2,0.49333333333333335,0.012666666666666666,0.022000000000000002,0.117,0.0,0.0
Belgium,2040,3,0.9353333333333333,0.012666666666666666,0.044000000000000004,0.117,0.0,0.0
Belgium,2040,4,1.3773333333333333,0.012666666666666666,0.06666666666666667,0.117,0.0,0.0
Bulgaria,2040,1,0.23333333333333334,0.0,0.0,2.206,0.0,0.0
Bulgaria,2040,2,0.7667080957604253,0.0,0.18986403933454274,2.206,0.0,0.0
Bulgaria,2040,3,1.4538142150149946,0.0,0.37994732120873276,2.206,0.0,0.0
Bulgaria,2040,4,2.1409203342695635,0.0,0.5700306030829227,2.206,0.0,0.0
Croatia,2040,1,0.003235568168992387,0.0,0.0,1.91,0.0,0.0
Croatia,2040,2,0.14560056760465742,0.0,0.10000847067794649,1.91,0.0,0.0
Croatia,2040,3,0.2879655670403224,0.0,0.20001694135589299,1.91,0.0,0.0
Croatia,2040,4,0.43042861399625987,0.0,0.3000254120338395,1.91,0.0,0.0
Cyprus,2040,1,0.0,0.0,0.0,0.0,0.0,0.011
Cyprus,2040,2,0.0,0.0,0.0,0.0,0.0,0.011
Cyprus,2040,3,0.0,0.0,0.0,0.0,0.0,0.011
Cyprus,2040,4,0.0001989845733634546,0.0,0.0,0.0,0.0,0.011
Czech Republic,2040,1,0.19266666666666665,0.0,0.0,1.088,0.0,0.0
Czech Republic,2040,2,0.2333333333333333,0.0,0.08866666666666667,1.088,0.0,0.0
Czech Republic,2040,3,0.27399999999999997,0.0,0.17733333333333334,1.088,0.0,0.0
Czech Republic,2040,4,0.31466666666666665,0.0,0.26666666666666666,1.088,0.0,0.0
Denmark,2040,1,0.0,0.008873798996445864,0.0,0.009,0.0,0.0
Denmark,2040,2,0.0,0.03878856468549532,0.01829649277617704,0.009,0.0,0.0
Denmark,2040,3,0.0,0.06870333037454478,0.03659298555235408,0.009,0.0,0.0
Denmark,2040,4,0.0,0.14865900380643846,0.05488947832853111,0.009,0.0,0.0
Estonia,2040,1,0.0009820517876986228,0.0,0.0,0.008,0.0,0.0
Estonia,2040,2,0.00752906370568944,0.0,0.007201713109789899,0.008,0.0,0.0
Estonia,2040,3,0.014076075623680255,0.0,0.014485263868554685,0.008,0.0,0.0
Estonia,2040,4,0.020623087541671078,0.0,0.02176881462731947,0.008,0.0,0.0
Finland,2040,1,0.11008320962890109,0.0,0.0,3.251,0.0,0.0
Finland,2040,2,0.18917034672094105,0.0,0.00021146293340117627,3.251,0.0,0.0
Finland,2040,3,0.2682574838129809,0.0,0.00042292586680235254,3.251,0.0,0.0
Finland,2040,4,0.34755608383842207,0.0,0.0006343888002035288,3.251,0.0,0.0
France,2040,1,1.6998996496547898,1.139977074126965,0.0016090174150064928,18.353,0.0,0.002
France,2040,2,3.5529513726039332,4.152594014157455,5.257196233964548,18.353,0.0,0.002
France,2040,3,5.4060030955530785,7.165747293326281,10.512783450514089,18.353,0.0,0.002
France,2040,4,7.259591157640557,15.207079994390396,15.768370667063628,18.353,0.0,0.002
Germany,2040,1,0.9573333333333333,0.016,0.11766666666666667,4.596,0.0,0.026000000000000002
Germany,2040,2,2.994666666666667,0.06933333333333333,2.168333333333333,4.596,0.0,0.026000000000000002
Germany,2040,3,5.032,0.12333333333333334,4.219666666666667,4.596,0.0,0.026000000000000002
Germany,2040,4,7.069333333333333,0.26666666666666666,6.271000000000001,4.596,0.0,0.026000000000000002
Greece,2040,1,0.035687463612813664,0.0,0.001,2.693,0.0,0.0
Greece,2040,2,0.324515536997347,0.0,0.3153455344133846,2.693,0.0,0.0
Greece,2040,3,0.6131587012439902,0.0,0.6296910688267692,2.693,0.0,0.0
Greece,2040,4,0.9019867746285235,0.0,0.9440366032401537,2.693,0.0,0.0
Hungary,2040,1,0.07724548498804987,0.0,0.020218972341524366,0.057,0.0,0.0
Hungary,2040,2,0.3030684100009612,0.0,1.221035148064845,0.057,0.0,0.0
Hungary,2040,3,0.5288913350138725,0.0,2.421851323788166,0.057,0.0,0.0
Hungary,2040,4,0.7550838556487363,0.0,3.623037095133439,0.057,0.0,0.0
Ireland,2040,1,0.009597330455828394,0.052525291312440124,0.0,0.238,0.0,0.0
Ireland,2040,2,0.015270629247451088,0.22849210883260407,0.0,0.238,0.0,0.0
Ireland,2040,3,0.020896650549143594,0.4044116488628378,0.0,0.238,0.0,0.0
Ireland,2040,4,0.02656994934076629,0.8739716788494762,0.0,0.238,0.0,0.0
Italy,2040,1,0.5885046504366808,0.0,0.8288421325813276,14.54,0.0,0.10999999999999999
Italy,2040,2,5.010445840770026,0.0,1.5199697129673158,14.54,0.0,0.10999999999999999
Italy,2040,3,9.432387031103373,0.0,2.211097293353304,14.54,0.0,0.10999999999999999
Italy,2040,4,13.854328221436717,0.0,2.9022248737392924,14.54,0.0,0.10999999999999999
Latvia,2040,1,0.0038749643540507924,0.0,0.0,1.59,0.0,0.0
Latvia,2040,2,0.012958897184038717,0.0,0.005590112510761799,1.59,0.0,0.0
Latvia,2040,3,0.02204283001402664,0.0,0.011243749027327709,1.59,0.0,0.0
Latvia,2040,4,0.031126762844014565,0.0,0.016897385543893622,1.59,0.0,0.0
Lithuania,2040,1,0.01980819108135511,0.0,0.0,0.117,0.0,0.0
Lithuania,2040,2,0.061428973532059596,0.0,0.010375719137852676,0.117,0.0,0.0
Lithuania,2040,3,0.10304975598276407,0.0,0.020869344174999128,0.117,0.0,0.0
Lithuania,2040,4,0.14467053843346858,0.0,0.03136296921214559,0.117,0.0,0.0
Luxembourg,2040,1,0.009333333333333334,0.0,0.0,0.035,0.0,0.0
Luxembourg,2040,2,0.2966666666666667,0.0,0.0,0.035,0.0,0.0
Luxembourg,2040,3,0.5846666666666667,0.0,0.0,0.035,0.0,0.0
Luxembourg,2040,4,0.8726666666666666,0.0,0.0,0.035,0.0,0.0
Malta,2040,1,0.0,0.0,0.0,0.0,0.0,0.0
Malta,2040,2,0.0,0.0,0.0,0.0,0.0,0.0
Malta,2040,3,0.0,0.0,0.0,0.0,0.0,0.0
Malta,2040,4,0.0,0.0,0.0,0.0,0.0,0.0
Netherlands,2040,1,0.0,0.03648605013147526,0.0,0.037,0.0,0.0
Netherlands,2040,2,0.49266466265864817,0.1553643180719174,0.11828683377158421,0.037,0.0,0.0
Netherlands,2040,3,0.9859207594861544,0.2742425860123595,0.23657366754316841,0.037,0.0,0.0
Netherlands,2040,4,1.4791768563136605,0.592434168857921,0.35486050131475255,0.037,0.0,0.0
Poland,2040,1,0.2383029262315919,0.0,0.0,0.588,0.0,0.0
Poland,2040,2,0.6940468335418184,0.0,0.6702116283973919,0.588,0.0,0.0
Poland,2040,3,1.1497907408520447,0.0,1.3404232567947838,0.588,0.0,0.0
Poland,2040,4,1.6060501955687307,0.0,2.0106348851921756,0.588,0.0,0.0
Portugal,2040,1,0.39972398587842234,0.02400851911098914,0.02,4.462,0.0,0.012
Portugal,2040,2,0.9065763924216572,0.10127990410223014,0.02333333333333333,4.462,0.0,0.012
Portugal,2040,3,1.4135617961851865,0.1784182918731764,0.026666666666666665,4.462,0.0,0.012
Portugal,2040,4,1.9205471999487165,0.3845639833300155,0.03,4.462,0.0,0.012
Romania,2040,1,0.0035003996351064552,0.0,0.001,6.634,0.0,0.0
Romania,2040,2,0.21094513590509956,0.0,0.12977786025996907,6.634,0.0,0.0
Romania,2040,3,0.4182056406153502,0.0,0.2587399520796806,6.634,0.0,0.0
Romania,2040,4,0.6256503768853433,0.0,0.38770204389939217,6.634,0.0,0.0
Slovakia,2040,1,0.18533333333333335,0.0,0.0,1.608,0.0,0.0
Slovakia,2040,2,0.492,0.0,0.13333333333333333,1.608,0.0,0.0
Slovakia,2040,3,0.7986666666666666,0.0,0.26666666666666666,1.608,0.0,0.0
Slovakia,2040,4,1.1053333333333333,0.0,0.39999999999999997,1.608,0.0,0.0
Slovenia,2040,1,0.17331721084429227,0.0,0.0,1.117,0.0,0.0
Slovenia,2040,2,0.4123663518073467,0.0,0.19101458972370977,1.117,0.0,0.0
Slovenia,2040,3,0.6516963965788183,0.0,0.38202917944741954,1.117,0.0,0.0
Slovenia,2040,4,0.89102644135029,0.0,0.5730437691711293,1.117,0.0,0.0
Spain,2040,1,0.0,0.0635784283013143,0.0,14.118,0.0,0.0
Spain,2040,2,1.671437588084223,0.2709108393568785,0.5039329435378296,14.118,0.0,0.0
Spain,2040,3,3.342875176168446,0.47842322646370616,1.0078658870756592,14.118,0.0,0.0
Spain,2040,4,5.014492740303932,1.0318495840990012,1.5117988306134889,14.118,0.0,0.0
Sweden,2040,1,0.32763233500350797,0.0,0.0,16.291,0.0,0.0
Sweden,2040,2,0.5509474012790017,0.0,0.0,16.291,0.0,0.0
Sweden,2040,3,0.7744272757214882,0.0,0.0,16.291,0.0,0.0
Sweden,2040,4,0.9979071501639748,0.0,0.0,16.291,0.0,0.0
Switzerland,2040,1,1.9880000000000002,0.0,0.0,14.718,0.0,0.0
Switzerland,2040,2,2.4546666666666668,0.0,0.13333333333333333,14.718,0.0,0.0
Switzerland,2040,3,2.921333333333333,0.0,0.26666666666666666,14.718,0.0,0.0
Switzerland,2040,4,3.388,0.0,0.39999999999999997,14.718,0.0,0.0
United Kingdom,2040,1,0.23333333333333334,0.329308941950511,0.0,1.777,0.0,0.0
United Kingdom,2040,2,0.3590616061995989,1.4114278349091736,0.055774012695048315,1.777,0.0,0.0
United Kingdom,2040,3,0.645402553592422,2.4935467278678365,0.11154802539009663,1.777,0.0,0.0
United Kingdom,2040,4,0.9317435009852453,5.381816212073537,0.16745084642855154,1.777,0.0,0.0
Austria,2045,1,0.95,0.0,0.001,8.318,0.0,0.0
Austria,2045,2,2.529166666666667,0.0,0.08433333333333333,8.318,0.0,0.0
Austria,2045,3,4.4816666666666665,0.0,0.16766666666666666,8.318,0.0,0.0
Austria,2045,4,6.434166666666667,0.0,0.251,8.318,0.0,0.0
Belgium,2045,1,0.06416666666666666,0.015833333333333335,0.0,0.117,0.0,0.0
Belgium,2045,2,0.6166666666666667,0.015833333333333335,0.0275,0.117,0.0,0.0
Belgium,2045,3,1.1691666666666667,0.015833333333333335,0.055,0.117,0.0,0.0
Belgium,2045,4,1.7216666666666665,0.015833333333333335,0.08333333333333333,0.117,0.0,0.0
Bulgaria,2045,1,0.24166666666666667,0.0,0.0,2.206,0.0,0.0
Bulgaria,2045,2,0.9083851197005317,0.0,0.23733004916817843,2.206,0.0,0.0
Bulgaria,2045,3,1.7672677687687433,0.0,0.47493415151091595,2.206,0.0,0.0
Bulgaria,2045,4,2.626150417836955,0.0,0.7125382538536534,2.206,0.0,0.0
Croatia,2045,1,0.004044460211240483,0.0,0.0,1.91,0.0,0.0
Croatia,2045,2,0.18200070950582178,0.0,0.12501058834743312,1.91,0.0,0.0
Croatia,2045,3,0.359956958800403,0.0,0.25002117669486623,1.91,0.0,0.0
Croatia,2045,4,0.5380357674953248,0.0,0.37503176504229935,1.91,0.0,0.0
Cyprus,2045,1,0.0,0.0,0.005,0.0,0.0,0.005999999999999999
Cyprus,2045,2,0.0,0.0,0.005,0.0,0.0,0.005999999999999999
Cyprus,2045,3,0.0,0.0,0.005,0.0,0.0,0.005999999999999999
Cyprus,2045,4,0.00024873071670431825,0.0,0.005,0.0,0.0,0.005999999999999999
Czech Republic,2045,1,0.24083333333333332,0.0,0.0,1.088,0.0,0.0
Czech Republic,2045,2,0.2916666666666667,0.0,0.11083333333333334,1.088,0.0,0.0
Czech Republic,2045,3,0.34249999999999997,0.0,0.22166666666666668,1.088,0.0,0.0
Czech Republic,2045,4,0.3933333333333333,0.0,0.3333333333333333,1.088,0.0,0.0
Denmark,2045,1,0.0,0.01109224874555733,0.0,0.009,0.0,0.0
Denmark,2045,2,0.0,0.04848570585686915,0.0228706159702213,0.009,0.0,0.0
Denmark,2045,3,0.0,0.08587916296818097,0.0457412319404426,0.009,0.0,0.0
Denmark,2045,4,0.0,0.18582375475804805,0.0686118479106639,0.009,0.0,0.0
Estonia,2045,1,0.0012275647346232784,0.0,0.0,0.008,0.0,0.0
Estonia,2045,2,0.0094113296321118,0.0,0.009002141387237374,0.008,0.0,0.0
Estonia,2045,3,0.01759509452960032,0.0,0.018106579835693356,0.008,0.0,0.0
Estonia,2045,4,0.025778859427088848,0.0,0.027211018284149336,0.008,0.0,0.0
Finland,2045,1,0.12260401203612636,0.0,0.0,3.251,0.0,0.0
Finland,2045,2,0.22146293340117632,0.0,0.00026432866675147037,3.251,0.0,0.0
Finland,2045,3,0.32032185476622616,0.0,0.0005286573335029407,3.251,0.0,0.0
Finland,2045,4,0.4194451047980276,0.0,0.000792986000254411,3.251,0.0,0.0
France,2045,1,2.049874562068487,1.3649713426587062,0.0040112717687581165,18.353,0.0,0.0
France,2045,2,4.3661892157549165,5.130742517696819,6.573495292455684,18.353,0.0,0.0
France,2045,3,6.682503869441348,8.89718411665785,13.142979313142611,18.353,0.0,0.0
France,2045,4,8.999488947050697,18.948849992987995,19.712463333829533,18.353,0.0,0.0
Germany,2045,1,1.1966666666666665,0.02,0.15033333333333335,4.596,0.0,0.02
Germany,2045,2,3.7433333333333336,0.08666666666666667,2.7136666666666667,4.596,0.0,0.02
Germany,2045,3,6.29,0.15416666666666667,5.277833333333334,4.596,0.0,0.02
Germany,2045,4,8.836666666666666,0.3333333333333333,7.842,4.596,0.0,0.02
Greece,2045,1,0.04460932951601707,0.0,0.001,2.693,0.0,0.0
Greece,2045,2,0.4056444212466837,0.0,0.3939319180167307,2.693,0.0,0.0
Greece,2045,3,0.7664483765549877,0.0,0.7868638360334614,2.693,0.0,0.0
Greece,2045,4,1.1274834682856543,0.0,1.179795754050192,2.693,0.0,0.0
Hungary,2045,1,0.09655685623506233,0.0,0.024523715426905457,0.057,0.0,0.0
Hungary,2045,2,0.3788355125012015,0.0,1.5255439350810565,0.057,0.0,0.0
Hungary,2045,3,0.6611141687673406,0.0,3.026564154735207,0.057,0.0,0.0
Hungary,2045,4,0.9438548195609203,0.0,4.528046368916798,0.057,0.0,0.0
Ireland,2045,1,0.011996663069785493,0.06565661414055014,0.0,0.238,0.0,0.0
Ireland,2045,2,0.01908828655931386,0.2856151360407551,0.0,0.238,0.0,0.0
Ireland,2045,3,0.026120813186429493,0.5055145610785473,0.0,0.238,0.0,0.0
Ireland,2045,4,0.033212436675957864,1.0924645985618453,0.0,0.238,0.0,0.0
Italy,2045,1,0.6106308130458509,0.0,0.9058026657266596,14.54,0.0,0.04799999999999993
Italy,2045,2,6.138057300962533,0.0,1.7697121412091446,14.54,0.0,0.04799999999999993
Italy,2045,3,11.665483788879214,0.0,2.63362161669163,14.54,0.0,0.04799999999999993
Italy,2045,4,17.192910276795896,0.0,3.4975310921741154,14.54,0.0,0.04799999999999993
Latvia,2045,1,0.00484370544256349,0.0,0.0,1.59,0.0,0.0
Latvia,2045,2,0.016198621480048397,0.0,0.006987640638452248,1.59,0.0,0.0
Latvia,2045,3,0.0275535375175333,0.0,0.014054686284159637,1.59,0.0,0.0
Latvia,2045,4,0.03890845355501821,0.0,0.021121731929867025,1.59,0.0,0.0
Lithuania,2045,1,0.02476023885169389,0.0,0.0,0.117,0.0,0.0
Lithuania,2045,2,0.07678621691507449,0.0,0.012969648922315844,0.117,0.0,0.0
Lithuania,2045,3,0.12881219497845509,0.0,0.02608668021874891,0.117,0.0,0.0
Lithuania,2045,4,0.18083817304183572,0.0,0.03920371151518198,0.117,0.0,0.0
Luxembourg,2045,1,0.011666666666666667,0.0,0.0,0.035,0.0,0.0
Luxembourg,2045,2,0.37083333333333335,0.0,0.0,0.035,0.0,0.0
Luxembourg,2045,3,0.7308333333333333,0.0,0.0,0.035,0.0,0.0
Luxembourg,2045,4,1.0908333333333333,0.0,0.0,0.035,0.0,0.0
Malta,2045,1,0.0,0.0,0.0,0.0,0.0,0.0
Malta,2045,2,0.0,0.0,0.0,0.0,0.0,0.0
Malta,2045,3,0.0,0.0,0.0,0.0,0.0,0.0
Malta,2045,4,0.0,0.0,0.0,0.0,0.0,0.0
Netherlands,2045,1,0.0,0.04535756266434407,0.0,0.037,0.0,0.0
Netherlands,2045,2,0.6158308283233102,0.19395539758989674,0.14785854221448025,0.037,0.0,0.0
Netherlands,2045,3,1.232400949357693,0.3425532325154494,0.2957170844289605,0.037,0.0,0.0
Netherlands,2045,4,1.8489710703920756,0.7402927110724012,0.4435756266434407,0.037,0.0,0.0
Poland,2045,1,0.29662865778948994,0.0,0.0,0.588,0.0,0.0
Poland,2045,2,0.866308541927273,0.0,0.8377645354967398,0.588,0.0,0.0
Poland,2045,3,1.435988426065056,0.0,1.6755290709934796,0.588,0.0,0.0
Poland,2045,4,2.0063127444609132,0.0,2.5132936064902194,0.588,0.0,0.0
Portugal,2045,1,0.4994049823480279,0.02976064888873643,0.032,4.462,0.0,0.0
Portugal,2045,2,1.1329704905270714,0.12634988012778767,0.036166666666666666,4.462,0.0,0.0
Portugal,2045,3,1.7667022452314833,0.22277286484147052,0.04033333333333333,4.462,0.0,0.0
Portugal,2045,4,2.4004339999358955,0.4804549791625194,0.0445,4.462,0.0,0.0
Romania,2045,1,0.004375499543883069,0.0,0.001,6.634,0.0,0.0
Romania,2045,2,0.26368141988137445,0.0,0.16197232532496134,6.634,0.0,0.0
Romania,2045,3,0.5227570507691878,0.0,0.32317494009960074,6.634,0.0,0.0
Romania,2045,4,0.782062971106679,0.0,0.4843775548742402,6.634,0.0,0.0
Slovakia,2045,1,0.2316666666666667,0.0,0.0,1.608,0.0,0.0
Slovakia,2045,2,0.615,0.0,0.16666666666666666,1.608,0.0,0.0
Slovakia,2045,3,0.9983333333333334,0.0,0.3333333333333333,1.608,0.0,0.0
Slovakia,2045,4,1.3816666666666666,0.0,0.5,1.608,0.0,0.0
Slovenia,2045,1,0.19789651355536536,0.0,0.0,1.117,0.0,0.0
Slovenia,2045,2,0.4967079397591834,0.0,0.23876823715463721,1.117,0.0,0.0
Slovenia,2045,3,0.7958704957235229,0.0,0.47753647430927443,1.117,0.0,0.0
Slovenia,2045,4,1.0950330516878624,0.0,0.7163047114639115,1.117,0.0,0.0
Spain,2045,1,0.0,0.07822303537664287,0.0,14.118,0.0,0.0
Spain,2045,2,2.0892969851052787,0.33738854919609806,0.629916179422287,14.118,0.0,0.0
Spain,2045,3,4.1785939702105575,0.5967790330796328,1.259832358844574,14.118,0.0,0.0
Spain,2045,4,6.268115925379914,1.2885619801237516,1.889748538266861,14.118,0.0,0.0
Sweden,2045,1,0.3545404187543849,0.0,0.0,16.291,0.0,0.0
Sweden,2045,2,0.633684251598752,0.0,0.0,16.291,0.0,0.0
Sweden,2045,3,0.9130340946518601,0.0,0.0,16.291,0.0,0.0
Sweden,2045,4,1.1923839377049685,0.0,0.0,16.291,0.0,0.0
Switzerland,2045,1,2.485,0.0,0.0,14.718,0.0,0.0
Switzerland,2045,2,3.0683333333333334,0.0,0.16666666666666666,14.718,0.0,0.0
Switzerland,2045,3,3.651666666666666,0.0,0.3333333333333333,14.718,0.0,0.0
Switzerland,2045,4,4.235,0.0,0.5,14.718,0.0,0.0
United Kingdom,2045,1,0.24166666666666667,0.4086361774381388,0.0,1.777,0.0,0.0
United Kingdom,2045,2,0.3988270077494987,1.7612847936364668,0.0697175158688104,1.777,0.0,0.0
United Kingdom,2045,3,0.7567531919905275,3.1139334098347957,0.1394350317376208,1.777,0.0,0.0
United Kingdom,2045,4,1.1146793762315566,6.724270265091921,0.2093135580356894,1.777,0.0,0.0
Austria,2050,1,1.0,0.0,0.001,8.318,0.0,0.0
Austria,2050,2,2.895,0.0,0.101,8.318,0.0,0.0
Austria,2050,3,5.238,0.0,0.201,8.318,0.0,0.0
Austria,2050,4,7.581,0.0,0.301,8.318,0.0,0.0
Belgium,2050,1,0.077,0.019,0.0,0.117,0.0,0.0
Belgium,2050,2,0.74,0.019,0.033,0.117,0.0,0.0
Belgium,2050,3,1.403,0.019,0.066,0.117,0.0,0.0
Belgium,2050,4,2.066,0.019,0.1,0.117,0.0,0.0
Bulgaria,2050,1,0.25,0.0,0.0,2.206,0.0,0.0
Bulgaria,2050,2,1.0500621436406379,0.0,0.2847960590018141,2.206,0.0,0.0
Bulgaria,2050,3,2.080721322522492,0.0,0.5699209818130991,2.206,0.0,0.0
Bulgaria,2050,4,3.1113805014043456,0.0,0.8550459046243841,2.206,0.0,0.0
Croatia,2050,1,0.00485335225348858,0.0,0.0,1.91,0.0,0.0
Croatia,2050,2,0.21840085140698612,0.0,0.15001270601691974,1.91,0.0,0.0
Croatia,2050,3,0.4319483505604836,0.0,0.3000254120338395,1.91,0.0,0.0
Croatia,2050,4,0.6456429209943898,0.0,0.4500381180507592,1.91,0.0,0.0
Cyprus,2050,1,0.0,0.0,0.011,0.0,0.0,0.0
Cyprus,2050,2,0.0,0.0,0.011,0.0,0.0,0.0
Cyprus,2050,3,0.0,0.0,0.011,0.0,0.0,0.0
Cyprus,2050,4,0.0002984768600451819,0.0,0.011,0.0,0.0,0.0
Czech Republic,2050,1,0.289,0.0,0.0,1.088,0.0,0.0
Czech Republic,2050,2,0.35,0.0,0.133,1.088,0.0,0.0
Czech Republic,2050,3,0.411,0.0,0.266,1.088,0.0,0.0
Czech Republic,2050,4,0.472,0.0,0.4,1.088,0.0,0.0
Denmark,2050,1,0.0,0.013310698494668797,0.0,0.009,0.0,0.0
Denmark,2050,2,0.0,0.05818284702824298,0.02744473916426556,0.009,0.0,0.0
Denmark,2050,3,0.0,0.10305499556181717,0.05488947832853112,0.009,0.0,0.0
Denmark,2050,4,0.0,0.22298850570965767,0.08233421749279667,0.009,0.0,0.0
Estonia,2050,1,0.0014730776815479341,0.0,0.0,0.008,0.0,0.0
Estonia,2050,2,0.01129359555853416,0.0,0.010802569664684849,0.008,0.0,0.0
Estonia,2050,3,0.021114113435520384,0.0,0.021727895802832027,0.008,0.0,0.0
Estonia,2050,4,0.030934631312506615,0.0,0.03265322194097921,0.008,0.0,0.0
Finland,2050,1,0.13512481444335164,0.0,0.0,3.251,0.0,0.0
Finland,2050,2,0.25375552008141156,0.0,0.0003171944001017644,3.251,0.0,0.0
Finland,2050,3,0.3723862257194714,0.0,0.0006343888002035288,3.251,0.0,0.0
Finland,2050,4,0.4913341257576331,0.0,0.0009515832003052933,3.251,0.0,0.0
France,2050,1,2.3998494744821843,1.5899656111904474,0.004413526122509739,18.353,0.0,0.0
France,2050,2,5.1794270589059,6.108891021236183,7.887794350946821,18.353,0.0,0.0
France,2050,3,7.959004643329617,10.628620939989421,15.771175175771134,18.353,0.0,0.0
France,2050,4,10.739386736460837,22.690619991585592,23.65455600059544,18.353,0.0,0.0
Germany,2050,1,1.436,0.024,0.197,4.596,0.0,0.0
Germany,2050,2,4.492,0.104,3.273,4.596,0.0,0.0
Germany,2050,3,7.548,0.185,6.3500000000000005,4.596,0.0,0.0
Germany,2050,4,10.604,0.4,9.427,4.596,0.0,0.0
Greece,2050,1,0.053531195419220495,0.0,0.001,2.693,0.0,0.0
Greece,2050,2,0.4867733054960205,0.0,0.47251830162007685,2.693,0.0,0.0
Greece,2050,3,0.9197380518659852,0.0,0.9440366032401537,2.693,0.0,0.0
Greece,2050,4,1.3529801619427853,0.0,1.4155549048602305,2.693,0.0,0.0
Hungary,2050,1,0.1158682274820748,0.0,0.02882845851228655,0.057,0.0,0.0
Hungary,2050,2,0.4546026150014418,0.0,1.8300527220972675,0.057,0.0,0.0
Hungary,2050,3,0.7933370025208089,0.0,3.6312769856822484,0.057,0.0,0.0
Hungary,2050,4,1.1326257834731044,0.0,5.433055642700158,0.057,0.0,0.0
Ireland,2050,1,0.01439599568374259,0.07878793696866018,0.0,0.238,0.0,0.0
Ireland,2050,2,0.022905943871176632,0.3427381632489061,0.0,0.238,0.0,0.0
Ireland,2050,3,0.03134497582371539,0.6066174732942567,0.0,0.238,0.0,0.0
Ireland,2050,4,0.039854924011149435,1.3109575182742144,0.0,0.238,0.0,0.0
Italy,2050,1,0.6327569756550211,0.0,0.9687631988719914,14.54,0.0,0.0
Italy,2050,2,7.265668761155039,0.0,2.005454569450974,14.54,0.0,0.0
Italy,2050,3,13.898580546655058,0.0,3.0421459400299558,14.54,0.0,0.0
Italy,2050,4,20.531492332155075,0.0,4.078837310608939,14.54,0.0,0.0
Latvia,2050,1,0.005812446531076189,0.0,0.0,1.59,0.0,0.0
Latvia,2050,2,0.019438345776058075,0.0,0.008385168766142698,1.59,0.0,0.0
Latvia,2050,3,0.03306424502103996,0.0,0.016865623540991564,1.59,0.0,0.0
Latvia,2050,4,0.046690144266021846,0.0,0.02534607831584043,1.59,0.0,0.0
Lithuania,2050,1,0.029712286622032666,0.0,0.0,0.117,0.0,0.0
Lithuania,2050,2,0.0921434602980894,0.0,0.015563578706779014,0.117,0.0,0.0
Lithuania,2050,3,0.15457463397414611,0.0,0.03130401626249869,0.117,0.0,0.0
Lithuania,2050,4,0.21700580765020286,0.0,0.04704445381821838,0.117,0.0,0.0
Luxembourg,2050,1,0.014,0.0,0.0,0.035,0.0,0.0
Luxembourg,2050,2,0.445,0.0,0.0,0.035,0.0,0.0
Luxembourg,2050,3,0.877,0.0,0.0,0.035,0.0,0.0
Luxembourg,2050,4,1.309,0.0,0.0,0.035,0.0,0.0
Malta,2050,1,0.0,0.0,0.0,0.0,0.0,0.0
Malta,2050,2,0.0,0.0,0.0,0.0,0.0,0.0
Malta,2050,3,0.0,0.0,0.0,0.0,0.0,0.0
Malta,2050,4,0.0,0.0,0.0,0.0,0.0,0.0
Netherlands,2050,1,0.0,0.054229075197212886,0.0,0.037,0.0,0.0
Netherlands,2050,2,0.7389969939879723,0.23254647710787607,0.1774302506573763,0.037,0.0,0.0
Netherlands,2050,3,1.4788811392292316,0.41086387901853927,0.3548605013147526,0.037,0.0,0.0
Netherlands,2050,4,2.2187652844704906,0.8881512532868815,0.5322907519721288,0.037,0.0,0.0
Poland,2050,1,0.3549543893473879,0.0,0.0,0.588,0.0,0.0
Poland,2050,2,1.0385702503127274,0.0,1.0053174425960878,0.588,0.0,0.0
Poland,2050,3,1.722186111278067,0.0,2.0106348851921756,0.588,0.0,0.0
Poland,2050,4,2.406575293353096,0.0,3.015952327788263,0.588,0.0,0.0
Portugal,2050,1,0.5990859788176335,0.03551277866648371,0.032,4.462,0.0,0.0
Portugal,2050,2,1.3593645886324857,0.15141985615334522,0.037,4.462,0.0,0.0
Portugal,2050,3,2.11984269427778,0.2671274378097646,0.041999999999999996,4.462,0.0,0.0
Portugal,2050,4,2.8803207999230747,0.5763459749950233,0.047,4.462,0.0,0.0
Romania,2050,1,0.005250599452659683,0.0,0.001,6.634,0.0,0.0
Romania,2050,2,0.31641770385764934,0.0,0.1941667903899536,6.634,0.0,0.0
Romania,2050,3,0.6273084609230253,0.0,0.3876099281195209,6.634,0.0,0.0
Romania,2050,4,0.9384755653280149,0.0,0.5810530658490882,6.634,0.0,0.0
Slovakia,2050,1,0.278,0.0,0.0,1.608,0.0,0.0
Slovakia,2050,2,0.738,0.0,0.2,1.608,0.0,0.0
Slovakia,2050,3,1.198,0.0,0.4,1.608,0.0,0.0
Slovakia,2050,4,1.658,0.0,0.6,1.608,0.0,0.0
Slovenia,2050,1,0.22247581626643842,0.0,0.0,1.117,0.0,0.0
Slovenia,2050,2,0.58104952771102,0.0,0.28652188458556466,1.117,0.0,0.0
Slovenia,2050,3,0.9400445948682274,0.0,0.5730437691711293,1.117,0.0,0.0
Slovenia,2050,4,1.299039662025435,0.0,0.8595656537566939,1.117,0.0,0.0
Spain,2050,1,0.0,0.09286764245197145,0.0,14.118,0.0,0.0
Spain,2050,2,2.5071563821263343,0.4038662590353177,0.7558994153067443,14.118,0.0,0.0
Spain,2050,3,5.014312764252669,0.7151348396955592,1.5117988306134886,14.118,0.0,0.0
Spain,2050,4,7.521739110455897,1.545274376148502,2.2676982459202333,14.118,0.0,0.0
Sweden,2050,1,0.3814485025052619,0.0,0.0,16.291,0.0,0.0
Sweden,2050,2,0.7164211019185024,0.0,0.0,16.291,0.0,0.0
Sweden,2050,3,1.0516409135822322,0.0,0.0,16.291,0.0,0.0
Sweden,2050,4,1.3868607252459622,0.0,0.0,16.291,0.0,0.0
Switzerland,2050,1,2.982,0.0,0.0,14.718,0.0,0.0
Switzerland,2050,2,3.682,0.0,0.2,14.718,0.0,0.0
Switzerland,2050,3,4.382,0.0,0.4,14.718,0.0,0.0
Switzerland,2050,4,5.082,0.0,0.6,14.718,0.0,0.0
United Kingdom,2050,1,0.25,0.4879634129257665,0.0,1.777,0.0,0.0
United Kingdom,2050,2,0.4385924092993984,2.1111417523637606,0.08366101904257248,1.777,0.0,0.0
United Kingdom,2050,3,0.8681038303886331,3.7343200918017545,0.16732203808514495,1.777,0.0,0.0
United Kingdom,2050,4,1.2976152514778678,8.066724318110305,0.2511762696428273,1.777,0.0,0.0
