Country,Years,lever_bioenergy-capacity,ll_elc_capacity_RES_bio_mass[GW],ll_elc_capacity_RES_bio_gas[GW],fts_elc_capacity_RES_bio_mass[GW],fts_elc_capacity_RES_bio_gas[GW]
Austria,2015,1,0.0,0.0,0.9386209999999999,0.191413
Austria,2015,2,0.0,0.0,0.9386209999999999,0.191413
Austria,2015,3,0.0,0.0,0.9386209999999999,0.191413
Austria,2015,4,0.0,0.0,0.9386209999999999,0.191413
Belgium,2015,1,0.0,0.0,0.588,0.183
Belgium,2015,2,0.0,0.0,0.588,0.183
Belgium,2015,3,0.0,0.0,0.588,0.183
Belgium,2015,4,0.0,0.0,0.588,0.183
Bulgaria,2015,1,0.0,0.0,0.034,0.02
Bulgaria,2015,2,0.0,0.0,0.034,0.02
Bulgaria,2015,3,0.0,0.0,0.034,0.02
Bulgaria,2015,4,0.0,0.0,0.034,0.02
Croatia,2015,1,0.0,0.0,0.025,0.0275
Croatia,2015,2,0.0,0.0,0.025,0.0275
Croatia,2015,3,0.0,0.0,0.025,0.0275
Croatia,2015,4,0.0,0.0,0.025,0.0275
Cyprus,2015,1,0.0,0.0,0.0,0.01
Cyprus,2015,2,0.0,0.0,0.0,0.01
Cyprus,2015,3,0.0,0.0,0.0,0.01
Cyprus,2015,4,0.0,0.0,0.0,0.01
Czech Republic,2015,1,0.0,0.0,0.38,0.368
Czech Republic,2015,2,0.0,0.0,0.38,0.368
Czech Republic,2015,3,0.0,0.0,0.38,0.368
Czech Republic,2015,4,0.0,0.0,0.38,0.368
Denmark,2015,1,0.0,0.0,0.973414,0.103747
Denmark,2015,2,0.0,0.0,0.973414,0.103747
Denmark,2015,3,0.0,0.0,0.973414,0.103747
Denmark,2015,4,0.0,0.0,0.973414,0.103747
Estonia,2015,1,0.0,0.0,0.165,0.011
Estonia,2015,2,0.0,0.0,0.165,0.011
Estonia,2015,3,0.0,0.0,0.165,0.011
Estonia,2015,4,0.0,0.0,0.165,0.011
Finland,2015,1,0.0,0.0,1.751,0.0
Finland,2015,2,0.0,0.0,1.751,0.0
Finland,2015,3,0.0,0.0,1.751,0.0
Finland,2015,4,0.0,0.0,1.751,0.0
France,2015,1,0.0,0.0,0.565788,0.340971
France,2015,2,0.0,0.0,0.565788,0.340971
France,2015,3,0.0,0.0,0.565788,0.340971
France,2015,4,0.0,0.0,0.565788,0.340971
Germany,2015,1,0.0,0.0,1.592,5.643
Germany,2015,2,0.0,0.0,1.592,5.643
Germany,2015,3,0.0,0.0,1.592,5.643
Germany,2015,4,0.0,0.0,1.592,5.643
Greece,2015,1,0.0,0.0,0.002,0.049
Greece,2015,2,0.0,0.0,0.002,0.049
Greece,2015,3,0.0,0.0,0.002,0.049
Greece,2015,4,0.0,0.0,0.002,0.049
Hungary,2015,1,0.0,0.0,0.422,0.072
Hungary,2015,2,0.0,0.0,0.422,0.072
Hungary,2015,3,0.0,0.0,0.422,0.072
Hungary,2015,4,0.0,0.0,0.422,0.072
Ireland,2015,1,0.0,0.0,0.00545,0.053444000000000005
Ireland,2015,2,0.0,0.0,0.00545,0.053444000000000005
Ireland,2015,3,0.0,0.0,0.00545,0.053444000000000005
Ireland,2015,4,0.0,0.0,0.00545,0.053444000000000005
Italy,2015,1,0.0,0.0,0.616,1.336
Italy,2015,2,0.0,0.0,0.616,1.336
Italy,2015,3,0.0,0.0,0.616,1.336
Italy,2015,4,0.0,0.0,0.616,1.336
Latvia,2015,1,0.0,0.0,0.066,0.06
Latvia,2015,2,0.0,0.0,0.066,0.06
Latvia,2015,3,0.0,0.0,0.066,0.06
Latvia,2015,4,0.0,0.0,0.066,0.06
Lithuania,2015,1,0.0,0.0,0.045,0.021
Lithuania,2015,2,0.0,0.0,0.045,0.021
Lithuania,2015,3,0.0,0.0,0.045,0.021
Lithuania,2015,4,0.0,0.0,0.045,0.021
Luxembourg,2015,1,0.0,0.0,0.003915,0.011903
Luxembourg,2015,2,0.0,0.0,0.003915,0.011903
Luxembourg,2015,3,0.0,0.0,0.003915,0.011903
Luxembourg,2015,4,0.0,0.0,0.003915,0.011903
Malta,2015,1,0.0,0.0,0.0,0.003
Malta,2015,2,0.0,0.0,0.0,0.003
Malta,2015,3,0.0,0.0,0.0,0.003
Malta,2015,4,0.0,0.0,0.0,0.003
Netherlands,2015,1,0.0,0.0,0.299,0.239
Netherlands,2015,2,0.0,0.0,0.299,0.239
Netherlands,2015,3,0.0,0.0,0.299,0.239
Netherlands,2015,4,0.0,0.0,0.299,0.239
Poland,2015,1,0.0,0.0,0.737,0.216
Poland,2015,2,0.0,0.0,0.737,0.216
Poland,2015,3,0.0,0.0,0.737,0.216
Poland,2015,4,0.0,0.0,0.737,0.216
Portugal,2015,1,0.0,0.0,0.471,0.066
Portugal,2015,2,0.0,0.0,0.471,0.066
Portugal,2015,3,0.0,0.0,0.471,0.066
Portugal,2015,4,0.0,0.0,0.471,0.066
Romania,2015,1,0.0,0.0,0.104,0.014
Romania,2015,2,0.0,0.0,0.104,0.014
Romania,2015,3,0.0,0.0,0.104,0.014
Romania,2015,4,0.0,0.0,0.104,0.014
Slovakia,2015,1,0.0,0.0,0.145,0.091
Slovakia,2015,2,0.0,0.0,0.145,0.091
Slovakia,2015,3,0.0,0.0,0.145,0.091
Slovakia,2015,4,0.0,0.0,0.145,0.091
Slovenia,2015,1,0.0,0.0,0.03,0.032
Slovenia,2015,2,0.0,0.0,0.03,0.032
Slovenia,2015,3,0.0,0.0,0.03,0.032
Slovenia,2015,4,0.0,0.0,0.03,0.032
Spain,2015,1,0.0,0.0,0.677,0.224
Spain,2015,2,0.0,0.0,0.677,0.224
Spain,2015,3,0.0,0.0,0.677,0.224
Spain,2015,4,0.0,0.0,0.677,0.224
Sweden,2015,1,0.0,0.0,3.7,0.002
Sweden,2015,2,0.0,0.0,3.7,0.002
Sweden,2015,3,0.0,0.0,3.7,0.002
Sweden,2015,4,0.0,0.0,3.7,0.002
Switzerland,2015,1,0.0,0.0,0.0,0.0
Switzerland,2015,2,0.0,0.0,0.0,0.0
Switzerland,2015,3,0.0,0.0,0.0,0.0
Switzerland,2015,4,0.0,0.0,0.0,0.0
United Kingdom,2015,1,0.0,0.0,2.736,1.628
United Kingdom,2015,2,0.0,0.0,2.736,1.628
United Kingdom,2015,3,0.0,0.0,2.736,1.628
United Kingdom,2015,4,0.0,0.0,2.736,1.628
Austria,2020,1,0.21898520712139602,0.019141300000000028,0.9386209999999999,0.191413
Austria,2020,2,0.21898520712139602,0.019141300000000028,0.9386209999999999,0.191413
Austria,2020,3,0.21898520712139602,0.019141300000000028,0.9386209999999999,0.191413
Austria,2020,4,0.21898520712139602,0.019141300000000028,0.9386209999999999,0.191413
Belgium,2020,1,0.024420668829037928,0.01830000000000001,0.588,0.183
Belgium,2020,2,0.024420668829037928,0.01830000000000001,0.588,0.183
Belgium,2020,3,0.024420668829037928,0.01830000000000001,0.588,0.183
Belgium,2020,4,0.024420668829037928,0.01830000000000001,0.588,0.183
Bulgaria,2020,1,0.06402751550137845,0.0020000000000000018,0.034,0.02
Bulgaria,2020,2,0.06402751550137845,0.0020000000000000018,0.034,0.02
Bulgaria,2020,3,0.06402751550137845,0.0020000000000000018,0.034,0.02
Bulgaria,2020,4,0.06402751550137845,0.0020000000000000018,0.034,0.02
Croatia,2020,1,0.02030536018830492,0.0027500000000000024,0.025,0.0275
Croatia,2020,2,0.02030536018830492,0.0027500000000000024,0.025,0.0275
Croatia,2020,3,0.02030536018830492,0.0027500000000000024,0.025,0.0275
Croatia,2020,4,0.02030536018830492,0.0027500000000000024,0.025,0.0275
Cyprus,2020,1,0.0,0.0010000000000000009,0.0,0.01
Cyprus,2020,2,0.0,0.0010000000000000009,0.0,0.01
Cyprus,2020,3,0.0,0.0010000000000000009,0.0,0.01
Cyprus,2020,4,0.0,0.0010000000000000009,0.0,0.01
Czech Republic,2020,1,0.14875375959536075,0.036800000000000055,0.38,0.368
Czech Republic,2020,2,0.14875375959536075,0.036800000000000055,0.38,0.368
Czech Republic,2020,3,0.14875375959536075,0.036800000000000055,0.38,0.368
Czech Republic,2020,4,0.14875375959536075,0.036800000000000055,0.38,0.368
Denmark,2020,1,0.06424287839972864,0.017374700000000007,0.973414,0.09674700000000001
Denmark,2020,2,0.06424287839972864,0.017374700000000007,0.973414,0.09674700000000001
Denmark,2020,3,0.06424287839972864,0.017374700000000007,0.973414,0.09674700000000001
Denmark,2020,4,0.06424287839972864,0.017374700000000007,0.973414,0.09674700000000001
Estonia,2020,1,0.036631985880275664,0.0011000000000000003,0.165,0.011
Estonia,2020,2,0.036631985880275664,0.0011000000000000003,0.165,0.011
Estonia,2020,3,0.036631985880275664,0.0011000000000000003,0.165,0.011
Estonia,2020,4,0.036631985880275664,0.0011000000000000003,0.165,0.011
Finland,2020,1,1.0166941388176425,8.000000000000005e-06,0.7869999999999995,0.0
Finland,2020,2,1.0166941388176425,8.000000000000005e-06,0.7869999999999995,0.0
Finland,2020,3,1.0166941388176425,8.000000000000005e-06,0.7869999999999995,0.0
Finland,2020,4,1.0166941388176425,8.000000000000005e-06,0.7869999999999995,0.0
France,2020,1,0.15453554559568394,0.03409710000000005,0.565788,0.340971
France,2020,2,0.15453554559568394,0.03409710000000005,0.565788,0.340971
France,2020,3,0.15453554559568394,0.03409710000000005,0.565788,0.340971
France,2020,4,0.15453554559568394,0.03409710000000005,0.565788,0.340971
Germany,2020,1,0.20044207292671423,0.6343000000000003,1.592,5.5729999999999995
Germany,2020,2,0.20044207292671423,0.6343000000000003,1.592,5.5729999999999995
Germany,2020,3,0.20044207292671423,0.6343000000000003,1.592,5.5729999999999995
Germany,2020,4,0.20044207292671423,0.6343000000000003,1.592,5.5729999999999995
Greece,2020,1,0.001073472175204899,0.004900000000000002,0.002,0.049
Greece,2020,2,0.001073472175204899,0.004900000000000002,0.002,0.049
Greece,2020,3,0.001073472175204899,0.004900000000000002,0.002,0.049
Greece,2020,4,0.001073472175204899,0.004900000000000002,0.002,0.049
Hungary,2020,1,0.006772972002575317,0.007200000000000012,0.422,0.072
Hungary,2020,2,0.006772972002575317,0.007200000000000012,0.422,0.072
Hungary,2020,3,0.006772972002575317,0.007200000000000012,0.422,0.072
Hungary,2020,4,0.006772972002575317,0.007200000000000012,0.422,0.072
Ireland,2020,1,0.002766088058677998,0.005344400000000006,0.00545,0.053444000000000005
Ireland,2020,2,0.002766088058677998,0.005344400000000006,0.00545,0.053444000000000005
Ireland,2020,3,0.002766088058677998,0.005344400000000006,0.00545,0.053444000000000005
Ireland,2020,4,0.002766088058677998,0.005344400000000006,0.00545,0.053444000000000005
Italy,2020,1,0.0248513808912756,0.14560000000000017,0.615,1.324
Italy,2020,2,0.0248513808912756,0.14560000000000017,0.615,1.324
Italy,2020,3,0.0248513808912756,0.14560000000000017,0.615,1.324
Italy,2020,4,0.0248513808912756,0.14560000000000017,0.615,1.324
Latvia,2020,1,0.015665157557836012,0.006000000000000005,0.066,0.06
Latvia,2020,2,0.015665157557836012,0.006000000000000005,0.066,0.06
Latvia,2020,3,0.015665157557836012,0.006000000000000005,0.066,0.06
Latvia,2020,4,0.015665157557836012,0.006000000000000005,0.066,0.06
Lithuania,2020,1,0.009634333983269391,0.002100000000000001,0.045,0.021
Lithuania,2020,2,0.009634333983269391,0.002100000000000001,0.045,0.021
Lithuania,2020,3,0.009634333983269391,0.002100000000000001,0.045,0.021
Lithuania,2020,4,0.009634333983269391,0.002100000000000001,0.045,0.021
Luxembourg,2020,1,0.0005051941908923224,0.0011903000000000018,0.003915,0.011903
Luxembourg,2020,2,0.0005051941908923224,0.0011903000000000018,0.003915,0.011903
Luxembourg,2020,3,0.0005051941908923224,0.0011903000000000018,0.003915,0.011903
Luxembourg,2020,4,0.0005051941908923224,0.0011903000000000018,0.003915,0.011903
Malta,2020,1,0.0,0.00030000000000000035,0.0,0.003
Malta,2020,2,0.0,0.00030000000000000035,0.0,0.003
Malta,2020,3,0.0,0.00030000000000000035,0.0,0.003
Malta,2020,4,0.0,0.00030000000000000035,0.0,0.003
Netherlands,2020,1,0.08339675760836757,0.05890000000000002,0.299,0.20400000000000001
Netherlands,2020,2,0.08339675760836757,0.05890000000000002,0.299,0.20400000000000001
Netherlands,2020,3,0.08339675760836757,0.05890000000000002,0.299,0.20400000000000001
Netherlands,2020,4,0.08339675760836757,0.05890000000000002,0.299,0.20400000000000001
Poland,2020,1,0.09636288537969562,0.021600000000000008,0.737,0.216
Poland,2020,2,0.09636288537969562,0.021600000000000008,0.737,0.216
Poland,2020,3,0.09636288537969562,0.021600000000000008,0.737,0.216
Poland,2020,4,0.09636288537969562,0.021600000000000008,0.737,0.216
Portugal,2020,1,0.15313969925464818,0.007600000000000009,0.32399999999999995,0.065
Portugal,2020,2,0.15313969925464818,0.007600000000000009,0.32399999999999995,0.065
Portugal,2020,3,0.15313969925464818,0.007600000000000009,0.32399999999999995,0.065
Portugal,2020,4,0.15313969925464818,0.007600000000000009,0.32399999999999995,0.065
Romania,2020,1,0.03249489201550852,0.001400000000000002,0.104,0.014
Romania,2020,2,0.03249489201550852,0.001400000000000002,0.104,0.014
Romania,2020,3,0.03249489201550852,0.001400000000000002,0.104,0.014
Romania,2020,4,0.03249489201550852,0.001400000000000002,0.104,0.014
Slovakia,2020,1,0.019052216819192946,0.00910000000000001,0.145,0.091
Slovakia,2020,2,0.019052216819192946,0.00910000000000001,0.145,0.091
Slovakia,2020,3,0.019052216819192946,0.00910000000000001,0.145,0.091
Slovakia,2020,4,0.019052216819192946,0.00910000000000001,0.145,0.091
Slovenia,2020,1,0.009522947932949465,0.0032000000000000015,0.03,0.032
Slovenia,2020,2,0.009522947932949465,0.0032000000000000015,0.03,0.032
Slovenia,2020,3,0.009522947932949465,0.0032000000000000015,0.03,0.032
Slovenia,2020,4,0.009522947932949465,0.0032000000000000015,0.03,0.032
Spain,2020,1,0.18257380655486755,0.02240000000000003,0.5730000000000001,0.224
Spain,2020,2,0.18257380655486755,0.02240000000000003,0.5730000000000001,0.224
Spain,2020,3,0.18257380655486755,0.02240000000000003,0.5730000000000001,0.224
Spain,2020,4,0.18257380655486755,0.02240000000000003,0.5730000000000001,0.224
Sweden,2020,1,0.04199822926317065,0.0002000000000000001,3.7,0.002
Sweden,2020,2,0.04199822926317065,0.0002000000000000001,3.7,0.002
Sweden,2020,3,0.04199822926317065,0.0002000000000000001,3.7,0.002
Sweden,2020,4,0.04199822926317065,0.0002000000000000001,3.7,0.002
Switzerland,2020,1,0.0068571428571428394,0.007400000000000004,0.0,0.0
Switzerland,2020,2,0.0068571428571428394,0.007400000000000004,0.0,0.0
Switzerland,2020,3,0.0068571428571428394,0.007400000000000004,0.0,0.0
Switzerland,2020,4,0.0068571428571428394,0.007400000000000004,0.0,0.0
United Kingdom,2020,1,1.5486172359577268,0.3308000000000001,2.736,1.46
United Kingdom,2020,2,1.5486172359577268,0.3308000000000001,2.736,1.46
United Kingdom,2020,3,1.5486172359577268,0.3308000000000001,2.736,1.46
United Kingdom,2020,4,1.5486172359577268,0.3308000000000001,2.736,1.46
Austria,2025,1,0.5082614142427924,0.03828259999999972,0.8683299999999998,0.191413
Austria,2025,2,0.5873196208965862,0.07656519999999983,0.8683299999999998,0.191413
Austria,2025,3,0.66637782755038,0.11484779999999994,0.8683299999999998,0.191413
Austria,2025,4,0.7454360342041739,0.15313040000000006,0.8683299999999998,0.191413
Belgium,2025,1,0.048841337658075745,0.043600000000000354,0.588,0.176
Belgium,2025,2,0.04895746686958047,0.32420000000000015,0.588,0.176
Belgium,2025,3,0.04907359608108519,0.6047999999999999,0.588,0.176
Belgium,2025,4,0.049189725292589914,0.8853999999999999,0.588,0.176
Bulgaria,2025,1,0.1340550310027569,0.004,0.028000000000000004,0.02
Bulgaria,2025,2,0.24637070250732188,0.04133333333333333,0.028000000000000004,0.02
Bulgaria,2025,3,0.35868637401188685,0.07866666666666666,0.028000000000000004,0.02
Bulgaria,2025,4,0.47100204551645186,0.116,0.028000000000000004,0.02
Croatia,2025,1,0.040610720376609837,0.005500000000000001,0.025,0.0275
Croatia,2025,2,0.06474645192548828,0.045375,0.025,0.0275
Croatia,2025,3,0.08888218347436672,0.08525,0.025,0.0275
Croatia,2025,4,0.11301791502324515,0.12512500000000001,0.025,0.0275
Cyprus,2025,1,0.0,0.002,0.0,0.01
Cyprus,2025,2,0.0017864671540149062,0.004833333333333332,0.0,0.01
Cyprus,2025,3,0.0035729343080298124,0.0076666666666666645,0.0,0.01
Cyprus,2025,4,0.005359401462044719,0.010499999999999997,0.0,0.01
Czech Republic,2025,1,0.2975075191907214,0.07359999999999989,0.38,0.368
Czech Republic,2025,2,0.310511606673589,0.07750303030303023,0.38,0.368
Czech Republic,2025,3,0.32351569415645665,0.08140606060606055,0.38,0.368
Czech Republic,2025,4,0.3365197816393243,0.08530909090909089,0.38,0.368
Denmark,2025,1,0.12848575679945728,0.05274939999999993,0.973414,0.07174700000000002
Denmark,2025,2,0.14767955311482708,0.31125234166666654,0.973414,0.07174700000000002
Denmark,2025,3,0.16687334943019688,0.5697552833333333,0.973414,0.07174700000000002
Denmark,2025,4,0.1860671457455667,0.828258225,0.973414,0.07174700000000002
Estonia,2025,1,0.07326397176055136,0.0021999999999999832,0.165,0.011
Estonia,2025,2,0.07665298915924691,0.00898333333333332,0.165,0.011
Estonia,2025,3,0.08004200655794248,0.015766666666666658,0.165,0.011
Estonia,2025,4,0.08343102395663804,0.022549999999999997,0.165,0.011
Finland,2025,1,1.169388277635284,1.599999999999997e-05,0.6869999999999998,0.0
Finland,2025,2,1.321718375887333,0.000132,0.6869999999999998,0.0
Finland,2025,3,1.4740484741393822,0.000248,0.6869999999999998,0.0
Finland,2025,4,1.6263785723914315,0.00036400000000000007,0.6869999999999998,0.0
France,2025,1,0.3090710911913679,0.06819419999999982,0.565788,0.340971
France,2025,2,0.39324047807493834,0.9490359499999999,0.565788,0.340971
France,2025,3,0.4774098649585088,1.8298777,0.565788,0.340971
France,2025,4,0.5615792518420792,2.71071945,0.565788,0.340971
Germany,2025,1,0.40088414585342824,1.3966000000000052,1.592,5.375
Germany,2025,2,0.7288680112033156,1.444235714285718,1.592,5.375
Germany,2025,3,1.056851876553203,1.491871428571431,1.592,5.375
Germany,2025,4,1.3848357419030903,1.5395071428571439,1.592,5.375
Greece,2025,1,0.002146944350409798,0.009799999999999913,0.002,0.049
Greece,2025,2,0.06712787005950338,0.02368333333333328,0.002,0.049
Greece,2025,3,0.13210879576859696,0.037566666666666644,0.002,0.049
Greece,2025,4,0.19708972147769055,0.05145000000000001,0.002,0.049
Hungary,2025,1,0.013545944005150634,0.014399999999999982,0.422,0.072
Hungary,2025,2,0.17367240021506233,0.11879999999999998,0.422,0.072
Hungary,2025,3,0.33379885642497403,0.22319999999999995,0.422,0.072
Hungary,2025,4,0.49392531263488576,0.32759999999999995,0.422,0.072
Ireland,2025,1,0.005532176117355996,0.025688800000000053,0.00545,0.038444000000000006
Ireland,2025,2,0.0637469669841054,0.3704026,0.00545,0.038444000000000006
Ireland,2025,3,0.1219617578508548,0.7151164,0.00545,0.038444000000000006
Ireland,2025,4,0.1801765487176042,1.0598302,0.00545,0.038444000000000006
Italy,2025,1,0.18470276178255118,0.41120000000000234,0.479,1.1920000000000002
Italy,2025,2,0.30386039174036694,0.5670666666666683,0.479,1.1920000000000002
Italy,2025,3,0.4230180216981827,0.7229333333333342,0.479,1.1920000000000002
Italy,2025,4,0.5421756516559985,0.8788000000000001,0.479,1.1920000000000002
Latvia,2025,1,0.031330315115672025,0.01200000000000001,0.066,0.06
Latvia,2025,2,0.061686127490603794,0.019000000000000006,0.066,0.06
Latvia,2025,3,0.09204193986553556,0.026000000000000002,0.066,0.06
Latvia,2025,4,0.12239775224046734,0.033,0.066,0.06
Lithuania,2025,1,0.019268667966538783,0.004200000000000034,0.045,0.021
Lithuania,2025,2,0.048085482592945865,0.03465000000000003,0.045,0.021
Lithuania,2025,3,0.07690229721935295,0.06510000000000002,0.045,0.021
Lithuania,2025,4,0.10571911184576004,0.09555000000000001,0.045,0.021
Luxembourg,2025,1,0.001010388381784644,0.0023805999999999845,0.003915,0.011903
Luxembourg,2025,2,0.007756128285140316,0.005753116666666657,0.003915,0.011903
Luxembourg,2025,3,0.014501868188495987,0.00912563333333333,0.003915,0.011903
Luxembourg,2025,4,0.02124760809185166,0.012498150000000003,0.003915,0.011903
Malta,2025,1,0.0,0.0006000000000000033,0.0,0.003
Malta,2025,2,0.0,0.0008000000000000023,0.0,0.003
Malta,2025,3,0.0,0.0010000000000000013,0.0,0.003
Malta,2025,4,0.0,0.0012000000000000005,0.0,0.003
Netherlands,2025,1,0.16679351521673508,0.09680000000000005,0.299,0.19
Netherlands,2025,2,0.18833725208323945,0.3902388888888888,0.299,0.19
Netherlands,2025,3,0.20988098894974383,0.6836777777777776,0.299,0.19
Netherlands,2025,4,0.23142472581624823,0.9771166666666664,0.299,0.19
Poland,2025,1,0.19272577075939112,0.0502000000000001,0.737,0.209
Poland,2025,2,0.35510116310201084,0.4354000000000001,0.737,0.209
Poland,2025,3,0.5174765554446306,0.8206000000000001,0.737,0.209
Poland,2025,4,0.6798519477872503,1.2058,0.737,0.209
Portugal,2025,1,0.19027939850929643,0.014200000000000101,0.293,0.065
Portugal,2025,2,0.21242354905463165,0.15390000000000006,0.293,0.065
Portugal,2025,3,0.23456769959996687,0.2936,0.293,0.065
Portugal,2025,4,0.2567118501453021,0.4333,0.293,0.065
Romania,2025,1,0.06498978403101703,0.002800000000000023,0.104,0.014
Romania,2025,2,0.17705247097522792,0.4897666666666667,0.104,0.014
Romania,2025,3,0.2891151579194388,0.9767333333333333,0.104,0.014
Romania,2025,4,0.4011778448636497,1.4637,0.104,0.014
Slovakia,2025,1,0.03810443363838589,0.018200000000000188,0.145,0.091
Slovakia,2025,2,0.10047992179353504,0.07431666666666678,0.145,0.091
Slovakia,2025,3,0.1628554099486842,0.13043333333333337,0.145,0.091
Slovakia,2025,4,0.22523089810383337,0.18654999999999997,0.145,0.091
Slovenia,2025,1,0.01904589586589893,0.007399999999999967,0.03,0.031
Slovenia,2025,2,0.03409332432828391,0.016466666666666643,0.03,0.031
Slovenia,2025,3,0.04914075279066889,0.025533333333333325,0.03,0.031
Slovenia,2025,4,0.06418818125305387,0.034600000000000006,0.03,0.031
Spain,2025,1,0.27314761310973523,0.04480000000000037,0.561,0.224
Spain,2025,2,0.4116557393423429,0.36960000000000026,0.561,0.224
Spain,2025,3,0.5501638655749506,0.6944000000000001,0.561,0.224
Spain,2025,4,0.6886719918075582,1.0192,0.561,0.224
Sweden,2025,1,0.4029964585263415,0.000399999999999998,3.3810000000000002,0.002
Sweden,2025,2,0.4136290384083798,0.0019666666666666656,3.3810000000000002,0.002
Sweden,2025,3,0.42426161829041803,0.003533333333333333,3.3810000000000002,0.002
Sweden,2025,4,0.43489419817245634,0.0051,3.3810000000000002,0.002
Switzerland,2025,1,0.013714285714285734,0.014800000000000146,0.0,0.0
Switzerland,2025,2,0.0875426367065907,0.035766666666666766,0.0,0.0
Switzerland,2025,3,0.16137098769889566,0.056733333333333386,0.0,0.0
Switzerland,2025,4,0.23519933869120063,0.0777,0.0,0.0
United Kingdom,2025,1,3.097234471915453,0.7216000000000015,2.736,1.2319999999999998
United Kingdom,2025,2,3.1619960433093284,0.8437000000000009,2.736,1.2319999999999998
United Kingdom,2025,3,3.2267576147032035,0.9658000000000003,2.736,1.2319999999999998
United Kingdom,2025,4,3.2915191860970787,1.0878999999999999,2.736,1.2319999999999998
Austria,2030,1,0.7272466213641886,0.05742389999999947,0.8683299999999998,0.191413
Austria,2030,2,0.8853630346717762,0.13398909999999964,0.8683299999999998,0.191413
Austria,2030,3,1.0434794479793639,0.21055429999999983,0.8683299999999998,0.191413
Austria,2030,4,1.2015958612869517,0.2871195,0.8683299999999998,0.191413
Belgium,2030,1,0.07326200648711367,0.10190000000000059,0.588,0.136
Belgium,2030,2,0.07349426491012312,0.6631000000000004,0.588,0.136
Belgium,2030,3,0.07372652333313257,1.2243,0.588,0.136
Belgium,2030,4,0.07395878175614201,1.7854999999999999,0.588,0.136
Bulgaria,2030,1,0.19808254650413534,0.006000000000000002,0.028000000000000004,0.02
Bulgaria,2030,2,0.4227138895132653,0.08066666666666666,0.028000000000000004,0.02
Bulgaria,2030,3,0.6473452325223953,0.15533333333333332,0.028000000000000004,0.02
Bulgaria,2030,4,0.8719765755315253,0.23,0.028000000000000004,0.02
Croatia,2030,1,0.06091608056491476,0.00824999999999999,0.025,0.0275
Croatia,2030,2,0.10918754366267164,0.08800000000000001,0.025,0.0275
Croatia,2030,3,0.1574590067604285,0.16775,0.025,0.0275
Croatia,2030,4,0.20573046985818538,0.24750000000000003,0.025,0.0275
Cyprus,2030,1,0.0,0.003000000000000001,0.0,0.01
Cyprus,2030,2,0.0035729343080298124,0.008666666666666666,0.0,0.01
Cyprus,2030,3,0.007145868616059625,0.01433333333333333,0.0,0.01
Cyprus,2030,4,0.010718802924089438,0.019999999999999997,0.0,0.01
Czech Republic,2030,1,0.5242612787860821,0.13539999999999983,0.30200000000000005,0.34299999999999997
Czech Republic,2030,2,0.5502694537518174,0.14320606060606048,0.30200000000000005,0.34299999999999997
Czech Republic,2030,3,0.5762776287175525,0.1510121212121211,0.30200000000000005,0.34299999999999997
Czech Republic,2030,4,0.6022858036832877,0.15881818181818172,0.30200000000000005,0.34299999999999997
Denmark,2030,1,0.19272863519918593,0.08512409999999984,0.973414,0.04974700000000001
Denmark,2030,2,0.23111622782992552,0.6021299833333333,0.973414,0.04974700000000001
Denmark,2030,3,0.2695038204606651,1.1191358666666666,0.973414,0.04974700000000001
Denmark,2030,4,0.3078914130914048,1.6361417500000002,0.973414,0.04974700000000001
Estonia,2030,1,0.10989595764082702,0.004299999999999973,0.165,0.009999999999999998
Estonia,2030,2,0.11667399243821815,0.01786666666666665,0.165,0.009999999999999998
Estonia,2030,3,0.12345202723560926,0.03143333333333332,0.165,0.009999999999999998
Estonia,2030,4,0.1302300620330004,0.045,0.165,0.009999999999999998
Finland,2030,1,1.722082416452926,2.3999999999999946e-05,0.18699999999999983,0.0
Finland,2030,2,2.0267426129570243,0.000256,0.18699999999999983,0.0
Finland,2030,3,2.3314028094611223,0.000488,0.18699999999999983,0.0
Finland,2030,4,2.6360630059652204,0.00072,0.18699999999999983,0.0
France,2030,1,0.6119546367870518,0.1752912999999997,0.4174399999999999,0.267971
France,2030,2,0.7802934105541927,1.9369747999999998,0.4174399999999999,0.267971
France,2030,3,0.9486321843213337,3.6986583,0.4174399999999999,0.267971
France,2030,4,1.1169709580884746,5.460341800000001,0.4174399999999999,0.267971
Germany,2030,1,1.3923262187801422,2.345900000000008,0.8010000000000002,4.99
Germany,2030,2,2.0482939494799166,2.441171428571434,0.8010000000000002,4.99
Germany,2030,3,2.704261680179691,2.53644285714286,0.8010000000000002,4.99
Germany,2030,4,3.360229410879466,2.631714285714286,0.8010000000000002,4.99
Greece,2030,1,0.003220416525614698,0.03869999999999984,0.002,0.025
Greece,2030,2,0.13318226794380184,0.06646666666666656,0.002,0.025
Greece,2030,3,0.263144119361989,0.09423333333333328,0.002,0.025
Greece,2030,4,0.3931059707801762,0.12200000000000003,0.002,0.025
Hungary,2030,1,0.02031891600772595,0.025600000000000036,0.422,0.06799999999999999
Hungary,2030,2,0.3405718284275494,0.23440000000000003,0.422,0.06799999999999999
Hungary,2030,3,0.6608247408473729,0.44320000000000004,0.422,0.06799999999999999
Hungary,2030,4,0.9810776532671963,0.652,0.422,0.06799999999999999
Ireland,2030,1,0.010128264176033993,0.03103320000000008,0.00362,0.038444000000000006
Ireland,2030,2,0.1265578459095328,0.7204608000000002,0.00362,0.038444000000000006
Ireland,2030,3,0.24298742764303163,1.4098884000000003,0.00362,0.038444000000000006
Ireland,2030,4,0.3594170093765304,2.0993160000000004,0.00362,0.038444000000000006
Italy,2030,1,0.39355414267382677,0.6688000000000036,0.294,1.068
Italy,2030,2,0.6318694025894582,0.9805333333333357,0.294,1.068
Italy,2030,3,0.8701846625050897,1.292266666666668,0.294,1.068
Italy,2030,4,1.1084999224207213,1.604,0.294,1.068
Latvia,2030,1,0.04899547267350804,0.024000000000000014,0.064,0.054
Latvia,2030,2,0.10970709742337156,0.038000000000000006,0.064,0.054
Latvia,2030,3,0.17041872217323512,0.052,0.064,0.054
Latvia,2030,4,0.23113034692309864,0.066,0.064,0.054
Lithuania,2030,1,0.029903001949808175,0.009300000000000072,0.044,0.018000000000000002
Lithuania,2030,2,0.08753663120262235,0.07020000000000005,0.044,0.018000000000000002
Lithuania,2030,3,0.14517026045543652,0.13110000000000005,0.044,0.018000000000000002
Lithuania,2030,4,0.2028038897082507,0.19200000000000003,0.044,0.018000000000000002
Luxembourg,2030,1,0.0015155825726769663,0.008099899999999964,0.003915,0.007374000000000002
Luxembourg,2030,2,0.015007062379388312,0.01484493333333331,0.003915,0.007374000000000002
Luxembourg,2030,3,0.028498542186099658,0.021589966666666655,0.003915,0.007374000000000002
Luxembourg,2030,4,0.041990021992811,0.028335000000000003,0.003915,0.007374000000000002
Malta,2030,1,0.0,0.0009000000000000067,0.0,0.003
Malta,2030,2,0.0,0.0013000000000000045,0.0,0.003
Malta,2030,3,0.0,0.0017000000000000023,0.0,0.003
Malta,2030,4,0.0,0.0021000000000000003,0.0,0.003
Netherlands,2030,1,0.2501902728251026,0.1307000000000001,0.299,0.18
Netherlands,2030,2,0.29327774655811134,0.7175777777777776,0.299,0.18
Netherlands,2030,3,0.33636522029112015,1.3044555555555553,0.299,0.18
Netherlands,2030,4,0.3794526940241289,1.891333333333333,0.299,0.18
Poland,2030,1,0.31308865613908676,0.08880000000000032,0.713,0.192
Poland,2030,2,0.6378394408243262,0.8592000000000001,0.713,0.192
Poland,2030,3,0.9625902255095656,1.6296,0.713,0.192
Poland,2030,4,1.287341010194805,2.4,0.713,0.192
Portugal,2030,1,0.21541909776394463,0.02580000000000015,0.27399999999999997,0.060000000000000005
Portugal,2030,2,0.25970739885461513,0.30520000000000014,0.27399999999999997,0.060000000000000005
Portugal,2030,3,0.3039956999452856,0.5846000000000001,0.27399999999999997,0.060000000000000005
Portugal,2030,4,0.3482840010359561,0.8640000000000001,0.27399999999999997,0.060000000000000005
Romania,2030,1,0.09748467604652554,0.004200000000000035,0.104,0.014
Romania,2030,2,0.32161004993494724,0.9781333333333333,0.104,0.014
Romania,2030,3,0.5457354238233689,1.9520666666666666,0.104,0.014
Romania,2030,4,0.7698607977117907,2.926,0.104,0.014
Slovakia,2030,1,0.06815665045757884,0.027300000000000282,0.13399999999999998,0.091
Slovakia,2030,2,0.19290762676787712,0.1395333333333335,0.13399999999999998,0.091
Slovakia,2030,3,0.3176586030781754,0.25176666666666675,0.13399999999999998,0.091
Slovakia,2030,4,0.4424095793884737,0.364,0.13399999999999998,0.091
Slovenia,2030,1,0.0285688437988484,0.013599999999999949,0.03,0.028
Slovenia,2030,2,0.05866370072361836,0.031733333333333294,0.03,0.028
Slovenia,2030,3,0.08875855764838833,0.04986666666666664,0.03,0.028
Slovenia,2030,4,0.11885341457315829,0.068,0.03,0.028
Spain,2030,1,0.557721419664603,0.19220000000000056,0.35500000000000004,0.099
Spain,2030,2,0.8347376721298183,0.8418000000000003,0.35500000000000004,0.099
Spain,2030,3,1.1117539245950336,1.4914,0.35500000000000004,0.099
Spain,2030,4,1.388770177060249,2.141,0.35500000000000004,0.099
Sweden,2030,1,0.7329946877895122,0.0005999999999999968,3.093,0.002
Sweden,2030,2,0.7542598475535888,0.003733333333333331,3.093,0.002
Sweden,2030,3,0.7755250073176653,0.006866666666666665,3.093,0.002
Sweden,2030,4,0.7967901670817419,0.01,3.093,0.002
Switzerland,2030,1,0.020571428571428574,0.02220000000000022,0.0,0.0
Switzerland,2030,2,0.16822813055603855,0.06413333333333346,0.0,0.0
Switzerland,2030,3,0.31588483254064853,0.10606666666666671,0.0,0.0
Switzerland,2030,4,0.46354153452525854,0.14799999999999996,0.0,0.0
United Kingdom,2030,1,4.764851707873179,1.2884000000000007,2.617,0.8279999999999998
United Kingdom,2030,2,4.89437485066093,1.5326000000000004,2.617,0.8279999999999998
United Kingdom,2030,3,5.0238979934486805,1.7768000000000002,2.617,0.8279999999999998
United Kingdom,2030,4,5.153421136236432,2.021,2.617,0.8279999999999998
Austria,2035,1,1.7404178284855845,0.22351019999999933,0.07414399999999999,0.04446800000000001
Austria,2035,2,1.977592448446966,0.3245240724837336,0.07414399999999999,0.04446800000000001
Austria,2035,3,2.2147670684083476,0.4255379449674679,0.07414399999999999,0.04446800000000001
Austria,2035,4,2.4519416883697294,0.5265518174512023,0.07414399999999999,0.04446800000000001
Belgium,2035,1,0.5036826753161519,0.1782000000000009,0.18199999999999977,0.078
Belgium,2035,2,0.5040310629506659,0.9186014518067152,0.18199999999999977,0.078
Belgium,2035,3,0.5043794505851801,1.6590029036134295,0.18199999999999977,0.078
Belgium,2035,4,0.5047278382196942,2.3994043554201436,0.18199999999999977,0.078
Bulgaria,2035,1,0.2621100620055138,0.008000000000000014,0.028000000000000004,0.02
Bulgaria,2035,2,0.5990570765192088,0.10650910264000002,0.028000000000000004,0.02
Bulgaria,2035,3,0.9360040910329038,0.20501820528000003,0.028000000000000004,0.02
Bulgaria,2035,4,1.272951105546599,0.30352730792000004,0.028000000000000004,0.02
Croatia,2035,1,0.08122144075321969,0.015499999999999965,0.025,0.023
Croatia,2035,2,0.153628635399855,0.12071563752955364,0.025,0.023
Croatia,2035,3,0.2260358300464903,0.2259312750591073,0.025,0.023
Croatia,2035,4,0.2984430246931256,0.33114691258866097,0.025,0.023
Cyprus,2035,1,0.0,0.012000000000000007,0.0,0.002
Cyprus,2035,2,0.005359401462044719,0.01947613725392857,0.0,0.002
Cyprus,2035,3,0.010718802924089438,0.026952274507857137,0.0,0.002
Cyprus,2035,4,0.016078204386134158,0.0344284117617857,0.0,0.002
Czech Republic,2035,1,0.8250150383814429,0.24319999999999978,0.15,0.272
Czech Republic,2035,2,0.8640273008300456,0.25349867891236333,0.15,0.272
Czech Republic,2035,3,0.9030395632786483,0.2637973578247269,0.15,0.272
Czech Republic,2035,4,0.9420518257272511,0.2740960367370905,0.15,0.272
Denmark,2035,1,0.7093855135989147,0.11549879999999983,0.5209999999999999,0.02974700000000001
Denmark,2035,2,0.7669669025450241,0.7975941432156322,0.5209999999999999,0.02974700000000001
Denmark,2035,3,0.8245482914911335,1.4796894864312646,0.5209999999999999,0.02974700000000001
Denmark,2035,4,0.8821296804372429,2.161784829646897,0.5209999999999999,0.02974700000000001
Estonia,2035,1,0.19152794352110267,0.006399999999999961,0.12000000000000002,0.009
Estonia,2035,2,0.20169499571718938,0.024298752131464263,0.12000000000000002,0.009
Estonia,2035,3,0.2118620479132761,0.042197504262928565,0.12000000000000002,0.009
Estonia,2035,4,0.2220291001093628,0.060096256394392866,0.12000000000000002,0.009
Finland,2035,1,1.831776555270568,3.199999999999995e-05,0.1299999999999999,0.0
Finland,2035,2,2.288766850026715,0.0003380818546314287,0.1299999999999999,0.0
Finland,2035,3,2.7457571447828624,0.0006441637092628573,0.1299999999999999,0.0
Finland,2035,4,3.2027474395390096,0.000950245563894286,0.1299999999999999,0.0
France,2035,1,0.8154901823827357,0.29538839999999955,0.36844,0.18197100000000002
France,2035,2,1.0679983430334472,2.6196097489378714,0.36844,0.18197100000000002
France,2035,3,1.3205065036841586,4.943831097875743,0.36844,0.18197100000000002
France,2035,4,1.5730146643348701,7.268052446813615,0.36844,0.18197100000000002
Germany,2035,1,2.235768291706856,5.244200000000009,0.15800000000000014,2.6559999999999997
Germany,2035,2,3.2197198877565185,5.369893342890214,0.15800000000000014,2.6559999999999997
Germany,2035,3,4.203671483806181,5.495586685780419,0.15800000000000014,2.6559999999999997
Germany,2035,4,5.187623079855842,5.621280028670625,0.15800000000000014,2.6559999999999997
Greece,2035,1,0.004293888700819597,0.05959999999999977,0.002,0.009000000000000001
Greece,2035,2,0.19923666582810035,0.09623307254424984,0.002,0.009000000000000001
Greece,2035,3,0.3941794429553811,0.1328661450884999,0.002,0.009000000000000001
Greece,2035,4,0.5891222200826619,0.16949921763274997,0.002,0.009000000000000001
Hungary,2035,1,0.22409188801030122,0.052800000000000076,0.22499999999999998,0.047999999999999994
Hungary,2035,2,0.7044712566400364,0.3282736691682858,0.22499999999999998,0.047999999999999994
Hungary,2035,3,1.1848506252697715,0.6037473383365716,0.22499999999999998,0.047999999999999994
Hungary,2035,4,1.6652299938995068,0.8792210075048573,0.22499999999999998,0.047999999999999994
Ireland,2035,1,0.01641435223471199,0.050999600000000145,0.00010000000000000026,0.023822000000000006
Ireland,2035,2,0.19105872483496023,0.960574076043512,0.00010000000000000026,0.023822000000000006
Ireland,2035,3,0.36570309743520846,1.8701485520870238,0.00010000000000000026,0.023822000000000006
Ireland,2035,4,0.5403474700354567,2.7797230281305354,0.00010000000000000026,0.023822000000000006
Italy,2035,1,0.49740552356510237,0.8934000000000049,0.21399999999999997,0.9770000000000001
Italy,2035,2,0.8548784134385498,1.3046755035220028,0.21399999999999997,0.9770000000000001
Italy,2035,3,1.2123513033119973,1.715951007044001,0.21399999999999997,0.9770000000000001
Italy,2035,4,1.5698241931854446,2.1272265105659987,0.21399999999999997,0.9770000000000001
Latvia,2035,1,0.06466063023134405,0.03200000000000002,0.064,0.052
Latvia,2035,2,0.15572806735613937,0.05047045674500005,0.064,0.052
Latvia,2035,3,0.24679550448093468,0.06894091349000009,0.064,0.052
Latvia,2035,4,0.33786294160573,0.08741137023500012,0.064,0.052
Lithuania,2035,1,0.053537335933077565,0.016400000000000116,0.03,0.013000000000000001
Lithuania,2035,2,0.13998777981229882,0.0967464868407501,0.03,0.013000000000000001
Lithuania,2035,3,0.2264382236915201,0.17709297368150007,0.03,0.013000000000000001
Lithuania,2035,4,0.3128886675707414,0.25743946052225003,0.03,0.013000000000000001
Luxembourg,2035,1,0.002020776763569288,0.01376519999999996,0.003915,0.0028990000000000023
Luxembourg,2035,2,0.022257996473636306,0.022664046173351153,0.003915,0.0028990000000000023
Luxembourg,2035,3,0.04249521618370332,0.03156289234670234,0.003915,0.0028990000000000023
Luxembourg,2035,4,0.06273243589377034,0.04046173852005354,0.003915,0.0028990000000000023
Malta,2035,1,0.0,0.00120000000000001,0.0,0.003
Malta,2035,2,0.0,0.0017277273355714375,0.0,0.003
Malta,2035,3,0.0,0.002255454671142865,0.0,0.003
Malta,2035,4,0.0,0.0027831820067142927,0.0,0.003
Netherlands,2035,1,0.4955870304334703,0.28160000000000013,0.1369999999999999,0.05299999999999999
Netherlands,2035,2,0.5602182410329835,1.055878614931869,0.1369999999999999,0.05299999999999999
Netherlands,2035,3,0.6248494516324965,1.8301572298637379,0.1369999999999999,0.05299999999999999
Netherlands,2035,4,0.6894806622320098,2.604435844795607,0.1369999999999999,0.05299999999999999
Poland,2035,1,0.42745154151878234,0.15440000000000023,0.695,0.148
Poland,2035,2,0.9145777185466415,1.1708028483105721,0.695,0.148
Poland,2035,3,1.4017038955745005,2.187205696621144,0.695,0.148
Poland,2035,4,1.88883007260236,3.203608544931716,0.695,0.148
Portugal,2035,1,0.33955879701859293,0.046400000000000205,0.15599999999999986,0.046
Portugal,2035,2,0.4059912486545987,0.4150175438966429,0.15599999999999986,0.046
Portugal,2035,3,0.4724237002906044,0.7836350877932856,0.15599999999999986,0.046
Portugal,2035,4,0.5388561519266102,1.1522526316899284,0.15599999999999986,0.046
Romania,2035,1,0.1299795680620341,0.005600000000000037,0.104,0.014
Romania,2035,2,0.4661676288946666,1.2905281075605004,0.104,0.014
Romania,2035,3,0.8023556897272992,2.5754562151210005,0.104,0.014
Romania,2035,4,1.1385437505599318,3.8603843226815013,0.104,0.014
Slovakia,2035,1,0.20320886727677182,0.03640000000000035,0.017999999999999988,0.091
Slovakia,2035,2,0.39033533174221924,0.1844714949057503,0.017999999999999988,0.091
Slovakia,2035,3,0.5774617962076667,0.3325429898115002,0.017999999999999988,0.091
Slovakia,2035,4,0.7645882606731141,0.4806144847172502,0.017999999999999988,0.091
Slovenia,2035,1,0.06809179173179786,0.023799999999999922,0.0,0.021
Slovenia,2035,2,0.11323407711895281,0.04772363921257135,0.0,0.021
Slovenia,2035,3,0.15837636250610776,0.07164727842514278,0.0,0.021
Slovenia,2035,4,0.2035186478932627,0.0955709176377142,0.0,0.021
Spain,2035,1,0.8162952262194705,0.2666000000000006,0.17500000000000004,0.047000000000000014
Spain,2035,2,1.2318196049172934,1.1236291929680007,0.17500000000000004,0.047000000000000014
Spain,2035,3,1.6473439836151165,1.980658385936001,0.17500000000000004,0.047000000000000014
Spain,2035,4,2.0628683623129396,2.8376875789040015,0.17500000000000004,0.047000000000000014
Sweden,2035,1,2.8789929170526825,0.0007999999999999952,0.9890000000000003,0.002
Sweden,2035,2,2.9108906566987973,0.004933864128642851,0.9890000000000003,0.002
Sweden,2035,3,2.942788396344912,0.009067728257285707,0.9890000000000003,0.002
Sweden,2035,4,2.974686135991027,0.013201592385928565,0.9890000000000003,0.002
Switzerland,2035,1,0.027428571428571413,0.029600000000000265,0.0,0.0
Switzerland,2035,2,0.24891362440548642,0.08492341567907166,0.0,0.0
Switzerland,2035,3,0.47039867738240143,0.1402468313581431,0.0,0.0
Switzerland,2035,4,0.6918837303593164,0.19557024703721448,0.0,0.0
United Kingdom,2035,1,6.639468943830906,1.7192000000000005,2.291,0.5599999999999998
United Kingdom,2035,2,6.833753658012532,2.041377538366358,2.291,0.5599999999999998
United Kingdom,2035,3,7.028038372194158,2.363555076732715,2.291,0.5599999999999998
United Kingdom,2035,4,7.222323086375784,2.685732615099073,2.291,0.5599999999999998
Austria,2040,1,2.033547035606981,0.28457949999999943,0.0,0.0025399999999999867
Austria,2040,2,2.349779862222156,0.41522860153307795,0.0,0.0025399999999999867
Austria,2040,3,2.6660126888373314,0.5458777030661566,0.0,0.0025399999999999867
Austria,2040,4,2.982245515452507,0.6765268045992351,0.0,0.0025399999999999867
Belgium,2040,1,0.6751033441451897,0.2635000000000012,0.03499999999999981,0.01100000000000001
Belgium,2040,2,0.6755678609912085,1.2211188109005582,0.03499999999999981,0.01100000000000001
Belgium,2040,3,0.6760323778372274,2.1787376218011154,0.03499999999999981,0.01100000000000001
Belgium,2040,4,0.6764968946832461,3.1363564327016724,0.03499999999999981,0.01100000000000001
Bulgaria,2040,1,0.35013757750689223,0.020000000000000025,0.0040000000000000036,0.01
Bulgaria,2040,2,0.7994002635251523,0.1474094877890977,0.0040000000000000036,0.01
Bulgaria,2040,3,1.2486629495434123,0.27481897557819535,0.0040000000000000036,0.01
Bulgaria,2040,4,1.6979256355616723,0.402228463367293,0.0040000000000000036,0.01
Croatia,2040,1,0.10952680094152462,0.030249999999999947,0.017,0.011
Croatia,2040,2,0.20606972713703836,0.166333571221168,0.017,0.011
Croatia,2040,3,0.3026126533325521,0.30241714244233603,0.017,0.011
Croatia,2040,4,0.39915557952806585,0.43850071366350407,0.017,0.011
Cyprus,2040,1,0.0,0.015000000000000013,0.0,0.0
Cyprus,2040,2,0.007145868616059625,0.024669470055422603,0.0,0.0
Cyprus,2040,3,0.01429173723211925,0.03433894011084519,0.0,0.0
Cyprus,2040,4,0.021437605848178876,0.04400841016626778,0.0,0.0
Czech Republic,2040,1,1.0987687979768035,0.5509999999999997,0.025000000000000022,0.0010000000000000009
Czech Republic,2040,2,1.150785147908274,0.5643200828143143,0.025000000000000022,0.0010000000000000009
Czech Republic,2040,3,1.202801497839744,0.5776401656286289,0.025000000000000022,0.0010000000000000009
Czech Republic,2040,4,1.2548178477712146,0.5909602484429435,0.025000000000000022,0.0010000000000000009
Denmark,2040,1,1.2946283919986432,0.1478734999999998,0.0,0.007747000000000004
Denmark,2040,2,1.3714035772601223,1.0300804836533477,0.0,0.007747000000000004
Denmark,2040,3,1.4481787625216016,1.9122874673066956,0.0,0.007747000000000004
Denmark,2040,4,1.524953947783081,2.794494450960044,0.0,0.007747000000000004
Estonia,2040,1,0.3481599294013784,0.013499999999999946,0.0,0.002999999999999999
Estonia,2040,2,0.3617159989961607,0.036649848897394054,0.0,0.002999999999999999
Estonia,2040,3,0.37527206859094286,0.05979969779478816,0.0,0.002999999999999999
Estonia,2040,4,0.38882813818572515,0.08294954669218227,0.0,0.002999999999999999
Finland,2040,1,2.01447069408821,3.999999999999989e-05,0.0,0.0
Finland,2040,2,2.623791087096406,0.0004358794799161246,0.0,0.0
Finland,2040,3,3.2331114801046024,0.0008317589598322493,0.0,0.0
Finland,2040,4,3.8424318731127984,0.001227638439748374,0.0,0.0
France,2040,1,1.2646357279784195,0.45075749999999964,0.07382999999999995,0.060699
France,2040,2,1.6013132755127013,3.45685382653801,0.07382999999999995,0.060699
France,2040,3,1.9379908230469831,6.462950153076021,0.07382999999999995,0.060699
France,2040,4,2.274668370581265,9.469046479614033,0.07382999999999995,0.060699
Germany,2040,1,2.5912103646335707,8.258500000000012,0.0030000000000001137,0.20599999999999952
Germany,2040,2,3.90314582603312,8.421068981007434,0.0030000000000001137,0.20599999999999952
Germany,2040,3,5.215081287432669,8.583637962014857,0.0030000000000001137,0.20599999999999952
Germany,2040,4,6.527016748832219,8.746206943022278,0.0030000000000001137,0.20599999999999952
Greece,2040,1,0.005367360876024497,0.0714999999999997,0.002,0.0020000000000000018
Greece,2040,2,0.26529106371239886,0.11888040327157048,0.002,0.0020000000000000018
Greece,2040,3,0.5252147665487732,0.16626080654314127,0.002,0.0020000000000000018
Greece,2040,4,0.7851384693851475,0.21364120981471202,0.002,0.0020000000000000018
Hungary,2040,1,0.4558648600128765,0.09900000000000012,0.0,0.008999999999999994
Hungary,2040,2,1.0963706848525234,0.4552915319245124,0.0,0.008999999999999994
Hungary,2040,3,1.7368765096921703,0.8115830638490247,0.0,0.008999999999999994
Hungary,2040,4,2.3773823345318172,1.1678745957735368,0.0,0.008999999999999994
Ireland,2040,1,0.01928044029338999,0.08016600000000021,0.0,-6.938893903907228e-18
Ireland,2040,2,0.25213960376038763,1.256589447102681,0.0,-6.938893903907228e-18
Ireland,2040,3,0.4849987672273853,2.433012894205362,0.0,-6.938893903907228e-18
Ireland,2040,4,0.7178579306943829,3.6094363413080433,0.0,-6.938893903907228e-18
Italy,2040,1,0.7352569044563779,2.004000000000006,0.0,0.0
Italy,2040,2,1.211887424287641,2.5359346115194863,0.0,0.0
Italy,2040,3,1.6885179441189044,3.0678692230389664,0.0,0.0
Italy,2040,4,2.1651484639501675,3.599803834558447,0.0,0.0
Latvia,2040,1,0.1413257877891801,0.08800000000000002,0.0030000000000000027,0.001999999999999995
Latvia,2040,2,0.26274903728890714,0.1118892789604559,0.0030000000000000027,0.001999999999999995
Latvia,2040,3,0.3841722867886342,0.13577855792091179,0.0030000000000000027,0.001999999999999995
Latvia,2040,4,0.5055955362883613,0.15966783688136765,0.0030000000000000027,0.001999999999999995
Lithuania,2040,1,0.09317166991634696,0.030500000000000152,0.0,0.0010000000000000009
Lithuania,2040,2,0.2084389284219753,0.13441836347798283,0.0,0.0010000000000000009
Lithuania,2040,3,0.32370618692760367,0.23833672695596553,0.0,0.0010000000000000009
Lithuania,2040,4,0.438973445433232,0.3422550904339483,0.0,0.0010000000000000009
Luxembourg,2040,1,0.006275970954461611,0.016390499999999943,0.00016500000000000022,0.001464
Luxembourg,2040,2,0.0332589305678843,0.027900070206969472,0.00016500000000000022,0.001464
Luxembourg,2040,3,0.06024189018130699,0.039409640413939004,0.00016500000000000022,0.001464
Luxembourg,2040,4,0.08722484979472968,0.05091921062090854,0.00016500000000000022,0.001464
Malta,2040,1,0.0,0.0045000000000000135,0.0,0.0
Malta,2040,2,0.0,0.005182550827441606,0.0,0.0
Malta,2040,3,0.0,0.005865101654883197,0.0,0.0
Malta,2040,4,0.0,0.00654765248232479,0.0,0.0
Netherlands,2040,1,0.7159837880418378,0.35650000000000015,0.0,0.0020000000000000018
Netherlands,2040,2,0.8021587355078552,1.357934782073265,0.0,0.0020000000000000018
Netherlands,2040,3,0.8883336829738728,2.3593695641465304,0.0,0.0020000000000000018
Netherlands,2040,4,0.9745086304398902,3.3608043462197954,0.0,0.0020000000000000018
Poland,2040,1,1.110814426898478,0.2950000000000004,0.10799999999999987,0.028999999999999998
Poland,2040,2,1.760315996268957,1.6095928936525117,0.10799999999999987,0.028999999999999998
Poland,2040,3,2.4098175656394356,2.924185787305023,0.10799999999999987,0.028999999999999998
Poland,2040,4,3.0593191350099143,4.238778680957535,0.10799999999999987,0.028999999999999998
Portugal,2040,1,0.4866984962732411,0.09900000000000024,0.014999999999999958,0.0
Portugal,2040,2,0.575275098454582,0.5757617529679537,0.014999999999999958,0.0
Portugal,2040,3,0.663851700635923,1.0525235059359075,0.014999999999999958,0.0
Portugal,2040,4,0.752428302817264,1.529285258903861,0.014999999999999958,0.0
Romania,2040,1,0.24147446007754253,0.021000000000000057,0.02500000000000009,0.0
Romania,2040,2,0.6897252078543858,1.6828975063490426,0.02500000000000009,0.0
Romania,2040,3,1.1379759556312294,3.3447950126980848,0.02500000000000009,0.0
Romania,2040,4,1.5862267034080728,5.006692519047127,0.02500000000000009,0.0
Slovakia,2040,1,0.24026108409596475,0.12350000000000046,0.0,0.012999999999999998
Slovakia,2040,2,0.4897630367165613,0.3150123863329878,0.0,0.012999999999999998
Slovakia,2040,3,0.7392649893371579,0.5065247726659751,0.0,0.012999999999999998
Slovakia,2040,4,0.9887669419577545,0.6980371589989623,0.0,0.012999999999999998
Slovenia,2040,1,0.07761473966474733,0.0469999999999999,0.0,0.0010000000000000009
Slovenia,2040,2,0.13780445351428725,0.0779423041773522,0.0,0.0010000000000000009
Slovenia,2040,3,0.19799416736382716,0.10888460835470452,0.0,0.0010000000000000009
Slovenia,2040,4,0.2581838812133671,0.13982691253205684,0.0,0.0010000000000000009
Spain,2040,1,1.069869032774338,0.3350000000000009,0.0,0.0010000000000000009
Spain,2040,2,1.6239015377047687,1.4434625437651512,0.0,0.0010000000000000009
Spain,2040,3,2.1779340426351994,2.551925087530301,0.0,0.0010000000000000009
Spain,2040,4,2.73196654756563,3.660387631295451,0.0,0.0010000000000000009
Sweden,2040,1,3.9099911463158534,0.002999999999999995,0.0,-8.673617379884035e-19
Sweden,2040,2,3.9525214658440064,0.00834664814829248,0.0,-8.673617379884035e-19
Sweden,2040,3,3.99505178537216,0.013693296296584969,0.0,-8.673617379884035e-19
Sweden,2040,4,4.037582104900313,0.019039944444877457,0.0,-8.673617379884035e-19
Switzerland,2040,1,0.03428571428571431,0.03700000000000038,0.0,0.0
Switzerland,2040,2,0.3295991182549342,0.10855407841012744,0.0,0.0
Switzerland,2040,3,0.624912522224154,0.1801081568202545,0.0,0.0
Switzerland,2040,4,0.9202259261933741,0.25166223523038156,0.0,0.0
United Kingdom,2040,1,10.126086179788633,2.345,0.3530000000000002,0.09699999999999998
United Kingdom,2040,2,10.385132465364133,2.7616972801530943,0.3530000000000002,0.09699999999999998
United Kingdom,2040,3,10.644178750939634,3.178394560306188,0.3530000000000002,0.09699999999999998
United Kingdom,2040,4,10.903225036515135,3.5950918404592818,0.3530000000000002,0.09699999999999998
Austria,2045,1,2.2525322427283765,0.306260799999999,0.0,0.0
Austria,2045,2,2.6478232759973457,0.4674834602199795,0.0,0.0
Austria,2045,3,3.0431143092663153,0.62870612043996,0.0,0.0
Austria,2045,4,3.438405342535285,0.7899287806599407,0.0,0.0
Belgium,2045,1,0.7345240129742274,0.2928000000000012,-1.1102230246251565e-16,0.0
Belgium,2045,2,0.735104659031751,1.4745138453952022,-1.1102230246251565e-16,0.0
Belgium,2045,3,0.7356853050892745,2.656227690790403,-1.1102230246251565e-16,0.0
Belgium,2045,4,0.7362659511467982,3.837941536185604,-1.1102230246251565e-16,0.0
Bulgaria,2045,1,0.41816509300827065,0.03200000000000004,0.0,0.0
Bulgaria,2045,2,0.9797434505310958,0.18922493547667207,0.0,0.0
Bulgaria,2045,3,1.5413218080539208,0.3464498709533442,0.0,0.0
Bulgaria,2045,4,2.102900165576746,0.5036748064300163,0.0,0.0
Croatia,2045,1,0.14683216112982952,0.043999999999999914,0.0,0.0
Croatia,2045,2,0.2675108188742217,0.21192886523568663,0.0,0.0
Croatia,2045,3,0.38818947661861386,0.3798577304713734,0.0,0.0
Croatia,2045,4,0.508868134363006,0.5477865957070601,0.0,0.0
Cyprus,2045,1,0.0,0.01600000000000002,0.0,0.0
Cyprus,2045,2,0.008932335770074532,0.02793224956742603,0.0,0.0
Cyprus,2045,3,0.017864671540149063,0.03986449913485204,0.0,0.0
Cyprus,2045,4,0.026797007310223598,0.051796748702278045,0.0,0.0
Czech Republic,2045,1,1.2725225575721644,0.5887999999999997,0.0,0.0
Czech Republic,2045,2,1.3375429949865025,0.605237152345288,0.0,0.0
Czech Republic,2045,3,1.4025634324008402,0.6216743046905764,0.0,0.0
Czech Republic,2045,4,1.4675838698151784,0.6381114570358647,0.0,0.0
Denmark,2045,1,1.3588712703983719,0.1659951999999998,0.0,0.0
Denmark,2045,2,1.4548402519752208,1.2546498872519174,0.0,0.0
Denmark,2045,3,1.5508092335520698,2.343304574503835,0.0,0.0
Denmark,2045,4,1.646778215128919,3.431959261755753,0.0,0.0
Estonia,2045,1,0.384791915281654,0.017599999999999928,0.0,0.0
Estonia,2045,2,0.40173700227513187,0.04616720925848458,0.0,0.0
Estonia,2045,3,0.4186820892686097,0.07473441851696923,0.0,0.0
Estonia,2045,4,0.4356271762620876,0.10330162777545387,0.0,0.0
Finland,2045,1,2.067164832905852,4.799999999999985e-05,0.0,0.0
Finland,2045,2,2.828815324166097,0.000536520335231088,0.0,0.0
Finland,2045,3,3.5904658154263425,0.001025040670462176,0.0,0.0
Finland,2045,4,4.352116306686588,0.0015135610056932643,0.0,0.0
France,2045,1,1.4930012735741034,0.5455535999999995,0.0,0.0
France,2045,2,1.9138482079919557,4.255114867202915,0.0,0.0
France,2045,3,2.334695142409808,7.96467613440583,0.0,0.0
France,2045,4,2.7555420768276604,11.674237401608748,0.0,0.0
Germany,2045,1,2.794652437560285,9.028800000000016,0.0,0.0
Germany,2045,2,4.434571764309721,9.229412199239917,0.0,0.0
Germany,2045,3,6.0744910910591585,9.43002439847982,0.0,0.0
Germany,2045,4,7.714410417808596,9.63063659771972,0.0,0.0
Greece,2045,1,0.008440833051229396,0.07839999999999961,0.0,0.0
Greece,2045,2,0.3333454615966973,0.13686802288038713,0.0,0.0
Greece,2045,3,0.6582500901421653,0.19533604576077468,0.0,0.0
Greece,2045,4,0.9831547186876333,0.2538040686411622,0.0,0.0
Hungary,2045,1,0.46263783201545183,0.11520000000000015,0.0,0.0
Hungary,2045,2,1.2632701130650104,0.5548683017079793,0.0,0.0
Hungary,2045,3,2.063902394114569,0.9945366034159585,0.0,0.0
Hungary,2045,4,2.8645346751641276,1.4342049051239378,0.0,0.0
Ireland,2045,1,0.022046528352067985,0.08551040000000026,0.0,-6.938893903907228e-18
Ireland,2045,2,0.31312048268581505,1.5372319615067436,0.0,-6.938893903907228e-18
Ireland,2045,3,0.604194437019562,2.9889535230134867,0.0,-6.938893903907228e-18
Ireland,2045,4,0.8952683913533092,4.4406750845202305,0.0,-6.938893903907228e-18
Italy,2045,1,0.7591082853476535,2.137600000000006,0.0,0.0
Italy,2045,2,1.3548964351367325,2.7940141056151093,0.0,0.0
Italy,2045,3,1.9506845849258112,3.4504282112302134,0.0,0.0
Italy,2045,4,2.5464727347148903,4.1068423168453165,0.0,0.0
Latvia,2045,1,0.15999094534701608,0.09600000000000003,0.0,0.0
Latvia,2045,2,0.3117700072216749,0.12547967540187616,0.0,0.0
Latvia,2045,3,0.4635490690963337,0.15495935080375225,0.0,0.0
Latvia,2045,4,0.6153281309709926,0.18443902620562838,0.0,0.0
Lithuania,2045,1,0.10280600389961635,0.033600000000000206,0.0,0.0
Lithuania,2045,2,0.24689007703165178,0.16183658799816072,0.0,0.0
Lithuania,2045,3,0.39097415016368725,0.2900731759963213,0.0,0.0
Lithuania,2045,4,0.5350582232957227,0.4183097639944819,0.0,0.0
Luxembourg,2045,1,0.006946165145353933,0.019044799999999945,0.0,0.0
Luxembourg,2045,2,0.04067486466213229,0.03324775666010714,0.0,0.0
Luxembourg,2045,3,0.07440356417891064,0.04745071332021432,0.0,0.0
Luxembourg,2045,4,0.10813226369568903,0.06165366998032151,0.0,0.0
Malta,2045,1,0.0,0.004800000000000017,0.0,0.0
Malta,2045,2,0.0,0.005642276440053615,0.0,0.0
Malta,2045,3,0.0,0.006484552880107212,0.0,0.0
Malta,2045,4,0.0,0.00732682932016081,0.0,0.0
Netherlands,2045,1,0.7993805456502052,0.3824000000000002,0.0,0.0
Netherlands,2045,2,0.9070992299827272,1.6181833135330863,0.0,0.0
Netherlands,2045,3,1.0148179143152491,2.853966627066172,0.0,0.0
Netherlands,2045,4,1.1225365986477711,4.089749940599258,0.0,0.0
Poland,2045,1,1.3151773122781738,0.34560000000000046,-1.1102230246251565e-16,0.0
Poland,2045,2,2.127054273991272,1.9678244235432343,-1.1102230246251565e-16,0.0
Poland,2045,3,2.9389312357043704,3.5900488470864684,-1.1102230246251565e-16,0.0
Poland,2045,4,3.750808197417469,5.212273270629703,-1.1102230246251565e-16,0.0
Portugal,2045,1,0.5078381955278892,0.10560000000000029,0.0,0.0
Portugal,2045,2,0.6185589482545655,0.6939300933774399,0.0,0.0
Portugal,2045,3,0.7292797009812416,1.2822601867548795,0.0,0.0
Portugal,2045,4,0.8400004537079179,1.8705902801323193,0.0,0.0
Romania,2045,1,0.298969352093051,0.022400000000000055,9.71445146547012e-17,0.0
Romania,2045,2,0.8592827868141053,2.073202752123842,9.71445146547012e-17,0.0
Romania,2045,3,1.4195962215351596,4.124005504247685,9.71445146547012e-17,0.0
Romania,2045,4,1.9799096562562142,6.174808256371527,9.71445146547012e-17,0.0
Slovakia,2045,1,0.2593133009151577,0.14560000000000056,0.0,0.0
Slovakia,2045,2,0.5711907416909034,0.3819287311383731,0.0,0.0
Slovakia,2045,3,0.8830681824666492,0.6182574622767456,0.0,0.0
Slovakia,2045,4,1.194945623242395,0.8545861934151181,0.0,0.0
Slovenia,2045,1,0.0871376875976968,0.05119999999999988,0.0,0.0
Slovenia,2045,2,0.16237482990962168,0.08938319861576313,0.0,0.0
Slovenia,2045,3,0.2376119722215466,0.12756639723152638,0.0,0.0
Slovenia,2045,4,0.31284911453347153,0.16574959584728963,0.0,0.0
Spain,2045,1,1.1484428393292059,0.3584000000000009,0.0,0.0
Spain,2045,2,1.840983470492244,1.7262569386470488,0.0,0.0
Spain,2045,3,2.5335241016552823,3.0941138772940966,0.0,0.0
Spain,2045,4,3.2260647328183207,4.461970815941145,0.0,0.0
Sweden,2045,1,3.951989375579024,0.003199999999999993,0.0,-8.673617379884035e-19
Sweden,2045,2,4.005152274989215,0.00979783211375319,0.0,-8.673617379884035e-19
Sweden,2045,3,4.058315174399407,0.016395664227506386,0.0,-8.673617379884035e-19
Sweden,2045,4,4.111478073809598,0.022993496341259585,0.0,-8.673617379884035e-19
Switzerland,2045,1,0.04114285714285715,0.04440000000000044,0.0,0.0
Switzerland,2045,2,0.41028461210438205,0.13269864679895277,0.0,0.0
Switzerland,2045,3,0.779426367065907,0.2209972935979051,0.0,0.0
Switzerland,2045,4,1.148568122027432,0.3092959403968574,0.0,0.0
United Kingdom,2045,1,12.027703415746359,2.6047999999999996,0.0,0.0
United Kingdom,2045,2,12.351511272715737,3.119009766652723,0.0,0.0
United Kingdom,2045,3,12.675319129685112,3.6332195333054464,0.0,0.0
United Kingdom,2045,4,12.99912698665449,4.14742929995817,0.0,0.0
Austria,2050,1,2.471517449849773,0.325402099999999,0.0,0.0
Austria,2050,2,2.945866689772536,0.5144737384681988,0.0,0.0
Austria,2050,3,3.4202159296952996,0.7035453769363988,0.0,0.0
Austria,2050,4,3.8945651696180628,0.8926170154045987,0.0,0.0
Belgium,2050,1,0.7589446818032654,0.31110000000000165,-1.1102230246251565e-16,0.0
Belgium,2050,2,0.7596414570722936,1.6969385207424972,-1.1102230246251565e-16,0.0
Belgium,2050,3,0.7603382323413219,3.0827770414849924,-1.1102230246251565e-16,0.0
Belgium,2050,4,0.7610350076103501,4.468615562227488,-1.1102230246251565e-16,0.0
Bulgaria,2050,1,0.4821926085096492,0.03400000000000006,0.0,0.0
Bulgaria,2050,2,1.1560866375370393,0.21838336222755947,0.0,0.0
Bulgaria,2050,3,1.8299806665644296,0.4027667244551189,0.0,0.0
Bulgaria,2050,4,2.5038746955918194,0.5871500866826783,0.0,0.0
Croatia,2050,1,0.16713752131813445,0.04674999999999988,0.0,0.0
Croatia,2050,2,0.31195191061140504,0.24368624737921254,0.0,0.0
Croatia,2050,3,0.45676629990467565,0.44062249475842524,0.0,0.0
Croatia,2050,4,0.6015806891979463,0.6375587421376379,0.0,0.0
Cyprus,2050,1,0.0,0.01700000000000003,0.0,0.0
Cyprus,2050,2,0.010718802924089438,0.030993380169055874,0.0,0.0
Cyprus,2050,3,0.021437605848178876,0.04498676033811173,0.0,0.0
Cyprus,2050,4,0.032156408772268316,0.05898014050716757,0.0,0.0
Czech Republic,2050,1,1.421276317167525,0.6255999999999996,0.0,0.0
Czech Republic,2050,2,1.4993008420647307,0.6448764424146989,0.0,0.0
Czech Republic,2050,3,1.577325366961936,0.6641528848293982,0.0,0.0
Czech Republic,2050,4,1.6553498918591414,0.6834293272440974,0.0,0.0
Denmark,2050,1,1.4231141487981005,0.17636989999999975,0.0,0.0
Denmark,2050,2,1.5382769266903193,1.4530745838450356,0.0,0.0
Denmark,2050,3,1.6534397045825382,2.729779267690071,0.0,0.0
Denmark,2050,4,1.768602482474757,4.006483951535107,0.0,0.0
Estonia,2050,1,0.42142390116192974,0.018699999999999918,0.0,0.0
Estonia,2050,2,0.44175800555410316,0.05220179840473954,0.0,0.0
Estonia,2050,3,0.4620921099462766,0.08570359680947917,0.0,0.0
Estonia,2050,4,0.48242621433845,0.1192053952142188,0.0,0.0
Finland,2050,1,2.119858971723494,5.599999999999983e-05,0.0,0.0
Finland,2050,2,3.033839561235788,0.0006289054469213451,0.0,0.0
Finland,2050,3,3.9478201507480826,0.0012018108938426904,0.0,0.0
Finland,2050,4,4.861800740260377,0.0017747163407640357,0.0,0.0
France,2050,1,1.6475368191697874,0.5796506999999995,0.0,0.0
France,2050,2,2.15255314047121,4.929987221126981,0.0,0.0
France,2050,3,2.6575694617726326,9.280323742253962,0.0,0.0
France,2050,4,3.162585783074056,13.630660263380944,0.0,0.0
Germany,2050,1,2.9950945104869993,9.593100000000018,0.0,0.0
Germany,2050,2,4.962997702586323,9.828365173985134,0.0,0.0
Germany,2050,3,6.930900894685648,10.063630347970253,0.0,0.0
Germany,2050,4,8.898804086784972,10.29889552195537,0.0,0.0
Greece,2050,1,0.009514305226434296,0.08329999999999955,0.0,0.0
Greece,2050,2,0.39939985948099577,0.15186756282837335,0.0,0.0
Greece,2050,3,0.7892854137355572,0.22043512565674717,0.0,0.0
Greece,2050,4,1.1791709679901188,0.28900268848512095,0.0,0.0
Hungary,2050,1,0.46941080401802715,0.12240000000000018,0.0,0.0
Hungary,2050,2,1.4301695412774973,0.6380149022292108,0.0,0.0
Hungary,2050,3,2.390928278536968,1.1536298044584214,0.0,0.0
Hungary,2050,4,3.351687015796438,1.6692447066876321,0.0,0.0
Ireland,2050,1,0.024812616410745985,0.09085480000000032,0.0,-6.938893903907228e-18
Ireland,2050,2,0.37410136161124247,1.7933411245599593,0.0,-6.938893903907228e-18
Ireland,2050,3,0.7233901068117389,3.495827449119918,0.0,-6.938893903907228e-18
Ireland,2050,4,1.0726788520122352,5.198313773679876,0.0,-6.938893903907228e-18
Italy,2050,1,0.7829596662389291,2.271200000000007,0.0,0.0
Italy,2050,2,1.4979054459858236,3.0410005373000644,0.0,0.0
Italy,2050,3,2.2128512257327184,3.810801074600122,0.0,0.0
Italy,2050,4,2.927797005479613,4.58060161190018,0.0,0.0
Latvia,2050,1,0.17565610290485212,0.10200000000000004,0.0,0.0
Latvia,2050,2,0.3577909771544427,0.13657188041766755,0.0,0.0
Latvia,2050,3,0.5399258514040333,0.17114376083533506,0.0,0.0
Latvia,2050,4,0.722060725653624,0.2057156412530026,0.0,0.0
Lithuania,2050,1,0.11244033788288574,0.035700000000000245,0.0,0.0
Lithuania,2050,2,0.28534122564132824,0.18608767981685326,0.0,0.0
Lithuania,2050,3,0.4582421133997707,0.33647535963370634,0.0,0.0
Lithuania,2050,4,0.6311430011582133,0.4868630394505594,0.0,0.0
Luxembourg,2050,1,0.007451359336246255,0.02023509999999992,0.0,0.0
Luxembourg,2050,2,0.04792579875638029,0.036891420415227125,0.0,0.0
Luxembourg,2050,3,0.08840023817651432,0.05354774083045433,0.0,0.0
Luxembourg,2050,4,0.12887467759664836,0.07020406124568153,0.0,0.0
Malta,2050,1,0.0,0.00510000000000002,0.0,0.0
Malta,2050,2,0.0,0.006087768011933371,0.0,0.0
Malta,2050,3,0.0,0.007075536023866723,0.0,0.0
Malta,2050,4,0.0,0.008063304035800075,0.0,0.0
Netherlands,2050,1,0.8827773032585728,0.4063000000000002,0.0,0.0
Netherlands,2050,2,1.0120397244575992,1.8555477395085505,0.0,0.0
Netherlands,2050,3,1.1413021456566255,3.3047954790171,0.0,0.0
Netherlands,2050,4,1.2705645668556518,4.75404321852565,0.0,0.0
Poland,2050,1,1.4115401976578692,0.3672000000000006,-1.1102230246251565e-16,0.0
Poland,2050,2,2.3857925517135876,2.2696411909836405,-1.1102230246251565e-16,0.0
Poland,2050,3,3.3600449057693056,4.17208238196728,-1.1102230246251565e-16,0.0
Poland,2050,4,4.334297259825024,6.07452357295092,-1.1102230246251565e-16,0.0
Portugal,2050,1,0.5139778947825374,0.11220000000000036,0.0,0.0
Portugal,2050,2,0.6468427980545488,0.8021559563354479,0.0,0.0
Portugal,2050,3,0.7797077013265603,1.4921119126708955,0.0,0.0
Portugal,2050,4,0.9125726045985718,2.182067869006343,0.0,0.0
Romania,2050,1,0.33146424410855957,0.02380000000000007,9.71445146547012e-17,0.0
Romania,2050,2,1.0038403657738248,2.4288504810557288,9.71445146547012e-17,0.0
Romania,2050,3,1.6762164874390901,4.833900962111458,9.71445146547012e-17,0.0
Romania,2050,4,2.3485926091043554,7.238951443167187,9.71445146547012e-17,0.0
Slovakia,2050,1,0.27836551773435064,0.15470000000000067,0.0,0.0
Slovakia,2050,2,0.6526184466652456,0.43185124134830066,0.0,0.0
Slovakia,2050,3,1.0268713755961405,0.7090024826966007,0.0,0.0
Slovakia,2050,4,1.4011243045270354,0.9861537240449009,0.0,0.0
Slovenia,2050,1,0.09666063553064627,0.05439999999999985,0.0,0.0
Slovenia,2050,2,0.18694520630495615,0.09917881654097863,0.0,0.0
Slovenia,2050,3,0.277229777079266,0.14395763308195741,0.0,0.0
Slovenia,2050,4,0.36751434785357595,0.18873644962293618,0.0,0.0
Spain,2050,1,1.2270166458840734,0.38080000000000114,0.0,0.0
Spain,2050,2,2.0580654032797194,1.9849352513797693,0.0,0.0
Spain,2050,3,2.889114160675365,3.5890705027595375,0.0,0.0
Spain,2050,4,3.7201629180710114,5.193205754139306,0.0,0.0
Sweden,2050,1,3.9939876048421947,0.0033999999999999916,0.0,-8.673617379884035e-19
Sweden,2050,2,4.0577830841344245,0.011137516093477923,0.0,-8.673617379884035e-19
Sweden,2050,3,4.121578563426654,0.018875032186955853,0.0,-8.673617379884035e-19
Sweden,2050,4,4.185374042718884,0.026612548280433787,0.0,-8.673617379884035e-19
Switzerland,2050,1,0.5857297357109428,0.051800000000000526,0.0,0.0
Switzerland,2050,2,0.8494565964277918,0.15535101325101366,0.0,0.0
Switzerland,2050,3,1.1131834571446408,0.2589020265020268,0.0,0.0
Switzerland,2050,4,1.3769103178614899,0.36245303975303994,0.0,0.0
United Kingdom,2050,1,13.576320651704085,2.7676,0.0,0.0
United Kingdom,2050,2,13.964890080067338,3.370632371285313,0.0,0.0
United Kingdom,2050,3,14.35345950843059,3.9736647425706257,0.0,0.0
United Kingdom,2050,4,14.742028936793842,4.576697113855939,0.0,0.0
