Years,Country,lever_fuel-mix_efuel-road,fts_tra_fuel-mix_efuel-road[%]
2015,Austria,1,0.0
2015,Austria,2,0.0
2015,Austria,3,0.0
2015,Austria,4,0.0
2015,Belgium,1,0.0
2015,Belgium,2,0.0
2015,Belgium,3,0.0
2015,Belgium,4,0.0
2015,Bulgaria,1,0.0
2015,Bulgaria,2,0.0
2015,Bulgaria,3,0.0
2015,Bulgaria,4,0.0
2015,Croatia,1,0.0
2015,Croatia,2,0.0
2015,Croatia,3,0.0
2015,Croatia,4,0.0
2015,Cyprus,1,0.0
2015,Cyprus,2,0.0
2015,Cyprus,3,0.0
2015,Cyprus,4,0.0
2015,Czech Republic,1,0.0
2015,Czech Republic,2,0.0
2015,Czech Republic,3,0.0
2015,Czech Republic,4,0.0
2015,Denmark,1,0.0
2015,Denmark,2,0.0
2015,Denmark,3,0.0
2015,Denmark,4,0.0
2015,Estonia,1,0.0
2015,Estonia,2,0.0
2015,Estonia,3,0.0
2015,Estonia,4,0.0
2015,Finland,1,0.0
2015,Finland,2,0.0
2015,Finland,3,0.0
2015,Finland,4,0.0
2015,France,1,0.0
2015,France,2,0.0
2015,France,3,0.0
2015,France,4,0.0
2015,Germany,1,0.0
2015,Germany,2,0.0
2015,Germany,3,0.0
2015,Germany,4,0.0
2015,Greece,1,0.0
2015,Greece,2,0.0
2015,Greece,3,0.0
2015,Greece,4,0.0
2015,Hungary,1,0.0
2015,Hungary,2,0.0
2015,Hungary,3,0.0
2015,Hungary,4,0.0
2015,Ireland,1,0.0
2015,Ireland,2,0.0
2015,Ireland,3,0.0
2015,Ireland,4,0.0
2015,Italy,1,0.0
2015,Italy,2,0.0
2015,Italy,3,0.0
2015,Italy,4,0.0
2015,Latvia,1,0.0
2015,Latvia,2,0.0
2015,Latvia,3,0.0
2015,Latvia,4,0.0
2015,Lithuania,1,0.0
2015,Lithuania,2,0.0
2015,Lithuania,3,0.0
2015,Lithuania,4,0.0
2015,Luxembourg,1,0.0
2015,Luxembourg,2,0.0
2015,Luxembourg,3,0.0
2015,Luxembourg,4,0.0
2015,Malta,1,0.0
2015,Malta,2,0.0
2015,Malta,3,0.0
2015,Malta,4,0.0
2015,Netherlands,1,0.0
2015,Netherlands,2,0.0
2015,Netherlands,3,0.0
2015,Netherlands,4,0.0
2015,Poland,1,0.0
2015,Poland,2,0.0
2015,Poland,3,0.0
2015,Poland,4,0.0
2015,Portugal,1,0.0
2015,Portugal,2,0.0
2015,Portugal,3,0.0
2015,Portugal,4,0.0
2015,Romania,1,0.0
2015,Romania,2,0.0
2015,Romania,3,0.0
2015,Romania,4,0.0
2015,Slovakia,1,0.0
2015,Slovakia,2,0.0
2015,Slovakia,3,0.0
2015,Slovakia,4,0.0
2015,Slovenia,1,0.0
2015,Slovenia,2,0.0
2015,Slovenia,3,0.0
2015,Slovenia,4,0.0
2015,Spain,1,0.0
2015,Spain,2,0.0
2015,Spain,3,0.0
2015,Spain,4,0.0
2015,Sweden,1,0.0
2015,Sweden,2,0.0
2015,Sweden,3,0.0
2015,Sweden,4,0.0
2015,Switzerland,1,0.0
2015,Switzerland,2,0.0
2015,Switzerland,3,0.0
2015,Switzerland,4,0.0
2015,United Kingdom,1,0.0
2015,United Kingdom,2,0.0
2015,United Kingdom,3,0.0
2015,United Kingdom,4,0.0
2016,Austria,1,0.0
2016,Austria,2,0.0
2016,Austria,3,0.0
2016,Austria,4,0.0
2016,Belgium,1,0.0
2016,Belgium,2,0.0
2016,Belgium,3,0.0
2016,Belgium,4,0.0
2016,Bulgaria,1,0.0
2016,Bulgaria,2,0.0
2016,Bulgaria,3,0.0
2016,Bulgaria,4,0.0
2016,Croatia,1,0.0
2016,Croatia,2,0.0
2016,Croatia,3,0.0
2016,Croatia,4,0.0
2016,Cyprus,1,0.0
2016,Cyprus,2,0.0
2016,Cyprus,3,0.0
2016,Cyprus,4,0.0
2016,Czech Republic,1,0.0
2016,Czech Republic,2,0.0
2016,Czech Republic,3,0.0
2016,Czech Republic,4,0.0
2016,Denmark,1,0.0
2016,Denmark,2,0.0
2016,Denmark,3,0.0
2016,Denmark,4,0.0
2016,Estonia,1,0.0
2016,Estonia,2,0.0
2016,Estonia,3,0.0
2016,Estonia,4,0.0
2016,Finland,1,0.0
2016,Finland,2,0.0
2016,Finland,3,0.0
2016,Finland,4,0.0
2016,France,1,0.0
2016,France,2,0.0
2016,France,3,0.0
2016,France,4,0.0
2016,Germany,1,0.0
2016,Germany,2,0.0
2016,Germany,3,0.0
2016,Germany,4,0.0
2016,Greece,1,0.0
2016,Greece,2,0.0
2016,Greece,3,0.0
2016,Greece,4,0.0
2016,Hungary,1,0.0
2016,Hungary,2,0.0
2016,Hungary,3,0.0
2016,Hungary,4,0.0
2016,Ireland,1,0.0
2016,Ireland,2,0.0
2016,Ireland,3,0.0
2016,Ireland,4,0.0
2016,Italy,1,0.0
2016,Italy,2,0.0
2016,Italy,3,0.0
2016,Italy,4,0.0
2016,Latvia,1,0.0
2016,Latvia,2,0.0
2016,Latvia,3,0.0
2016,Latvia,4,0.0
2016,Lithuania,1,0.0
2016,Lithuania,2,0.0
2016,Lithuania,3,0.0
2016,Lithuania,4,0.0
2016,Luxembourg,1,0.0
2016,Luxembourg,2,0.0
2016,Luxembourg,3,0.0
2016,Luxembourg,4,0.0
2016,Malta,1,0.0
2016,Malta,2,0.0
2016,Malta,3,0.0
2016,Malta,4,0.0
2016,Netherlands,1,0.0
2016,Netherlands,2,0.0
2016,Netherlands,3,0.0
2016,Netherlands,4,0.0
2016,Poland,1,0.0
2016,Poland,2,0.0
2016,Poland,3,0.0
2016,Poland,4,0.0
2016,Portugal,1,0.0
2016,Portugal,2,0.0
2016,Portugal,3,0.0
2016,Portugal,4,0.0
2016,Romania,1,0.0
2016,Romania,2,0.0
2016,Romania,3,0.0
2016,Romania,4,0.0
2016,Slovakia,1,0.0
2016,Slovakia,2,0.0
2016,Slovakia,3,0.0
2016,Slovakia,4,0.0
2016,Slovenia,1,0.0
2016,Slovenia,2,0.0
2016,Slovenia,3,0.0
2016,Slovenia,4,0.0
2016,Spain,1,0.0
2016,Spain,2,0.0
2016,Spain,3,0.0
2016,Spain,4,0.0
2016,Sweden,1,0.0
2016,Sweden,2,0.0
2016,Sweden,3,0.0
2016,Sweden,4,0.0
2016,Switzerland,1,0.0
2016,Switzerland,2,0.0
2016,Switzerland,3,0.0
2016,Switzerland,4,0.0
2016,United Kingdom,1,0.0
2016,United Kingdom,2,0.0
2016,United Kingdom,3,0.0
2016,United Kingdom,4,0.0
2017,Austria,1,0.0
2017,Austria,2,0.0
2017,Austria,3,0.0
2017,Austria,4,0.0
2017,Belgium,1,0.0
2017,Belgium,2,0.0
2017,Belgium,3,0.0
2017,Belgium,4,0.0
2017,Bulgaria,1,0.0
2017,Bulgaria,2,0.0
2017,Bulgaria,3,0.0
2017,Bulgaria,4,0.0
2017,Croatia,1,0.0
2017,Croatia,2,0.0
2017,Croatia,3,0.0
2017,Croatia,4,0.0
2017,Cyprus,1,0.0
2017,Cyprus,2,0.0
2017,Cyprus,3,0.0
2017,Cyprus,4,0.0
2017,Czech Republic,1,0.0
2017,Czech Republic,2,0.0
2017,Czech Republic,3,0.0
2017,Czech Republic,4,0.0
2017,Denmark,1,0.0
2017,Denmark,2,0.0
2017,Denmark,3,0.0
2017,Denmark,4,0.0
2017,Estonia,1,0.0
2017,Estonia,2,0.0
2017,Estonia,3,0.0
2017,Estonia,4,0.0
2017,Finland,1,0.0
2017,Finland,2,0.0
2017,Finland,3,0.0
2017,Finland,4,0.0
2017,France,1,0.0
2017,France,2,0.0
2017,France,3,0.0
2017,France,4,0.0
2017,Germany,1,0.0
2017,Germany,2,0.0
2017,Germany,3,0.0
2017,Germany,4,0.0
2017,Greece,1,0.0
2017,Greece,2,0.0
2017,Greece,3,0.0
2017,Greece,4,0.0
2017,Hungary,1,0.0
2017,Hungary,2,0.0
2017,Hungary,3,0.0
2017,Hungary,4,0.0
2017,Ireland,1,0.0
2017,Ireland,2,0.0
2017,Ireland,3,0.0
2017,Ireland,4,0.0
2017,Italy,1,0.0
2017,Italy,2,0.0
2017,Italy,3,0.0
2017,Italy,4,0.0
2017,Latvia,1,0.0
2017,Latvia,2,0.0
2017,Latvia,3,0.0
2017,Latvia,4,0.0
2017,Lithuania,1,0.0
2017,Lithuania,2,0.0
2017,Lithuania,3,0.0
2017,Lithuania,4,0.0
2017,Luxembourg,1,0.0
2017,Luxembourg,2,0.0
2017,Luxembourg,3,0.0
2017,Luxembourg,4,0.0
2017,Malta,1,0.0
2017,Malta,2,0.0
2017,Malta,3,0.0
2017,Malta,4,0.0
2017,Netherlands,1,0.0
2017,Netherlands,2,0.0
2017,Netherlands,3,0.0
2017,Netherlands,4,0.0
2017,Poland,1,0.0
2017,Poland,2,0.0
2017,Poland,3,0.0
2017,Poland,4,0.0
2017,Portugal,1,0.0
2017,Portugal,2,0.0
2017,Portugal,3,0.0
2017,Portugal,4,0.0
2017,Romania,1,0.0
2017,Romania,2,0.0
2017,Romania,3,0.0
2017,Romania,4,0.0
2017,Slovakia,1,0.0
2017,Slovakia,2,0.0
2017,Slovakia,3,0.0
2017,Slovakia,4,0.0
2017,Slovenia,1,0.0
2017,Slovenia,2,0.0
2017,Slovenia,3,0.0
2017,Slovenia,4,0.0
2017,Spain,1,0.0
2017,Spain,2,0.0
2017,Spain,3,0.0
2017,Spain,4,0.0
2017,Sweden,1,0.0
2017,Sweden,2,0.0
2017,Sweden,3,0.0
2017,Sweden,4,0.0
2017,Switzerland,1,0.0
2017,Switzerland,2,0.0
2017,Switzerland,3,0.0
2017,Switzerland,4,0.0
2017,United Kingdom,1,0.0
2017,United Kingdom,2,0.0
2017,United Kingdom,3,0.0
2017,United Kingdom,4,0.0
2018,Austria,1,0.0
2018,Austria,2,0.0
2018,Austria,3,0.0
2018,Austria,4,0.0
2018,Belgium,1,0.0
2018,Belgium,2,0.0
2018,Belgium,3,0.0
2018,Belgium,4,0.0
2018,Bulgaria,1,0.0
2018,Bulgaria,2,0.0
2018,Bulgaria,3,0.0
2018,Bulgaria,4,0.0
2018,Croatia,1,0.0
2018,Croatia,2,0.0
2018,Croatia,3,0.0
2018,Croatia,4,0.0
2018,Cyprus,1,0.0
2018,Cyprus,2,0.0
2018,Cyprus,3,0.0
2018,Cyprus,4,0.0
2018,Czech Republic,1,0.0
2018,Czech Republic,2,0.0
2018,Czech Republic,3,0.0
2018,Czech Republic,4,0.0
2018,Denmark,1,0.0
2018,Denmark,2,0.0
2018,Denmark,3,0.0
2018,Denmark,4,0.0
2018,Estonia,1,0.0
2018,Estonia,2,0.0
2018,Estonia,3,0.0
2018,Estonia,4,0.0
2018,Finland,1,0.0
2018,Finland,2,0.0
2018,Finland,3,0.0
2018,Finland,4,0.0
2018,France,1,0.0
2018,France,2,0.0
2018,France,3,0.0
2018,France,4,0.0
2018,Germany,1,0.0
2018,Germany,2,0.0
2018,Germany,3,0.0
2018,Germany,4,0.0
2018,Greece,1,0.0
2018,Greece,2,0.0
2018,Greece,3,0.0
2018,Greece,4,0.0
2018,Hungary,1,0.0
2018,Hungary,2,0.0
2018,Hungary,3,0.0
2018,Hungary,4,0.0
2018,Ireland,1,0.0
2018,Ireland,2,0.0
2018,Ireland,3,0.0
2018,Ireland,4,0.0
2018,Italy,1,0.0
2018,Italy,2,0.0
2018,Italy,3,0.0
2018,Italy,4,0.0
2018,Latvia,1,0.0
2018,Latvia,2,0.0
2018,Latvia,3,0.0
2018,Latvia,4,0.0
2018,Lithuania,1,0.0
2018,Lithuania,2,0.0
2018,Lithuania,3,0.0
2018,Lithuania,4,0.0
2018,Luxembourg,1,0.0
2018,Luxembourg,2,0.0
2018,Luxembourg,3,0.0
2018,Luxembourg,4,0.0
2018,Malta,1,0.0
2018,Malta,2,0.0
2018,Malta,3,0.0
2018,Malta,4,0.0
2018,Netherlands,1,0.0
2018,Netherlands,2,0.0
2018,Netherlands,3,0.0
2018,Netherlands,4,0.0
2018,Poland,1,0.0
2018,Poland,2,0.0
2018,Poland,3,0.0
2018,Poland,4,0.0
2018,Portugal,1,0.0
2018,Portugal,2,0.0
2018,Portugal,3,0.0
2018,Portugal,4,0.0
2018,Romania,1,0.0
2018,Romania,2,0.0
2018,Romania,3,0.0
2018,Romania,4,0.0
2018,Slovakia,1,0.0
2018,Slovakia,2,0.0
2018,Slovakia,3,0.0
2018,Slovakia,4,0.0
2018,Slovenia,1,0.0
2018,Slovenia,2,0.0
2018,Slovenia,3,0.0
2018,Slovenia,4,0.0
2018,Spain,1,0.0
2018,Spain,2,0.0
2018,Spain,3,0.0
2018,Spain,4,0.0
2018,Sweden,1,0.0
2018,Sweden,2,0.0
2018,Sweden,3,0.0
2018,Sweden,4,0.0
2018,Switzerland,1,0.0
2018,Switzerland,2,0.0
2018,Switzerland,3,0.0
2018,Switzerland,4,0.0
2018,United Kingdom,1,0.0
2018,United Kingdom,2,0.0
2018,United Kingdom,3,0.0
2018,United Kingdom,4,0.0
2019,Austria,1,0.0
2019,Austria,2,0.0
2019,Austria,3,0.0
2019,Austria,4,0.0
2019,Belgium,1,0.0
2019,Belgium,2,0.0
2019,Belgium,3,0.0
2019,Belgium,4,0.0
2019,Bulgaria,1,0.0
2019,Bulgaria,2,0.0
2019,Bulgaria,3,0.0
2019,Bulgaria,4,0.0
2019,Croatia,1,0.0
2019,Croatia,2,0.0
2019,Croatia,3,0.0
2019,Croatia,4,0.0
2019,Cyprus,1,0.0
2019,Cyprus,2,0.0
2019,Cyprus,3,0.0
2019,Cyprus,4,0.0
2019,Czech Republic,1,0.0
2019,Czech Republic,2,0.0
2019,Czech Republic,3,0.0
2019,Czech Republic,4,0.0
2019,Denmark,1,0.0
2019,Denmark,2,0.0
2019,Denmark,3,0.0
2019,Denmark,4,0.0
2019,Estonia,1,0.0
2019,Estonia,2,0.0
2019,Estonia,3,0.0
2019,Estonia,4,0.0
2019,Finland,1,0.0
2019,Finland,2,0.0
2019,Finland,3,0.0
2019,Finland,4,0.0
2019,France,1,0.0
2019,France,2,0.0
2019,France,3,0.0
2019,France,4,0.0
2019,Germany,1,0.0
2019,Germany,2,0.0
2019,Germany,3,0.0
2019,Germany,4,0.0
2019,Greece,1,0.0
2019,Greece,2,0.0
2019,Greece,3,0.0
2019,Greece,4,0.0
2019,Hungary,1,0.0
2019,Hungary,2,0.0
2019,Hungary,3,0.0
2019,Hungary,4,0.0
2019,Ireland,1,0.0
2019,Ireland,2,0.0
2019,Ireland,3,0.0
2019,Ireland,4,0.0
2019,Italy,1,0.0
2019,Italy,2,0.0
2019,Italy,3,0.0
2019,Italy,4,0.0
2019,Latvia,1,0.0
2019,Latvia,2,0.0
2019,Latvia,3,0.0
2019,Latvia,4,0.0
2019,Lithuania,1,0.0
2019,Lithuania,2,0.0
2019,Lithuania,3,0.0
2019,Lithuania,4,0.0
2019,Luxembourg,1,0.0
2019,Luxembourg,2,0.0
2019,Luxembourg,3,0.0
2019,Luxembourg,4,0.0
2019,Malta,1,0.0
2019,Malta,2,0.0
2019,Malta,3,0.0
2019,Malta,4,0.0
2019,Netherlands,1,0.0
2019,Netherlands,2,0.0
2019,Netherlands,3,0.0
2019,Netherlands,4,0.0
2019,Poland,1,0.0
2019,Poland,2,0.0
2019,Poland,3,0.0
2019,Poland,4,0.0
2019,Portugal,1,0.0
2019,Portugal,2,0.0
2019,Portugal,3,0.0
2019,Portugal,4,0.0
2019,Romania,1,0.0
2019,Romania,2,0.0
2019,Romania,3,0.0
2019,Romania,4,0.0
2019,Slovakia,1,0.0
2019,Slovakia,2,0.0
2019,Slovakia,3,0.0
2019,Slovakia,4,0.0
2019,Slovenia,1,0.0
2019,Slovenia,2,0.0
2019,Slovenia,3,0.0
2019,Slovenia,4,0.0
2019,Spain,1,0.0
2019,Spain,2,0.0
2019,Spain,3,0.0
2019,Spain,4,0.0
2019,Sweden,1,0.0
2019,Sweden,2,0.0
2019,Sweden,3,0.0
2019,Sweden,4,0.0
2019,Switzerland,1,0.0
2019,Switzerland,2,0.0
2019,Switzerland,3,0.0
2019,Switzerland,4,0.0
2019,United Kingdom,1,0.0
2019,United Kingdom,2,0.0
2019,United Kingdom,3,0.0
2019,United Kingdom,4,0.0
2020,Austria,1,0.0
2020,Austria,2,0.0
2020,Austria,3,0.0
2020,Austria,4,0.0
2020,Belgium,1,0.0
2020,Belgium,2,0.0
2020,Belgium,3,0.0
2020,Belgium,4,0.0
2020,Bulgaria,1,0.0
2020,Bulgaria,2,0.0
2020,Bulgaria,3,0.0
2020,Bulgaria,4,0.0
2020,Croatia,1,0.0
2020,Croatia,2,0.0
2020,Croatia,3,0.0
2020,Croatia,4,0.0
2020,Cyprus,1,0.0
2020,Cyprus,2,0.0
2020,Cyprus,3,0.0
2020,Cyprus,4,0.0
2020,Czech Republic,1,0.0
2020,Czech Republic,2,0.0
2020,Czech Republic,3,0.0
2020,Czech Republic,4,0.0
2020,Denmark,1,0.0
2020,Denmark,2,0.0
2020,Denmark,3,0.0
2020,Denmark,4,0.0
2020,Estonia,1,0.0
2020,Estonia,2,0.0
2020,Estonia,3,0.0
2020,Estonia,4,0.0
2020,Finland,1,0.0
2020,Finland,2,0.0
2020,Finland,3,0.0
2020,Finland,4,0.0
2020,France,1,0.0
2020,France,2,0.0
2020,France,3,0.0
2020,France,4,0.0
2020,Germany,1,0.0
2020,Germany,2,0.0
2020,Germany,3,0.0
2020,Germany,4,0.0
2020,Greece,1,0.0
2020,Greece,2,0.0
2020,Greece,3,0.0
2020,Greece,4,0.0
2020,Hungary,1,0.0
2020,Hungary,2,0.0
2020,Hungary,3,0.0
2020,Hungary,4,0.0
2020,Ireland,1,0.0
2020,Ireland,2,0.0
2020,Ireland,3,0.0
2020,Ireland,4,0.0
2020,Italy,1,0.0
2020,Italy,2,0.0
2020,Italy,3,0.0
2020,Italy,4,0.0
2020,Latvia,1,0.0
2020,Latvia,2,0.0
2020,Latvia,3,0.0
2020,Latvia,4,0.0
2020,Lithuania,1,0.0
2020,Lithuania,2,0.0
2020,Lithuania,3,0.0
2020,Lithuania,4,0.0
2020,Luxembourg,1,0.0
2020,Luxembourg,2,0.0
2020,Luxembourg,3,0.0
2020,Luxembourg,4,0.0
2020,Malta,1,0.0
2020,Malta,2,0.0
2020,Malta,3,0.0
2020,Malta,4,0.0
2020,Netherlands,1,0.0
2020,Netherlands,2,0.0
2020,Netherlands,3,0.0
2020,Netherlands,4,0.0
2020,Poland,1,0.0
2020,Poland,2,0.0
2020,Poland,3,0.0
2020,Poland,4,0.0
2020,Portugal,1,0.0
2020,Portugal,2,0.0
2020,Portugal,3,0.0
2020,Portugal,4,0.0
2020,Romania,1,0.0
2020,Romania,2,0.0
2020,Romania,3,0.0
2020,Romania,4,0.0
2020,Slovakia,1,0.0
2020,Slovakia,2,0.0
2020,Slovakia,3,0.0
2020,Slovakia,4,0.0
2020,Slovenia,1,0.0
2020,Slovenia,2,0.0
2020,Slovenia,3,0.0
2020,Slovenia,4,0.0
2020,Spain,1,0.0
2020,Spain,2,0.0
2020,Spain,3,0.0
2020,Spain,4,0.0
2020,Sweden,1,0.0
2020,Sweden,2,0.0
2020,Sweden,3,0.0
2020,Sweden,4,0.0
2020,Switzerland,1,0.0
2020,Switzerland,2,0.0
2020,Switzerland,3,0.0
2020,Switzerland,4,0.0
2020,United Kingdom,1,0.0
2020,United Kingdom,2,0.0
2020,United Kingdom,3,0.0
2020,United Kingdom,4,0.0
2021,Austria,1,0.0
2021,Austria,2,0.0
2021,Austria,3,0.0
2021,Austria,4,0.0
2021,Belgium,1,0.0
2021,Belgium,2,0.0
2021,Belgium,3,0.0
2021,Belgium,4,0.0
2021,Bulgaria,1,0.0
2021,Bulgaria,2,0.0
2021,Bulgaria,3,0.0
2021,Bulgaria,4,0.0
2021,Croatia,1,0.0
2021,Croatia,2,0.0
2021,Croatia,3,0.0
2021,Croatia,4,0.0
2021,Cyprus,1,0.0
2021,Cyprus,2,0.0
2021,Cyprus,3,0.0
2021,Cyprus,4,0.0
2021,Czech Republic,1,0.0
2021,Czech Republic,2,0.0
2021,Czech Republic,3,0.0
2021,Czech Republic,4,0.0
2021,Denmark,1,0.0
2021,Denmark,2,0.0
2021,Denmark,3,0.0
2021,Denmark,4,0.0
2021,Estonia,1,0.0
2021,Estonia,2,0.0
2021,Estonia,3,0.0
2021,Estonia,4,0.0
2021,Finland,1,0.0
2021,Finland,2,0.0
2021,Finland,3,0.0
2021,Finland,4,0.0
2021,France,1,0.0
2021,France,2,0.0
2021,France,3,0.0
2021,France,4,0.0
2021,Germany,1,0.0
2021,Germany,2,0.0
2021,Germany,3,0.0
2021,Germany,4,0.0
2021,Greece,1,0.0
2021,Greece,2,0.0
2021,Greece,3,0.0
2021,Greece,4,0.0
2021,Hungary,1,0.0
2021,Hungary,2,0.0
2021,Hungary,3,0.0
2021,Hungary,4,0.0
2021,Ireland,1,0.0
2021,Ireland,2,0.0
2021,Ireland,3,0.0
2021,Ireland,4,0.0
2021,Italy,1,0.0
2021,Italy,2,0.0
2021,Italy,3,0.0
2021,Italy,4,0.0
2021,Latvia,1,0.0
2021,Latvia,2,0.0
2021,Latvia,3,0.0
2021,Latvia,4,0.0
2021,Lithuania,1,0.0
2021,Lithuania,2,0.0
2021,Lithuania,3,0.0
2021,Lithuania,4,0.0
2021,Luxembourg,1,0.0
2021,Luxembourg,2,0.0
2021,Luxembourg,3,0.0
2021,Luxembourg,4,0.0
2021,Malta,1,0.0
2021,Malta,2,0.0
2021,Malta,3,0.0
2021,Malta,4,0.0
2021,Netherlands,1,0.0
2021,Netherlands,2,0.0
2021,Netherlands,3,0.0
2021,Netherlands,4,0.0
2021,Poland,1,0.0
2021,Poland,2,0.0
2021,Poland,3,0.0
2021,Poland,4,0.0
2021,Portugal,1,0.0
2021,Portugal,2,0.0
2021,Portugal,3,0.0
2021,Portugal,4,0.0
2021,Romania,1,0.0
2021,Romania,2,0.0
2021,Romania,3,0.0
2021,Romania,4,0.0
2021,Slovakia,1,0.0
2021,Slovakia,2,0.0
2021,Slovakia,3,0.0
2021,Slovakia,4,0.0
2021,Slovenia,1,0.0
2021,Slovenia,2,0.0
2021,Slovenia,3,0.0
2021,Slovenia,4,0.0
2021,Spain,1,0.0
2021,Spain,2,0.0
2021,Spain,3,0.0
2021,Spain,4,0.0
2021,Sweden,1,0.0
2021,Sweden,2,0.0
2021,Sweden,3,0.0
2021,Sweden,4,0.0
2021,Switzerland,1,0.0
2021,Switzerland,2,0.0
2021,Switzerland,3,0.0
2021,Switzerland,4,0.0
2021,United Kingdom,1,0.0
2021,United Kingdom,2,0.0
2021,United Kingdom,3,0.0
2021,United Kingdom,4,0.0
2022,Austria,1,0.0
2022,Austria,2,0.0
2022,Austria,3,0.0
2022,Austria,4,0.0
2022,Belgium,1,0.0
2022,Belgium,2,0.0
2022,Belgium,3,0.0
2022,Belgium,4,0.0
2022,Bulgaria,1,0.0
2022,Bulgaria,2,0.0
2022,Bulgaria,3,0.0
2022,Bulgaria,4,0.0
2022,Croatia,1,0.0
2022,Croatia,2,0.0
2022,Croatia,3,0.0
2022,Croatia,4,0.0
2022,Cyprus,1,0.0
2022,Cyprus,2,0.0
2022,Cyprus,3,0.0
2022,Cyprus,4,0.0
2022,Czech Republic,1,0.0
2022,Czech Republic,2,0.0
2022,Czech Republic,3,0.0
2022,Czech Republic,4,0.0
2022,Denmark,1,0.0
2022,Denmark,2,0.0
2022,Denmark,3,0.0
2022,Denmark,4,0.0
2022,Estonia,1,0.0
2022,Estonia,2,0.0
2022,Estonia,3,0.0
2022,Estonia,4,0.0
2022,Finland,1,0.0
2022,Finland,2,0.0
2022,Finland,3,0.0
2022,Finland,4,0.0
2022,France,1,0.0
2022,France,2,0.0
2022,France,3,0.0
2022,France,4,0.0
2022,Germany,1,0.0
2022,Germany,2,0.0
2022,Germany,3,0.0
2022,Germany,4,0.0
2022,Greece,1,0.0
2022,Greece,2,0.0
2022,Greece,3,0.0
2022,Greece,4,0.0
2022,Hungary,1,0.0
2022,Hungary,2,0.0
2022,Hungary,3,0.0
2022,Hungary,4,0.0
2022,Ireland,1,0.0
2022,Ireland,2,0.0
2022,Ireland,3,0.0
2022,Ireland,4,0.0
2022,Italy,1,0.0
2022,Italy,2,0.0
2022,Italy,3,0.0
2022,Italy,4,0.0
2022,Latvia,1,0.0
2022,Latvia,2,0.0
2022,Latvia,3,0.0
2022,Latvia,4,0.0
2022,Lithuania,1,0.0
2022,Lithuania,2,0.0
2022,Lithuania,3,0.0
2022,Lithuania,4,0.0
2022,Luxembourg,1,0.0
2022,Luxembourg,2,0.0
2022,Luxembourg,3,0.0
2022,Luxembourg,4,0.0
2022,Malta,1,0.0
2022,Malta,2,0.0
2022,Malta,3,0.0
2022,Malta,4,0.0
2022,Netherlands,1,0.0
2022,Netherlands,2,0.0
2022,Netherlands,3,0.0
2022,Netherlands,4,0.0
2022,Poland,1,0.0
2022,Poland,2,0.0
2022,Poland,3,0.0
2022,Poland,4,0.0
2022,Portugal,1,0.0
2022,Portugal,2,0.0
2022,Portugal,3,0.0
2022,Portugal,4,0.0
2022,Romania,1,0.0
2022,Romania,2,0.0
2022,Romania,3,0.0
2022,Romania,4,0.0
2022,Slovakia,1,0.0
2022,Slovakia,2,0.0
2022,Slovakia,3,0.0
2022,Slovakia,4,0.0
2022,Slovenia,1,0.0
2022,Slovenia,2,0.0
2022,Slovenia,3,0.0
2022,Slovenia,4,0.0
2022,Spain,1,0.0
2022,Spain,2,0.0
2022,Spain,3,0.0
2022,Spain,4,0.0
2022,Sweden,1,0.0
2022,Sweden,2,0.0
2022,Sweden,3,0.0
2022,Sweden,4,0.0
2022,Switzerland,1,0.0
2022,Switzerland,2,0.0
2022,Switzerland,3,0.0
2022,Switzerland,4,0.0
2022,United Kingdom,1,0.0
2022,United Kingdom,2,0.0
2022,United Kingdom,3,0.0
2022,United Kingdom,4,0.0
2023,Austria,1,0.0
2023,Austria,2,0.0
2023,Austria,3,0.0
2023,Austria,4,0.0
2023,Belgium,1,0.0
2023,Belgium,2,0.0
2023,Belgium,3,0.0
2023,Belgium,4,0.0
2023,Bulgaria,1,0.0
2023,Bulgaria,2,0.0
2023,Bulgaria,3,0.0
2023,Bulgaria,4,0.0
2023,Croatia,1,0.0
2023,Croatia,2,0.0
2023,Croatia,3,0.0
2023,Croatia,4,0.0
2023,Cyprus,1,0.0
2023,Cyprus,2,0.0
2023,Cyprus,3,0.0
2023,Cyprus,4,0.0
2023,Czech Republic,1,0.0
2023,Czech Republic,2,0.0
2023,Czech Republic,3,0.0
2023,Czech Republic,4,0.0
2023,Denmark,1,0.0
2023,Denmark,2,0.0
2023,Denmark,3,0.0
2023,Denmark,4,0.0
2023,Estonia,1,0.0
2023,Estonia,2,0.0
2023,Estonia,3,0.0
2023,Estonia,4,0.0
2023,Finland,1,0.0
2023,Finland,2,0.0
2023,Finland,3,0.0
2023,Finland,4,0.0
2023,France,1,0.0
2023,France,2,0.0
2023,France,3,0.0
2023,France,4,0.0
2023,Germany,1,0.0
2023,Germany,2,0.0
2023,Germany,3,0.0
2023,Germany,4,0.0
2023,Greece,1,0.0
2023,Greece,2,0.0
2023,Greece,3,0.0
2023,Greece,4,0.0
2023,Hungary,1,0.0
2023,Hungary,2,0.0
2023,Hungary,3,0.0
2023,Hungary,4,0.0
2023,Ireland,1,0.0
2023,Ireland,2,0.0
2023,Ireland,3,0.0
2023,Ireland,4,0.0
2023,Italy,1,0.0
2023,Italy,2,0.0
2023,Italy,3,0.0
2023,Italy,4,0.0
2023,Latvia,1,0.0
2023,Latvia,2,0.0
2023,Latvia,3,0.0
2023,Latvia,4,0.0
2023,Lithuania,1,0.0
2023,Lithuania,2,0.0
2023,Lithuania,3,0.0
2023,Lithuania,4,0.0
2023,Luxembourg,1,0.0
2023,Luxembourg,2,0.0
2023,Luxembourg,3,0.0
2023,Luxembourg,4,0.0
2023,Malta,1,0.0
2023,Malta,2,0.0
2023,Malta,3,0.0
2023,Malta,4,0.0
2023,Netherlands,1,0.0
2023,Netherlands,2,0.0
2023,Netherlands,3,0.0
2023,Netherlands,4,0.0
2023,Poland,1,0.0
2023,Poland,2,0.0
2023,Poland,3,0.0
2023,Poland,4,0.0
2023,Portugal,1,0.0
2023,Portugal,2,0.0
2023,Portugal,3,0.0
2023,Portugal,4,0.0
2023,Romania,1,0.0
2023,Romania,2,0.0
2023,Romania,3,0.0
2023,Romania,4,0.0
2023,Slovakia,1,0.0
2023,Slovakia,2,0.0
2023,Slovakia,3,0.0
2023,Slovakia,4,0.0
2023,Slovenia,1,0.0
2023,Slovenia,2,0.0
2023,Slovenia,3,0.0
2023,Slovenia,4,0.0
2023,Spain,1,0.0
2023,Spain,2,0.0
2023,Spain,3,0.0
2023,Spain,4,0.0
2023,Sweden,1,0.0
2023,Sweden,2,0.0
2023,Sweden,3,0.0
2023,Sweden,4,0.0
2023,Switzerland,1,0.0
2023,Switzerland,2,0.0
2023,Switzerland,3,0.0
2023,Switzerland,4,0.0
2023,United Kingdom,1,0.0
2023,United Kingdom,2,0.0
2023,United Kingdom,3,0.0
2023,United Kingdom,4,0.0
2024,Austria,1,0.0
2024,Austria,2,0.0
2024,Austria,3,0.0
2024,Austria,4,0.0
2024,Belgium,1,0.0
2024,Belgium,2,0.0
2024,Belgium,3,0.0
2024,Belgium,4,0.0
2024,Bulgaria,1,0.0
2024,Bulgaria,2,0.0
2024,Bulgaria,3,0.0
2024,Bulgaria,4,0.0
2024,Croatia,1,0.0
2024,Croatia,2,0.0
2024,Croatia,3,0.0
2024,Croatia,4,0.0
2024,Cyprus,1,0.0
2024,Cyprus,2,0.0
2024,Cyprus,3,0.0
2024,Cyprus,4,0.0
2024,Czech Republic,1,0.0
2024,Czech Republic,2,0.0
2024,Czech Republic,3,0.0
2024,Czech Republic,4,0.0
2024,Denmark,1,0.0
2024,Denmark,2,0.0
2024,Denmark,3,0.0
2024,Denmark,4,0.0
2024,Estonia,1,0.0
2024,Estonia,2,0.0
2024,Estonia,3,0.0
2024,Estonia,4,0.0
2024,Finland,1,0.0
2024,Finland,2,0.0
2024,Finland,3,0.0
2024,Finland,4,0.0
2024,France,1,0.0
2024,France,2,0.0
2024,France,3,0.0
2024,France,4,0.0
2024,Germany,1,0.0
2024,Germany,2,0.0
2024,Germany,3,0.0
2024,Germany,4,0.0
2024,Greece,1,0.0
2024,Greece,2,0.0
2024,Greece,3,0.0
2024,Greece,4,0.0
2024,Hungary,1,0.0
2024,Hungary,2,0.0
2024,Hungary,3,0.0
2024,Hungary,4,0.0
2024,Ireland,1,0.0
2024,Ireland,2,0.0
2024,Ireland,3,0.0
2024,Ireland,4,0.0
2024,Italy,1,0.0
2024,Italy,2,0.0
2024,Italy,3,0.0
2024,Italy,4,0.0
2024,Latvia,1,0.0
2024,Latvia,2,0.0
2024,Latvia,3,0.0
2024,Latvia,4,0.0
2024,Lithuania,1,0.0
2024,Lithuania,2,0.0
2024,Lithuania,3,0.0
2024,Lithuania,4,0.0
2024,Luxembourg,1,0.0
2024,Luxembourg,2,0.0
2024,Luxembourg,3,0.0
2024,Luxembourg,4,0.0
2024,Malta,1,0.0
2024,Malta,2,0.0
2024,Malta,3,0.0
2024,Malta,4,0.0
2024,Netherlands,1,0.0
2024,Netherlands,2,0.0
2024,Netherlands,3,0.0
2024,Netherlands,4,0.0
2024,Poland,1,0.0
2024,Poland,2,0.0
2024,Poland,3,0.0
2024,Poland,4,0.0
2024,Portugal,1,0.0
2024,Portugal,2,0.0
2024,Portugal,3,0.0
2024,Portugal,4,0.0
2024,Romania,1,0.0
2024,Romania,2,0.0
2024,Romania,3,0.0
2024,Romania,4,0.0
2024,Slovakia,1,0.0
2024,Slovakia,2,0.0
2024,Slovakia,3,0.0
2024,Slovakia,4,0.0
2024,Slovenia,1,0.0
2024,Slovenia,2,0.0
2024,Slovenia,3,0.0
2024,Slovenia,4,0.0
2024,Spain,1,0.0
2024,Spain,2,0.0
2024,Spain,3,0.0
2024,Spain,4,0.0
2024,Sweden,1,0.0
2024,Sweden,2,0.0
2024,Sweden,3,0.0
2024,Sweden,4,0.0
2024,Switzerland,1,0.0
2024,Switzerland,2,0.0
2024,Switzerland,3,0.0
2024,Switzerland,4,0.0
2024,United Kingdom,1,0.0
2024,United Kingdom,2,0.0
2024,United Kingdom,3,0.0
2024,United Kingdom,4,0.0
2025,Austria,1,0.0
2025,Austria,2,0.0
2025,Austria,3,0.0
2025,Austria,4,0.0
2025,Belgium,1,0.0
2025,Belgium,2,0.0
2025,Belgium,3,0.0
2025,Belgium,4,0.0
2025,Bulgaria,1,0.0
2025,Bulgaria,2,0.0
2025,Bulgaria,3,0.0
2025,Bulgaria,4,0.0
2025,Croatia,1,0.0
2025,Croatia,2,0.0
2025,Croatia,3,0.0
2025,Croatia,4,0.0
2025,Cyprus,1,0.0
2025,Cyprus,2,0.0
2025,Cyprus,3,0.0
2025,Cyprus,4,0.0
2025,Czech Republic,1,0.0
2025,Czech Republic,2,0.0
2025,Czech Republic,3,0.0
2025,Czech Republic,4,0.0
2025,Denmark,1,0.0
2025,Denmark,2,0.0
2025,Denmark,3,0.0
2025,Denmark,4,0.0
2025,Estonia,1,0.0
2025,Estonia,2,0.0
2025,Estonia,3,0.0
2025,Estonia,4,0.0
2025,Finland,1,0.0
2025,Finland,2,0.0
2025,Finland,3,0.0
2025,Finland,4,0.0
2025,France,1,0.0
2025,France,2,0.0
2025,France,3,0.0
2025,France,4,0.0
2025,Germany,1,0.0
2025,Germany,2,0.0
2025,Germany,3,0.0
2025,Germany,4,0.0
2025,Greece,1,0.0
2025,Greece,2,0.0
2025,Greece,3,0.0
2025,Greece,4,0.0
2025,Hungary,1,0.0
2025,Hungary,2,0.0
2025,Hungary,3,0.0
2025,Hungary,4,0.0
2025,Ireland,1,0.0
2025,Ireland,2,0.0
2025,Ireland,3,0.0
2025,Ireland,4,0.0
2025,Italy,1,0.0
2025,Italy,2,0.0
2025,Italy,3,0.0
2025,Italy,4,0.0
2025,Latvia,1,0.0
2025,Latvia,2,0.0
2025,Latvia,3,0.0
2025,Latvia,4,0.0
2025,Lithuania,1,0.0
2025,Lithuania,2,0.0
2025,Lithuania,3,0.0
2025,Lithuania,4,0.0
2025,Luxembourg,1,0.0
2025,Luxembourg,2,0.0
2025,Luxembourg,3,0.0
2025,Luxembourg,4,0.0
2025,Malta,1,0.0
2025,Malta,2,0.0
2025,Malta,3,0.0
2025,Malta,4,0.0
2025,Netherlands,1,0.0
2025,Netherlands,2,0.0
2025,Netherlands,3,0.0
2025,Netherlands,4,0.0
2025,Poland,1,0.0
2025,Poland,2,0.0
2025,Poland,3,0.0
2025,Poland,4,0.0
2025,Portugal,1,0.0
2025,Portugal,2,0.0
2025,Portugal,3,0.0
2025,Portugal,4,0.0
2025,Romania,1,0.0
2025,Romania,2,0.0
2025,Romania,3,0.0
2025,Romania,4,0.0
2025,Slovakia,1,0.0
2025,Slovakia,2,0.0
2025,Slovakia,3,0.0
2025,Slovakia,4,0.0
2025,Slovenia,1,0.0
2025,Slovenia,2,0.0
2025,Slovenia,3,0.0
2025,Slovenia,4,0.0
2025,Spain,1,0.0
2025,Spain,2,0.0
2025,Spain,3,0.0
2025,Spain,4,0.0
2025,Sweden,1,0.0
2025,Sweden,2,0.0
2025,Sweden,3,0.0
2025,Sweden,4,0.0
2025,Switzerland,1,0.0
2025,Switzerland,2,0.0
2025,Switzerland,3,0.0
2025,Switzerland,4,0.0
2025,United Kingdom,1,0.0
2025,United Kingdom,2,0.0
2025,United Kingdom,3,0.0
2025,United Kingdom,4,0.0
2026,Austria,1,0.0
2026,Austria,2,0.0
2026,Austria,3,0.0
2026,Austria,4,0.0
2026,Belgium,1,0.0
2026,Belgium,2,0.0
2026,Belgium,3,0.0
2026,Belgium,4,0.0
2026,Bulgaria,1,0.0
2026,Bulgaria,2,0.0
2026,Bulgaria,3,0.0
2026,Bulgaria,4,0.0
2026,Croatia,1,0.0
2026,Croatia,2,0.0
2026,Croatia,3,0.0
2026,Croatia,4,0.0
2026,Cyprus,1,0.0
2026,Cyprus,2,0.0
2026,Cyprus,3,0.0
2026,Cyprus,4,0.0
2026,Czech Republic,1,0.0
2026,Czech Republic,2,0.0
2026,Czech Republic,3,0.0
2026,Czech Republic,4,0.0
2026,Denmark,1,0.0
2026,Denmark,2,0.0
2026,Denmark,3,0.0
2026,Denmark,4,0.0
2026,Estonia,1,0.0
2026,Estonia,2,0.0
2026,Estonia,3,0.0
2026,Estonia,4,0.0
2026,Finland,1,0.0
2026,Finland,2,0.0
2026,Finland,3,0.0
2026,Finland,4,0.0
2026,France,1,0.0
2026,France,2,0.0
2026,France,3,0.0
2026,France,4,0.0
2026,Germany,1,0.0
2026,Germany,2,0.0
2026,Germany,3,0.0
2026,Germany,4,0.0
2026,Greece,1,0.0
2026,Greece,2,0.0
2026,Greece,3,0.0
2026,Greece,4,0.0
2026,Hungary,1,0.0
2026,Hungary,2,0.0
2026,Hungary,3,0.0
2026,Hungary,4,0.0
2026,Ireland,1,0.0
2026,Ireland,2,0.0
2026,Ireland,3,0.0
2026,Ireland,4,0.0
2026,Italy,1,0.0
2026,Italy,2,0.0
2026,Italy,3,0.0
2026,Italy,4,0.0
2026,Latvia,1,0.0
2026,Latvia,2,0.0
2026,Latvia,3,0.0
2026,Latvia,4,0.0
2026,Lithuania,1,0.0
2026,Lithuania,2,0.0
2026,Lithuania,3,0.0
2026,Lithuania,4,0.0
2026,Luxembourg,1,0.0
2026,Luxembourg,2,0.0
2026,Luxembourg,3,0.0
2026,Luxembourg,4,0.0
2026,Malta,1,0.0
2026,Malta,2,0.0
2026,Malta,3,0.0
2026,Malta,4,0.0
2026,Netherlands,1,0.0
2026,Netherlands,2,0.0
2026,Netherlands,3,0.0
2026,Netherlands,4,0.0
2026,Poland,1,0.0
2026,Poland,2,0.0
2026,Poland,3,0.0
2026,Poland,4,0.0
2026,Portugal,1,0.0
2026,Portugal,2,0.0
2026,Portugal,3,0.0
2026,Portugal,4,0.0
2026,Romania,1,0.0
2026,Romania,2,0.0
2026,Romania,3,0.0
2026,Romania,4,0.0
2026,Slovakia,1,0.0
2026,Slovakia,2,0.0
2026,Slovakia,3,0.0
2026,Slovakia,4,0.0
2026,Slovenia,1,0.0
2026,Slovenia,2,0.0
2026,Slovenia,3,0.0
2026,Slovenia,4,0.0
2026,Spain,1,0.0
2026,Spain,2,0.0
2026,Spain,3,0.0
2026,Spain,4,0.0
2026,Sweden,1,0.0
2026,Sweden,2,0.0
2026,Sweden,3,0.0
2026,Sweden,4,0.0
2026,Switzerland,1,0.0
2026,Switzerland,2,0.0
2026,Switzerland,3,0.0
2026,Switzerland,4,0.0
2026,United Kingdom,1,0.0
2026,United Kingdom,2,0.0
2026,United Kingdom,3,0.0
2026,United Kingdom,4,0.0
2027,Austria,1,0.0
2027,Austria,2,0.0
2027,Austria,3,0.0
2027,Austria,4,0.0
2027,Belgium,1,0.0
2027,Belgium,2,0.0
2027,Belgium,3,0.0
2027,Belgium,4,0.0
2027,Bulgaria,1,0.0
2027,Bulgaria,2,0.0
2027,Bulgaria,3,0.0
2027,Bulgaria,4,0.0
2027,Croatia,1,0.0
2027,Croatia,2,0.0
2027,Croatia,3,0.0
2027,Croatia,4,0.0
2027,Cyprus,1,0.0
2027,Cyprus,2,0.0
2027,Cyprus,3,0.0
2027,Cyprus,4,0.0
2027,Czech Republic,1,0.0
2027,Czech Republic,2,0.0
2027,Czech Republic,3,0.0
2027,Czech Republic,4,0.0
2027,Denmark,1,0.0
2027,Denmark,2,0.0
2027,Denmark,3,0.0
2027,Denmark,4,0.0
2027,Estonia,1,0.0
2027,Estonia,2,0.0
2027,Estonia,3,0.0
2027,Estonia,4,0.0
2027,Finland,1,0.0
2027,Finland,2,0.0
2027,Finland,3,0.0
2027,Finland,4,0.0
2027,France,1,0.0
2027,France,2,0.0
2027,France,3,0.0
2027,France,4,0.0
2027,Germany,1,0.0
2027,Germany,2,0.0
2027,Germany,3,0.0
2027,Germany,4,0.0
2027,Greece,1,0.0
2027,Greece,2,0.0
2027,Greece,3,0.0
2027,Greece,4,0.0
2027,Hungary,1,0.0
2027,Hungary,2,0.0
2027,Hungary,3,0.0
2027,Hungary,4,0.0
2027,Ireland,1,0.0
2027,Ireland,2,0.0
2027,Ireland,3,0.0
2027,Ireland,4,0.0
2027,Italy,1,0.0
2027,Italy,2,0.0
2027,Italy,3,0.0
2027,Italy,4,0.0
2027,Latvia,1,0.0
2027,Latvia,2,0.0
2027,Latvia,3,0.0
2027,Latvia,4,0.0
2027,Lithuania,1,0.0
2027,Lithuania,2,0.0
2027,Lithuania,3,0.0
2027,Lithuania,4,0.0
2027,Luxembourg,1,0.0
2027,Luxembourg,2,0.0
2027,Luxembourg,3,0.0
2027,Luxembourg,4,0.0
2027,Malta,1,0.0
2027,Malta,2,0.0
2027,Malta,3,0.0
2027,Malta,4,0.0
2027,Netherlands,1,0.0
2027,Netherlands,2,0.0
2027,Netherlands,3,0.0
2027,Netherlands,4,0.0
2027,Poland,1,0.0
2027,Poland,2,0.0
2027,Poland,3,0.0
2027,Poland,4,0.0
2027,Portugal,1,0.0
2027,Portugal,2,0.0
2027,Portugal,3,0.0
2027,Portugal,4,0.0
2027,Romania,1,0.0
2027,Romania,2,0.0
2027,Romania,3,0.0
2027,Romania,4,0.0
2027,Slovakia,1,0.0
2027,Slovakia,2,0.0
2027,Slovakia,3,0.0
2027,Slovakia,4,0.0
2027,Slovenia,1,0.0
2027,Slovenia,2,0.0
2027,Slovenia,3,0.0
2027,Slovenia,4,0.0
2027,Spain,1,0.0
2027,Spain,2,0.0
2027,Spain,3,0.0
2027,Spain,4,0.0
2027,Sweden,1,0.0
2027,Sweden,2,0.0
2027,Sweden,3,0.0
2027,Sweden,4,0.0
2027,Switzerland,1,0.0
2027,Switzerland,2,0.0
2027,Switzerland,3,0.0
2027,Switzerland,4,0.0
2027,United Kingdom,1,0.0
2027,United Kingdom,2,0.0
2027,United Kingdom,3,0.0
2027,United Kingdom,4,0.0
2028,Austria,1,0.0
2028,Austria,2,0.0
2028,Austria,3,0.0
2028,Austria,4,0.0
2028,Belgium,1,0.0
2028,Belgium,2,0.0
2028,Belgium,3,0.0
2028,Belgium,4,0.0
2028,Bulgaria,1,0.0
2028,Bulgaria,2,0.0
2028,Bulgaria,3,0.0
2028,Bulgaria,4,0.0
2028,Croatia,1,0.0
2028,Croatia,2,0.0
2028,Croatia,3,0.0
2028,Croatia,4,0.0
2028,Cyprus,1,0.0
2028,Cyprus,2,0.0
2028,Cyprus,3,0.0
2028,Cyprus,4,0.0
2028,Czech Republic,1,0.0
2028,Czech Republic,2,0.0
2028,Czech Republic,3,0.0
2028,Czech Republic,4,0.0
2028,Denmark,1,0.0
2028,Denmark,2,0.0
2028,Denmark,3,0.0
2028,Denmark,4,0.0
2028,Estonia,1,0.0
2028,Estonia,2,0.0
2028,Estonia,3,0.0
2028,Estonia,4,0.0
2028,Finland,1,0.0
2028,Finland,2,0.0
2028,Finland,3,0.0
2028,Finland,4,0.0
2028,France,1,0.0
2028,France,2,0.0
2028,France,3,0.0
2028,France,4,0.0
2028,Germany,1,0.0
2028,Germany,2,0.0
2028,Germany,3,0.0
2028,Germany,4,0.0
2028,Greece,1,0.0
2028,Greece,2,0.0
2028,Greece,3,0.0
2028,Greece,4,0.0
2028,Hungary,1,0.0
2028,Hungary,2,0.0
2028,Hungary,3,0.0
2028,Hungary,4,0.0
2028,Ireland,1,0.0
2028,Ireland,2,0.0
2028,Ireland,3,0.0
2028,Ireland,4,0.0
2028,Italy,1,0.0
2028,Italy,2,0.0
2028,Italy,3,0.0
2028,Italy,4,0.0
2028,Latvia,1,0.0
2028,Latvia,2,0.0
2028,Latvia,3,0.0
2028,Latvia,4,0.0
2028,Lithuania,1,0.0
2028,Lithuania,2,0.0
2028,Lithuania,3,0.0
2028,Lithuania,4,0.0
2028,Luxembourg,1,0.0
2028,Luxembourg,2,0.0
2028,Luxembourg,3,0.0
2028,Luxembourg,4,0.0
2028,Malta,1,0.0
2028,Malta,2,0.0
2028,Malta,3,0.0
2028,Malta,4,0.0
2028,Netherlands,1,0.0
2028,Netherlands,2,0.0
2028,Netherlands,3,0.0
2028,Netherlands,4,0.0
2028,Poland,1,0.0
2028,Poland,2,0.0
2028,Poland,3,0.0
2028,Poland,4,0.0
2028,Portugal,1,0.0
2028,Portugal,2,0.0
2028,Portugal,3,0.0
2028,Portugal,4,0.0
2028,Romania,1,0.0
2028,Romania,2,0.0
2028,Romania,3,0.0
2028,Romania,4,0.0
2028,Slovakia,1,0.0
2028,Slovakia,2,0.0
2028,Slovakia,3,0.0
2028,Slovakia,4,0.0
2028,Slovenia,1,0.0
2028,Slovenia,2,0.0
2028,Slovenia,3,0.0
2028,Slovenia,4,0.0
2028,Spain,1,0.0
2028,Spain,2,0.0
2028,Spain,3,0.0
2028,Spain,4,0.0
2028,Sweden,1,0.0
2028,Sweden,2,0.0
2028,Sweden,3,0.0
2028,Sweden,4,0.0
2028,Switzerland,1,0.0
2028,Switzerland,2,0.0
2028,Switzerland,3,0.0
2028,Switzerland,4,0.0
2028,United Kingdom,1,0.0
2028,United Kingdom,2,0.0
2028,United Kingdom,3,0.0
2028,United Kingdom,4,0.0
2029,Austria,1,0.0
2029,Austria,2,0.0
2029,Austria,3,0.0
2029,Austria,4,0.0
2029,Belgium,1,0.0
2029,Belgium,2,0.0
2029,Belgium,3,0.0
2029,Belgium,4,0.0
2029,Bulgaria,1,0.0
2029,Bulgaria,2,0.0
2029,Bulgaria,3,0.0
2029,Bulgaria,4,0.0
2029,Croatia,1,0.0
2029,Croatia,2,0.0
2029,Croatia,3,0.0
2029,Croatia,4,0.0
2029,Cyprus,1,0.0
2029,Cyprus,2,0.0
2029,Cyprus,3,0.0
2029,Cyprus,4,0.0
2029,Czech Republic,1,0.0
2029,Czech Republic,2,0.0
2029,Czech Republic,3,0.0
2029,Czech Republic,4,0.0
2029,Denmark,1,0.0
2029,Denmark,2,0.0
2029,Denmark,3,0.0
2029,Denmark,4,0.0
2029,Estonia,1,0.0
2029,Estonia,2,0.0
2029,Estonia,3,0.0
2029,Estonia,4,0.0
2029,Finland,1,0.0
2029,Finland,2,0.0
2029,Finland,3,0.0
2029,Finland,4,0.0
2029,France,1,0.0
2029,France,2,0.0
2029,France,3,0.0
2029,France,4,0.0
2029,Germany,1,0.0
2029,Germany,2,0.0
2029,Germany,3,0.0
2029,Germany,4,0.0
2029,Greece,1,0.0
2029,Greece,2,0.0
2029,Greece,3,0.0
2029,Greece,4,0.0
2029,Hungary,1,0.0
2029,Hungary,2,0.0
2029,Hungary,3,0.0
2029,Hungary,4,0.0
2029,Ireland,1,0.0
2029,Ireland,2,0.0
2029,Ireland,3,0.0
2029,Ireland,4,0.0
2029,Italy,1,0.0
2029,Italy,2,0.0
2029,Italy,3,0.0
2029,Italy,4,0.0
2029,Latvia,1,0.0
2029,Latvia,2,0.0
2029,Latvia,3,0.0
2029,Latvia,4,0.0
2029,Lithuania,1,0.0
2029,Lithuania,2,0.0
2029,Lithuania,3,0.0
2029,Lithuania,4,0.0
2029,Luxembourg,1,0.0
2029,Luxembourg,2,0.0
2029,Luxembourg,3,0.0
2029,Luxembourg,4,0.0
2029,Malta,1,0.0
2029,Malta,2,0.0
2029,Malta,3,0.0
2029,Malta,4,0.0
2029,Netherlands,1,0.0
2029,Netherlands,2,0.0
2029,Netherlands,3,0.0
2029,Netherlands,4,0.0
2029,Poland,1,0.0
2029,Poland,2,0.0
2029,Poland,3,0.0
2029,Poland,4,0.0
2029,Portugal,1,0.0
2029,Portugal,2,0.0
2029,Portugal,3,0.0
2029,Portugal,4,0.0
2029,Romania,1,0.0
2029,Romania,2,0.0
2029,Romania,3,0.0
2029,Romania,4,0.0
2029,Slovakia,1,0.0
2029,Slovakia,2,0.0
2029,Slovakia,3,0.0
2029,Slovakia,4,0.0
2029,Slovenia,1,0.0
2029,Slovenia,2,0.0
2029,Slovenia,3,0.0
2029,Slovenia,4,0.0
2029,Spain,1,0.0
2029,Spain,2,0.0
2029,Spain,3,0.0
2029,Spain,4,0.0
2029,Sweden,1,0.0
2029,Sweden,2,0.0
2029,Sweden,3,0.0
2029,Sweden,4,0.0
2029,Switzerland,1,0.0
2029,Switzerland,2,0.0
2029,Switzerland,3,0.0
2029,Switzerland,4,0.0
2029,United Kingdom,1,0.0
2029,United Kingdom,2,0.0
2029,United Kingdom,3,0.0
2029,United Kingdom,4,0.0
2030,Austria,1,0.0
2030,Austria,2,0.0
2030,Austria,3,0.0
2030,Austria,4,0.0
2030,Belgium,1,0.0
2030,Belgium,2,0.0
2030,Belgium,3,0.0
2030,Belgium,4,0.0
2030,Bulgaria,1,0.0
2030,Bulgaria,2,0.0
2030,Bulgaria,3,0.0
2030,Bulgaria,4,0.0
2030,Croatia,1,0.0
2030,Croatia,2,0.0
2030,Croatia,3,0.0
2030,Croatia,4,0.0
2030,Cyprus,1,0.0
2030,Cyprus,2,0.0
2030,Cyprus,3,0.0
2030,Cyprus,4,0.0
2030,Czech Republic,1,0.0
2030,Czech Republic,2,0.0
2030,Czech Republic,3,0.0
2030,Czech Republic,4,0.0
2030,Denmark,1,0.0
2030,Denmark,2,0.0
2030,Denmark,3,0.0
2030,Denmark,4,0.0
2030,Estonia,1,0.0
2030,Estonia,2,0.0
2030,Estonia,3,0.0
2030,Estonia,4,0.0
2030,Finland,1,0.0
2030,Finland,2,0.0
2030,Finland,3,0.0
2030,Finland,4,0.0
2030,France,1,0.0
2030,France,2,0.0
2030,France,3,0.0
2030,France,4,0.0
2030,Germany,1,0.0
2030,Germany,2,0.0
2030,Germany,3,0.0
2030,Germany,4,0.0
2030,Greece,1,0.0
2030,Greece,2,0.0
2030,Greece,3,0.0
2030,Greece,4,0.0
2030,Hungary,1,0.0
2030,Hungary,2,0.0
2030,Hungary,3,0.0
2030,Hungary,4,0.0
2030,Ireland,1,0.0
2030,Ireland,2,0.0
2030,Ireland,3,0.0
2030,Ireland,4,0.0
2030,Italy,1,0.0
2030,Italy,2,0.0
2030,Italy,3,0.0
2030,Italy,4,0.0
2030,Latvia,1,0.0
2030,Latvia,2,0.0
2030,Latvia,3,0.0
2030,Latvia,4,0.0
2030,Lithuania,1,0.0
2030,Lithuania,2,0.0
2030,Lithuania,3,0.0
2030,Lithuania,4,0.0
2030,Luxembourg,1,0.0
2030,Luxembourg,2,0.0
2030,Luxembourg,3,0.0
2030,Luxembourg,4,0.0
2030,Malta,1,0.0
2030,Malta,2,0.0
2030,Malta,3,0.0
2030,Malta,4,0.0
2030,Netherlands,1,0.0
2030,Netherlands,2,0.0
2030,Netherlands,3,0.0
2030,Netherlands,4,0.0
2030,Poland,1,0.0
2030,Poland,2,0.0
2030,Poland,3,0.0
2030,Poland,4,0.0
2030,Portugal,1,0.0
2030,Portugal,2,0.0
2030,Portugal,3,0.0
2030,Portugal,4,0.0
2030,Romania,1,0.0
2030,Romania,2,0.0
2030,Romania,3,0.0
2030,Romania,4,0.0
2030,Slovakia,1,0.0
2030,Slovakia,2,0.0
2030,Slovakia,3,0.0
2030,Slovakia,4,0.0
2030,Slovenia,1,0.0
2030,Slovenia,2,0.0
2030,Slovenia,3,0.0
2030,Slovenia,4,0.0
2030,Spain,1,0.0
2030,Spain,2,0.0
2030,Spain,3,0.0
2030,Spain,4,0.0
2030,Sweden,1,0.0
2030,Sweden,2,0.0
2030,Sweden,3,0.0
2030,Sweden,4,0.0
2030,Switzerland,1,0.0
2030,Switzerland,2,0.0
2030,Switzerland,3,0.0
2030,Switzerland,4,0.0
2030,United Kingdom,1,0.0
2030,United Kingdom,2,0.0
2030,United Kingdom,3,0.0
2030,United Kingdom,4,0.0
2031,Austria,1,0.0
2031,Austria,2,0.0
2031,Austria,3,0.0
2031,Austria,4,0.0
2031,Belgium,1,0.0
2031,Belgium,2,0.0
2031,Belgium,3,0.0
2031,Belgium,4,0.0
2031,Bulgaria,1,0.0
2031,Bulgaria,2,0.0
2031,Bulgaria,3,0.0
2031,Bulgaria,4,0.0
2031,Croatia,1,0.0
2031,Croatia,2,0.0
2031,Croatia,3,0.0
2031,Croatia,4,0.0
2031,Cyprus,1,0.0
2031,Cyprus,2,0.0
2031,Cyprus,3,0.0
2031,Cyprus,4,0.0
2031,Czech Republic,1,0.0
2031,Czech Republic,2,0.0
2031,Czech Republic,3,0.0
2031,Czech Republic,4,0.0
2031,Denmark,1,0.0
2031,Denmark,2,0.0
2031,Denmark,3,0.0
2031,Denmark,4,0.0
2031,Estonia,1,0.0
2031,Estonia,2,0.0
2031,Estonia,3,0.0
2031,Estonia,4,0.0
2031,Finland,1,0.0
2031,Finland,2,0.0
2031,Finland,3,0.0
2031,Finland,4,0.0
2031,France,1,0.0
2031,France,2,0.0
2031,France,3,0.0
2031,France,4,0.0
2031,Germany,1,0.0
2031,Germany,2,0.0
2031,Germany,3,0.0
2031,Germany,4,0.0
2031,Greece,1,0.0
2031,Greece,2,0.0
2031,Greece,3,0.0
2031,Greece,4,0.0
2031,Hungary,1,0.0
2031,Hungary,2,0.0
2031,Hungary,3,0.0
2031,Hungary,4,0.0
2031,Ireland,1,0.0
2031,Ireland,2,0.0
2031,Ireland,3,0.0
2031,Ireland,4,0.0
2031,Italy,1,0.0
2031,Italy,2,0.0
2031,Italy,3,0.0
2031,Italy,4,0.0
2031,Latvia,1,0.0
2031,Latvia,2,0.0
2031,Latvia,3,0.0
2031,Latvia,4,0.0
2031,Lithuania,1,0.0
2031,Lithuania,2,0.0
2031,Lithuania,3,0.0
2031,Lithuania,4,0.0
2031,Luxembourg,1,0.0
2031,Luxembourg,2,0.0
2031,Luxembourg,3,0.0
2031,Luxembourg,4,0.0
2031,Malta,1,0.0
2031,Malta,2,0.0
2031,Malta,3,0.0
2031,Malta,4,0.0
2031,Netherlands,1,0.0
2031,Netherlands,2,0.0
2031,Netherlands,3,0.0
2031,Netherlands,4,0.0
2031,Poland,1,0.0
2031,Poland,2,0.0
2031,Poland,3,0.0
2031,Poland,4,0.0
2031,Portugal,1,0.0
2031,Portugal,2,0.0
2031,Portugal,3,0.0
2031,Portugal,4,0.0
2031,Romania,1,0.0
2031,Romania,2,0.0
2031,Romania,3,0.0
2031,Romania,4,0.0
2031,Slovakia,1,0.0
2031,Slovakia,2,0.0
2031,Slovakia,3,0.0
2031,Slovakia,4,0.0
2031,Slovenia,1,0.0
2031,Slovenia,2,0.0
2031,Slovenia,3,0.0
2031,Slovenia,4,0.0
2031,Spain,1,0.0
2031,Spain,2,0.0
2031,Spain,3,0.0
2031,Spain,4,0.0
2031,Sweden,1,0.0
2031,Sweden,2,0.0
2031,Sweden,3,0.0
2031,Sweden,4,0.0
2031,Switzerland,1,0.0
2031,Switzerland,2,0.0
2031,Switzerland,3,0.0
2031,Switzerland,4,0.0
2031,United Kingdom,1,0.0
2031,United Kingdom,2,0.0
2031,United Kingdom,3,0.0
2031,United Kingdom,4,0.0
2032,Austria,1,0.0
2032,Austria,2,0.0
2032,Austria,3,0.0
2032,Austria,4,0.0
2032,Belgium,1,0.0
2032,Belgium,2,0.0
2032,Belgium,3,0.0
2032,Belgium,4,0.0
2032,Bulgaria,1,0.0
2032,Bulgaria,2,0.0
2032,Bulgaria,3,0.0
2032,Bulgaria,4,0.0
2032,Croatia,1,0.0
2032,Croatia,2,0.0
2032,Croatia,3,0.0
2032,Croatia,4,0.0
2032,Cyprus,1,0.0
2032,Cyprus,2,0.0
2032,Cyprus,3,0.0
2032,Cyprus,4,0.0
2032,Czech Republic,1,0.0
2032,Czech Republic,2,0.0
2032,Czech Republic,3,0.0
2032,Czech Republic,4,0.0
2032,Denmark,1,0.0
2032,Denmark,2,0.0
2032,Denmark,3,0.0
2032,Denmark,4,0.0
2032,Estonia,1,0.0
2032,Estonia,2,0.0
2032,Estonia,3,0.0
2032,Estonia,4,0.0
2032,Finland,1,0.0
2032,Finland,2,0.0
2032,Finland,3,0.0
2032,Finland,4,0.0
2032,France,1,0.0
2032,France,2,0.0
2032,France,3,0.0
2032,France,4,0.0
2032,Germany,1,0.0
2032,Germany,2,0.0
2032,Germany,3,0.0
2032,Germany,4,0.0
2032,Greece,1,0.0
2032,Greece,2,0.0
2032,Greece,3,0.0
2032,Greece,4,0.0
2032,Hungary,1,0.0
2032,Hungary,2,0.0
2032,Hungary,3,0.0
2032,Hungary,4,0.0
2032,Ireland,1,0.0
2032,Ireland,2,0.0
2032,Ireland,3,0.0
2032,Ireland,4,0.0
2032,Italy,1,0.0
2032,Italy,2,0.0
2032,Italy,3,0.0
2032,Italy,4,0.0
2032,Latvia,1,0.0
2032,Latvia,2,0.0
2032,Latvia,3,0.0
2032,Latvia,4,0.0
2032,Lithuania,1,0.0
2032,Lithuania,2,0.0
2032,Lithuania,3,0.0
2032,Lithuania,4,0.0
2032,Luxembourg,1,0.0
2032,Luxembourg,2,0.0
2032,Luxembourg,3,0.0
2032,Luxembourg,4,0.0
2032,Malta,1,0.0
2032,Malta,2,0.0
2032,Malta,3,0.0
2032,Malta,4,0.0
2032,Netherlands,1,0.0
2032,Netherlands,2,0.0
2032,Netherlands,3,0.0
2032,Netherlands,4,0.0
2032,Poland,1,0.0
2032,Poland,2,0.0
2032,Poland,3,0.0
2032,Poland,4,0.0
2032,Portugal,1,0.0
2032,Portugal,2,0.0
2032,Portugal,3,0.0
2032,Portugal,4,0.0
2032,Romania,1,0.0
2032,Romania,2,0.0
2032,Romania,3,0.0
2032,Romania,4,0.0
2032,Slovakia,1,0.0
2032,Slovakia,2,0.0
2032,Slovakia,3,0.0
2032,Slovakia,4,0.0
2032,Slovenia,1,0.0
2032,Slovenia,2,0.0
2032,Slovenia,3,0.0
2032,Slovenia,4,0.0
2032,Spain,1,0.0
2032,Spain,2,0.0
2032,Spain,3,0.0
2032,Spain,4,0.0
2032,Sweden,1,0.0
2032,Sweden,2,0.0
2032,Sweden,3,0.0
2032,Sweden,4,0.0
2032,Switzerland,1,0.0
2032,Switzerland,2,0.0
2032,Switzerland,3,0.0
2032,Switzerland,4,0.0
2032,United Kingdom,1,0.0
2032,United Kingdom,2,0.0
2032,United Kingdom,3,0.0
2032,United Kingdom,4,0.0
2033,Austria,1,0.0
2033,Austria,2,0.0
2033,Austria,3,0.0
2033,Austria,4,0.0
2033,Belgium,1,0.0
2033,Belgium,2,0.0
2033,Belgium,3,0.0
2033,Belgium,4,0.0
2033,Bulgaria,1,0.0
2033,Bulgaria,2,0.0
2033,Bulgaria,3,0.0
2033,Bulgaria,4,0.0
2033,Croatia,1,0.0
2033,Croatia,2,0.0
2033,Croatia,3,0.0
2033,Croatia,4,0.0
2033,Cyprus,1,0.0
2033,Cyprus,2,0.0
2033,Cyprus,3,0.0
2033,Cyprus,4,0.0
2033,Czech Republic,1,0.0
2033,Czech Republic,2,0.0
2033,Czech Republic,3,0.0
2033,Czech Republic,4,0.0
2033,Denmark,1,0.0
2033,Denmark,2,0.0
2033,Denmark,3,0.0
2033,Denmark,4,0.0
2033,Estonia,1,0.0
2033,Estonia,2,0.0
2033,Estonia,3,0.0
2033,Estonia,4,0.0
2033,Finland,1,0.0
2033,Finland,2,0.0
2033,Finland,3,0.0
2033,Finland,4,0.0
2033,France,1,0.0
2033,France,2,0.0
2033,France,3,0.0
2033,France,4,0.0
2033,Germany,1,0.0
2033,Germany,2,0.0
2033,Germany,3,0.0
2033,Germany,4,0.0
2033,Greece,1,0.0
2033,Greece,2,0.0
2033,Greece,3,0.0
2033,Greece,4,0.0
2033,Hungary,1,0.0
2033,Hungary,2,0.0
2033,Hungary,3,0.0
2033,Hungary,4,0.0
2033,Ireland,1,0.0
2033,Ireland,2,0.0
2033,Ireland,3,0.0
2033,Ireland,4,0.0
2033,Italy,1,0.0
2033,Italy,2,0.0
2033,Italy,3,0.0
2033,Italy,4,0.0
2033,Latvia,1,0.0
2033,Latvia,2,0.0
2033,Latvia,3,0.0
2033,Latvia,4,0.0
2033,Lithuania,1,0.0
2033,Lithuania,2,0.0
2033,Lithuania,3,0.0
2033,Lithuania,4,0.0
2033,Luxembourg,1,0.0
2033,Luxembourg,2,0.0
2033,Luxembourg,3,0.0
2033,Luxembourg,4,0.0
2033,Malta,1,0.0
2033,Malta,2,0.0
2033,Malta,3,0.0
2033,Malta,4,0.0
2033,Netherlands,1,0.0
2033,Netherlands,2,0.0
2033,Netherlands,3,0.0
2033,Netherlands,4,0.0
2033,Poland,1,0.0
2033,Poland,2,0.0
2033,Poland,3,0.0
2033,Poland,4,0.0
2033,Portugal,1,0.0
2033,Portugal,2,0.0
2033,Portugal,3,0.0
2033,Portugal,4,0.0
2033,Romania,1,0.0
2033,Romania,2,0.0
2033,Romania,3,0.0
2033,Romania,4,0.0
2033,Slovakia,1,0.0
2033,Slovakia,2,0.0
2033,Slovakia,3,0.0
2033,Slovakia,4,0.0
2033,Slovenia,1,0.0
2033,Slovenia,2,0.0
2033,Slovenia,3,0.0
2033,Slovenia,4,0.0
2033,Spain,1,0.0
2033,Spain,2,0.0
2033,Spain,3,0.0
2033,Spain,4,0.0
2033,Sweden,1,0.0
2033,Sweden,2,0.0
2033,Sweden,3,0.0
2033,Sweden,4,0.0
2033,Switzerland,1,0.0
2033,Switzerland,2,0.0
2033,Switzerland,3,0.0
2033,Switzerland,4,0.0
2033,United Kingdom,1,0.0
2033,United Kingdom,2,0.0
2033,United Kingdom,3,0.0
2033,United Kingdom,4,0.0
2034,Austria,1,0.0
2034,Austria,2,0.0
2034,Austria,3,0.0
2034,Austria,4,0.0
2034,Belgium,1,0.0
2034,Belgium,2,0.0
2034,Belgium,3,0.0
2034,Belgium,4,0.0
2034,Bulgaria,1,0.0
2034,Bulgaria,2,0.0
2034,Bulgaria,3,0.0
2034,Bulgaria,4,0.0
2034,Croatia,1,0.0
2034,Croatia,2,0.0
2034,Croatia,3,0.0
2034,Croatia,4,0.0
2034,Cyprus,1,0.0
2034,Cyprus,2,0.0
2034,Cyprus,3,0.0
2034,Cyprus,4,0.0
2034,Czech Republic,1,0.0
2034,Czech Republic,2,0.0
2034,Czech Republic,3,0.0
2034,Czech Republic,4,0.0
2034,Denmark,1,0.0
2034,Denmark,2,0.0
2034,Denmark,3,0.0
2034,Denmark,4,0.0
2034,Estonia,1,0.0
2034,Estonia,2,0.0
2034,Estonia,3,0.0
2034,Estonia,4,0.0
2034,Finland,1,0.0
2034,Finland,2,0.0
2034,Finland,3,0.0
2034,Finland,4,0.0
2034,France,1,0.0
2034,France,2,0.0
2034,France,3,0.0
2034,France,4,0.0
2034,Germany,1,0.0
2034,Germany,2,0.0
2034,Germany,3,0.0
2034,Germany,4,0.0
2034,Greece,1,0.0
2034,Greece,2,0.0
2034,Greece,3,0.0
2034,Greece,4,0.0
2034,Hungary,1,0.0
2034,Hungary,2,0.0
2034,Hungary,3,0.0
2034,Hungary,4,0.0
2034,Ireland,1,0.0
2034,Ireland,2,0.0
2034,Ireland,3,0.0
2034,Ireland,4,0.0
2034,Italy,1,0.0
2034,Italy,2,0.0
2034,Italy,3,0.0
2034,Italy,4,0.0
2034,Latvia,1,0.0
2034,Latvia,2,0.0
2034,Latvia,3,0.0
2034,Latvia,4,0.0
2034,Lithuania,1,0.0
2034,Lithuania,2,0.0
2034,Lithuania,3,0.0
2034,Lithuania,4,0.0
2034,Luxembourg,1,0.0
2034,Luxembourg,2,0.0
2034,Luxembourg,3,0.0
2034,Luxembourg,4,0.0
2034,Malta,1,0.0
2034,Malta,2,0.0
2034,Malta,3,0.0
2034,Malta,4,0.0
2034,Netherlands,1,0.0
2034,Netherlands,2,0.0
2034,Netherlands,3,0.0
2034,Netherlands,4,0.0
2034,Poland,1,0.0
2034,Poland,2,0.0
2034,Poland,3,0.0
2034,Poland,4,0.0
2034,Portugal,1,0.0
2034,Portugal,2,0.0
2034,Portugal,3,0.0
2034,Portugal,4,0.0
2034,Romania,1,0.0
2034,Romania,2,0.0
2034,Romania,3,0.0
2034,Romania,4,0.0
2034,Slovakia,1,0.0
2034,Slovakia,2,0.0
2034,Slovakia,3,0.0
2034,Slovakia,4,0.0
2034,Slovenia,1,0.0
2034,Slovenia,2,0.0
2034,Slovenia,3,0.0
2034,Slovenia,4,0.0
2034,Spain,1,0.0
2034,Spain,2,0.0
2034,Spain,3,0.0
2034,Spain,4,0.0
2034,Sweden,1,0.0
2034,Sweden,2,0.0
2034,Sweden,3,0.0
2034,Sweden,4,0.0
2034,Switzerland,1,0.0
2034,Switzerland,2,0.0
2034,Switzerland,3,0.0
2034,Switzerland,4,0.0
2034,United Kingdom,1,0.0
2034,United Kingdom,2,0.0
2034,United Kingdom,3,0.0
2034,United Kingdom,4,0.0
2035,Austria,1,0.0
2035,Austria,2,0.0
2035,Austria,3,0.0
2035,Austria,4,0.0
2035,Belgium,1,0.0
2035,Belgium,2,0.0
2035,Belgium,3,0.0
2035,Belgium,4,0.0
2035,Bulgaria,1,0.0
2035,Bulgaria,2,0.0
2035,Bulgaria,3,0.0
2035,Bulgaria,4,0.0
2035,Croatia,1,0.0
2035,Croatia,2,0.0
2035,Croatia,3,0.0
2035,Croatia,4,0.0
2035,Cyprus,1,0.0
2035,Cyprus,2,0.0
2035,Cyprus,3,0.0
2035,Cyprus,4,0.0
2035,Czech Republic,1,0.0
2035,Czech Republic,2,0.0
2035,Czech Republic,3,0.0
2035,Czech Republic,4,0.0
2035,Denmark,1,0.0
2035,Denmark,2,0.0
2035,Denmark,3,0.0
2035,Denmark,4,0.0
2035,Estonia,1,0.0
2035,Estonia,2,0.0
2035,Estonia,3,0.0
2035,Estonia,4,0.0
2035,Finland,1,0.0
2035,Finland,2,0.0
2035,Finland,3,0.0
2035,Finland,4,0.0
2035,France,1,0.0
2035,France,2,0.0
2035,France,3,0.0
2035,France,4,0.0
2035,Germany,1,0.0
2035,Germany,2,0.0
2035,Germany,3,0.0
2035,Germany,4,0.0
2035,Greece,1,0.0
2035,Greece,2,0.0
2035,Greece,3,0.0
2035,Greece,4,0.0
2035,Hungary,1,0.0
2035,Hungary,2,0.0
2035,Hungary,3,0.0
2035,Hungary,4,0.0
2035,Ireland,1,0.0
2035,Ireland,2,0.0
2035,Ireland,3,0.0
2035,Ireland,4,0.0
2035,Italy,1,0.0
2035,Italy,2,0.0
2035,Italy,3,0.0
2035,Italy,4,0.0
2035,Latvia,1,0.0
2035,Latvia,2,0.0
2035,Latvia,3,0.0
2035,Latvia,4,0.0
2035,Lithuania,1,0.0
2035,Lithuania,2,0.0
2035,Lithuania,3,0.0
2035,Lithuania,4,0.0
2035,Luxembourg,1,0.0
2035,Luxembourg,2,0.0
2035,Luxembourg,3,0.0
2035,Luxembourg,4,0.0
2035,Malta,1,0.0
2035,Malta,2,0.0
2035,Malta,3,0.0
2035,Malta,4,0.0
2035,Netherlands,1,0.0
2035,Netherlands,2,0.0
2035,Netherlands,3,0.0
2035,Netherlands,4,0.0
2035,Poland,1,0.0
2035,Poland,2,0.0
2035,Poland,3,0.0
2035,Poland,4,0.0
2035,Portugal,1,0.0
2035,Portugal,2,0.0
2035,Portugal,3,0.0
2035,Portugal,4,0.0
2035,Romania,1,0.0
2035,Romania,2,0.0
2035,Romania,3,0.0
2035,Romania,4,0.0
2035,Slovakia,1,0.0
2035,Slovakia,2,0.0
2035,Slovakia,3,0.0
2035,Slovakia,4,0.0
2035,Slovenia,1,0.0
2035,Slovenia,2,0.0
2035,Slovenia,3,0.0
2035,Slovenia,4,0.0
2035,Spain,1,0.0
2035,Spain,2,0.0
2035,Spain,3,0.0
2035,Spain,4,0.0
2035,Sweden,1,0.0
2035,Sweden,2,0.0
2035,Sweden,3,0.0
2035,Sweden,4,0.0
2035,Switzerland,1,0.0
2035,Switzerland,2,0.0
2035,Switzerland,3,0.0
2035,Switzerland,4,0.0
2035,United Kingdom,1,0.0
2035,United Kingdom,2,0.0
2035,United Kingdom,3,0.0
2035,United Kingdom,4,0.0
2036,Austria,1,0.0
2036,Austria,2,0.0
2036,Austria,3,0.0
2036,Austria,4,0.0
2036,Belgium,1,0.0
2036,Belgium,2,0.0
2036,Belgium,3,0.0
2036,Belgium,4,0.0
2036,Bulgaria,1,0.0
2036,Bulgaria,2,0.0
2036,Bulgaria,3,0.0
2036,Bulgaria,4,0.0
2036,Croatia,1,0.0
2036,Croatia,2,0.0
2036,Croatia,3,0.0
2036,Croatia,4,0.0
2036,Cyprus,1,0.0
2036,Cyprus,2,0.0
2036,Cyprus,3,0.0
2036,Cyprus,4,0.0
2036,Czech Republic,1,0.0
2036,Czech Republic,2,0.0
2036,Czech Republic,3,0.0
2036,Czech Republic,4,0.0
2036,Denmark,1,0.0
2036,Denmark,2,0.0
2036,Denmark,3,0.0
2036,Denmark,4,0.0
2036,Estonia,1,0.0
2036,Estonia,2,0.0
2036,Estonia,3,0.0
2036,Estonia,4,0.0
2036,Finland,1,0.0
2036,Finland,2,0.0
2036,Finland,3,0.0
2036,Finland,4,0.0
2036,France,1,0.0
2036,France,2,0.0
2036,France,3,0.0
2036,France,4,0.0
2036,Germany,1,0.0
2036,Germany,2,0.0
2036,Germany,3,0.0
2036,Germany,4,0.0
2036,Greece,1,0.0
2036,Greece,2,0.0
2036,Greece,3,0.0
2036,Greece,4,0.0
2036,Hungary,1,0.0
2036,Hungary,2,0.0
2036,Hungary,3,0.0
2036,Hungary,4,0.0
2036,Ireland,1,0.0
2036,Ireland,2,0.0
2036,Ireland,3,0.0
2036,Ireland,4,0.0
2036,Italy,1,0.0
2036,Italy,2,0.0
2036,Italy,3,0.0
2036,Italy,4,0.0
2036,Latvia,1,0.0
2036,Latvia,2,0.0
2036,Latvia,3,0.0
2036,Latvia,4,0.0
2036,Lithuania,1,0.0
2036,Lithuania,2,0.0
2036,Lithuania,3,0.0
2036,Lithuania,4,0.0
2036,Luxembourg,1,0.0
2036,Luxembourg,2,0.0
2036,Luxembourg,3,0.0
2036,Luxembourg,4,0.0
2036,Malta,1,0.0
2036,Malta,2,0.0
2036,Malta,3,0.0
2036,Malta,4,0.0
2036,Netherlands,1,0.0
2036,Netherlands,2,0.0
2036,Netherlands,3,0.0
2036,Netherlands,4,0.0
2036,Poland,1,0.0
2036,Poland,2,0.0
2036,Poland,3,0.0
2036,Poland,4,0.0
2036,Portugal,1,0.0
2036,Portugal,2,0.0
2036,Portugal,3,0.0
2036,Portugal,4,0.0
2036,Romania,1,0.0
2036,Romania,2,0.0
2036,Romania,3,0.0
2036,Romania,4,0.0
2036,Slovakia,1,0.0
2036,Slovakia,2,0.0
2036,Slovakia,3,0.0
2036,Slovakia,4,0.0
2036,Slovenia,1,0.0
2036,Slovenia,2,0.0
2036,Slovenia,3,0.0
2036,Slovenia,4,0.0
2036,Spain,1,0.0
2036,Spain,2,0.0
2036,Spain,3,0.0
2036,Spain,4,0.0
2036,Sweden,1,0.0
2036,Sweden,2,0.0
2036,Sweden,3,0.0
2036,Sweden,4,0.0
2036,Switzerland,1,0.0
2036,Switzerland,2,0.0
2036,Switzerland,3,0.0
2036,Switzerland,4,0.0
2036,United Kingdom,1,0.0
2036,United Kingdom,2,0.0
2036,United Kingdom,3,0.0
2036,United Kingdom,4,0.0
2037,Austria,1,0.0
2037,Austria,2,0.0
2037,Austria,3,0.0
2037,Austria,4,0.0
2037,Belgium,1,0.0
2037,Belgium,2,0.0
2037,Belgium,3,0.0
2037,Belgium,4,0.0
2037,Bulgaria,1,0.0
2037,Bulgaria,2,0.0
2037,Bulgaria,3,0.0
2037,Bulgaria,4,0.0
2037,Croatia,1,0.0
2037,Croatia,2,0.0
2037,Croatia,3,0.0
2037,Croatia,4,0.0
2037,Cyprus,1,0.0
2037,Cyprus,2,0.0
2037,Cyprus,3,0.0
2037,Cyprus,4,0.0
2037,Czech Republic,1,0.0
2037,Czech Republic,2,0.0
2037,Czech Republic,3,0.0
2037,Czech Republic,4,0.0
2037,Denmark,1,0.0
2037,Denmark,2,0.0
2037,Denmark,3,0.0
2037,Denmark,4,0.0
2037,Estonia,1,0.0
2037,Estonia,2,0.0
2037,Estonia,3,0.0
2037,Estonia,4,0.0
2037,Finland,1,0.0
2037,Finland,2,0.0
2037,Finland,3,0.0
2037,Finland,4,0.0
2037,France,1,0.0
2037,France,2,0.0
2037,France,3,0.0
2037,France,4,0.0
2037,Germany,1,0.0
2037,Germany,2,0.0
2037,Germany,3,0.0
2037,Germany,4,0.0
2037,Greece,1,0.0
2037,Greece,2,0.0
2037,Greece,3,0.0
2037,Greece,4,0.0
2037,Hungary,1,0.0
2037,Hungary,2,0.0
2037,Hungary,3,0.0
2037,Hungary,4,0.0
2037,Ireland,1,0.0
2037,Ireland,2,0.0
2037,Ireland,3,0.0
2037,Ireland,4,0.0
2037,Italy,1,0.0
2037,Italy,2,0.0
2037,Italy,3,0.0
2037,Italy,4,0.0
2037,Latvia,1,0.0
2037,Latvia,2,0.0
2037,Latvia,3,0.0
2037,Latvia,4,0.0
2037,Lithuania,1,0.0
2037,Lithuania,2,0.0
2037,Lithuania,3,0.0
2037,Lithuania,4,0.0
2037,Luxembourg,1,0.0
2037,Luxembourg,2,0.0
2037,Luxembourg,3,0.0
2037,Luxembourg,4,0.0
2037,Malta,1,0.0
2037,Malta,2,0.0
2037,Malta,3,0.0
2037,Malta,4,0.0
2037,Netherlands,1,0.0
2037,Netherlands,2,0.0
2037,Netherlands,3,0.0
2037,Netherlands,4,0.0
2037,Poland,1,0.0
2037,Poland,2,0.0
2037,Poland,3,0.0
2037,Poland,4,0.0
2037,Portugal,1,0.0
2037,Portugal,2,0.0
2037,Portugal,3,0.0
2037,Portugal,4,0.0
2037,Romania,1,0.0
2037,Romania,2,0.0
2037,Romania,3,0.0
2037,Romania,4,0.0
2037,Slovakia,1,0.0
2037,Slovakia,2,0.0
2037,Slovakia,3,0.0
2037,Slovakia,4,0.0
2037,Slovenia,1,0.0
2037,Slovenia,2,0.0
2037,Slovenia,3,0.0
2037,Slovenia,4,0.0
2037,Spain,1,0.0
2037,Spain,2,0.0
2037,Spain,3,0.0
2037,Spain,4,0.0
2037,Sweden,1,0.0
2037,Sweden,2,0.0
2037,Sweden,3,0.0
2037,Sweden,4,0.0
2037,Switzerland,1,0.0
2037,Switzerland,2,0.0
2037,Switzerland,3,0.0
2037,Switzerland,4,0.0
2037,United Kingdom,1,0.0
2037,United Kingdom,2,0.0
2037,United Kingdom,3,0.0
2037,United Kingdom,4,0.0
2038,Austria,1,0.0
2038,Austria,2,0.0
2038,Austria,3,0.0
2038,Austria,4,0.0
2038,Belgium,1,0.0
2038,Belgium,2,0.0
2038,Belgium,3,0.0
2038,Belgium,4,0.0
2038,Bulgaria,1,0.0
2038,Bulgaria,2,0.0
2038,Bulgaria,3,0.0
2038,Bulgaria,4,0.0
2038,Croatia,1,0.0
2038,Croatia,2,0.0
2038,Croatia,3,0.0
2038,Croatia,4,0.0
2038,Cyprus,1,0.0
2038,Cyprus,2,0.0
2038,Cyprus,3,0.0
2038,Cyprus,4,0.0
2038,Czech Republic,1,0.0
2038,Czech Republic,2,0.0
2038,Czech Republic,3,0.0
2038,Czech Republic,4,0.0
2038,Denmark,1,0.0
2038,Denmark,2,0.0
2038,Denmark,3,0.0
2038,Denmark,4,0.0
2038,Estonia,1,0.0
2038,Estonia,2,0.0
2038,Estonia,3,0.0
2038,Estonia,4,0.0
2038,Finland,1,0.0
2038,Finland,2,0.0
2038,Finland,3,0.0
2038,Finland,4,0.0
2038,France,1,0.0
2038,France,2,0.0
2038,France,3,0.0
2038,France,4,0.0
2038,Germany,1,0.0
2038,Germany,2,0.0
2038,Germany,3,0.0
2038,Germany,4,0.0
2038,Greece,1,0.0
2038,Greece,2,0.0
2038,Greece,3,0.0
2038,Greece,4,0.0
2038,Hungary,1,0.0
2038,Hungary,2,0.0
2038,Hungary,3,0.0
2038,Hungary,4,0.0
2038,Ireland,1,0.0
2038,Ireland,2,0.0
2038,Ireland,3,0.0
2038,Ireland,4,0.0
2038,Italy,1,0.0
2038,Italy,2,0.0
2038,Italy,3,0.0
2038,Italy,4,0.0
2038,Latvia,1,0.0
2038,Latvia,2,0.0
2038,Latvia,3,0.0
2038,Latvia,4,0.0
2038,Lithuania,1,0.0
2038,Lithuania,2,0.0
2038,Lithuania,3,0.0
2038,Lithuania,4,0.0
2038,Luxembourg,1,0.0
2038,Luxembourg,2,0.0
2038,Luxembourg,3,0.0
2038,Luxembourg,4,0.0
2038,Malta,1,0.0
2038,Malta,2,0.0
2038,Malta,3,0.0
2038,Malta,4,0.0
2038,Netherlands,1,0.0
2038,Netherlands,2,0.0
2038,Netherlands,3,0.0
2038,Netherlands,4,0.0
2038,Poland,1,0.0
2038,Poland,2,0.0
2038,Poland,3,0.0
2038,Poland,4,0.0
2038,Portugal,1,0.0
2038,Portugal,2,0.0
2038,Portugal,3,0.0
2038,Portugal,4,0.0
2038,Romania,1,0.0
2038,Romania,2,0.0
2038,Romania,3,0.0
2038,Romania,4,0.0
2038,Slovakia,1,0.0
2038,Slovakia,2,0.0
2038,Slovakia,3,0.0
2038,Slovakia,4,0.0
2038,Slovenia,1,0.0
2038,Slovenia,2,0.0
2038,Slovenia,3,0.0
2038,Slovenia,4,0.0
2038,Spain,1,0.0
2038,Spain,2,0.0
2038,Spain,3,0.0
2038,Spain,4,0.0
2038,Sweden,1,0.0
2038,Sweden,2,0.0
2038,Sweden,3,0.0
2038,Sweden,4,0.0
2038,Switzerland,1,0.0
2038,Switzerland,2,0.0
2038,Switzerland,3,0.0
2038,Switzerland,4,0.0
2038,United Kingdom,1,0.0
2038,United Kingdom,2,0.0
2038,United Kingdom,3,0.0
2038,United Kingdom,4,0.0
2039,Austria,1,0.0
2039,Austria,2,0.0
2039,Austria,3,0.0
2039,Austria,4,0.0
2039,Belgium,1,0.0
2039,Belgium,2,0.0
2039,Belgium,3,0.0
2039,Belgium,4,0.0
2039,Bulgaria,1,0.0
2039,Bulgaria,2,0.0
2039,Bulgaria,3,0.0
2039,Bulgaria,4,0.0
2039,Croatia,1,0.0
2039,Croatia,2,0.0
2039,Croatia,3,0.0
2039,Croatia,4,0.0
2039,Cyprus,1,0.0
2039,Cyprus,2,0.0
2039,Cyprus,3,0.0
2039,Cyprus,4,0.0
2039,Czech Republic,1,0.0
2039,Czech Republic,2,0.0
2039,Czech Republic,3,0.0
2039,Czech Republic,4,0.0
2039,Denmark,1,0.0
2039,Denmark,2,0.0
2039,Denmark,3,0.0
2039,Denmark,4,0.0
2039,Estonia,1,0.0
2039,Estonia,2,0.0
2039,Estonia,3,0.0
2039,Estonia,4,0.0
2039,Finland,1,0.0
2039,Finland,2,0.0
2039,Finland,3,0.0
2039,Finland,4,0.0
2039,France,1,0.0
2039,France,2,0.0
2039,France,3,0.0
2039,France,4,0.0
2039,Germany,1,0.0
2039,Germany,2,0.0
2039,Germany,3,0.0
2039,Germany,4,0.0
2039,Greece,1,0.0
2039,Greece,2,0.0
2039,Greece,3,0.0
2039,Greece,4,0.0
2039,Hungary,1,0.0
2039,Hungary,2,0.0
2039,Hungary,3,0.0
2039,Hungary,4,0.0
2039,Ireland,1,0.0
2039,Ireland,2,0.0
2039,Ireland,3,0.0
2039,Ireland,4,0.0
2039,Italy,1,0.0
2039,Italy,2,0.0
2039,Italy,3,0.0
2039,Italy,4,0.0
2039,Latvia,1,0.0
2039,Latvia,2,0.0
2039,Latvia,3,0.0
2039,Latvia,4,0.0
2039,Lithuania,1,0.0
2039,Lithuania,2,0.0
2039,Lithuania,3,0.0
2039,Lithuania,4,0.0
2039,Luxembourg,1,0.0
2039,Luxembourg,2,0.0
2039,Luxembourg,3,0.0
2039,Luxembourg,4,0.0
2039,Malta,1,0.0
2039,Malta,2,0.0
2039,Malta,3,0.0
2039,Malta,4,0.0
2039,Netherlands,1,0.0
2039,Netherlands,2,0.0
2039,Netherlands,3,0.0
2039,Netherlands,4,0.0
2039,Poland,1,0.0
2039,Poland,2,0.0
2039,Poland,3,0.0
2039,Poland,4,0.0
2039,Portugal,1,0.0
2039,Portugal,2,0.0
2039,Portugal,3,0.0
2039,Portugal,4,0.0
2039,Romania,1,0.0
2039,Romania,2,0.0
2039,Romania,3,0.0
2039,Romania,4,0.0
2039,Slovakia,1,0.0
2039,Slovakia,2,0.0
2039,Slovakia,3,0.0
2039,Slovakia,4,0.0
2039,Slovenia,1,0.0
2039,Slovenia,2,0.0
2039,Slovenia,3,0.0
2039,Slovenia,4,0.0
2039,Spain,1,0.0
2039,Spain,2,0.0
2039,Spain,3,0.0
2039,Spain,4,0.0
2039,Sweden,1,0.0
2039,Sweden,2,0.0
2039,Sweden,3,0.0
2039,Sweden,4,0.0
2039,Switzerland,1,0.0
2039,Switzerland,2,0.0
2039,Switzerland,3,0.0
2039,Switzerland,4,0.0
2039,United Kingdom,1,0.0
2039,United Kingdom,2,0.0
2039,United Kingdom,3,0.0
2039,United Kingdom,4,0.0
2040,Austria,1,0.0
2040,Austria,2,0.0
2040,Austria,3,0.0
2040,Austria,4,0.0
2040,Belgium,1,0.0
2040,Belgium,2,0.0
2040,Belgium,3,0.0
2040,Belgium,4,0.0
2040,Bulgaria,1,0.0
2040,Bulgaria,2,0.0
2040,Bulgaria,3,0.0
2040,Bulgaria,4,0.0
2040,Croatia,1,0.0
2040,Croatia,2,0.0
2040,Croatia,3,0.0
2040,Croatia,4,0.0
2040,Cyprus,1,0.0
2040,Cyprus,2,0.0
2040,Cyprus,3,0.0
2040,Cyprus,4,0.0
2040,Czech Republic,1,0.0
2040,Czech Republic,2,0.0
2040,Czech Republic,3,0.0
2040,Czech Republic,4,0.0
2040,Denmark,1,0.0
2040,Denmark,2,0.0
2040,Denmark,3,0.0
2040,Denmark,4,0.0
2040,Estonia,1,0.0
2040,Estonia,2,0.0
2040,Estonia,3,0.0
2040,Estonia,4,0.0
2040,Finland,1,0.0
2040,Finland,2,0.0
2040,Finland,3,0.0
2040,Finland,4,0.0
2040,France,1,0.0
2040,France,2,0.0
2040,France,3,0.0
2040,France,4,0.0
2040,Germany,1,0.0
2040,Germany,2,0.0
2040,Germany,3,0.0
2040,Germany,4,0.0
2040,Greece,1,0.0
2040,Greece,2,0.0
2040,Greece,3,0.0
2040,Greece,4,0.0
2040,Hungary,1,0.0
2040,Hungary,2,0.0
2040,Hungary,3,0.0
2040,Hungary,4,0.0
2040,Ireland,1,0.0
2040,Ireland,2,0.0
2040,Ireland,3,0.0
2040,Ireland,4,0.0
2040,Italy,1,0.0
2040,Italy,2,0.0
2040,Italy,3,0.0
2040,Italy,4,0.0
2040,Latvia,1,0.0
2040,Latvia,2,0.0
2040,Latvia,3,0.0
2040,Latvia,4,0.0
2040,Lithuania,1,0.0
2040,Lithuania,2,0.0
2040,Lithuania,3,0.0
2040,Lithuania,4,0.0
2040,Luxembourg,1,0.0
2040,Luxembourg,2,0.0
2040,Luxembourg,3,0.0
2040,Luxembourg,4,0.0
2040,Malta,1,0.0
2040,Malta,2,0.0
2040,Malta,3,0.0
2040,Malta,4,0.0
2040,Netherlands,1,0.0
2040,Netherlands,2,0.0
2040,Netherlands,3,0.0
2040,Netherlands,4,0.0
2040,Poland,1,0.0
2040,Poland,2,0.0
2040,Poland,3,0.0
2040,Poland,4,0.0
2040,Portugal,1,0.0
2040,Portugal,2,0.0
2040,Portugal,3,0.0
2040,Portugal,4,0.0
2040,Romania,1,0.0
2040,Romania,2,0.0
2040,Romania,3,0.0
2040,Romania,4,0.0
2040,Slovakia,1,0.0
2040,Slovakia,2,0.0
2040,Slovakia,3,0.0
2040,Slovakia,4,0.0
2040,Slovenia,1,0.0
2040,Slovenia,2,0.0
2040,Slovenia,3,0.0
2040,Slovenia,4,0.0
2040,Spain,1,0.0
2040,Spain,2,0.0
2040,Spain,3,0.0
2040,Spain,4,0.0
2040,Sweden,1,0.0
2040,Sweden,2,0.0
2040,Sweden,3,0.0
2040,Sweden,4,0.0
2040,Switzerland,1,0.0
2040,Switzerland,2,0.0
2040,Switzerland,3,0.0
2040,Switzerland,4,0.0
2040,United Kingdom,1,0.0
2040,United Kingdom,2,0.0
2040,United Kingdom,3,0.0
2040,United Kingdom,4,0.0
2041,Austria,1,0.0
2041,Austria,2,0.0
2041,Austria,3,0.0
2041,Austria,4,0.0
2041,Belgium,1,0.0
2041,Belgium,2,0.0
2041,Belgium,3,0.0
2041,Belgium,4,0.0
2041,Bulgaria,1,0.0
2041,Bulgaria,2,0.0
2041,Bulgaria,3,0.0
2041,Bulgaria,4,0.0
2041,Croatia,1,0.0
2041,Croatia,2,0.0
2041,Croatia,3,0.0
2041,Croatia,4,0.0
2041,Cyprus,1,0.0
2041,Cyprus,2,0.0
2041,Cyprus,3,0.0
2041,Cyprus,4,0.0
2041,Czech Republic,1,0.0
2041,Czech Republic,2,0.0
2041,Czech Republic,3,0.0
2041,Czech Republic,4,0.0
2041,Denmark,1,0.0
2041,Denmark,2,0.0
2041,Denmark,3,0.0
2041,Denmark,4,0.0
2041,Estonia,1,0.0
2041,Estonia,2,0.0
2041,Estonia,3,0.0
2041,Estonia,4,0.0
2041,Finland,1,0.0
2041,Finland,2,0.0
2041,Finland,3,0.0
2041,Finland,4,0.0
2041,France,1,0.0
2041,France,2,0.0
2041,France,3,0.0
2041,France,4,0.0
2041,Germany,1,0.0
2041,Germany,2,0.0
2041,Germany,3,0.0
2041,Germany,4,0.0
2041,Greece,1,0.0
2041,Greece,2,0.0
2041,Greece,3,0.0
2041,Greece,4,0.0
2041,Hungary,1,0.0
2041,Hungary,2,0.0
2041,Hungary,3,0.0
2041,Hungary,4,0.0
2041,Ireland,1,0.0
2041,Ireland,2,0.0
2041,Ireland,3,0.0
2041,Ireland,4,0.0
2041,Italy,1,0.0
2041,Italy,2,0.0
2041,Italy,3,0.0
2041,Italy,4,0.0
2041,Latvia,1,0.0
2041,Latvia,2,0.0
2041,Latvia,3,0.0
2041,Latvia,4,0.0
2041,Lithuania,1,0.0
2041,Lithuania,2,0.0
2041,Lithuania,3,0.0
2041,Lithuania,4,0.0
2041,Luxembourg,1,0.0
2041,Luxembourg,2,0.0
2041,Luxembourg,3,0.0
2041,Luxembourg,4,0.0
2041,Malta,1,0.0
2041,Malta,2,0.0
2041,Malta,3,0.0
2041,Malta,4,0.0
2041,Netherlands,1,0.0
2041,Netherlands,2,0.0
2041,Netherlands,3,0.0
2041,Netherlands,4,0.0
2041,Poland,1,0.0
2041,Poland,2,0.0
2041,Poland,3,0.0
2041,Poland,4,0.0
2041,Portugal,1,0.0
2041,Portugal,2,0.0
2041,Portugal,3,0.0
2041,Portugal,4,0.0
2041,Romania,1,0.0
2041,Romania,2,0.0
2041,Romania,3,0.0
2041,Romania,4,0.0
2041,Slovakia,1,0.0
2041,Slovakia,2,0.0
2041,Slovakia,3,0.0
2041,Slovakia,4,0.0
2041,Slovenia,1,0.0
2041,Slovenia,2,0.0
2041,Slovenia,3,0.0
2041,Slovenia,4,0.0
2041,Spain,1,0.0
2041,Spain,2,0.0
2041,Spain,3,0.0
2041,Spain,4,0.0
2041,Sweden,1,0.0
2041,Sweden,2,0.0
2041,Sweden,3,0.0
2041,Sweden,4,0.0
2041,Switzerland,1,0.0
2041,Switzerland,2,0.0
2041,Switzerland,3,0.0
2041,Switzerland,4,0.0
2041,United Kingdom,1,0.0
2041,United Kingdom,2,0.0
2041,United Kingdom,3,0.0
2041,United Kingdom,4,0.0
2042,Austria,1,0.0
2042,Austria,2,0.0
2042,Austria,3,0.0
2042,Austria,4,0.0
2042,Belgium,1,0.0
2042,Belgium,2,0.0
2042,Belgium,3,0.0
2042,Belgium,4,0.0
2042,Bulgaria,1,0.0
2042,Bulgaria,2,0.0
2042,Bulgaria,3,0.0
2042,Bulgaria,4,0.0
2042,Croatia,1,0.0
2042,Croatia,2,0.0
2042,Croatia,3,0.0
2042,Croatia,4,0.0
2042,Cyprus,1,0.0
2042,Cyprus,2,0.0
2042,Cyprus,3,0.0
2042,Cyprus,4,0.0
2042,Czech Republic,1,0.0
2042,Czech Republic,2,0.0
2042,Czech Republic,3,0.0
2042,Czech Republic,4,0.0
2042,Denmark,1,0.0
2042,Denmark,2,0.0
2042,Denmark,3,0.0
2042,Denmark,4,0.0
2042,Estonia,1,0.0
2042,Estonia,2,0.0
2042,Estonia,3,0.0
2042,Estonia,4,0.0
2042,Finland,1,0.0
2042,Finland,2,0.0
2042,Finland,3,0.0
2042,Finland,4,0.0
2042,France,1,0.0
2042,France,2,0.0
2042,France,3,0.0
2042,France,4,0.0
2042,Germany,1,0.0
2042,Germany,2,0.0
2042,Germany,3,0.0
2042,Germany,4,0.0
2042,Greece,1,0.0
2042,Greece,2,0.0
2042,Greece,3,0.0
2042,Greece,4,0.0
2042,Hungary,1,0.0
2042,Hungary,2,0.0
2042,Hungary,3,0.0
2042,Hungary,4,0.0
2042,Ireland,1,0.0
2042,Ireland,2,0.0
2042,Ireland,3,0.0
2042,Ireland,4,0.0
2042,Italy,1,0.0
2042,Italy,2,0.0
2042,Italy,3,0.0
2042,Italy,4,0.0
2042,Latvia,1,0.0
2042,Latvia,2,0.0
2042,Latvia,3,0.0
2042,Latvia,4,0.0
2042,Lithuania,1,0.0
2042,Lithuania,2,0.0
2042,Lithuania,3,0.0
2042,Lithuania,4,0.0
2042,Luxembourg,1,0.0
2042,Luxembourg,2,0.0
2042,Luxembourg,3,0.0
2042,Luxembourg,4,0.0
2042,Malta,1,0.0
2042,Malta,2,0.0
2042,Malta,3,0.0
2042,Malta,4,0.0
2042,Netherlands,1,0.0
2042,Netherlands,2,0.0
2042,Netherlands,3,0.0
2042,Netherlands,4,0.0
2042,Poland,1,0.0
2042,Poland,2,0.0
2042,Poland,3,0.0
2042,Poland,4,0.0
2042,Portugal,1,0.0
2042,Portugal,2,0.0
2042,Portugal,3,0.0
2042,Portugal,4,0.0
2042,Romania,1,0.0
2042,Romania,2,0.0
2042,Romania,3,0.0
2042,Romania,4,0.0
2042,Slovakia,1,0.0
2042,Slovakia,2,0.0
2042,Slovakia,3,0.0
2042,Slovakia,4,0.0
2042,Slovenia,1,0.0
2042,Slovenia,2,0.0
2042,Slovenia,3,0.0
2042,Slovenia,4,0.0
2042,Spain,1,0.0
2042,Spain,2,0.0
2042,Spain,3,0.0
2042,Spain,4,0.0
2042,Sweden,1,0.0
2042,Sweden,2,0.0
2042,Sweden,3,0.0
2042,Sweden,4,0.0
2042,Switzerland,1,0.0
2042,Switzerland,2,0.0
2042,Switzerland,3,0.0
2042,Switzerland,4,0.0
2042,United Kingdom,1,0.0
2042,United Kingdom,2,0.0
2042,United Kingdom,3,0.0
2042,United Kingdom,4,0.0
2043,Austria,1,0.0
2043,Austria,2,0.0
2043,Austria,3,0.0
2043,Austria,4,0.0
2043,Belgium,1,0.0
2043,Belgium,2,0.0
2043,Belgium,3,0.0
2043,Belgium,4,0.0
2043,Bulgaria,1,0.0
2043,Bulgaria,2,0.0
2043,Bulgaria,3,0.0
2043,Bulgaria,4,0.0
2043,Croatia,1,0.0
2043,Croatia,2,0.0
2043,Croatia,3,0.0
2043,Croatia,4,0.0
2043,Cyprus,1,0.0
2043,Cyprus,2,0.0
2043,Cyprus,3,0.0
2043,Cyprus,4,0.0
2043,Czech Republic,1,0.0
2043,Czech Republic,2,0.0
2043,Czech Republic,3,0.0
2043,Czech Republic,4,0.0
2043,Denmark,1,0.0
2043,Denmark,2,0.0
2043,Denmark,3,0.0
2043,Denmark,4,0.0
2043,Estonia,1,0.0
2043,Estonia,2,0.0
2043,Estonia,3,0.0
2043,Estonia,4,0.0
2043,Finland,1,0.0
2043,Finland,2,0.0
2043,Finland,3,0.0
2043,Finland,4,0.0
2043,France,1,0.0
2043,France,2,0.0
2043,France,3,0.0
2043,France,4,0.0
2043,Germany,1,0.0
2043,Germany,2,0.0
2043,Germany,3,0.0
2043,Germany,4,0.0
2043,Greece,1,0.0
2043,Greece,2,0.0
2043,Greece,3,0.0
2043,Greece,4,0.0
2043,Hungary,1,0.0
2043,Hungary,2,0.0
2043,Hungary,3,0.0
2043,Hungary,4,0.0
2043,Ireland,1,0.0
2043,Ireland,2,0.0
2043,Ireland,3,0.0
2043,Ireland,4,0.0
2043,Italy,1,0.0
2043,Italy,2,0.0
2043,Italy,3,0.0
2043,Italy,4,0.0
2043,Latvia,1,0.0
2043,Latvia,2,0.0
2043,Latvia,3,0.0
2043,Latvia,4,0.0
2043,Lithuania,1,0.0
2043,Lithuania,2,0.0
2043,Lithuania,3,0.0
2043,Lithuania,4,0.0
2043,Luxembourg,1,0.0
2043,Luxembourg,2,0.0
2043,Luxembourg,3,0.0
2043,Luxembourg,4,0.0
2043,Malta,1,0.0
2043,Malta,2,0.0
2043,Malta,3,0.0
2043,Malta,4,0.0
2043,Netherlands,1,0.0
2043,Netherlands,2,0.0
2043,Netherlands,3,0.0
2043,Netherlands,4,0.0
2043,Poland,1,0.0
2043,Poland,2,0.0
2043,Poland,3,0.0
2043,Poland,4,0.0
2043,Portugal,1,0.0
2043,Portugal,2,0.0
2043,Portugal,3,0.0
2043,Portugal,4,0.0
2043,Romania,1,0.0
2043,Romania,2,0.0
2043,Romania,3,0.0
2043,Romania,4,0.0
2043,Slovakia,1,0.0
2043,Slovakia,2,0.0
2043,Slovakia,3,0.0
2043,Slovakia,4,0.0
2043,Slovenia,1,0.0
2043,Slovenia,2,0.0
2043,Slovenia,3,0.0
2043,Slovenia,4,0.0
2043,Spain,1,0.0
2043,Spain,2,0.0
2043,Spain,3,0.0
2043,Spain,4,0.0
2043,Sweden,1,0.0
2043,Sweden,2,0.0
2043,Sweden,3,0.0
2043,Sweden,4,0.0
2043,Switzerland,1,0.0
2043,Switzerland,2,0.0
2043,Switzerland,3,0.0
2043,Switzerland,4,0.0
2043,United Kingdom,1,0.0
2043,United Kingdom,2,0.0
2043,United Kingdom,3,0.0
2043,United Kingdom,4,0.0
2044,Austria,1,0.0
2044,Austria,2,0.0
2044,Austria,3,0.0
2044,Austria,4,0.0
2044,Belgium,1,0.0
2044,Belgium,2,0.0
2044,Belgium,3,0.0
2044,Belgium,4,0.0
2044,Bulgaria,1,0.0
2044,Bulgaria,2,0.0
2044,Bulgaria,3,0.0
2044,Bulgaria,4,0.0
2044,Croatia,1,0.0
2044,Croatia,2,0.0
2044,Croatia,3,0.0
2044,Croatia,4,0.0
2044,Cyprus,1,0.0
2044,Cyprus,2,0.0
2044,Cyprus,3,0.0
2044,Cyprus,4,0.0
2044,Czech Republic,1,0.0
2044,Czech Republic,2,0.0
2044,Czech Republic,3,0.0
2044,Czech Republic,4,0.0
2044,Denmark,1,0.0
2044,Denmark,2,0.0
2044,Denmark,3,0.0
2044,Denmark,4,0.0
2044,Estonia,1,0.0
2044,Estonia,2,0.0
2044,Estonia,3,0.0
2044,Estonia,4,0.0
2044,Finland,1,0.0
2044,Finland,2,0.0
2044,Finland,3,0.0
2044,Finland,4,0.0
2044,France,1,0.0
2044,France,2,0.0
2044,France,3,0.0
2044,France,4,0.0
2044,Germany,1,0.0
2044,Germany,2,0.0
2044,Germany,3,0.0
2044,Germany,4,0.0
2044,Greece,1,0.0
2044,Greece,2,0.0
2044,Greece,3,0.0
2044,Greece,4,0.0
2044,Hungary,1,0.0
2044,Hungary,2,0.0
2044,Hungary,3,0.0
2044,Hungary,4,0.0
2044,Ireland,1,0.0
2044,Ireland,2,0.0
2044,Ireland,3,0.0
2044,Ireland,4,0.0
2044,Italy,1,0.0
2044,Italy,2,0.0
2044,Italy,3,0.0
2044,Italy,4,0.0
2044,Latvia,1,0.0
2044,Latvia,2,0.0
2044,Latvia,3,0.0
2044,Latvia,4,0.0
2044,Lithuania,1,0.0
2044,Lithuania,2,0.0
2044,Lithuania,3,0.0
2044,Lithuania,4,0.0
2044,Luxembourg,1,0.0
2044,Luxembourg,2,0.0
2044,Luxembourg,3,0.0
2044,Luxembourg,4,0.0
2044,Malta,1,0.0
2044,Malta,2,0.0
2044,Malta,3,0.0
2044,Malta,4,0.0
2044,Netherlands,1,0.0
2044,Netherlands,2,0.0
2044,Netherlands,3,0.0
2044,Netherlands,4,0.0
2044,Poland,1,0.0
2044,Poland,2,0.0
2044,Poland,3,0.0
2044,Poland,4,0.0
2044,Portugal,1,0.0
2044,Portugal,2,0.0
2044,Portugal,3,0.0
2044,Portugal,4,0.0
2044,Romania,1,0.0
2044,Romania,2,0.0
2044,Romania,3,0.0
2044,Romania,4,0.0
2044,Slovakia,1,0.0
2044,Slovakia,2,0.0
2044,Slovakia,3,0.0
2044,Slovakia,4,0.0
2044,Slovenia,1,0.0
2044,Slovenia,2,0.0
2044,Slovenia,3,0.0
2044,Slovenia,4,0.0
2044,Spain,1,0.0
2044,Spain,2,0.0
2044,Spain,3,0.0
2044,Spain,4,0.0
2044,Sweden,1,0.0
2044,Sweden,2,0.0
2044,Sweden,3,0.0
2044,Sweden,4,0.0
2044,Switzerland,1,0.0
2044,Switzerland,2,0.0
2044,Switzerland,3,0.0
2044,Switzerland,4,0.0
2044,United Kingdom,1,0.0
2044,United Kingdom,2,0.0
2044,United Kingdom,3,0.0
2044,United Kingdom,4,0.0
2045,Austria,1,0.0
2045,Austria,2,0.0
2045,Austria,3,0.0
2045,Austria,4,0.0
2045,Belgium,1,0.0
2045,Belgium,2,0.0
2045,Belgium,3,0.0
2045,Belgium,4,0.0
2045,Bulgaria,1,0.0
2045,Bulgaria,2,0.0
2045,Bulgaria,3,0.0
2045,Bulgaria,4,0.0
2045,Croatia,1,0.0
2045,Croatia,2,0.0
2045,Croatia,3,0.0
2045,Croatia,4,0.0
2045,Cyprus,1,0.0
2045,Cyprus,2,0.0
2045,Cyprus,3,0.0
2045,Cyprus,4,0.0
2045,Czech Republic,1,0.0
2045,Czech Republic,2,0.0
2045,Czech Republic,3,0.0
2045,Czech Republic,4,0.0
2045,Denmark,1,0.0
2045,Denmark,2,0.0
2045,Denmark,3,0.0
2045,Denmark,4,0.0
2045,Estonia,1,0.0
2045,Estonia,2,0.0
2045,Estonia,3,0.0
2045,Estonia,4,0.0
2045,Finland,1,0.0
2045,Finland,2,0.0
2045,Finland,3,0.0
2045,Finland,4,0.0
2045,France,1,0.0
2045,France,2,0.0
2045,France,3,0.0
2045,France,4,0.0
2045,Germany,1,0.0
2045,Germany,2,0.0
2045,Germany,3,0.0
2045,Germany,4,0.0
2045,Greece,1,0.0
2045,Greece,2,0.0
2045,Greece,3,0.0
2045,Greece,4,0.0
2045,Hungary,1,0.0
2045,Hungary,2,0.0
2045,Hungary,3,0.0
2045,Hungary,4,0.0
2045,Ireland,1,0.0
2045,Ireland,2,0.0
2045,Ireland,3,0.0
2045,Ireland,4,0.0
2045,Italy,1,0.0
2045,Italy,2,0.0
2045,Italy,3,0.0
2045,Italy,4,0.0
2045,Latvia,1,0.0
2045,Latvia,2,0.0
2045,Latvia,3,0.0
2045,Latvia,4,0.0
2045,Lithuania,1,0.0
2045,Lithuania,2,0.0
2045,Lithuania,3,0.0
2045,Lithuania,4,0.0
2045,Luxembourg,1,0.0
2045,Luxembourg,2,0.0
2045,Luxembourg,3,0.0
2045,Luxembourg,4,0.0
2045,Malta,1,0.0
2045,Malta,2,0.0
2045,Malta,3,0.0
2045,Malta,4,0.0
2045,Netherlands,1,0.0
2045,Netherlands,2,0.0
2045,Netherlands,3,0.0
2045,Netherlands,4,0.0
2045,Poland,1,0.0
2045,Poland,2,0.0
2045,Poland,3,0.0
2045,Poland,4,0.0
2045,Portugal,1,0.0
2045,Portugal,2,0.0
2045,Portugal,3,0.0
2045,Portugal,4,0.0
2045,Romania,1,0.0
2045,Romania,2,0.0
2045,Romania,3,0.0
2045,Romania,4,0.0
2045,Slovakia,1,0.0
2045,Slovakia,2,0.0
2045,Slovakia,3,0.0
2045,Slovakia,4,0.0
2045,Slovenia,1,0.0
2045,Slovenia,2,0.0
2045,Slovenia,3,0.0
2045,Slovenia,4,0.0
2045,Spain,1,0.0
2045,Spain,2,0.0
2045,Spain,3,0.0
2045,Spain,4,0.0
2045,Sweden,1,0.0
2045,Sweden,2,0.0
2045,Sweden,3,0.0
2045,Sweden,4,0.0
2045,Switzerland,1,0.0
2045,Switzerland,2,0.0
2045,Switzerland,3,0.0
2045,Switzerland,4,0.0
2045,United Kingdom,1,0.0
2045,United Kingdom,2,0.0
2045,United Kingdom,3,0.0
2045,United Kingdom,4,0.0
2046,Austria,1,0.0
2046,Austria,2,0.0
2046,Austria,3,0.0
2046,Austria,4,0.0
2046,Belgium,1,0.0
2046,Belgium,2,0.0
2046,Belgium,3,0.0
2046,Belgium,4,0.0
2046,Bulgaria,1,0.0
2046,Bulgaria,2,0.0
2046,Bulgaria,3,0.0
2046,Bulgaria,4,0.0
2046,Croatia,1,0.0
2046,Croatia,2,0.0
2046,Croatia,3,0.0
2046,Croatia,4,0.0
2046,Cyprus,1,0.0
2046,Cyprus,2,0.0
2046,Cyprus,3,0.0
2046,Cyprus,4,0.0
2046,Czech Republic,1,0.0
2046,Czech Republic,2,0.0
2046,Czech Republic,3,0.0
2046,Czech Republic,4,0.0
2046,Denmark,1,0.0
2046,Denmark,2,0.0
2046,Denmark,3,0.0
2046,Denmark,4,0.0
2046,Estonia,1,0.0
2046,Estonia,2,0.0
2046,Estonia,3,0.0
2046,Estonia,4,0.0
2046,Finland,1,0.0
2046,Finland,2,0.0
2046,Finland,3,0.0
2046,Finland,4,0.0
2046,France,1,0.0
2046,France,2,0.0
2046,France,3,0.0
2046,France,4,0.0
2046,Germany,1,0.0
2046,Germany,2,0.0
2046,Germany,3,0.0
2046,Germany,4,0.0
2046,Greece,1,0.0
2046,Greece,2,0.0
2046,Greece,3,0.0
2046,Greece,4,0.0
2046,Hungary,1,0.0
2046,Hungary,2,0.0
2046,Hungary,3,0.0
2046,Hungary,4,0.0
2046,Ireland,1,0.0
2046,Ireland,2,0.0
2046,Ireland,3,0.0
2046,Ireland,4,0.0
2046,Italy,1,0.0
2046,Italy,2,0.0
2046,Italy,3,0.0
2046,Italy,4,0.0
2046,Latvia,1,0.0
2046,Latvia,2,0.0
2046,Latvia,3,0.0
2046,Latvia,4,0.0
2046,Lithuania,1,0.0
2046,Lithuania,2,0.0
2046,Lithuania,3,0.0
2046,Lithuania,4,0.0
2046,Luxembourg,1,0.0
2046,Luxembourg,2,0.0
2046,Luxembourg,3,0.0
2046,Luxembourg,4,0.0
2046,Malta,1,0.0
2046,Malta,2,0.0
2046,Malta,3,0.0
2046,Malta,4,0.0
2046,Netherlands,1,0.0
2046,Netherlands,2,0.0
2046,Netherlands,3,0.0
2046,Netherlands,4,0.0
2046,Poland,1,0.0
2046,Poland,2,0.0
2046,Poland,3,0.0
2046,Poland,4,0.0
2046,Portugal,1,0.0
2046,Portugal,2,0.0
2046,Portugal,3,0.0
2046,Portugal,4,0.0
2046,Romania,1,0.0
2046,Romania,2,0.0
2046,Romania,3,0.0
2046,Romania,4,0.0
2046,Slovakia,1,0.0
2046,Slovakia,2,0.0
2046,Slovakia,3,0.0
2046,Slovakia,4,0.0
2046,Slovenia,1,0.0
2046,Slovenia,2,0.0
2046,Slovenia,3,0.0
2046,Slovenia,4,0.0
2046,Spain,1,0.0
2046,Spain,2,0.0
2046,Spain,3,0.0
2046,Spain,4,0.0
2046,Sweden,1,0.0
2046,Sweden,2,0.0
2046,Sweden,3,0.0
2046,Sweden,4,0.0
2046,Switzerland,1,0.0
2046,Switzerland,2,0.0
2046,Switzerland,3,0.0
2046,Switzerland,4,0.0
2046,United Kingdom,1,0.0
2046,United Kingdom,2,0.0
2046,United Kingdom,3,0.0
2046,United Kingdom,4,0.0
2047,Austria,1,0.0
2047,Austria,2,0.0
2047,Austria,3,0.0
2047,Austria,4,0.0
2047,Belgium,1,0.0
2047,Belgium,2,0.0
2047,Belgium,3,0.0
2047,Belgium,4,0.0
2047,Bulgaria,1,0.0
2047,Bulgaria,2,0.0
2047,Bulgaria,3,0.0
2047,Bulgaria,4,0.0
2047,Croatia,1,0.0
2047,Croatia,2,0.0
2047,Croatia,3,0.0
2047,Croatia,4,0.0
2047,Cyprus,1,0.0
2047,Cyprus,2,0.0
2047,Cyprus,3,0.0
2047,Cyprus,4,0.0
2047,Czech Republic,1,0.0
2047,Czech Republic,2,0.0
2047,Czech Republic,3,0.0
2047,Czech Republic,4,0.0
2047,Denmark,1,0.0
2047,Denmark,2,0.0
2047,Denmark,3,0.0
2047,Denmark,4,0.0
2047,Estonia,1,0.0
2047,Estonia,2,0.0
2047,Estonia,3,0.0
2047,Estonia,4,0.0
2047,Finland,1,0.0
2047,Finland,2,0.0
2047,Finland,3,0.0
2047,Finland,4,0.0
2047,France,1,0.0
2047,France,2,0.0
2047,France,3,0.0
2047,France,4,0.0
2047,Germany,1,0.0
2047,Germany,2,0.0
2047,Germany,3,0.0
2047,Germany,4,0.0
2047,Greece,1,0.0
2047,Greece,2,0.0
2047,Greece,3,0.0
2047,Greece,4,0.0
2047,Hungary,1,0.0
2047,Hungary,2,0.0
2047,Hungary,3,0.0
2047,Hungary,4,0.0
2047,Ireland,1,0.0
2047,Ireland,2,0.0
2047,Ireland,3,0.0
2047,Ireland,4,0.0
2047,Italy,1,0.0
2047,Italy,2,0.0
2047,Italy,3,0.0
2047,Italy,4,0.0
2047,Latvia,1,0.0
2047,Latvia,2,0.0
2047,Latvia,3,0.0
2047,Latvia,4,0.0
2047,Lithuania,1,0.0
2047,Lithuania,2,0.0
2047,Lithuania,3,0.0
2047,Lithuania,4,0.0
2047,Luxembourg,1,0.0
2047,Luxembourg,2,0.0
2047,Luxembourg,3,0.0
2047,Luxembourg,4,0.0
2047,Malta,1,0.0
2047,Malta,2,0.0
2047,Malta,3,0.0
2047,Malta,4,0.0
2047,Netherlands,1,0.0
2047,Netherlands,2,0.0
2047,Netherlands,3,0.0
2047,Netherlands,4,0.0
2047,Poland,1,0.0
2047,Poland,2,0.0
2047,Poland,3,0.0
2047,Poland,4,0.0
2047,Portugal,1,0.0
2047,Portugal,2,0.0
2047,Portugal,3,0.0
2047,Portugal,4,0.0
2047,Romania,1,0.0
2047,Romania,2,0.0
2047,Romania,3,0.0
2047,Romania,4,0.0
2047,Slovakia,1,0.0
2047,Slovakia,2,0.0
2047,Slovakia,3,0.0
2047,Slovakia,4,0.0
2047,Slovenia,1,0.0
2047,Slovenia,2,0.0
2047,Slovenia,3,0.0
2047,Slovenia,4,0.0
2047,Spain,1,0.0
2047,Spain,2,0.0
2047,Spain,3,0.0
2047,Spain,4,0.0
2047,Sweden,1,0.0
2047,Sweden,2,0.0
2047,Sweden,3,0.0
2047,Sweden,4,0.0
2047,Switzerland,1,0.0
2047,Switzerland,2,0.0
2047,Switzerland,3,0.0
2047,Switzerland,4,0.0
2047,United Kingdom,1,0.0
2047,United Kingdom,2,0.0
2047,United Kingdom,3,0.0
2047,United Kingdom,4,0.0
2048,Austria,1,0.0
2048,Austria,2,0.0
2048,Austria,3,0.0
2048,Austria,4,0.0
2048,Belgium,1,0.0
2048,Belgium,2,0.0
2048,Belgium,3,0.0
2048,Belgium,4,0.0
2048,Bulgaria,1,0.0
2048,Bulgaria,2,0.0
2048,Bulgaria,3,0.0
2048,Bulgaria,4,0.0
2048,Croatia,1,0.0
2048,Croatia,2,0.0
2048,Croatia,3,0.0
2048,Croatia,4,0.0
2048,Cyprus,1,0.0
2048,Cyprus,2,0.0
2048,Cyprus,3,0.0
2048,Cyprus,4,0.0
2048,Czech Republic,1,0.0
2048,Czech Republic,2,0.0
2048,Czech Republic,3,0.0
2048,Czech Republic,4,0.0
2048,Denmark,1,0.0
2048,Denmark,2,0.0
2048,Denmark,3,0.0
2048,Denmark,4,0.0
2048,Estonia,1,0.0
2048,Estonia,2,0.0
2048,Estonia,3,0.0
2048,Estonia,4,0.0
2048,Finland,1,0.0
2048,Finland,2,0.0
2048,Finland,3,0.0
2048,Finland,4,0.0
2048,France,1,0.0
2048,France,2,0.0
2048,France,3,0.0
2048,France,4,0.0
2048,Germany,1,0.0
2048,Germany,2,0.0
2048,Germany,3,0.0
2048,Germany,4,0.0
2048,Greece,1,0.0
2048,Greece,2,0.0
2048,Greece,3,0.0
2048,Greece,4,0.0
2048,Hungary,1,0.0
2048,Hungary,2,0.0
2048,Hungary,3,0.0
2048,Hungary,4,0.0
2048,Ireland,1,0.0
2048,Ireland,2,0.0
2048,Ireland,3,0.0
2048,Ireland,4,0.0
2048,Italy,1,0.0
2048,Italy,2,0.0
2048,Italy,3,0.0
2048,Italy,4,0.0
2048,Latvia,1,0.0
2048,Latvia,2,0.0
2048,Latvia,3,0.0
2048,Latvia,4,0.0
2048,Lithuania,1,0.0
2048,Lithuania,2,0.0
2048,Lithuania,3,0.0
2048,Lithuania,4,0.0
2048,Luxembourg,1,0.0
2048,Luxembourg,2,0.0
2048,Luxembourg,3,0.0
2048,Luxembourg,4,0.0
2048,Malta,1,0.0
2048,Malta,2,0.0
2048,Malta,3,0.0
2048,Malta,4,0.0
2048,Netherlands,1,0.0
2048,Netherlands,2,0.0
2048,Netherlands,3,0.0
2048,Netherlands,4,0.0
2048,Poland,1,0.0
2048,Poland,2,0.0
2048,Poland,3,0.0
2048,Poland,4,0.0
2048,Portugal,1,0.0
2048,Portugal,2,0.0
2048,Portugal,3,0.0
2048,Portugal,4,0.0
2048,Romania,1,0.0
2048,Romania,2,0.0
2048,Romania,3,0.0
2048,Romania,4,0.0
2048,Slovakia,1,0.0
2048,Slovakia,2,0.0
2048,Slovakia,3,0.0
2048,Slovakia,4,0.0
2048,Slovenia,1,0.0
2048,Slovenia,2,0.0
2048,Slovenia,3,0.0
2048,Slovenia,4,0.0
2048,Spain,1,0.0
2048,Spain,2,0.0
2048,Spain,3,0.0
2048,Spain,4,0.0
2048,Sweden,1,0.0
2048,Sweden,2,0.0
2048,Sweden,3,0.0
2048,Sweden,4,0.0
2048,Switzerland,1,0.0
2048,Switzerland,2,0.0
2048,Switzerland,3,0.0
2048,Switzerland,4,0.0
2048,United Kingdom,1,0.0
2048,United Kingdom,2,0.0
2048,United Kingdom,3,0.0
2048,United Kingdom,4,0.0
2049,Austria,1,0.0
2049,Austria,2,0.0
2049,Austria,3,0.0
2049,Austria,4,0.0
2049,Belgium,1,0.0
2049,Belgium,2,0.0
2049,Belgium,3,0.0
2049,Belgium,4,0.0
2049,Bulgaria,1,0.0
2049,Bulgaria,2,0.0
2049,Bulgaria,3,0.0
2049,Bulgaria,4,0.0
2049,Croatia,1,0.0
2049,Croatia,2,0.0
2049,Croatia,3,0.0
2049,Croatia,4,0.0
2049,Cyprus,1,0.0
2049,Cyprus,2,0.0
2049,Cyprus,3,0.0
2049,Cyprus,4,0.0
2049,Czech Republic,1,0.0
2049,Czech Republic,2,0.0
2049,Czech Republic,3,0.0
2049,Czech Republic,4,0.0
2049,Denmark,1,0.0
2049,Denmark,2,0.0
2049,Denmark,3,0.0
2049,Denmark,4,0.0
2049,Estonia,1,0.0
2049,Estonia,2,0.0
2049,Estonia,3,0.0
2049,Estonia,4,0.0
2049,Finland,1,0.0
2049,Finland,2,0.0
2049,Finland,3,0.0
2049,Finland,4,0.0
2049,France,1,0.0
2049,France,2,0.0
2049,France,3,0.0
2049,France,4,0.0
2049,Germany,1,0.0
2049,Germany,2,0.0
2049,Germany,3,0.0
2049,Germany,4,0.0
2049,Greece,1,0.0
2049,Greece,2,0.0
2049,Greece,3,0.0
2049,Greece,4,0.0
2049,Hungary,1,0.0
2049,Hungary,2,0.0
2049,Hungary,3,0.0
2049,Hungary,4,0.0
2049,Ireland,1,0.0
2049,Ireland,2,0.0
2049,Ireland,3,0.0
2049,Ireland,4,0.0
2049,Italy,1,0.0
2049,Italy,2,0.0
2049,Italy,3,0.0
2049,Italy,4,0.0
2049,Latvia,1,0.0
2049,Latvia,2,0.0
2049,Latvia,3,0.0
2049,Latvia,4,0.0
2049,Lithuania,1,0.0
2049,Lithuania,2,0.0
2049,Lithuania,3,0.0
2049,Lithuania,4,0.0
2049,Luxembourg,1,0.0
2049,Luxembourg,2,0.0
2049,Luxembourg,3,0.0
2049,Luxembourg,4,0.0
2049,Malta,1,0.0
2049,Malta,2,0.0
2049,Malta,3,0.0
2049,Malta,4,0.0
2049,Netherlands,1,0.0
2049,Netherlands,2,0.0
2049,Netherlands,3,0.0
2049,Netherlands,4,0.0
2049,Poland,1,0.0
2049,Poland,2,0.0
2049,Poland,3,0.0
2049,Poland,4,0.0
2049,Portugal,1,0.0
2049,Portugal,2,0.0
2049,Portugal,3,0.0
2049,Portugal,4,0.0
2049,Romania,1,0.0
2049,Romania,2,0.0
2049,Romania,3,0.0
2049,Romania,4,0.0
2049,Slovakia,1,0.0
2049,Slovakia,2,0.0
2049,Slovakia,3,0.0
2049,Slovakia,4,0.0
2049,Slovenia,1,0.0
2049,Slovenia,2,0.0
2049,Slovenia,3,0.0
2049,Slovenia,4,0.0
2049,Spain,1,0.0
2049,Spain,2,0.0
2049,Spain,3,0.0
2049,Spain,4,0.0
2049,Sweden,1,0.0
2049,Sweden,2,0.0
2049,Sweden,3,0.0
2049,Sweden,4,0.0
2049,Switzerland,1,0.0
2049,Switzerland,2,0.0
2049,Switzerland,3,0.0
2049,Switzerland,4,0.0
2049,United Kingdom,1,0.0
2049,United Kingdom,2,0.0
2049,United Kingdom,3,0.0
2049,United Kingdom,4,0.0
2050,Austria,1,0.0
2050,Austria,2,0.0
2050,Austria,3,0.0
2050,Austria,4,0.0
2050,Belgium,1,0.0
2050,Belgium,2,0.0
2050,Belgium,3,0.0
2050,Belgium,4,0.0
2050,Bulgaria,1,0.0
2050,Bulgaria,2,0.0
2050,Bulgaria,3,0.0
2050,Bulgaria,4,0.0
2050,Croatia,1,0.0
2050,Croatia,2,0.0
2050,Croatia,3,0.0
2050,Croatia,4,0.0
2050,Cyprus,1,0.0
2050,Cyprus,2,0.0
2050,Cyprus,3,0.0
2050,Cyprus,4,0.0
2050,Czech Republic,1,0.0
2050,Czech Republic,2,0.0
2050,Czech Republic,3,0.0
2050,Czech Republic,4,0.0
2050,Denmark,1,0.0
2050,Denmark,2,0.0
2050,Denmark,3,0.0
2050,Denmark,4,0.0
2050,Estonia,1,0.0
2050,Estonia,2,0.0
2050,Estonia,3,0.0
2050,Estonia,4,0.0
2050,Finland,1,0.0
2050,Finland,2,0.0
2050,Finland,3,0.0
2050,Finland,4,0.0
2050,France,1,0.0
2050,France,2,0.0
2050,France,3,0.0
2050,France,4,0.0
2050,Germany,1,0.0
2050,Germany,2,0.0
2050,Germany,3,0.0
2050,Germany,4,0.0
2050,Greece,1,0.0
2050,Greece,2,0.0
2050,Greece,3,0.0
2050,Greece,4,0.0
2050,Hungary,1,0.0
2050,Hungary,2,0.0
2050,Hungary,3,0.0
2050,Hungary,4,0.0
2050,Ireland,1,0.0
2050,Ireland,2,0.0
2050,Ireland,3,0.0
2050,Ireland,4,0.0
2050,Italy,1,0.0
2050,Italy,2,0.0
2050,Italy,3,0.0
2050,Italy,4,0.0
2050,Latvia,1,0.0
2050,Latvia,2,0.0
2050,Latvia,3,0.0
2050,Latvia,4,0.0
2050,Lithuania,1,0.0
2050,Lithuania,2,0.0
2050,Lithuania,3,0.0
2050,Lithuania,4,0.0
2050,Luxembourg,1,0.0
2050,Luxembourg,2,0.0
2050,Luxembourg,3,0.0
2050,Luxembourg,4,0.0
2050,Malta,1,0.0
2050,Malta,2,0.0
2050,Malta,3,0.0
2050,Malta,4,0.0
2050,Netherlands,1,0.0
2050,Netherlands,2,0.0
2050,Netherlands,3,0.0
2050,Netherlands,4,0.0
2050,Poland,1,0.0
2050,Poland,2,0.0
2050,Poland,3,0.0
2050,Poland,4,0.0
2050,Portugal,1,0.0
2050,Portugal,2,0.0
2050,Portugal,3,0.0
2050,Portugal,4,0.0
2050,Romania,1,0.0
2050,Romania,2,0.0
2050,Romania,3,0.0
2050,Romania,4,0.0
2050,Slovakia,1,0.0
2050,Slovakia,2,0.0
2050,Slovakia,3,0.0
2050,Slovakia,4,0.0
2050,Slovenia,1,0.0
2050,Slovenia,2,0.0
2050,Slovenia,3,0.0
2050,Slovenia,4,0.0
2050,Spain,1,0.0
2050,Spain,2,0.0
2050,Spain,3,0.0
2050,Spain,4,0.0
2050,Sweden,1,0.0
2050,Sweden,2,0.0
2050,Sweden,3,0.0
2050,Sweden,4,0.0
2050,Switzerland,1,0.0
2050,Switzerland,2,0.0
2050,Switzerland,3,0.0
2050,Switzerland,4,0.0
2050,United Kingdom,1,0.0
2050,United Kingdom,2,0.0
2050,United Kingdom,3,0.0
2050,United Kingdom,4,0.0
