Country,Years,ots_elc_capacity_nuclear[GW]
Austria,1990,0.0
Belgium,1990,5.72
Bulgaria,1990,2.683
Croatia,1990,0.0
Cyprus,1990,0.0
Czech Republic,1990,0.0
Denmark,1990,0.0
Estonia,1990,0.0
Finland,1990,2.454
France,1990,58.032
Germany,1990,22.525
Greece,1990,0.0
Hungary,1990,1.915
Ireland,1990,0.0
Italy,1990,0.0
Latvia,1990,0.0
Lithuania,1990,0.0
Luxembourg,1990,0.0
Malta,1990,0.0
Netherlands,1990,0.577
Poland,1990,0.0
Portugal,1990,0.0
Romania,1990,0.0
Slovakia,1990,0.0
Slovenia,1990,0.0
Spain,1990,7.373
Sweden,1990,10.212
Switzerland,1990,2.94
United Kingdom,1990,12.723
Austria,1991,0.0
Belgium,1991,5.699
Bulgaria,1991,3.671
Croatia,1991,0.0
Cyprus,1991,0.0
Czech Republic,1991,0.0
Denmark,1991,0.0
Estonia,1991,0.0
Finland,1991,2.454
France,1991,59.103
Germany,1991,22.503
Greece,1991,0.0
Hungary,1991,1.836
Ireland,1991,0.0
Italy,1991,0.0
Latvia,1991,0.0
Lithuania,1991,3.24
Luxembourg,1991,0.0
Malta,1991,0.0
Netherlands,1991,0.555
Poland,1991,0.0
Portugal,1991,0.0
Romania,1991,0.0
Slovakia,1991,0.0
Slovenia,1991,0.667
Spain,1991,7.404
Sweden,1991,10.389
Switzerland,1991,2.93
United Kingdom,1991,12.913
Austria,1992,0.0
Belgium,1992,5.699
Bulgaria,1992,3.671
Croatia,1992,0.0
Cyprus,1992,0.0
Czech Republic,1992,0.0
Denmark,1992,0.0
Estonia,1992,0.0
Finland,1992,2.454
France,1992,59.997
Germany,1992,22.641
Greece,1992,0.0
Hungary,1992,1.926
Ireland,1992,0.0
Italy,1992,0.0
Latvia,1992,0.0
Lithuania,1992,3.24
Luxembourg,1992,0.0
Malta,1992,0.0
Netherlands,1992,0.545
Poland,1992,0.0
Portugal,1992,0.0
Romania,1992,0.0
Slovakia,1992,0.0
Slovenia,1992,0.667
Spain,1992,7.394
Sweden,1992,10.441
Switzerland,1992,2.95
United Kingdom,1992,13.003
Austria,1993,0.0
Belgium,1993,5.699
Bulgaria,1993,3.671
Croatia,1993,0.0
Cyprus,1993,0.0
Czech Republic,1993,1.904
Denmark,1993,0.0
Estonia,1993,0.0
Finland,1993,2.454
France,1993,61.36
Germany,1993,22.673
Greece,1993,0.0
Hungary,1993,1.926
Ireland,1993,0.0
Italy,1993,0.0
Latvia,1993,0.0
Lithuania,1993,2.559
Luxembourg,1993,0.0
Malta,1993,0.0
Netherlands,1993,0.555
Poland,1993,0.0
Portugal,1993,0.0
Romania,1993,0.0
Slovakia,1993,1.923
Slovenia,1993,0.657
Spain,1993,7.436
Sweden,1993,10.4
Switzerland,1993,2.99
United Kingdom,1993,13.294
Austria,1994,0.0
Belgium,1994,5.74
Bulgaria,1994,3.671
Croatia,1994,0.0
Cyprus,1994,0.0
Czech Republic,1994,1.904
Denmark,1994,0.0
Estonia,1994,0.0
Finland,1994,2.454
France,1994,60.912
Germany,1994,22.058
Greece,1994,0.0
Hungary,1994,1.926
Ireland,1994,0.0
Italy,1994,0.0
Latvia,1994,0.0
Lithuania,1994,2.559
Luxembourg,1994,0.0
Malta,1994,0.0
Netherlands,1994,0.555
Poland,1994,0.0
Portugal,1994,0.0
Romania,1994,0.0
Slovakia,1994,1.923
Slovenia,1994,0.657
Spain,1994,7.436
Sweden,1994,10.431
Switzerland,1994,3.03
United Kingdom,1994,13.104
Austria,1995,0.0
Belgium,1995,5.855
Bulgaria,1995,3.671
Croatia,1995,0.0
Cyprus,1995,0.0
Czech Republic,1995,1.904
Denmark,1995,0.0
Estonia,1995,0.0
Finland,1995,2.402
France,1995,60.912
Germany,1995,22.228
Greece,1995,0.0
Hungary,1995,1.926
Ireland,1995,0.0
Italy,1995,0.0
Latvia,1995,0.0
Lithuania,1995,2.559
Luxembourg,1995,0.0
Malta,1995,0.0
Netherlands,1995,0.555
Poland,1995,0.0
Portugal,1995,0.0
Romania,1995,0.0
Slovakia,1995,1.923
Slovenia,1995,0.657
Spain,1995,7.373
Sweden,1995,10.441
Switzerland,1995,3.05
United Kingdom,1995,14.459
Austria,1996,0.0
Belgium,1996,5.917
Bulgaria,1996,3.671
Croatia,1996,0.0
Cyprus,1996,0.0
Czech Republic,1996,1.754
Denmark,1996,0.0
Estonia,1996,0.0
Finland,1996,2.402
France,1996,62.42
Germany,1996,22.291
Greece,1996,0.0
Hungary,1996,1.926
Ireland,1996,0.0
Italy,1996,0.0
Latvia,1996,0.0
Lithuania,1996,2.559
Luxembourg,1996,0.0
Malta,1996,0.0
Netherlands,1996,0.555
Poland,1996,0.0
Portugal,1996,0.0
Romania,1996,0.736
Slovakia,1996,2.053
Slovenia,1996,0.657
Spain,1996,7.498
Sweden,1996,10.431
Switzerland,1996,3.089
United Kingdom,1996,14.459
Austria,1997,0.0
Belgium,1997,5.938
Bulgaria,1997,3.671
Croatia,1997,0.0
Cyprus,1997,0.0
Czech Republic,1997,1.754
Denmark,1997,0.0
Estonia,1997,0.0
Finland,1997,2.652
France,1997,65.343
Germany,1997,22.302
Greece,1997,0.0
Hungary,1997,1.926
Ireland,1997,0.0
Italy,1997,0.0
Latvia,1997,0.0
Lithuania,1997,2.559
Luxembourg,1997,0.0
Malta,1997,0.0
Netherlands,1997,0.49
Poland,1997,0.0
Portugal,1997,0.0
Romania,1997,0.736
Slovakia,1997,1.994
Slovenia,1997,0.657
Spain,1997,7.394
Sweden,1997,10.431
Switzerland,1997,3.089
United Kingdom,1997,14.504
Austria,1998,0.0
Belgium,1998,5.948
Bulgaria,1998,3.671
Croatia,1998,0.0
Cyprus,1998,0.0
Czech Republic,1998,1.754
Denmark,1998,0.0
Estonia,1998,0.0
Finland,1998,2.745
France,1998,64.095
Germany,1998,22.323
Greece,1998,0.0
Hungary,1998,1.926
Ireland,1998,0.0
Italy,1998,0.0
Latvia,1998,0.0
Lithuania,1998,2.559
Luxembourg,1998,0.0
Malta,1998,0.0
Netherlands,1998,0.479
Poland,1998,0.0
Portugal,1998,0.0
Romania,1998,0.747
Slovakia,1998,2.407
Slovenia,1998,0.657
Spain,1998,7.644
Sweden,1998,10.452
Switzerland,1998,3.089
United Kingdom,1998,14.515
Austria,1999,0.0
Belgium,1999,5.938
Bulgaria,1999,3.91
Croatia,1999,0.0
Cyprus,1999,0.0
Czech Republic,1999,1.754
Denmark,1999,0.0
Estonia,1999,0.0
Finland,1999,2.745
France,1999,65.603
Germany,1999,22.387
Greece,1999,0.0
Hungary,1999,1.926
Ireland,1999,0.0
Italy,1999,0.0
Latvia,1999,0.0
Lithuania,1999,2.559
Luxembourg,1999,0.0
Malta,1999,0.0
Netherlands,1999,0.479
Poland,1999,0.0
Portugal,1999,0.0
Romania,1999,0.747
Slovakia,1999,2.879
Slovenia,1999,0.657
Spain,1999,7.675
Sweden,1999,9.786
Switzerland,1999,3.119
United Kingdom,1999,14.515
Austria,2000,0.0
Belgium,2000,5.951
Bulgaria,2000,3.76
Croatia,2000,0.0
Cyprus,2000,0.0
Czech Republic,2000,1.866
Denmark,2000,0.0
Estonia,2000,0.0
Finland,2000,2.727
France,2000,65.94
Germany,2000,23.548
Greece,2000,0.0
Hungary,2000,1.96
Ireland,2000,0.0
Italy,2000,0.0
Latvia,2000,0.0
Lithuania,2000,2.55
Luxembourg,2000,0.0
Malta,2000,0.0
Netherlands,2000,0.475
Poland,2000,0.0
Portugal,2000,0.0
Romania,2000,0.75
Slovakia,2000,2.942
Slovenia,2000,0.696
Spain,2000,7.814
Sweden,2000,9.765
Switzerland,2000,3.17
United Kingdom,2000,13.457
Austria,2001,0.0
Belgium,2001,5.977
Bulgaria,2001,3.76
Croatia,2001,0.0
Cyprus,2001,0.0
Czech Republic,2001,1.866
Denmark,2001,0.0
Estonia,2001,0.0
Finland,2001,2.727
France,2001,65.94
Germany,2001,23.548
Greece,2001,0.0
Hungary,2001,1.976
Ireland,2001,0.0
Italy,2001,0.0
Latvia,2001,0.0
Lithuania,2001,2.55
Luxembourg,2001,0.0
Malta,2001,0.0
Netherlands,2001,0.475
Poland,2001,0.0
Portugal,2001,0.0
Romania,2001,0.75
Slovakia,2001,2.942
Slovenia,2001,0.696
Spain,2001,7.847
Sweden,2001,9.765
Switzerland,2001,3.17
United Kingdom,2001,13.457
Austria,2002,0.0
Belgium,2002,6.001
Bulgaria,2002,2.88
Croatia,2002,0.0
Cyprus,2002,0.0
Czech Republic,2002,2.932
Denmark,2002,0.0
Estonia,2002,0.0
Finland,2002,2.759
France,2002,66.034
Germany,2002,23.548
Greece,2002,0.0
Hungary,2002,1.976
Ireland,2002,0.0
Italy,2002,0.0
Latvia,2002,0.0
Lithuania,2002,2.55
Luxembourg,2002,0.0
Malta,2002,0.0
Netherlands,2002,0.475
Poland,2002,0.0
Portugal,2002,0.0
Romania,2002,0.75
Slovakia,2002,2.942
Slovenia,2002,0.696
Spain,2002,7.893
Sweden,2002,9.781
Switzerland,2002,3.17
United Kingdom,2002,13.165
Austria,2003,0.0
Belgium,2003,6.001
Bulgaria,2003,2.88
Croatia,2003,0.0
Cyprus,2003,0.0
Czech Republic,2003,4.0
Denmark,2003,0.0
Estonia,2003,0.0
Finland,2003,2.759
France,2003,66.128
Germany,2003,22.246
Greece,2003,0.0
Hungary,2003,1.976
Ireland,2003,0.0
Italy,2003,0.0
Latvia,2003,0.0
Lithuania,2003,2.55
Luxembourg,2003,0.0
Malta,2003,0.0
Netherlands,2003,0.475
Poland,2003,0.0
Portugal,2003,0.0
Romania,2003,0.75
Slovakia,2003,2.942
Slovenia,2003,0.696
Spain,2003,7.893
Sweden,2003,9.781
Switzerland,2003,3.22
United Kingdom,2003,12.685
Austria,2004,0.0
Belgium,2004,6.001
Bulgaria,2004,2.88
Croatia,2004,0.0
Cyprus,2004,0.0
Czech Republic,2004,4.0
Denmark,2004,0.0
Estonia,2004,0.0
Finland,2004,2.759
France,2004,66.128
Germany,2004,21.584
Greece,2004,0.0
Hungary,2004,1.976
Ireland,2004,0.0
Italy,2004,0.0
Latvia,2004,0.0
Lithuania,2004,2.55
Luxembourg,2004,0.0
Malta,2004,0.0
Netherlands,2004,0.475
Poland,2004,0.0
Portugal,2004,0.0
Romania,2004,0.75
Slovakia,2004,2.942
Slovenia,2004,0.696
Spain,2004,7.893
Sweden,2004,9.781
Switzerland,2004,3.22
United Kingdom,2004,12.685
Austria,2005,0.0
Belgium,2005,6.045
Bulgaria,2005,2.88
Croatia,2005,0.0
Cyprus,2005,0.0
Czech Republic,2005,4.0
Denmark,2005,0.0
Estonia,2005,0.0
Finland,2005,2.759
France,2005,66.128
Germany,2005,21.406
Greece,2005,0.0
Hungary,2005,1.976
Ireland,2005,0.0
Italy,2005,0.0
Latvia,2005,0.0
Lithuania,2005,1.275
Luxembourg,2005,0.0
Malta,2005,0.0
Netherlands,2005,0.475
Poland,2005,0.0
Portugal,2005,0.0
Romania,2005,0.75
Slovakia,2005,2.942
Slovenia,2005,0.696
Spain,2005,7.893
Sweden,2005,9.781
Switzerland,2005,3.22
United Kingdom,2005,12.685
Austria,2006,0.0
Belgium,2006,6.069
Bulgaria,2006,2.88
Croatia,2006,0.0
Cyprus,2006,0.0
Czech Republic,2006,4.0
Denmark,2006,0.0
Estonia,2006,0.0
Finland,2006,2.759
France,2006,66.128
Germany,2006,21.227
Greece,2006,0.0
Hungary,2006,1.976
Ireland,2006,0.0
Italy,2006,0.0
Latvia,2006,0.0
Lithuania,2006,1.275
Luxembourg,2006,0.0
Malta,2006,0.0
Netherlands,2006,0.54
Poland,2006,0.0
Portugal,2006,0.0
Romania,2006,0.75
Slovakia,2006,2.942
Slovenia,2006,0.707
Spain,2006,7.671
Sweden,2006,9.781
Switzerland,2006,3.22
United Kingdom,2006,11.765
Austria,2007,0.0
Belgium,2007,6.069
Bulgaria,2007,2.0
Croatia,2007,0.0
Cyprus,2007,0.0
Czech Republic,2007,4.0
Denmark,2007,0.0
Estonia,2007,0.0
Finland,2007,2.759
France,2007,66.128
Germany,2007,21.227
Greece,2007,0.0
Hungary,2007,1.976
Ireland,2007,0.0
Italy,2007,0.0
Latvia,2007,0.0
Lithuania,2007,1.275
Luxembourg,2007,0.0
Malta,2007,0.0
Netherlands,2007,0.54
Poland,2007,0.0
Portugal,2007,0.0
Romania,2007,1.5
Slovakia,2007,2.442
Slovenia,2007,0.707
Spain,2007,7.671
Sweden,2007,9.327
Switzerland,2007,3.22
United Kingdom,2007,11.765
Austria,2008,0.0
Belgium,2008,6.069
Bulgaria,2008,2.0
Croatia,2008,0.0
Cyprus,2008,0.0
Czech Republic,2008,4.0
Denmark,2008,0.0
Estonia,2008,0.0
Finland,2008,2.806
France,2008,66.128
Germany,2008,21.5
Greece,2008,0.0
Hungary,2008,2.054
Ireland,2008,0.0
Italy,2008,0.0
Latvia,2008,0.0
Lithuania,2008,1.275
Luxembourg,2008,0.0
Malta,2008,0.0
Netherlands,2008,0.54
Poland,2008,0.0
Portugal,2008,0.0
Romania,2008,1.5
Slovakia,2008,2.442
Slovenia,2008,0.707
Spain,2008,7.671
Sweden,2008,9.263
Switzerland,2008,3.22
United Kingdom,2008,11.765
Austria,2009,0.0
Belgium,2009,6.149
Bulgaria,2009,2.0
Croatia,2009,0.0
Cyprus,2009,0.0
Czech Republic,2009,4.074
Denmark,2009,0.0
Estonia,2009,0.0
Finland,2009,2.806
France,2009,65.878
Germany,2009,21.5
Greece,2009,0.0
Hungary,2009,2.054
Ireland,2009,0.0
Italy,2009,0.0
Latvia,2009,0.0
Lithuania,2009,1.275
Luxembourg,2009,0.0
Malta,2009,0.0
Netherlands,2009,0.54
Poland,2009,0.0
Portugal,2009,0.0
Romania,2009,1.5
Slovakia,2009,2.007
Slovenia,2009,0.707
Spain,2009,7.671
Sweden,2009,9.263
Switzerland,2009,3.23
United Kingdom,2009,11.765
Austria,2010,0.0
Belgium,2010,6.175
Bulgaria,2010,2.0
Croatia,2010,0.0
Cyprus,2010,0.0
Czech Republic,2010,4.149
Denmark,2010,0.0
Estonia,2010,0.0
Finland,2010,2.806
France,2010,65.878
Germany,2010,21.5
Greece,2010,0.0
Hungary,2010,2.117
Ireland,2010,0.0
Italy,2010,0.0
Latvia,2010,0.0
Lithuania,2010,0.0
Luxembourg,2010,0.0
Malta,2010,0.0
Netherlands,2010,0.54
Poland,2010,0.0
Portugal,2010,0.0
Romania,2010,1.5
Slovakia,2010,2.007
Slovenia,2010,0.707
Spain,2010,7.76
Sweden,2010,9.303
Switzerland,2010,3.23
United Kingdom,2010,11.765
Austria,2011,0.0
Belgium,2011,6.175
Bulgaria,2011,2.0
Croatia,2011,0.0
Cyprus,2011,0.0
Czech Republic,2011,4.223
Denmark,2011,0.0
Estonia,2011,0.0
Finland,2011,2.806
France,2011,65.878
Germany,2011,21.5
Greece,2011,0.0
Hungary,2011,2.117
Ireland,2011,0.0
Italy,2011,0.0
Latvia,2011,0.0
Lithuania,2011,0.0
Luxembourg,2011,0.0
Malta,2011,0.0
Netherlands,2011,0.54
Poland,2011,0.0
Portugal,2011,0.0
Romania,2011,1.5
Slovakia,2011,2.14
Slovenia,2011,0.73
Spain,2011,7.76
Sweden,2011,9.632
Switzerland,2011,3.26
United Kingdom,2011,11.476
Austria,2012,0.0
Belgium,2012,6.175
Bulgaria,2012,2.02
Croatia,2012,0.0
Cyprus,2012,0.0
Czech Republic,2012,4.297
Denmark,2012,0.0
Estonia,2012,0.0
Finland,2012,2.823
France,2012,65.878
Germany,2012,12.697
Greece,2012,0.0
Hungary,2012,2.117
Ireland,2012,0.0
Italy,2012,0.0
Latvia,2012,0.0
Lithuania,2012,0.0
Luxembourg,2012,0.0
Malta,2012,0.0
Netherlands,2012,0.54
Poland,2012,0.0
Portugal,2012,0.0
Romania,2012,1.5
Slovakia,2012,2.14
Slovenia,2012,0.73
Spain,2012,7.76
Sweden,2012,9.749
Switzerland,2012,3.27
United Kingdom,2012,10.661
Austria,2013,0.0
Belgium,2013,6.175
Bulgaria,2013,2.096
Croatia,2013,0.0
Cyprus,2013,0.0
Czech Republic,2013,4.563
Denmark,2013,0.0
Estonia,2013,0.0
Finland,2013,2.844
France,2013,65.878
Germany,2013,12.697
Greece,2013,0.0
Hungary,2013,2.117
Ireland,2013,0.0
Italy,2013,0.0
Latvia,2013,0.0
Lithuania,2013,0.0
Luxembourg,2013,0.0
Malta,2013,0.0
Netherlands,2013,0.513
Poland,2013,0.0
Portugal,2013,0.0
Romania,2013,1.5
Slovakia,2013,2.14
Slovenia,2013,0.73
Spain,2013,7.707
Sweden,2013,9.749
Switzerland,2013,3.3
United Kingdom,2013,10.661
Austria,2014,0.0
Belgium,2014,6.175
Bulgaria,2014,2.096
Croatia,2014,0.0
Cyprus,2014,0.0
Czech Republic,2014,4.563
Denmark,2014,0.0
Estonia,2014,0.0
Finland,2014,2.844
France,2014,65.878
Germany,2014,12.703
Greece,2014,0.0
Hungary,2014,2.117
Ireland,2014,0.0
Italy,2014,0.0
Latvia,2014,0.0
Lithuania,2014,0.0
Luxembourg,2014,0.0
Malta,2014,0.0
Netherlands,2014,0.513
Poland,2014,0.0
Portugal,2014,0.0
Romania,2014,1.5
Slovakia,2014,2.14
Slovenia,2014,0.73
Spain,2014,7.707
Sweden,2014,9.852
Switzerland,2014,3.329
United Kingdom,2014,10.661
Austria,2015,0.0
Belgium,2015,6.175
Bulgaria,2015,2.096
Croatia,2015,0.0
Cyprus,2015,0.0
Czech Republic,2015,4.563
Denmark,2015,0.0
Estonia,2015,0.0
Finland,2015,2.844
France,2015,65.878
Germany,2015,11.358
Greece,2015,0.0
Hungary,2015,2.117
Ireland,2015,0.0
Italy,2015,0.0
Latvia,2015,0.0
Lithuania,2015,0.0
Luxembourg,2015,0.0
Malta,2015,0.0
Netherlands,2015,0.513
Poland,2015,0.0
Portugal,2015,0.0
Romania,2015,1.5
Slovakia,2015,2.14
Slovenia,2015,0.73
Spain,2015,7.707
Sweden,2015,10.039
Switzerland,2015,3.333
United Kingdom,2015,10.165
