Country,Years,ots_lfs_pop_population[inhabitants],iiasa_ssp2
Austria,1990,7644818.0,5306000000.0
Belgium,1990,9947782.0,5306000000.0
Bulgaria,1990,8767308.0,5306000000.0
Switzerland,1990,6673850.0,5306000000.0
Cyprus,1990,572655.0,5306000000.0
Czech Republic,1990,10362102.0,5306000000.0
Germany,1990,78874428.0,5306000000.0
Denmark,1990,5135409.0,5306000000.0
Estonia,1990,1570599.0,5306000000.0
Greece,1990,10120892.0,5306000000.0
Spain,1990,38853227.0,5306000000.0
Finland,1990,4974383.0,5306000000.0
France,1990,58022027.0,5306000000.0
Croatia,1990,4772556.0,5306000000.0
Hungary,1990,10374823.0,5306000000.0
Ireland,1990,3506970.0,5306000000.0
Italy,1990,56694360.0,5306000000.0
Lithuania,1990,3693708.0,5306000000.0
Luxembourg,1990,379300.0,5306000000.0
Latvia,1990,2668140.0,5306000000.0
Malta,1990,352430.0,5306000000.0
Netherlands,1990,14892574.0,5306000000.0
Poland,1990,38038403.0,5306000000.0
Portugal,1990,9995995.0,5306000000.0
Romania,1990,23211395.0,5306000000.0
Sweden,1990,8527039.0,5306000000.0
Slovenia,1990,1996377.0,5306000000.0
Slovakia,1990,5287663.0,5306000000.0
United Kingdom,1990,57156972.0,5306000000.0
Austria,1991,7710882.0,5390000000.0
Belgium,1991,9986975.0,5390000000.0
Bulgaria,1991,8669269.0,5390000000.0
Switzerland,1991,6757188.0,5390000000.0
Cyprus,1991,587141.0,5390000000.0
Czech Republic,1991,10304607.0,5390000000.0
Germany,1991,79574496.0,5390000000.0
Denmark,1991,5146469.0,5390000000.0
Estonia,1991,1567749.0,5390000000.0
Greece,1991,10272691.0,5390000000.0
Spain,1991,38881416.0,5390000000.0
Finland,1991,4998478.0,5390000000.0
France,1991,58313439.0,5390000000.0
Croatia,1991,4782179.0,5390000000.0
Hungary,1991,10373153.0,5390000000.0
Ireland,1991,3520977.0,5390000000.0
Italy,1991,56744119.0,5390000000.0
Lithuania,1991,3701968.0,5390000000.0
Luxembourg,1991,384400.0,5390000000.0
Latvia,1991,2658161.0,5390000000.0
Malta,1991,361908.0,5390000000.0
Netherlands,1991,15010445.0,5390000000.0
Poland,1991,38183160.0,5390000000.0
Portugal,1991,9970441.0,5390000000.0
Romania,1991,23192274.0,5390000000.0
Sweden,1991,8590630.0,5390000000.0
Slovenia,1991,1999945.0,5390000000.0
Slovakia,1991,5310711.0,5390000000.0
United Kingdom,1991,57338199.0,5390000000.0
Austria,1992,7798899.0,5474000000.0
Belgium,1992,10021997.0,5474000000.0
Bulgaria,1992,8595465.0,5474000000.0
Switzerland,1992,6842768.0,5474000000.0
Cyprus,1992,603069.0,5474000000.0
Czech Republic,1992,10312548.0,5474000000.0
Germany,1992,80274564.0,5474000000.0
Denmark,1992,5162126.0,5474000000.0
Estonia,1992,1554878.0,5474000000.0
Greece,1992,10367163.0,5474000000.0
Spain,1992,39051336.0,5474000000.0
Finland,1992,5029002.0,5474000000.0
France,1992,58604851.0,5474000000.0
Croatia,1992,4595866.0,5474000000.0
Hungary,1992,10373647.0,5474000000.0
Ireland,1992,3547492.0,5474000000.0
Italy,1992,56772923.0,5474000000.0
Lithuania,1992,3706299.0,5474000000.0
Luxembourg,1992,389600.0,5474000000.0
Latvia,1992,2643000.0,5474000000.0
Malta,1992,365781.0,5474000000.0
Netherlands,1992,15129150.0,5474000000.0
Poland,1992,38309226.0,5474000000.0
Portugal,1992,9950029.0,5474000000.0
Romania,1992,22810035.0,5474000000.0
Sweden,1992,8644120.0,5474000000.0
Slovenia,1992,1998912.0,5474000000.0
Slovakia,1992,5295877.0,5474000000.0
United Kingdom,1992,57511594.0,5474000000.0
Austria,1993,7882519.0,5558000000.0
Belgium,1993,10068319.0,5558000000.0
Bulgaria,1993,8484863.0,5558000000.0
Switzerland,1993,6907959.0,5558000000.0
Cyprus,1993,619231.0,5558000000.0
Czech Republic,1993,10325697.0,5558000000.0
Germany,1993,80974632.0,5558000000.0
Denmark,1993,5180614.0,5558000000.0
Estonia,1993,1511303.0,5558000000.0
Greece,1993,10430958.0,5558000000.0
Spain,1993,39264034.0,5558000000.0
Finland,1993,5054982.0,5558000000.0
France,1993,58885929.0,5558000000.0
Croatia,1993,4555771.0,5558000000.0
Hungary,1993,10365035.0,5558000000.0
Ireland,1993,3569367.0,5558000000.0
Italy,1993,56821250.0,5558000000.0
Lithuania,1993,3693929.0,5558000000.0
Luxembourg,1993,394750.0,5558000000.0
Latvia,1993,2585675.0,5558000000.0
Malta,1993,369455.0,5558000000.0
Netherlands,1993,15239182.0,5558000000.0
Poland,1993,38418108.0,5558000000.0
Portugal,1993,9954958.0,5558000000.0
Romania,1993,22778533.0,5558000000.0
Sweden,1993,8692013.0,5558000000.0
Slovenia,1993,1994084.0,5558000000.0
Slovakia,1993,5314155.0,5558000000.0
United Kingdom,1993,57649210.0,5558000000.0
Austria,1994,7928746.0,5642000000.0
Belgium,1994,10100631.0,5642000000.0
Bulgaria,1994,8459763.0,5642000000.0
Switzerland,1994,6968570.0,5642000000.0
Cyprus,1994,632944.0,5642000000.0
Czech Republic,1994,10334013.0,5642000000.0
Germany,1994,81338093.0,5642000000.0
Denmark,1994,5196642.0,5642000000.0
Estonia,1994,1476952.0,5642000000.0
Greece,1994,10489871.0,5642000000.0
Spain,1994,39458489.0,5642000000.0
Finland,1994,5077912.0,5642000000.0
France,1994,59104320.0,5642000000.0
Croatia,1994,4645155.0,5642000000.0
Hungary,1994,10350010.0,5642000000.0
Ireland,1994,3583154.0,5642000000.0
Italy,1994,56842392.0,5642000000.0
Lithuania,1994,3671296.0,5642000000.0
Luxembourg,1994,400200.0,5642000000.0
Latvia,1994,2540904.0,5642000000.0
Malta,1994,373161.0,5642000000.0
Netherlands,1994,15341553.0,5642000000.0
Poland,1994,38504707.0,5642000000.0
Portugal,1994,9974391.0,5642000000.0
Romania,1994,22748027.0,5642000000.0
Sweden,1994,8745109.0,5642000000.0
Slovenia,1994,1989408.0,5642000000.0
Slovakia,1994,5336455.0,5642000000.0
United Kingdom,1994,57788017.0,5642000000.0
Austria,1995,7943489.0,5726000000.0
Belgium,1995,10130574.0,5726000000.0
Bulgaria,1995,8427418.0,5726000000.0
Switzerland,1995,7019019.0,5726000000.0
Cyprus,1995,645399.0,5726000000.0
Czech Republic,1995,10333161.0,5726000000.0
Germany,1995,81538603.0,5726000000.0
Denmark,1995,5215718.0,5726000000.0
Estonia,1995,1448075.0,5726000000.0
Greece,1995,10535973.0,5726000000.0
Spain,1995,39639726.0,5726000000.0
Finland,1995,5098754.0,5726000000.0
France,1995,59315139.0,5726000000.0
Croatia,1995,4658893.0,5726000000.0
Hungary,1995,10336700.0,5726000000.0
Ireland,1995,3597617.0,5726000000.0
Italy,1995,56844408.0,5726000000.0
Lithuania,1995,3642991.0,5726000000.0
Luxembourg,1995,405650.0,5726000000.0
Latvia,1995,2500580.0,5726000000.0
Malta,1995,376433.0,5726000000.0
Netherlands,1995,15424122.0,5726000000.0
Poland,1995,38580597.0,5726000000.0
Portugal,1995,10008659.0,5726000000.0
Romania,1995,22712394.0,5726000000.0
Sweden,1995,8816381.0,5726000000.0
Slovenia,1995,1989477.0,5726000000.0
Slovakia,1995,5356207.0,5726000000.0
United Kingdom,1995,57943472.0,5726000000.0
Austria,1996,7953067.0,5806000000.0
Belgium,1996,10143047.0,5806000000.0
Bulgaria,1996,8384715.0,5806000000.0
Switzerland,1996,7062354.0,5806000000.0
Cyprus,1996,656333.0,5806000000.0
Czech Republic,1996,10321344.0,5806000000.0
Germany,1996,81817499.0,5806000000.0
Denmark,1996,5251027.0,5806000000.0
Estonia,1996,1425192.0,5806000000.0
Greece,1996,10588332.0,5806000000.0
Spain,1996,39808374.0,5806000000.0
Finland,1996,5116826.0,5806000000.0
France,1996,59522297.0,5806000000.0
Croatia,1996,4581167.0,5806000000.0
Hungary,1996,10321229.0,5806000000.0
Ireland,1996,3620065.0,5806000000.0
Italy,1996,56844197.0,5806000000.0
Lithuania,1996,3615212.0,5806000000.0
Luxembourg,1996,411600.0,5806000000.0
Latvia,1996,2469531.0,5806000000.0
Malta,1996,378404.0,5806000000.0
Netherlands,1996,15493889.0,5806000000.0
Poland,1996,38609399.0,5806000000.0
Portugal,1996,10043693.0,5806000000.0
Romania,1996,22656145.0,5806000000.0
Sweden,1996,8837496.0,5806000000.0
Slovenia,1996,1990266.0,5806000000.0
Slovakia,1996,5367790.0,5806000000.0
United Kingdom,1996,58094587.0,5806000000.0
Austria,1997,7964966.0,5885000000.0
Belgium,1997,10170226.0,5885000000.0
Bulgaria,1997,8340936.0,5885000000.0
Switzerland,1997,7081346.0,5885000000.0
Cyprus,1997,666313.0,5885000000.0
Czech Republic,1997,10309137.0,5885000000.0
Germany,1997,82012162.0,5885000000.0
Denmark,1997,5275121.0,5885000000.0
Estonia,1997,1405996.0,5885000000.0
Greece,1997,10629267.0,5885000000.0
Spain,1997,39971329.0,5885000000.0
Finland,1997,5132320.0,5885000000.0
France,1997,59726386.0,5885000000.0
Croatia,1997,4533028.0,5885000000.0
Hungary,1997,10301247.0,5885000000.0
Ireland,1997,3654955.0,5885000000.0
Italy,1997,56876364.0,5885000000.0
Lithuania,1997,3588013.0,5885000000.0
Luxembourg,1997,416850.0,5885000000.0
Latvia,1997,2444912.0,5885000000.0
Malta,1997,381405.0,5885000000.0
Netherlands,1997,15567107.0,5885000000.0
Poland,1997,38639341.0,5885000000.0
Portugal,1997,10084196.0,5885000000.0
Romania,1997,22581862.0,5885000000.0
Sweden,1997,8844499.0,5885000000.0
Slovenia,1997,1986989.0,5885000000.0
Slovakia,1997,5378932.0,5885000000.0
United Kingdom,1997,58239312.0,5885000000.0
Austria,1998,7971116.0,5964000000.0
Belgium,1998,10192264.0,5964000000.0
Bulgaria,1998,8283200.0,5964000000.0
Switzerland,1998,7096465.0,5964000000.0
Cyprus,1998,675215.0,5964000000.0
Czech Republic,1998,10299125.0,5964000000.0
Germany,1998,82057379.0,5964000000.0
Denmark,1998,5294860.0,5964000000.0
Estonia,1998,1393074.0,5964000000.0
Greece,1998,10693250.0,5964000000.0
Spain,1998,40143449.0,5964000000.0
Finland,1998,5147349.0,5964000000.0
France,1998,59934884.0,5964000000.0
Croatia,1998,4536812.0,5964000000.0
Hungary,1998,10279724.0,5964000000.0
Ireland,1998,3693386.0,5964000000.0
Italy,1998,56904379.0,5964000000.0
Lithuania,1998,3562261.0,5964000000.0
Luxembourg,1998,422050.0,5964000000.0
Latvia,1998,2420789.0,5964000000.0
Malta,1998,384176.0,5964000000.0
Netherlands,1998,15654192.0,5964000000.0
Poland,1998,38659979.0,5964000000.0
Portugal,1998,10133758.0,5964000000.0
Romania,1998,22526093.0,5964000000.0
Sweden,1998,8847625.0,5964000000.0
Slovenia,1998,1984923.0,5964000000.0
Slovakia,1998,5387650.0,5964000000.0
United Kingdom,1998,58394596.0,5964000000.0
Austria,1999,7982461.0,6043000000.0
Belgium,1999,10213752.0,6043000000.0
Bulgaria,1999,8230371.0,6043000000.0
Switzerland,1999,7123537.0,6043000000.0
Cyprus,1999,682862.0,6043000000.0
Czech Republic,1999,10289621.0,6043000000.0
Germany,1999,82037011.0,6043000000.0
Denmark,1999,5313577.0,6043000000.0
Estonia,1999,1379237.0,6043000000.0
Greece,1999,10747768.0,6043000000.0
Spain,1999,40303568.0,6043000000.0
Finland,1999,5159646.0,6043000000.0
France,1999,60158533.0,6043000000.0
Croatia,1999,4527459.0,6043000000.0
Hungary,1999,10253416.0,6043000000.0
Ireland,1999,3732006.0,6043000000.0
Italy,1999,56909109.0,6043000000.0
Lithuania,1999,3536401.0,6043000000.0
Luxembourg,1999,427350.0,6043000000.0
Latvia,1999,2399248.0,6043000000.0
Malta,1999,386397.0,6043000000.0
Netherlands,1999,15760225.0,6043000000.0
Poland,1999,38666983.0,6043000000.0
Portugal,1999,10186634.0,6043000000.0
Romania,1999,22488595.0,6043000000.0
Sweden,1999,8854322.0,6043000000.0
Slovenia,1999,1978334.0,6043000000.0
Slovakia,1999,5393382.0,6043000000.0
United Kingdom,1999,58579685.0,6043000000.0
Austria,2000,8002186.0,6123000000.0
Belgium,2000,10239085.0,6123000000.0
Bulgaria,2000,8190876.0,6123000000.0
Switzerland,2000,7164444.0,6123000000.0
Cyprus,2000,690497.0,6123000000.0
Czech Republic,2000,10278098.0,6123000000.0
Germany,2000,82163475.0,6123000000.0
Denmark,2000,5330020.0,6123000000.0
Estonia,2000,1401250.0,6123000000.0
Greece,2000,10775627.0,6123000000.0
Spain,2000,40470182.0,6123000000.0
Finland,2000,5171302.0,6123000000.0
France,2000,60545022.0,6123000000.0
Croatia,2000,4497735.0,6123000000.0
Hungary,2000,10221644.0,6123000000.0
Ireland,2000,3777565.0,6123000000.0
Italy,2000,56923524.0,6123000000.0
Lithuania,2000,3512074.0,6123000000.0
Luxembourg,2000,433600.0,6123000000.0
Latvia,2000,2381715.0,6123000000.0
Malta,2000,388759.0,6123000000.0
Netherlands,2000,15863950.0,6123000000.0
Poland,2000,38263303.0,6123000000.0
Portugal,2000,10249022.0,6123000000.0
Romania,2000,22455485.0,6123000000.0
Sweden,2000,8861426.0,6123000000.0
Slovenia,2000,1987755.0,6123000000.0
Slovakia,2000,5398657.0,6123000000.0
United Kingdom,2000,58785246.0,6123000000.0
Austria,2001,8020946.0,6200000000.0
Belgium,2001,10263414.0,6200000000.0
Bulgaria,2001,8149468.0,6200000000.0
Switzerland,2001,7204055.0,6200000000.0
Cyprus,2001,697549.0,6200000000.0
Czech Republic,2001,10232027.0,6200000000.0
Germany,2001,82259540.0,6200000000.0
Denmark,2001,5349212.0,6200000000.0
Estonia,2001,1392720.0,6200000000.0
Greece,2001,10835989.0,6200000000.0
Spain,2001,40665545.0,6200000000.0
Finland,2001,5181115.0,6200000000.0
France,2001,60979315.0,6200000000.0
Croatia,2001,4295406.0,6200000000.0
Hungary,2001,10200298.0,6200000000.0
Ireland,2001,3832783.0,6200000000.0
Italy,2001,56960692.0,6200000000.0
Lithuania,2001,3486998.0,6200000000.0
Luxembourg,2001,439000.0,6200000000.0
Latvia,2001,2353384.0,6200000000.0
Malta,2001,391415.0,6200000000.0
Netherlands,2001,15987075.0,6200000000.0
Poland,2001,38253955.0,6200000000.0
Portugal,2001,10330774.0,6200000000.0
Romania,2001,22430457.0,6200000000.0
Sweden,2001,8882792.0,6200000000.0
Slovenia,2001,1990094.0,6200000000.0
Slovakia,2001,5378783.0,6200000000.0
United Kingdom,2001,58999781.0,6200000000.0
Austria,2002,8063640.0,6276000000.0
Belgium,2002,10309725.0,6276000000.0
Bulgaria,2002,7868815.0,6276000000.0
Switzerland,2002,7255653.0,6276000000.0
Cyprus,2002,705539.0,6276000000.0
Czech Republic,2002,10201182.0,6276000000.0
Germany,2002,82440309.0,6276000000.0
Denmark,2002,5368354.0,6276000000.0
Estonia,2002,1383510.0,6276000000.0
Greece,2002,10888274.0,6276000000.0
Spain,2002,41035278.0,6276000000.0
Finland,2002,5194901.0,6276000000.0
France,2002,61424036.0,6276000000.0
Croatia,2002,4305494.0,6276000000.0
Hungary,2002,10174853.0,6276000000.0
Ireland,2002,3899702.0,6276000000.0
Italy,2002,56987507.0,6276000000.0
Lithuania,2002,3454637.0,6276000000.0
Luxembourg,2002,444050.0,6276000000.0
Latvia,2002,2320956.0,6276000000.0
Malta,2002,394641.0,6276000000.0
Netherlands,2002,16105285.0,6276000000.0
Poland,2002,38242197.0,6276000000.0
Portugal,2002,10394669.0,6276000000.0
Romania,2002,21833483.0,6276000000.0
Sweden,2002,8909128.0,6276000000.0
Slovenia,2002,1994026.0,6276000000.0
Slovakia,2002,5378951.0,6276000000.0
United Kingdom,2002,59239564.0,6276000000.0
Austria,2003,8100273.0,6353000000.0
Belgium,2003,10355844.0,6353000000.0
Bulgaria,2003,7805506.0,6353000000.0
Switzerland,2003,7313853.0,6353000000.0
Cyprus,2003,713720.0,6353000000.0
Czech Republic,2003,10192649.0,6353000000.0
Germany,2003,82536680.0,6353000000.0
Denmark,2003,5383507.0,6353000000.0
Estonia,2003,1375190.0,6353000000.0
Greece,2003,10915770.0,6353000000.0
Spain,2003,41827838.0,6353000000.0
Finland,2003,5206295.0,6353000000.0
France,2003,61864088.0,6353000000.0
Croatia,2003,4305384.0,6353000000.0
Hungary,2003,10142362.0,6353000000.0
Ireland,2003,3964191.0,6353000000.0
Italy,2003,57130506.0,6353000000.0
Lithuania,2003,3431497.0,6353000000.0
Luxembourg,2003,448300.0,6353000000.0
Latvia,2003,2299390.0,6353000000.0
Malta,2003,397296.0,6353000000.0
Netherlands,2003,16192572.0,6353000000.0
Poland,2003,38218531.0,6353000000.0
Portugal,2003,10444592.0,6353000000.0
Romania,2003,21627509.0,6353000000.0
Sweden,2003,8940788.0,6353000000.0
Slovenia,2003,1995033.0,6353000000.0
Slovakia,2003,5374873.0,6353000000.0
United Kingdom,2003,59501394.0,6353000000.0
Austria,2004,8142573.0,6430000000.0
Belgium,2004,10396421.0,6430000000.0
Bulgaria,2004,7745147.0,6430000000.0
Switzerland,2004,7364148.0,6430000000.0
Cyprus,2004,722893.0,6430000000.0
Czech Republic,2004,10195347.0,6430000000.0
Germany,2004,82531671.0,6430000000.0
Denmark,2004,5397640.0,6430000000.0
Estonia,2004,1366250.0,6430000000.0
Greece,2004,10940369.0,6430000000.0
Spain,2004,42547451.0,6430000000.0
Finland,2004,5219732.0,6430000000.0
France,2004,62292241.0,6430000000.0
Croatia,2004,4305725.0,6430000000.0
Hungary,2004,10116742.0,6430000000.0
Ireland,2004,4028851.0,6430000000.0
Italy,2004,57495900.0,6430000000.0
Lithuania,2004,3398929.0,6430000000.0
Luxembourg,2004,454960.0,6430000000.0
Latvia,2004,2276520.0,6430000000.0
Malta,2004,399867.0,6430000000.0
Netherlands,2004,16258032.0,6430000000.0
Poland,2004,38190608.0,6430000000.0
Portugal,2004,10473050.0,6430000000.0
Romania,2004,21521142.0,6430000000.0
Sweden,2004,8975670.0,6430000000.0
Slovenia,2004,1996433.0,6430000000.0
Slovakia,2004,5371875.0,6430000000.0
United Kingdom,2004,59793759.0,6430000000.0
Austria,2005,8201359.0,6507000000.0
Belgium,2005,10445852.0,6507000000.0
Bulgaria,2005,7688573.0,6507000000.0
Switzerland,2005,7415102.0,6507000000.0
Cyprus,2005,733067.0,6507000000.0
Czech Republic,2005,10198855.0,6507000000.0
Germany,2005,82500849.0,6507000000.0
Denmark,2005,5411405.0,6507000000.0
Estonia,2005,1358850.0,6507000000.0
Greece,2005,10969912.0,6507000000.0
Spain,2005,43296338.0,6507000000.0
Finland,2005,5236611.0,6507000000.0
France,2005,62772870.0,6507000000.0
Croatia,2005,4310861.0,6507000000.0
Hungary,2005,10097549.0,6507000000.0
Ireland,2005,4111672.0,6507000000.0
Italy,2005,57874753.0,6507000000.0
Lithuania,2005,3355220.0,6507000000.0
Luxembourg,2005,461230.0,6507000000.0
Latvia,2005,2249724.0,6507000000.0
Malta,2005,402668.0,6507000000.0
Netherlands,2005,16305526.0,6507000000.0
Poland,2005,38173835.0,6507000000.0
Portugal,2005,10494672.0,6507000000.0
Romania,2005,21382354.0,6507000000.0
Sweden,2005,9011392.0,6507000000.0
Slovenia,2005,1997590.0,6507000000.0
Slovakia,2005,5372685.0,6507000000.0
United Kingdom,2005,60182050.0,6507000000.0
Austria,2006,8254298.0,6579000000.0
Belgium,2006,10511382.0,6579000000.0
Bulgaria,2006,7629371.0,6579000000.0
Switzerland,2006,7459128.0,6579000000.0
Cyprus,2006,744013.0,6579000000.0
Czech Republic,2006,10223577.0,6579000000.0
Germany,2006,82437995.0,6579000000.0
Denmark,2006,5427459.0,6579000000.0
Estonia,2006,1350700.0,6579000000.0
Greece,2006,11004716.0,6579000000.0
Spain,2006,44009971.0,6579000000.0
Finland,2006,5255580.0,6579000000.0
France,2006,63229635.0,6579000000.0
Croatia,2006,4312487.0,6579000000.0
Hungary,2006,10076581.0,6579000000.0
Ireland,2006,4208156.0,6579000000.0
Italy,2006,58064214.0,6579000000.0
Lithuania,2006,3289835.0,6579000000.0
Luxembourg,2006,469086.0,6579000000.0
Latvia,2006,2227874.0,6579000000.0
Malta,2006,404999.0,6579000000.0
Netherlands,2006,16334210.0,6579000000.0
Poland,2006,38157055.0,6579000000.0
Portugal,2006,10511988.0,6579000000.0
Romania,2006,21257016.0,6579000000.0
Sweden,2006,9047752.0,6579000000.0
Slovenia,2006,2003358.0,6579000000.0
Slovakia,2006,5372928.0,6579000000.0
United Kingdom,2006,60620361.0,6579000000.0
Austria,2007,8282984.0,6652000000.0
Belgium,2007,10584534.0,6652000000.0
Bulgaria,2007,7572673.0,6652000000.0
Switzerland,2007,7508739.0,6652000000.0
Cyprus,2007,757916.0,6652000000.0
Czech Republic,2007,10254233.0,6652000000.0
Germany,2007,82314906.0,6652000000.0
Denmark,2007,5447084.0,6652000000.0
Estonia,2007,1342920.0,6652000000.0
Greece,2007,11036008.0,6652000000.0
Spain,2007,44784666.0,6652000000.0
Finland,2007,5276955.0,6652000000.0
France,2007,63645065.0,6652000000.0
Croatia,2007,4313530.0,6652000000.0
Hungary,2007,10066158.0,6652000000.0
Ireland,2007,4340118.0,6652000000.0
Italy,2007,58223744.0,6652000000.0
Lithuania,2007,3249983.0,6652000000.0
Luxembourg,2007,476187.0,6652000000.0
Latvia,2007,2208840.0,6652000000.0
Malta,2007,405616.0,6652000000.0
Netherlands,2007,16357992.0,6652000000.0
Poland,2007,38125479.0,6652000000.0
Portugal,2007,10532588.0,6652000000.0
Romania,2007,21130503.0,6652000000.0
Sweden,2007,9113257.0,6652000000.0
Slovenia,2007,2010377.0,6652000000.0
Slovakia,2007,5373180.0,6652000000.0
United Kingdom,2007,61073279.0,6652000000.0
Austria,2008,8307989.0,6724000000.0
Belgium,2008,10666866.0,6724000000.0
Bulgaria,2008,7518002.0,6724000000.0
Switzerland,2008,7593494.0,6724000000.0
Cyprus,2008,776333.0,6724000000.0
Czech Republic,2008,10343422.0,6724000000.0
Germany,2008,82217837.0,6724000000.0
Denmark,2008,5475791.0,6724000000.0
Estonia,2008,1338440.0,6724000000.0
Greece,2008,11060937.0,6724000000.0
Spain,2008,45668939.0,6724000000.0
Finland,2008,5300484.0,6724000000.0
France,2008,64007193.0,6724000000.0
Croatia,2008,4311967.0,6724000000.0
Hungary,2008,10045401.0,6724000000.0
Ireland,2008,4457765.0,6724000000.0
Italy,2008,58652875.0,6724000000.0
Lithuania,2008,3212605.0,6724000000.0
Luxembourg,2008,483799.0,6724000000.0
Latvia,2008,2191810.0,6724000000.0
Malta,2008,407832.0,6724000000.0
Netherlands,2008,16405399.0,6724000000.0
Poland,2008,38115641.0,6724000000.0
Portugal,2008,10553339.0,6724000000.0
Romania,2008,20635460.0,6724000000.0
Sweden,2008,9182927.0,6724000000.0
Slovenia,2008,2010269.0,6724000000.0
Slovakia,2008,5376064.0,6724000000.0
United Kingdom,2008,61571647.0,6724000000.0
Austria,2009,8335003.0,6797000000.0
Belgium,2009,10753080.0,6797000000.0
Bulgaria,2009,7467119.0,6797000000.0
Switzerland,2009,7701856.0,6797000000.0
Cyprus,2009,796930.0,6797000000.0
Czech Republic,2009,10425783.0,6797000000.0
Germany,2009,82002356.0,6797000000.0
Denmark,2009,5511451.0,6797000000.0
Estonia,2009,1335740.0,6797000000.0
Greece,2009,11094745.0,6797000000.0
Spain,2009,46239273.0,6797000000.0
Finland,2009,5326314.0,6797000000.0
France,2009,64350226.0,6797000000.0
Croatia,2009,4309796.0,6797000000.0
Hungary,2009,10030975.0,6797000000.0
Ireland,2009,4521322.0,6797000000.0
Italy,2009,59000586.0,6797000000.0
Lithuania,2009,3183856.0,6797000000.0
Luxembourg,2009,493500.0,6797000000.0
Latvia,2009,2162834.0,6797000000.0
Malta,2009,410926.0,6797000000.0
Netherlands,2009,16485787.0,6797000000.0
Poland,2009,38135876.0,6797000000.0
Portugal,2009,10563014.0,6797000000.0
Romania,2009,20440290.0,6797000000.0
Sweden,2009,9256347.0,6797000000.0
Slovenia,2009,2032362.0,6797000000.0
Slovakia,2009,5382401.0,6797000000.0
United Kingdom,2009,62042343.0,6797000000.0
Austria,2010,8351643.0,6869000000.0
Belgium,2010,10839905.0,6869000000.0
Bulgaria,2010,7421766.0,6869000000.0
Switzerland,2010,7785806.0,6869000000.0
Cyprus,2010,819140.0,6869000000.0
Czech Republic,2010,10462088.0,6869000000.0
Germany,2010,81802257.0,6869000000.0
Denmark,2010,5534738.0,6869000000.0
Estonia,2010,1333290.0,6869000000.0
Greece,2010,11119289.0,6869000000.0
Spain,2010,46486619.0,6869000000.0
Finland,2010,5351427.0,6869000000.0
France,2010,64658856.0,6869000000.0
Croatia,2010,4302847.0,6869000000.0
Hungary,2010,10014324.0,6869000000.0
Ireland,2010,4549428.0,6869000000.0
Italy,2010,59190143.0,6869000000.0
Lithuania,2010,3141976.0,6869000000.0
Luxembourg,2010,502066.0,6869000000.0
Latvia,2010,2120504.0,6869000000.0
Malta,2010,414027.0,6869000000.0
Netherlands,2010,16574989.0,6869000000.0
Poland,2010,38022869.0,6869000000.0
Portugal,2010,10573479.0,6869000000.0
Romania,2010,20294683.0,6869000000.0
Sweden,2010,9340682.0,6869000000.0
Slovenia,2010,2046976.0,6869000000.0
Slovakia,2010,5390410.0,6869000000.0
United Kingdom,2010,62510197.0,6869000000.0
Austria,2011,8375164.0,6993000000.0
Belgium,2011,11000638.0,6993000000.0
Bulgaria,2011,7369431.0,6993000000.0
Switzerland,2011,7870134.0,6993000000.0
Cyprus,2011,839751.0,6993000000.0
Czech Republic,2011,10486731.0,6993000000.0
Germany,2011,80222065.0,6993000000.0
Denmark,2011,5560628.0,6993000000.0
Estonia,2011,1329660.0,6993000000.0
Greece,2011,11123392.0,6993000000.0
Spain,2011,46667174.0,6993000000.0
Finland,2011,5375276.0,6993000000.0
France,2011,64978721.0,6993000000.0
Croatia,2011,4289857.0,6993000000.0
Hungary,2011,9985722.0,6993000000.0
Ireland,2011,4570881.0,6993000000.0
Italy,2011,59364690.0,6993000000.0
Lithuania,2011,3052588.0,6993000000.0
Luxembourg,2011,511840.0,6993000000.0
Latvia,2011,2074605.0,6993000000.0
Malta,2011,414989.0,6993000000.0
Netherlands,2011,16655799.0,6993000000.0
Poland,2011,38062718.0,6993000000.0
Portugal,2011,10572721.0,6993000000.0
Romania,2011,20199059.0,6993000000.0
Sweden,2011,9415570.0,6993000000.0
Slovenia,2011,2050189.0,6993000000.0
Slovakia,2011,5392446.0,6993000000.0
United Kingdom,2011,63022532.0,6993000000.0
Austria,2012,8408121.0,7117000000.0
Belgium,2012,11075889.0,7117000000.0
Bulgaria,2012,7327224.0,7117000000.0
Switzerland,2012,7954662.0,7117000000.0
Cyprus,2012,862011.0,7117000000.0
Czech Republic,2012,10505445.0,7117000000.0
Germany,2012,80327900.0,7117000000.0
Denmark,2012,5580516.0,7117000000.0
Estonia,2012,1325217.0,7117000000.0
Greece,2012,11086406.0,7117000000.0
Spain,2012,46818219.0,7117000000.0
Finland,2012,5401267.0,7117000000.0
France,2012,65276983.0,7117000000.0
Croatia,2012,4275984.0,7117000000.0
Hungary,2012,9931925.0,7117000000.0
Ireland,2012,4589287.0,7117000000.0
Italy,2012,59394207.0,7117000000.0
Lithuania,2012,3003641.0,7117000000.0
Luxembourg,2012,524853.0,7117000000.0
Latvia,2012,2044813.0,7117000000.0
Malta,2012,417546.0,7117000000.0
Netherlands,2012,16730348.0,7117000000.0
Poland,2012,38063792.0,7117000000.0
Portugal,2012,10542398.0,7117000000.0
Romania,2012,20095996.0,7117000000.0
Sweden,2012,9482855.0,7117000000.0
Slovenia,2012,2055496.0,7117000000.0
Slovakia,2012,5404322.0,7117000000.0
United Kingdom,2012,63495303.0,7117000000.0
Austria,2013,8451860.0,7241000000.0
Belgium,2013,11137974.0,7241000000.0
Bulgaria,2013,7284552.0,7241000000.0
Switzerland,2013,8039060.0,7241000000.0
Cyprus,2013,865878.0,7241000000.0
Czech Republic,2013,10516125.0,7241000000.0
Germany,2013,80523746.0,7241000000.0
Denmark,2013,5602628.0,7241000000.0
Estonia,2013,1320174.0,7241000000.0
Greece,2013,11003615.0,7241000000.0
Spain,2013,46727890.0,7241000000.0
Finland,2013,5426674.0,7241000000.0
France,2013,65600350.0,7241000000.0
Croatia,2013,4262140.0,7241000000.0
Hungary,2013,9908798.0,7241000000.0
Ireland,2013,4609779.0,7241000000.0
Italy,2013,59685227.0,7241000000.0
Lithuania,2013,2971905.0,7241000000.0
Luxembourg,2013,537039.0,7241000000.0
Latvia,2013,2023825.0,7241000000.0
Malta,2013,422509.0,7241000000.0
Netherlands,2013,16779575.0,7241000000.0
Poland,2013,38062535.0,7241000000.0
Portugal,2013,10487289.0,7241000000.0
Romania,2013,20020074.0,7241000000.0
Sweden,2013,9555893.0,7241000000.0
Slovenia,2013,2058821.0,7241000000.0
Slovakia,2013,5410836.0,7241000000.0
United Kingdom,2013,63905297.0,7241000000.0
Austria,2014,8507786.0,7365000000.0
Belgium,2014,11180840.0,7365000000.0
Bulgaria,2014,7245677.0,7365000000.0
Switzerland,2014,8139631.0,7365000000.0
Cyprus,2014,858000.0,7365000000.0
Czech Republic,2014,10512419.0,7365000000.0
Germany,2014,80767463.0,7365000000.0
Denmark,2014,5627235.0,7365000000.0
Estonia,2014,1315819.0,7365000000.0
Greece,2014,10926807.0,7365000000.0
Spain,2014,46512199.0,7365000000.0
Finland,2014,5451270.0,7365000000.0
France,2014,65942267.0,7365000000.0
Croatia,2014,4246809.0,7365000000.0
Hungary,2014,9877365.0,7365000000.0
Ireland,2014,4637852.0,7365000000.0
Italy,2014,60782668.0,7365000000.0
Lithuania,2014,2943472.0,7365000000.0
Luxembourg,2014,549680.0,7365000000.0
Latvia,2014,2001468.0,7365000000.0
Malta,2014,429424.0,7365000000.0
Netherlands,2014,16829289.0,7365000000.0
Poland,2014,38017856.0,7365000000.0
Portugal,2014,10427301.0,7365000000.0
Romania,2014,19947311.0,7365000000.0
Sweden,2014,9644864.0,7365000000.0
Slovenia,2014,2061085.0,7365000000.0
Slovakia,2014,5415949.0,7365000000.0
United Kingdom,2014,64351155.0,7365000000.0
Austria,2015,8584926.0,7489000000.0
Belgium,2015,11237274.0,7489000000.0
Bulgaria,2015,7202198.0,7489000000.0
Switzerland,2015,8237666.0,7489000000.0
Cyprus,2015,847008.0,7489000000.0
Czech Republic,2015,10538275.0,7489000000.0
Germany,2015,81197537.0,7489000000.0
Denmark,2015,5659715.0,7489000000.0
Estonia,2015,1314870.0,7489000000.0
Greece,2015,10858018.0,7489000000.0
Spain,2015,46449565.0,7489000000.0
Finland,2015,5471753.0,7489000000.0
France,2015,66456279.0,7489000000.0
Croatia,2015,4225316.0,7489000000.0
Hungary,2015,9855571.0,7489000000.0
Ireland,2015,4677627.0,7489000000.0
Italy,2015,60795612.0,7489000000.0
Lithuania,2015,2921262.0,7489000000.0
Luxembourg,2015,562958.0,7489000000.0
Latvia,2015,1986096.0,7489000000.0
Malta,2015,439691.0,7489000000.0
Netherlands,2015,16900726.0,7489000000.0
Poland,2015,38005614.0,7489000000.0
Portugal,2015,10374822.0,7489000000.0
Romania,2015,19870647.0,7489000000.0
Sweden,2015,9747355.0,7489000000.0
Slovenia,2015,2062874.0,7489000000.0
Slovakia,2015,5421349.0,7489000000.0
United Kingdom,2015,64875165.0,7489000000.0
