Country,ots_ccu_ccus_methane-formation[%],Years,ots_ccu_ccus_enhanced-oil-recovery[%],ots_ccu_ccus_depleted-oil-gas-reservoirs[%],ots_ccu_ccus_unmineable-coal-seams[%],ots_ccu_ccus_deep-saline-formation[%]
Austria,0.0,1990,0.0,0.0,0.0,0.0
Belgium,0.0,1990,0.0,0.0,0.0,0.0
Bulgaria,0.0,1990,0.0,0.0,0.0,0.0
Croatia,0.0,1990,0.0,0.0,0.0,0.0
Cyprus,0.0,1990,0.0,0.0,0.0,0.0
Czech Republic,0.0,1990,0.0,0.0,0.0,0.0
Denmark,0.0,1990,0.0,0.0,0.0,0.0
Estonia,0.0,1990,0.0,0.0,0.0,0.0
Finland,0.0,1990,0.0,0.0,0.0,0.0
France,0.0,1990,0.0,0.0,0.0,0.0
Germany,0.0,1990,0.0,0.0,0.0,0.0
Greece,0.0,1990,0.0,0.0,0.0,0.0
Hungary,0.0,1990,0.0,0.0,0.0,0.0
Ireland,0.0,1990,0.0,0.0,0.0,0.0
Italy,0.0,1990,0.0,0.0,0.0,0.0
Latvia,0.0,1990,0.0,0.0,0.0,0.0
Lithuania,0.0,1990,0.0,0.0,0.0,0.0
Luxembourg,0.0,1990,0.0,0.0,0.0,0.0
Malta,0.0,1990,0.0,0.0,0.0,0.0
Netherlands,0.0,1990,0.0,0.0,0.0,0.0
Poland,0.0,1990,0.0,0.0,0.0,0.0
Portugal,0.0,1990,0.0,0.0,0.0,0.0
Romania,0.0,1990,0.0,0.0,0.0,0.0
Slovakia,0.0,1990,0.0,0.0,0.0,0.0
Slovenia,0.0,1990,0.0,0.0,0.0,0.0
Spain,0.0,1990,0.0,0.0,0.0,0.0
Sweden,0.0,1990,0.0,0.0,0.0,0.0
Switzerland,0.0,1990,0.0,0.0,0.0,0.0
United Kingdom,0.0,1990,0.0,0.0,0.0,0.0
Austria,0.0,1991,0.0,0.0,0.0,0.0
Belgium,0.0,1991,0.0,0.0,0.0,0.0
Bulgaria,0.0,1991,0.0,0.0,0.0,0.0
Croatia,0.0,1991,0.0,0.0,0.0,0.0
Cyprus,0.0,1991,0.0,0.0,0.0,0.0
Czech Republic,0.0,1991,0.0,0.0,0.0,0.0
Denmark,0.0,1991,0.0,0.0,0.0,0.0
Estonia,0.0,1991,0.0,0.0,0.0,0.0
Finland,0.0,1991,0.0,0.0,0.0,0.0
France,0.0,1991,0.0,0.0,0.0,0.0
Germany,0.0,1991,0.0,0.0,0.0,0.0
Greece,0.0,1991,0.0,0.0,0.0,0.0
Hungary,0.0,1991,0.0,0.0,0.0,0.0
Ireland,0.0,1991,0.0,0.0,0.0,0.0
Italy,0.0,1991,0.0,0.0,0.0,0.0
Latvia,0.0,1991,0.0,0.0,0.0,0.0
Lithuania,0.0,1991,0.0,0.0,0.0,0.0
Luxembourg,0.0,1991,0.0,0.0,0.0,0.0
Malta,0.0,1991,0.0,0.0,0.0,0.0
Netherlands,0.0,1991,0.0,0.0,0.0,0.0
Poland,0.0,1991,0.0,0.0,0.0,0.0
Portugal,0.0,1991,0.0,0.0,0.0,0.0
Romania,0.0,1991,0.0,0.0,0.0,0.0
Slovakia,0.0,1991,0.0,0.0,0.0,0.0
Slovenia,0.0,1991,0.0,0.0,0.0,0.0
Spain,0.0,1991,0.0,0.0,0.0,0.0
Sweden,0.0,1991,0.0,0.0,0.0,0.0
Switzerland,0.0,1991,0.0,0.0,0.0,0.0
United Kingdom,0.0,1991,0.0,0.0,0.0,0.0
Austria,0.0,1992,0.0,0.0,0.0,0.0
Belgium,0.0,1992,0.0,0.0,0.0,0.0
Bulgaria,0.0,1992,0.0,0.0,0.0,0.0
Croatia,0.0,1992,0.0,0.0,0.0,0.0
Cyprus,0.0,1992,0.0,0.0,0.0,0.0
Czech Republic,0.0,1992,0.0,0.0,0.0,0.0
Denmark,0.0,1992,0.0,0.0,0.0,0.0
Estonia,0.0,1992,0.0,0.0,0.0,0.0
Finland,0.0,1992,0.0,0.0,0.0,0.0
France,0.0,1992,0.0,0.0,0.0,0.0
Germany,0.0,1992,0.0,0.0,0.0,0.0
Greece,0.0,1992,0.0,0.0,0.0,0.0
Hungary,0.0,1992,0.0,0.0,0.0,0.0
Ireland,0.0,1992,0.0,0.0,0.0,0.0
Italy,0.0,1992,0.0,0.0,0.0,0.0
Latvia,0.0,1992,0.0,0.0,0.0,0.0
Lithuania,0.0,1992,0.0,0.0,0.0,0.0
Luxembourg,0.0,1992,0.0,0.0,0.0,0.0
Malta,0.0,1992,0.0,0.0,0.0,0.0
Netherlands,0.0,1992,0.0,0.0,0.0,0.0
Poland,0.0,1992,0.0,0.0,0.0,0.0
Portugal,0.0,1992,0.0,0.0,0.0,0.0
Romania,0.0,1992,0.0,0.0,0.0,0.0
Slovakia,0.0,1992,0.0,0.0,0.0,0.0
Slovenia,0.0,1992,0.0,0.0,0.0,0.0
Spain,0.0,1992,0.0,0.0,0.0,0.0
Sweden,0.0,1992,0.0,0.0,0.0,0.0
Switzerland,0.0,1992,0.0,0.0,0.0,0.0
United Kingdom,0.0,1992,0.0,0.0,0.0,0.0
Austria,0.0,1993,0.0,0.0,0.0,0.0
Belgium,0.0,1993,0.0,0.0,0.0,0.0
Bulgaria,0.0,1993,0.0,0.0,0.0,0.0
Croatia,0.0,1993,0.0,0.0,0.0,0.0
Cyprus,0.0,1993,0.0,0.0,0.0,0.0
Czech Republic,0.0,1993,0.0,0.0,0.0,0.0
Denmark,0.0,1993,0.0,0.0,0.0,0.0
Estonia,0.0,1993,0.0,0.0,0.0,0.0
Finland,0.0,1993,0.0,0.0,0.0,0.0
France,0.0,1993,0.0,0.0,0.0,0.0
Germany,0.0,1993,0.0,0.0,0.0,0.0
Greece,0.0,1993,0.0,0.0,0.0,0.0
Hungary,0.0,1993,0.0,0.0,0.0,0.0
Ireland,0.0,1993,0.0,0.0,0.0,0.0
Italy,0.0,1993,0.0,0.0,0.0,0.0
Latvia,0.0,1993,0.0,0.0,0.0,0.0
Lithuania,0.0,1993,0.0,0.0,0.0,0.0
Luxembourg,0.0,1993,0.0,0.0,0.0,0.0
Malta,0.0,1993,0.0,0.0,0.0,0.0
Netherlands,0.0,1993,0.0,0.0,0.0,0.0
Poland,0.0,1993,0.0,0.0,0.0,0.0
Portugal,0.0,1993,0.0,0.0,0.0,0.0
Romania,0.0,1993,0.0,0.0,0.0,0.0
Slovakia,0.0,1993,0.0,0.0,0.0,0.0
Slovenia,0.0,1993,0.0,0.0,0.0,0.0
Spain,0.0,1993,0.0,0.0,0.0,0.0
Sweden,0.0,1993,0.0,0.0,0.0,0.0
Switzerland,0.0,1993,0.0,0.0,0.0,0.0
United Kingdom,0.0,1993,0.0,0.0,0.0,0.0
Austria,0.0,1994,0.0,0.0,0.0,0.0
Belgium,0.0,1994,0.0,0.0,0.0,0.0
Bulgaria,0.0,1994,0.0,0.0,0.0,0.0
Croatia,0.0,1994,0.0,0.0,0.0,0.0
Cyprus,0.0,1994,0.0,0.0,0.0,0.0
Czech Republic,0.0,1994,0.0,0.0,0.0,0.0
Denmark,0.0,1994,0.0,0.0,0.0,0.0
Estonia,0.0,1994,0.0,0.0,0.0,0.0
Finland,0.0,1994,0.0,0.0,0.0,0.0
France,0.0,1994,0.0,0.0,0.0,0.0
Germany,0.0,1994,0.0,0.0,0.0,0.0
Greece,0.0,1994,0.0,0.0,0.0,0.0
Hungary,0.0,1994,0.0,0.0,0.0,0.0
Ireland,0.0,1994,0.0,0.0,0.0,0.0
Italy,0.0,1994,0.0,0.0,0.0,0.0
Latvia,0.0,1994,0.0,0.0,0.0,0.0
Lithuania,0.0,1994,0.0,0.0,0.0,0.0
Luxembourg,0.0,1994,0.0,0.0,0.0,0.0
Malta,0.0,1994,0.0,0.0,0.0,0.0
Netherlands,0.0,1994,0.0,0.0,0.0,0.0
Poland,0.0,1994,0.0,0.0,0.0,0.0
Portugal,0.0,1994,0.0,0.0,0.0,0.0
Romania,0.0,1994,0.0,0.0,0.0,0.0
Slovakia,0.0,1994,0.0,0.0,0.0,0.0
Slovenia,0.0,1994,0.0,0.0,0.0,0.0
Spain,0.0,1994,0.0,0.0,0.0,0.0
Sweden,0.0,1994,0.0,0.0,0.0,0.0
Switzerland,0.0,1994,0.0,0.0,0.0,0.0
United Kingdom,0.0,1994,0.0,0.0,0.0,0.0
Austria,0.0,1995,0.0,0.0,0.0,0.0
Belgium,0.0,1995,0.0,0.0,0.0,0.0
Bulgaria,0.0,1995,0.0,0.0,0.0,0.0
Croatia,0.0,1995,0.0,0.0,0.0,0.0
Cyprus,0.0,1995,0.0,0.0,0.0,0.0
Czech Republic,0.0,1995,0.0,0.0,0.0,0.0
Denmark,0.0,1995,0.0,0.0,0.0,0.0
Estonia,0.0,1995,0.0,0.0,0.0,0.0
Finland,0.0,1995,0.0,0.0,0.0,0.0
France,0.0,1995,0.0,0.0,0.0,0.0
Germany,0.0,1995,0.0,0.0,0.0,0.0
Greece,0.0,1995,0.0,0.0,0.0,0.0
Hungary,0.0,1995,0.0,0.0,0.0,0.0
Ireland,0.0,1995,0.0,0.0,0.0,0.0
Italy,0.0,1995,0.0,0.0,0.0,0.0
Latvia,0.0,1995,0.0,0.0,0.0,0.0
Lithuania,0.0,1995,0.0,0.0,0.0,0.0
Luxembourg,0.0,1995,0.0,0.0,0.0,0.0
Malta,0.0,1995,0.0,0.0,0.0,0.0
Netherlands,0.0,1995,0.0,0.0,0.0,0.0
Poland,0.0,1995,0.0,0.0,0.0,0.0
Portugal,0.0,1995,0.0,0.0,0.0,0.0
Romania,0.0,1995,0.0,0.0,0.0,0.0
Slovakia,0.0,1995,0.0,0.0,0.0,0.0
Slovenia,0.0,1995,0.0,0.0,0.0,0.0
Spain,0.0,1995,0.0,0.0,0.0,0.0
Sweden,0.0,1995,0.0,0.0,0.0,0.0
Switzerland,0.0,1995,0.0,0.0,0.0,0.0
United Kingdom,0.0,1995,0.0,0.0,0.0,0.0
Austria,0.0,1996,0.0,0.0,0.0,0.0
Belgium,0.0,1996,0.0,0.0,0.0,0.0
Bulgaria,0.0,1996,0.0,0.0,0.0,0.0
Croatia,0.0,1996,0.0,0.0,0.0,0.0
Cyprus,0.0,1996,0.0,0.0,0.0,0.0
Czech Republic,0.0,1996,0.0,0.0,0.0,0.0
Denmark,0.0,1996,0.0,0.0,0.0,0.0
Estonia,0.0,1996,0.0,0.0,0.0,0.0
Finland,0.0,1996,0.0,0.0,0.0,0.0
France,0.0,1996,0.0,0.0,0.0,0.0
Germany,0.0,1996,0.0,0.0,0.0,0.0
Greece,0.0,1996,0.0,0.0,0.0,0.0
Hungary,0.0,1996,0.0,0.0,0.0,0.0
Ireland,0.0,1996,0.0,0.0,0.0,0.0
Italy,0.0,1996,0.0,0.0,0.0,0.0
Latvia,0.0,1996,0.0,0.0,0.0,0.0
Lithuania,0.0,1996,0.0,0.0,0.0,0.0
Luxembourg,0.0,1996,0.0,0.0,0.0,0.0
Malta,0.0,1996,0.0,0.0,0.0,0.0
Netherlands,0.0,1996,0.0,0.0,0.0,0.0
Poland,0.0,1996,0.0,0.0,0.0,0.0
Portugal,0.0,1996,0.0,0.0,0.0,0.0
Romania,0.0,1996,0.0,0.0,0.0,0.0
Slovakia,0.0,1996,0.0,0.0,0.0,0.0
Slovenia,0.0,1996,0.0,0.0,0.0,0.0
Spain,0.0,1996,0.0,0.0,0.0,0.0
Sweden,0.0,1996,0.0,0.0,0.0,0.0
Switzerland,0.0,1996,0.0,0.0,0.0,0.0
United Kingdom,0.0,1996,0.0,0.0,0.0,0.0
Austria,0.0,1997,0.0,0.0,0.0,0.0
Belgium,0.0,1997,0.0,0.0,0.0,0.0
Bulgaria,0.0,1997,0.0,0.0,0.0,0.0
Croatia,0.0,1997,0.0,0.0,0.0,0.0
Cyprus,0.0,1997,0.0,0.0,0.0,0.0
Czech Republic,0.0,1997,0.0,0.0,0.0,0.0
Denmark,0.0,1997,0.0,0.0,0.0,0.0
Estonia,0.0,1997,0.0,0.0,0.0,0.0
Finland,0.0,1997,0.0,0.0,0.0,0.0
France,0.0,1997,0.0,0.0,0.0,0.0
Germany,0.0,1997,0.0,0.0,0.0,0.0
Greece,0.0,1997,0.0,0.0,0.0,0.0
Hungary,0.0,1997,0.0,0.0,0.0,0.0
Ireland,0.0,1997,0.0,0.0,0.0,0.0
Italy,0.0,1997,0.0,0.0,0.0,0.0
Latvia,0.0,1997,0.0,0.0,0.0,0.0
Lithuania,0.0,1997,0.0,0.0,0.0,0.0
Luxembourg,0.0,1997,0.0,0.0,0.0,0.0
Malta,0.0,1997,0.0,0.0,0.0,0.0
Netherlands,0.0,1997,0.0,0.0,0.0,0.0
Poland,0.0,1997,0.0,0.0,0.0,0.0
Portugal,0.0,1997,0.0,0.0,0.0,0.0
Romania,0.0,1997,0.0,0.0,0.0,0.0
Slovakia,0.0,1997,0.0,0.0,0.0,0.0
Slovenia,0.0,1997,0.0,0.0,0.0,0.0
Spain,0.0,1997,0.0,0.0,0.0,0.0
Sweden,0.0,1997,0.0,0.0,0.0,0.0
Switzerland,0.0,1997,0.0,0.0,0.0,0.0
United Kingdom,0.0,1997,0.0,0.0,0.0,0.0
Austria,0.0,1998,0.0,0.0,0.0,0.0
Belgium,0.0,1998,0.0,0.0,0.0,0.0
Bulgaria,0.0,1998,0.0,0.0,0.0,0.0
Croatia,0.0,1998,0.0,0.0,0.0,0.0
Cyprus,0.0,1998,0.0,0.0,0.0,0.0
Czech Republic,0.0,1998,0.0,0.0,0.0,0.0
Denmark,0.0,1998,0.0,0.0,0.0,0.0
Estonia,0.0,1998,0.0,0.0,0.0,0.0
Finland,0.0,1998,0.0,0.0,0.0,0.0
France,0.0,1998,0.0,0.0,0.0,0.0
Germany,0.0,1998,0.0,0.0,0.0,0.0
Greece,0.0,1998,0.0,0.0,0.0,0.0
Hungary,0.0,1998,0.0,0.0,0.0,0.0
Ireland,0.0,1998,0.0,0.0,0.0,0.0
Italy,0.0,1998,0.0,0.0,0.0,0.0
Latvia,0.0,1998,0.0,0.0,0.0,0.0
Lithuania,0.0,1998,0.0,0.0,0.0,0.0
Luxembourg,0.0,1998,0.0,0.0,0.0,0.0
Malta,0.0,1998,0.0,0.0,0.0,0.0
Netherlands,0.0,1998,0.0,0.0,0.0,0.0
Poland,0.0,1998,0.0,0.0,0.0,0.0
Portugal,0.0,1998,0.0,0.0,0.0,0.0
Romania,0.0,1998,0.0,0.0,0.0,0.0
Slovakia,0.0,1998,0.0,0.0,0.0,0.0
Slovenia,0.0,1998,0.0,0.0,0.0,0.0
Spain,0.0,1998,0.0,0.0,0.0,0.0
Sweden,0.0,1998,0.0,0.0,0.0,0.0
Switzerland,0.0,1998,0.0,0.0,0.0,0.0
United Kingdom,0.0,1998,0.0,0.0,0.0,0.0
Austria,0.0,1999,0.0,0.0,0.0,0.0
Belgium,0.0,1999,0.0,0.0,0.0,0.0
Bulgaria,0.0,1999,0.0,0.0,0.0,0.0
Croatia,0.0,1999,0.0,0.0,0.0,0.0
Cyprus,0.0,1999,0.0,0.0,0.0,0.0
Czech Republic,0.0,1999,0.0,0.0,0.0,0.0
Denmark,0.0,1999,0.0,0.0,0.0,0.0
Estonia,0.0,1999,0.0,0.0,0.0,0.0
Finland,0.0,1999,0.0,0.0,0.0,0.0
France,0.0,1999,0.0,0.0,0.0,0.0
Germany,0.0,1999,0.0,0.0,0.0,0.0
Greece,0.0,1999,0.0,0.0,0.0,0.0
Hungary,0.0,1999,0.0,0.0,0.0,0.0
Ireland,0.0,1999,0.0,0.0,0.0,0.0
Italy,0.0,1999,0.0,0.0,0.0,0.0
Latvia,0.0,1999,0.0,0.0,0.0,0.0
Lithuania,0.0,1999,0.0,0.0,0.0,0.0
Luxembourg,0.0,1999,0.0,0.0,0.0,0.0
Malta,0.0,1999,0.0,0.0,0.0,0.0
Netherlands,0.0,1999,0.0,0.0,0.0,0.0
Poland,0.0,1999,0.0,0.0,0.0,0.0
Portugal,0.0,1999,0.0,0.0,0.0,0.0
Romania,0.0,1999,0.0,0.0,0.0,0.0
Slovakia,0.0,1999,0.0,0.0,0.0,0.0
Slovenia,0.0,1999,0.0,0.0,0.0,0.0
Spain,0.0,1999,0.0,0.0,0.0,0.0
Sweden,0.0,1999,0.0,0.0,0.0,0.0
Switzerland,0.0,1999,0.0,0.0,0.0,0.0
United Kingdom,0.0,1999,0.0,0.0,0.0,0.0
Austria,0.0,2000,0.0,0.0,0.0,0.0
Belgium,0.0,2000,0.0,0.0,0.0,0.0
Bulgaria,0.0,2000,0.0,0.0,0.0,0.0
Croatia,0.0,2000,0.0,0.0,0.0,0.0
Cyprus,0.0,2000,0.0,0.0,0.0,0.0
Czech Republic,0.0,2000,0.0,0.0,0.0,0.0
Denmark,0.0,2000,0.0,0.0,0.0,0.0
Estonia,0.0,2000,0.0,0.0,0.0,0.0
Finland,0.0,2000,0.0,0.0,0.0,0.0
France,0.0,2000,0.0,0.0,0.0,0.0
Germany,0.0,2000,0.0,0.0,0.0,0.0
Greece,0.0,2000,0.0,0.0,0.0,0.0
Hungary,0.0,2000,0.0,0.0,0.0,0.0
Ireland,0.0,2000,0.0,0.0,0.0,0.0
Italy,0.0,2000,0.0,0.0,0.0,0.0
Latvia,0.0,2000,0.0,0.0,0.0,0.0
Lithuania,0.0,2000,0.0,0.0,0.0,0.0
Luxembourg,0.0,2000,0.0,0.0,0.0,0.0
Malta,0.0,2000,0.0,0.0,0.0,0.0
Netherlands,0.0,2000,0.0,0.0,0.0,0.0
Poland,0.0,2000,0.0,0.0,0.0,0.0
Portugal,0.0,2000,0.0,0.0,0.0,0.0
Romania,0.0,2000,0.0,0.0,0.0,0.0
Slovakia,0.0,2000,0.0,0.0,0.0,0.0
Slovenia,0.0,2000,0.0,0.0,0.0,0.0
Spain,0.0,2000,0.0,0.0,0.0,0.0
Sweden,0.0,2000,0.0,0.0,0.0,0.0
Switzerland,0.0,2000,0.0,0.0,0.0,0.0
United Kingdom,0.0,2000,0.0,0.0,0.0,0.0
Austria,0.0,2001,0.0,0.0,0.0,0.0
Belgium,0.0,2001,0.0,0.0,0.0,0.0
Bulgaria,0.0,2001,0.0,0.0,0.0,0.0
Croatia,0.0,2001,0.0,0.0,0.0,0.0
Cyprus,0.0,2001,0.0,0.0,0.0,0.0
Czech Republic,0.0,2001,0.0,0.0,0.0,0.0
Denmark,0.0,2001,0.0,0.0,0.0,0.0
Estonia,0.0,2001,0.0,0.0,0.0,0.0
Finland,0.0,2001,0.0,0.0,0.0,0.0
France,0.0,2001,0.0,0.0,0.0,0.0
Germany,0.0,2001,0.0,0.0,0.0,0.0
Greece,0.0,2001,0.0,0.0,0.0,0.0
Hungary,0.0,2001,0.0,0.0,0.0,0.0
Ireland,0.0,2001,0.0,0.0,0.0,0.0
Italy,0.0,2001,0.0,0.0,0.0,0.0
Latvia,0.0,2001,0.0,0.0,0.0,0.0
Lithuania,0.0,2001,0.0,0.0,0.0,0.0
Luxembourg,0.0,2001,0.0,0.0,0.0,0.0
Malta,0.0,2001,0.0,0.0,0.0,0.0
Netherlands,0.0,2001,0.0,0.0,0.0,0.0
Poland,0.0,2001,0.0,0.0,0.0,0.0
Portugal,0.0,2001,0.0,0.0,0.0,0.0
Romania,0.0,2001,0.0,0.0,0.0,0.0
Slovakia,0.0,2001,0.0,0.0,0.0,0.0
Slovenia,0.0,2001,0.0,0.0,0.0,0.0
Spain,0.0,2001,0.0,0.0,0.0,0.0
Sweden,0.0,2001,0.0,0.0,0.0,0.0
Switzerland,0.0,2001,0.0,0.0,0.0,0.0
United Kingdom,0.0,2001,0.0,0.0,0.0,0.0
Austria,0.0,2002,0.0,0.0,0.0,0.0
Belgium,0.0,2002,0.0,0.0,0.0,0.0
Bulgaria,0.0,2002,0.0,0.0,0.0,0.0
Croatia,0.0,2002,0.0,0.0,0.0,0.0
Cyprus,0.0,2002,0.0,0.0,0.0,0.0
Czech Republic,0.0,2002,0.0,0.0,0.0,0.0
Denmark,0.0,2002,0.0,0.0,0.0,0.0
Estonia,0.0,2002,0.0,0.0,0.0,0.0
Finland,0.0,2002,0.0,0.0,0.0,0.0
France,0.0,2002,0.0,0.0,0.0,0.0
Germany,0.0,2002,0.0,0.0,0.0,0.0
Greece,0.0,2002,0.0,0.0,0.0,0.0
Hungary,0.0,2002,0.0,0.0,0.0,0.0
Ireland,0.0,2002,0.0,0.0,0.0,0.0
Italy,0.0,2002,0.0,0.0,0.0,0.0
Latvia,0.0,2002,0.0,0.0,0.0,0.0
Lithuania,0.0,2002,0.0,0.0,0.0,0.0
Luxembourg,0.0,2002,0.0,0.0,0.0,0.0
Malta,0.0,2002,0.0,0.0,0.0,0.0
Netherlands,0.0,2002,0.0,0.0,0.0,0.0
Poland,0.0,2002,0.0,0.0,0.0,0.0
Portugal,0.0,2002,0.0,0.0,0.0,0.0
Romania,0.0,2002,0.0,0.0,0.0,0.0
Slovakia,0.0,2002,0.0,0.0,0.0,0.0
Slovenia,0.0,2002,0.0,0.0,0.0,0.0
Spain,0.0,2002,0.0,0.0,0.0,0.0
Sweden,0.0,2002,0.0,0.0,0.0,0.0
Switzerland,0.0,2002,0.0,0.0,0.0,0.0
United Kingdom,0.0,2002,0.0,0.0,0.0,0.0
Austria,0.0,2003,0.0,0.0,0.0,0.0
Belgium,0.0,2003,0.0,0.0,0.0,0.0
Bulgaria,0.0,2003,0.0,0.0,0.0,0.0
Croatia,0.0,2003,0.0,0.0,0.0,0.0
Cyprus,0.0,2003,0.0,0.0,0.0,0.0
Czech Republic,0.0,2003,0.0,0.0,0.0,0.0
Denmark,0.0,2003,0.0,0.0,0.0,0.0
Estonia,0.0,2003,0.0,0.0,0.0,0.0
Finland,0.0,2003,0.0,0.0,0.0,0.0
France,0.0,2003,0.0,0.0,0.0,0.0
Germany,0.0,2003,0.0,0.0,0.0,0.0
Greece,0.0,2003,0.0,0.0,0.0,0.0
Hungary,0.0,2003,0.0,0.0,0.0,0.0
Ireland,0.0,2003,0.0,0.0,0.0,0.0
Italy,0.0,2003,0.0,0.0,0.0,0.0
Latvia,0.0,2003,0.0,0.0,0.0,0.0
Lithuania,0.0,2003,0.0,0.0,0.0,0.0
Luxembourg,0.0,2003,0.0,0.0,0.0,0.0
Malta,0.0,2003,0.0,0.0,0.0,0.0
Netherlands,0.0,2003,0.0,0.0,0.0,0.0
Poland,0.0,2003,0.0,0.0,0.0,0.0
Portugal,0.0,2003,0.0,0.0,0.0,0.0
Romania,0.0,2003,0.0,0.0,0.0,0.0
Slovakia,0.0,2003,0.0,0.0,0.0,0.0
Slovenia,0.0,2003,0.0,0.0,0.0,0.0
Spain,0.0,2003,0.0,0.0,0.0,0.0
Sweden,0.0,2003,0.0,0.0,0.0,0.0
Switzerland,0.0,2003,0.0,0.0,0.0,0.0
United Kingdom,0.0,2003,0.0,0.0,0.0,0.0
Austria,0.0,2004,0.0,0.0,0.0,0.0
Belgium,0.0,2004,0.0,0.0,0.0,0.0
Bulgaria,0.0,2004,0.0,0.0,0.0,0.0
Croatia,0.0,2004,0.0,0.0,0.0,0.0
Cyprus,0.0,2004,0.0,0.0,0.0,0.0
Czech Republic,0.0,2004,0.0,0.0,0.0,0.0
Denmark,0.0,2004,0.0,0.0,0.0,0.0
Estonia,0.0,2004,0.0,0.0,0.0,0.0
Finland,0.0,2004,0.0,0.0,0.0,0.0
France,0.0,2004,0.0,0.0,0.0,0.0
Germany,0.0,2004,0.0,0.0,0.0,0.0
Greece,0.0,2004,0.0,0.0,0.0,0.0
Hungary,0.0,2004,0.0,0.0,0.0,0.0
Ireland,0.0,2004,0.0,0.0,0.0,0.0
Italy,0.0,2004,0.0,0.0,0.0,0.0
Latvia,0.0,2004,0.0,0.0,0.0,0.0
Lithuania,0.0,2004,0.0,0.0,0.0,0.0
Luxembourg,0.0,2004,0.0,0.0,0.0,0.0
Malta,0.0,2004,0.0,0.0,0.0,0.0
Netherlands,0.0,2004,0.0,0.0,0.0,0.0
Poland,0.0,2004,0.0,0.0,0.0,0.0
Portugal,0.0,2004,0.0,0.0,0.0,0.0
Romania,0.0,2004,0.0,0.0,0.0,0.0
Slovakia,0.0,2004,0.0,0.0,0.0,0.0
Slovenia,0.0,2004,0.0,0.0,0.0,0.0
Spain,0.0,2004,0.0,0.0,0.0,0.0
Sweden,0.0,2004,0.0,0.0,0.0,0.0
Switzerland,0.0,2004,0.0,0.0,0.0,0.0
United Kingdom,0.0,2004,0.0,0.0,0.0,0.0
Austria,0.0,2005,0.0,0.0,0.0,0.0
Belgium,0.0,2005,0.0,0.0,0.0,0.0
Bulgaria,0.0,2005,0.0,0.0,0.0,0.0
Croatia,0.0,2005,0.0,0.0,0.0,0.0
Cyprus,0.0,2005,0.0,0.0,0.0,0.0
Czech Republic,0.0,2005,0.0,0.0,0.0,0.0
Denmark,0.0,2005,0.0,0.0,0.0,0.0
Estonia,0.0,2005,0.0,0.0,0.0,0.0
Finland,0.0,2005,0.0,0.0,0.0,0.0
France,0.0,2005,0.0,0.0,0.0,0.0
Germany,0.0,2005,0.0,0.0,0.0,0.0
Greece,0.0,2005,0.0,0.0,0.0,0.0
Hungary,0.0,2005,0.0,0.0,0.0,0.0
Ireland,0.0,2005,0.0,0.0,0.0,0.0
Italy,0.0,2005,0.0,0.0,0.0,0.0
Latvia,0.0,2005,0.0,0.0,0.0,0.0
Lithuania,0.0,2005,0.0,0.0,0.0,0.0
Luxembourg,0.0,2005,0.0,0.0,0.0,0.0
Malta,0.0,2005,0.0,0.0,0.0,0.0
Netherlands,0.0,2005,0.0,0.0,0.0,0.0
Poland,0.0,2005,0.0,0.0,0.0,0.0
Portugal,0.0,2005,0.0,0.0,0.0,0.0
Romania,0.0,2005,0.0,0.0,0.0,0.0
Slovakia,0.0,2005,0.0,0.0,0.0,0.0
Slovenia,0.0,2005,0.0,0.0,0.0,0.0
Spain,0.0,2005,0.0,0.0,0.0,0.0
Sweden,0.0,2005,0.0,0.0,0.0,0.0
Switzerland,0.0,2005,0.0,0.0,0.0,0.0
United Kingdom,0.0,2005,0.0,0.0,0.0,0.0
Austria,0.0,2006,0.0,0.0,0.0,0.0
Belgium,0.0,2006,0.0,0.0,0.0,0.0
Bulgaria,0.0,2006,0.0,0.0,0.0,0.0
Croatia,0.0,2006,0.0,0.0,0.0,0.0
Cyprus,0.0,2006,0.0,0.0,0.0,0.0
Czech Republic,0.0,2006,0.0,0.0,0.0,0.0
Denmark,0.0,2006,0.0,0.0,0.0,0.0
Estonia,0.0,2006,0.0,0.0,0.0,0.0
Finland,0.0,2006,0.0,0.0,0.0,0.0
France,0.0,2006,0.0,0.0,0.0,0.0
Germany,0.0,2006,0.0,0.0,0.0,0.0
Greece,0.0,2006,0.0,0.0,0.0,0.0
Hungary,0.0,2006,0.0,0.0,0.0,0.0
Ireland,0.0,2006,0.0,0.0,0.0,0.0
Italy,0.0,2006,0.0,0.0,0.0,0.0
Latvia,0.0,2006,0.0,0.0,0.0,0.0
Lithuania,0.0,2006,0.0,0.0,0.0,0.0
Luxembourg,0.0,2006,0.0,0.0,0.0,0.0
Malta,0.0,2006,0.0,0.0,0.0,0.0
Netherlands,0.0,2006,0.0,0.0,0.0,0.0
Poland,0.0,2006,0.0,0.0,0.0,0.0
Portugal,0.0,2006,0.0,0.0,0.0,0.0
Romania,0.0,2006,0.0,0.0,0.0,0.0
Slovakia,0.0,2006,0.0,0.0,0.0,0.0
Slovenia,0.0,2006,0.0,0.0,0.0,0.0
Spain,0.0,2006,0.0,0.0,0.0,0.0
Sweden,0.0,2006,0.0,0.0,0.0,0.0
Switzerland,0.0,2006,0.0,0.0,0.0,0.0
United Kingdom,0.0,2006,0.0,0.0,0.0,0.0
Austria,0.0,2007,0.0,0.0,0.0,0.0
Belgium,0.0,2007,0.0,0.0,0.0,0.0
Bulgaria,0.0,2007,0.0,0.0,0.0,0.0
Croatia,0.0,2007,0.0,0.0,0.0,0.0
Cyprus,0.0,2007,0.0,0.0,0.0,0.0
Czech Republic,0.0,2007,0.0,0.0,0.0,0.0
Denmark,0.0,2007,0.0,0.0,0.0,0.0
Estonia,0.0,2007,0.0,0.0,0.0,0.0
Finland,0.0,2007,0.0,0.0,0.0,0.0
France,0.0,2007,0.0,0.0,0.0,0.0
Germany,0.0,2007,0.0,0.0,0.0,0.0
Greece,0.0,2007,0.0,0.0,0.0,0.0
Hungary,0.0,2007,0.0,0.0,0.0,0.0
Ireland,0.0,2007,0.0,0.0,0.0,0.0
Italy,0.0,2007,0.0,0.0,0.0,0.0
Latvia,0.0,2007,0.0,0.0,0.0,0.0
Lithuania,0.0,2007,0.0,0.0,0.0,0.0
Luxembourg,0.0,2007,0.0,0.0,0.0,0.0
Malta,0.0,2007,0.0,0.0,0.0,0.0
Netherlands,0.0,2007,0.0,0.0,0.0,0.0
Poland,0.0,2007,0.0,0.0,0.0,0.0
Portugal,0.0,2007,0.0,0.0,0.0,0.0
Romania,0.0,2007,0.0,0.0,0.0,0.0
Slovakia,0.0,2007,0.0,0.0,0.0,0.0
Slovenia,0.0,2007,0.0,0.0,0.0,0.0
Spain,0.0,2007,0.0,0.0,0.0,0.0
Sweden,0.0,2007,0.0,0.0,0.0,0.0
Switzerland,0.0,2007,0.0,0.0,0.0,0.0
United Kingdom,0.0,2007,0.0,0.0,0.0,0.0
Austria,0.0,2008,0.0,0.0,0.0,0.0
Belgium,0.0,2008,0.0,0.0,0.0,0.0
Bulgaria,0.0,2008,0.0,0.0,0.0,0.0
Croatia,0.0,2008,0.0,0.0,0.0,0.0
Cyprus,0.0,2008,0.0,0.0,0.0,0.0
Czech Republic,0.0,2008,0.0,0.0,0.0,0.0
Denmark,0.0,2008,0.0,0.0,0.0,0.0
Estonia,0.0,2008,0.0,0.0,0.0,0.0
Finland,0.0,2008,0.0,0.0,0.0,0.0
France,0.0,2008,0.0,0.0,0.0,0.0
Germany,0.0,2008,0.0,0.0,0.0,0.0
Greece,0.0,2008,0.0,0.0,0.0,0.0
Hungary,0.0,2008,0.0,0.0,0.0,0.0
Ireland,0.0,2008,0.0,0.0,0.0,0.0
Italy,0.0,2008,0.0,0.0,0.0,0.0
Latvia,0.0,2008,0.0,0.0,0.0,0.0
Lithuania,0.0,2008,0.0,0.0,0.0,0.0
Luxembourg,0.0,2008,0.0,0.0,0.0,0.0
Malta,0.0,2008,0.0,0.0,0.0,0.0
Netherlands,0.0,2008,0.0,0.0,0.0,0.0
Poland,0.0,2008,0.0,0.0,0.0,0.0
Portugal,0.0,2008,0.0,0.0,0.0,0.0
Romania,0.0,2008,0.0,0.0,0.0,0.0
Slovakia,0.0,2008,0.0,0.0,0.0,0.0
Slovenia,0.0,2008,0.0,0.0,0.0,0.0
Spain,0.0,2008,0.0,0.0,0.0,0.0
Sweden,0.0,2008,0.0,0.0,0.0,0.0
Switzerland,0.0,2008,0.0,0.0,0.0,0.0
United Kingdom,0.0,2008,0.0,0.0,0.0,0.0
Austria,0.0,2009,0.0,0.0,0.0,0.0
Belgium,0.0,2009,0.0,0.0,0.0,0.0
Bulgaria,0.0,2009,0.0,0.0,0.0,0.0
Croatia,0.0,2009,0.0,0.0,0.0,0.0
Cyprus,0.0,2009,0.0,0.0,0.0,0.0
Czech Republic,0.0,2009,0.0,0.0,0.0,0.0
Denmark,0.0,2009,0.0,0.0,0.0,0.0
Estonia,0.0,2009,0.0,0.0,0.0,0.0
Finland,0.0,2009,0.0,0.0,0.0,0.0
France,0.0,2009,0.0,0.0,0.0,0.0
Germany,0.0,2009,0.0,0.0,0.0,0.0
Greece,0.0,2009,0.0,0.0,0.0,0.0
Hungary,0.0,2009,0.0,0.0,0.0,0.0
Ireland,0.0,2009,0.0,0.0,0.0,0.0
Italy,0.0,2009,0.0,0.0,0.0,0.0
Latvia,0.0,2009,0.0,0.0,0.0,0.0
Lithuania,0.0,2009,0.0,0.0,0.0,0.0
Luxembourg,0.0,2009,0.0,0.0,0.0,0.0
Malta,0.0,2009,0.0,0.0,0.0,0.0
Netherlands,0.0,2009,0.0,0.0,0.0,0.0
Poland,0.0,2009,0.0,0.0,0.0,0.0
Portugal,0.0,2009,0.0,0.0,0.0,0.0
Romania,0.0,2009,0.0,0.0,0.0,0.0
Slovakia,0.0,2009,0.0,0.0,0.0,0.0
Slovenia,0.0,2009,0.0,0.0,0.0,0.0
Spain,0.0,2009,0.0,0.0,0.0,0.0
Sweden,0.0,2009,0.0,0.0,0.0,0.0
Switzerland,0.0,2009,0.0,0.0,0.0,0.0
United Kingdom,0.0,2009,0.0,0.0,0.0,0.0
Austria,0.0,2010,0.0,0.0,0.0,0.0
Belgium,0.0,2010,0.0,0.0,0.0,0.0
Bulgaria,0.0,2010,0.0,0.0,0.0,0.0
Croatia,0.0,2010,0.0,0.0,0.0,0.0
Cyprus,0.0,2010,0.0,0.0,0.0,0.0
Czech Republic,0.0,2010,0.0,0.0,0.0,0.0
Denmark,0.0,2010,0.0,0.0,0.0,0.0
Estonia,0.0,2010,0.0,0.0,0.0,0.0
Finland,0.0,2010,0.0,0.0,0.0,0.0
France,0.0,2010,0.0,0.0,0.0,0.0
Germany,0.0,2010,0.0,0.0,0.0,0.0
Greece,0.0,2010,0.0,0.0,0.0,0.0
Hungary,0.0,2010,0.0,0.0,0.0,0.0
Ireland,0.0,2010,0.0,0.0,0.0,0.0
Italy,0.0,2010,0.0,0.0,0.0,0.0
Latvia,0.0,2010,0.0,0.0,0.0,0.0
Lithuania,0.0,2010,0.0,0.0,0.0,0.0
Luxembourg,0.0,2010,0.0,0.0,0.0,0.0
Malta,0.0,2010,0.0,0.0,0.0,0.0
Netherlands,0.0,2010,0.0,0.0,0.0,0.0
Poland,0.0,2010,0.0,0.0,0.0,0.0
Portugal,0.0,2010,0.0,0.0,0.0,0.0
Romania,0.0,2010,0.0,0.0,0.0,0.0
Slovakia,0.0,2010,0.0,0.0,0.0,0.0
Slovenia,0.0,2010,0.0,0.0,0.0,0.0
Spain,0.0,2010,0.0,0.0,0.0,0.0
Sweden,0.0,2010,0.0,0.0,0.0,0.0
Switzerland,0.0,2010,0.0,0.0,0.0,0.0
United Kingdom,0.0,2010,0.0,0.0,0.0,0.0
Austria,0.0,2011,0.0,0.0,0.0,0.0
Belgium,0.0,2011,0.0,0.0,0.0,0.0
Bulgaria,0.0,2011,0.0,0.0,0.0,0.0
Croatia,0.0,2011,0.0,0.0,0.0,0.0
Cyprus,0.0,2011,0.0,0.0,0.0,0.0
Czech Republic,0.0,2011,0.0,0.0,0.0,0.0
Denmark,0.0,2011,0.0,0.0,0.0,0.0
Estonia,0.0,2011,0.0,0.0,0.0,0.0
Finland,0.0,2011,0.0,0.0,0.0,0.0
France,0.0,2011,0.0,0.0,0.0,0.0
Germany,0.0,2011,0.0,0.0,0.0,0.0
Greece,0.0,2011,0.0,0.0,0.0,0.0
Hungary,0.0,2011,0.0,0.0,0.0,0.0
Ireland,0.0,2011,0.0,0.0,0.0,0.0
Italy,0.0,2011,0.0,0.0,0.0,0.0
Latvia,0.0,2011,0.0,0.0,0.0,0.0
Lithuania,0.0,2011,0.0,0.0,0.0,0.0
Luxembourg,0.0,2011,0.0,0.0,0.0,0.0
Malta,0.0,2011,0.0,0.0,0.0,0.0
Netherlands,0.0,2011,0.0,0.0,0.0,0.0
Poland,0.0,2011,0.0,0.0,0.0,0.0
Portugal,0.0,2011,0.0,0.0,0.0,0.0
Romania,0.0,2011,0.0,0.0,0.0,0.0
Slovakia,0.0,2011,0.0,0.0,0.0,0.0
Slovenia,0.0,2011,0.0,0.0,0.0,0.0
Spain,0.0,2011,0.0,0.0,0.0,0.0
Sweden,0.0,2011,0.0,0.0,0.0,0.0
Switzerland,0.0,2011,0.0,0.0,0.0,0.0
United Kingdom,0.0,2011,0.0,0.0,0.0,0.0
Austria,0.0,2012,0.0,0.0,0.0,0.0
Belgium,0.0,2012,0.0,0.0,0.0,0.0
Bulgaria,0.0,2012,0.0,0.0,0.0,0.0
Croatia,0.0,2012,0.0,0.0,0.0,0.0
Cyprus,0.0,2012,0.0,0.0,0.0,0.0
Czech Republic,0.0,2012,0.0,0.0,0.0,0.0
Denmark,0.0,2012,0.0,0.0,0.0,0.0
Estonia,0.0,2012,0.0,0.0,0.0,0.0
Finland,0.0,2012,0.0,0.0,0.0,0.0
France,0.0,2012,0.0,0.0,0.0,0.0
Germany,0.0,2012,0.0,0.0,0.0,0.0
Greece,0.0,2012,0.0,0.0,0.0,0.0
Hungary,0.0,2012,0.0,0.0,0.0,0.0
Ireland,0.0,2012,0.0,0.0,0.0,0.0
Italy,0.0,2012,0.0,0.0,0.0,0.0
Latvia,0.0,2012,0.0,0.0,0.0,0.0
Lithuania,0.0,2012,0.0,0.0,0.0,0.0
Luxembourg,0.0,2012,0.0,0.0,0.0,0.0
Malta,0.0,2012,0.0,0.0,0.0,0.0
Netherlands,0.0,2012,0.0,0.0,0.0,0.0
Poland,0.0,2012,0.0,0.0,0.0,0.0
Portugal,0.0,2012,0.0,0.0,0.0,0.0
Romania,0.0,2012,0.0,0.0,0.0,0.0
Slovakia,0.0,2012,0.0,0.0,0.0,0.0
Slovenia,0.0,2012,0.0,0.0,0.0,0.0
Spain,0.0,2012,0.0,0.0,0.0,0.0
Sweden,0.0,2012,0.0,0.0,0.0,0.0
Switzerland,0.0,2012,0.0,0.0,0.0,0.0
United Kingdom,0.0,2012,0.0,0.0,0.0,0.0
Austria,0.0,2013,0.0,0.0,0.0,0.0
Belgium,0.0,2013,0.0,0.0,0.0,0.0
Bulgaria,0.0,2013,0.0,0.0,0.0,0.0
Croatia,0.0,2013,0.0,0.0,0.0,0.0
Cyprus,0.0,2013,0.0,0.0,0.0,0.0
Czech Republic,0.0,2013,0.0,0.0,0.0,0.0
Denmark,0.0,2013,0.0,0.0,0.0,0.0
Estonia,0.0,2013,0.0,0.0,0.0,0.0
Finland,0.0,2013,0.0,0.0,0.0,0.0
France,0.0,2013,0.0,0.0,0.0,0.0
Germany,0.0,2013,0.0,0.0,0.0,0.0
Greece,0.0,2013,0.0,0.0,0.0,0.0
Hungary,0.0,2013,0.0,0.0,0.0,0.0
Ireland,0.0,2013,0.0,0.0,0.0,0.0
Italy,0.0,2013,0.0,0.0,0.0,0.0
Latvia,0.0,2013,0.0,0.0,0.0,0.0
Lithuania,0.0,2013,0.0,0.0,0.0,0.0
Luxembourg,0.0,2013,0.0,0.0,0.0,0.0
Malta,0.0,2013,0.0,0.0,0.0,0.0
Netherlands,0.0,2013,0.0,0.0,0.0,0.0
Poland,0.0,2013,0.0,0.0,0.0,0.0
Portugal,0.0,2013,0.0,0.0,0.0,0.0
Romania,0.0,2013,0.0,0.0,0.0,0.0
Slovakia,0.0,2013,0.0,0.0,0.0,0.0
Slovenia,0.0,2013,0.0,0.0,0.0,0.0
Spain,0.0,2013,0.0,0.0,0.0,0.0
Sweden,0.0,2013,0.0,0.0,0.0,0.0
Switzerland,0.0,2013,0.0,0.0,0.0,0.0
United Kingdom,0.0,2013,0.0,0.0,0.0,0.0
Austria,0.0,2014,0.0,0.0,0.0,0.0
Belgium,0.0,2014,0.0,0.0,0.0,0.0
Bulgaria,0.0,2014,0.0,0.0,0.0,0.0
Croatia,0.0,2014,0.0,0.0,0.0,0.0
Cyprus,0.0,2014,0.0,0.0,0.0,0.0
Czech Republic,0.0,2014,0.0,0.0,0.0,0.0
Denmark,0.0,2014,0.0,0.0,0.0,0.0
Estonia,0.0,2014,0.0,0.0,0.0,0.0
Finland,0.0,2014,0.0,0.0,0.0,0.0
France,0.0,2014,0.0,0.0,0.0,0.0
Germany,0.0,2014,0.0,0.0,0.0,0.0
Greece,0.0,2014,0.0,0.0,0.0,0.0
Hungary,0.0,2014,0.0,0.0,0.0,0.0
Ireland,0.0,2014,0.0,0.0,0.0,0.0
Italy,0.0,2014,0.0,0.0,0.0,0.0
Latvia,0.0,2014,0.0,0.0,0.0,0.0
Lithuania,0.0,2014,0.0,0.0,0.0,0.0
Luxembourg,0.0,2014,0.0,0.0,0.0,0.0
Malta,0.0,2014,0.0,0.0,0.0,0.0
Netherlands,0.0,2014,0.0,0.0,0.0,0.0
Poland,0.0,2014,0.0,0.0,0.0,0.0
Portugal,0.0,2014,0.0,0.0,0.0,0.0
Romania,0.0,2014,0.0,0.0,0.0,0.0
Slovakia,0.0,2014,0.0,0.0,0.0,0.0
Slovenia,0.0,2014,0.0,0.0,0.0,0.0
Spain,0.0,2014,0.0,0.0,0.0,0.0
Sweden,0.0,2014,0.0,0.0,0.0,0.0
Switzerland,0.0,2014,0.0,0.0,0.0,0.0
United Kingdom,0.0,2014,0.0,0.0,0.0,0.0
Austria,0.0,2015,0.0,0.0,0.0,0.0
Belgium,0.0,2015,0.0,0.0,0.0,0.0
Bulgaria,0.0,2015,0.0,0.0,0.0,0.0
Croatia,0.0,2015,0.0,0.0,0.0,0.0
Cyprus,0.0,2015,0.0,0.0,0.0,0.0
Czech Republic,0.0,2015,0.0,0.0,0.0,0.0
Denmark,0.0,2015,0.0,0.0,0.0,0.0
Estonia,0.0,2015,0.0,0.0,0.0,0.0
Finland,0.0,2015,0.0,0.0,0.0,0.0
France,0.0,2015,0.0,0.0,0.0,0.0
Germany,0.0,2015,0.0,0.0,0.0,0.0
Greece,0.0,2015,0.0,0.0,0.0,0.0
Hungary,0.0,2015,0.0,0.0,0.0,0.0
Ireland,0.0,2015,0.0,0.0,0.0,0.0
Italy,0.0,2015,0.0,0.0,0.0,0.0
Latvia,0.0,2015,0.0,0.0,0.0,0.0
Lithuania,0.0,2015,0.0,0.0,0.0,0.0
Luxembourg,0.0,2015,0.0,0.0,0.0,0.0
Malta,0.0,2015,0.0,0.0,0.0,0.0
Netherlands,0.0,2015,0.0,0.0,0.0,0.0
Poland,0.0,2015,0.0,0.0,0.0,0.0
Portugal,0.0,2015,0.0,0.0,0.0,0.0
Romania,0.0,2015,0.0,0.0,0.0,0.0
Slovakia,0.0,2015,0.0,0.0,0.0,0.0
Slovenia,0.0,2015,0.0,0.0,0.0,0.0
Spain,0.0,2015,0.0,0.0,0.0,0.0
Sweden,0.0,2015,0.0,0.0,0.0,0.0
Switzerland,0.0,2015,0.0,0.0,0.0,0.0
United Kingdom,0.0,2015,0.0,0.0,0.0,0.0
