Country,ots_tra_fuel-mix_biofuel-aviation[%],Years
Austria,0.0,1990
Belgium,0.0,1990
Bulgaria,0.0,1990
Croatia,0.0,1990
Cyprus,0.0,1990
Czech Republic,0.0,1990
Denmark,0.0,1990
Estonia,0.0,1990
Finland,0.0,1990
France,0.0,1990
Germany,0.0,1990
Greece,0.0,1990
Hungary,0.0,1990
Ireland,0.0,1990
Italy,0.0,1990
Latvia,0.0,1990
Lithuania,0.0,1990
Luxembourg,0.0,1990
Malta,0.0,1990
Netherlands,0.0,1990
Poland,0.0,1990
Portugal,0.0,1990
Romania,0.0,1990
Slovakia,0.0,1990
Slovenia,0.0,1990
Spain,0.0,1990
Sweden,0.0,1990
Switzerland,0.0,1990
United Kingdom,0.0,1990
Austria,0.0,1991
Belgium,0.0,1991
Bulgaria,0.0,1991
Croatia,0.0,1991
Cyprus,0.0,1991
Czech Republic,0.0,1991
Denmark,0.0,1991
Estonia,0.0,1991
Finland,0.0,1991
France,0.0,1991
Germany,0.0,1991
Greece,0.0,1991
Hungary,0.0,1991
Ireland,0.0,1991
Italy,0.0,1991
Latvia,0.0,1991
Lithuania,0.0,1991
Luxembourg,0.0,1991
Malta,0.0,1991
Netherlands,0.0,1991
Poland,0.0,1991
Portugal,0.0,1991
Romania,0.0,1991
Slovakia,0.0,1991
Slovenia,0.0,1991
Spain,0.0,1991
Sweden,0.0,1991
Switzerland,0.0,1991
United Kingdom,0.0,1991
Austria,0.0,1992
Belgium,0.0,1992
Bulgaria,0.0,1992
Croatia,0.0,1992
Cyprus,0.0,1992
Czech Republic,0.0,1992
Denmark,0.0,1992
Estonia,0.0,1992
Finland,0.0,1992
France,0.0,1992
Germany,0.0,1992
Greece,0.0,1992
Hungary,0.0,1992
Ireland,0.0,1992
Italy,0.0,1992
Latvia,0.0,1992
Lithuania,0.0,1992
Luxembourg,0.0,1992
Malta,0.0,1992
Netherlands,0.0,1992
Poland,0.0,1992
Portugal,0.0,1992
Romania,0.0,1992
Slovakia,0.0,1992
Slovenia,0.0,1992
Spain,0.0,1992
Sweden,0.0,1992
Switzerland,0.0,1992
United Kingdom,0.0,1992
Austria,0.0,1993
Belgium,0.0,1993
Bulgaria,0.0,1993
Croatia,0.0,1993
Cyprus,0.0,1993
Czech Republic,0.0,1993
Denmark,0.0,1993
Estonia,0.0,1993
Finland,0.0,1993
France,0.0,1993
Germany,0.0,1993
Greece,0.0,1993
Hungary,0.0,1993
Ireland,0.0,1993
Italy,0.0,1993
Latvia,0.0,1993
Lithuania,0.0,1993
Luxembourg,0.0,1993
Malta,0.0,1993
Netherlands,0.0,1993
Poland,0.0,1993
Portugal,0.0,1993
Romania,0.0,1993
Slovakia,0.0,1993
Slovenia,0.0,1993
Spain,0.0,1993
Sweden,0.0,1993
Switzerland,0.0,1993
United Kingdom,0.0,1993
Austria,0.0,1994
Belgium,0.0,1994
Bulgaria,0.0,1994
Croatia,0.0,1994
Cyprus,0.0,1994
Czech Republic,0.0,1994
Denmark,0.0,1994
Estonia,0.0,1994
Finland,0.0,1994
France,0.0,1994
Germany,0.0,1994
Greece,0.0,1994
Hungary,0.0,1994
Ireland,0.0,1994
Italy,0.0,1994
Latvia,0.0,1994
Lithuania,0.0,1994
Luxembourg,0.0,1994
Malta,0.0,1994
Netherlands,0.0,1994
Poland,0.0,1994
Portugal,0.0,1994
Romania,0.0,1994
Slovakia,0.0,1994
Slovenia,0.0,1994
Spain,0.0,1994
Sweden,0.0,1994
Switzerland,0.0,1994
United Kingdom,0.0,1994
Austria,0.0,1995
Belgium,0.0,1995
Bulgaria,0.0,1995
Croatia,0.0,1995
Cyprus,0.0,1995
Czech Republic,0.0,1995
Denmark,0.0,1995
Estonia,0.0,1995
Finland,0.0,1995
France,0.0,1995
Germany,0.0,1995
Greece,0.0,1995
Hungary,0.0,1995
Ireland,0.0,1995
Italy,0.0,1995
Latvia,0.0,1995
Lithuania,0.0,1995
Luxembourg,0.0,1995
Malta,0.0,1995
Netherlands,0.0,1995
Poland,0.0,1995
Portugal,0.0,1995
Romania,0.0,1995
Slovakia,0.0,1995
Slovenia,0.0,1995
Spain,0.0,1995
Sweden,0.0,1995
Switzerland,0.0,1995
United Kingdom,0.0,1995
Austria,0.0,1996
Belgium,0.0,1996
Bulgaria,0.0,1996
Croatia,0.0,1996
Cyprus,0.0,1996
Czech Republic,0.0,1996
Denmark,0.0,1996
Estonia,0.0,1996
Finland,0.0,1996
France,0.0,1996
Germany,0.0,1996
Greece,0.0,1996
Hungary,0.0,1996
Ireland,0.0,1996
Italy,0.0,1996
Latvia,0.0,1996
Lithuania,0.0,1996
Luxembourg,0.0,1996
Malta,0.0,1996
Netherlands,0.0,1996
Poland,0.0,1996
Portugal,0.0,1996
Romania,0.0,1996
Slovakia,0.0,1996
Slovenia,0.0,1996
Spain,0.0,1996
Sweden,0.0,1996
Switzerland,0.0,1996
United Kingdom,0.0,1996
Austria,0.0,1997
Belgium,0.0,1997
Bulgaria,0.0,1997
Croatia,0.0,1997
Cyprus,0.0,1997
Czech Republic,0.0,1997
Denmark,0.0,1997
Estonia,0.0,1997
Finland,0.0,1997
France,0.0,1997
Germany,0.0,1997
Greece,0.0,1997
Hungary,0.0,1997
Ireland,0.0,1997
Italy,0.0,1997
Latvia,0.0,1997
Lithuania,0.0,1997
Luxembourg,0.0,1997
Malta,0.0,1997
Netherlands,0.0,1997
Poland,0.0,1997
Portugal,0.0,1997
Romania,0.0,1997
Slovakia,0.0,1997
Slovenia,0.0,1997
Spain,0.0,1997
Sweden,0.0,1997
Switzerland,0.0,1997
United Kingdom,0.0,1997
Austria,0.0,1998
Belgium,0.0,1998
Bulgaria,0.0,1998
Croatia,0.0,1998
Cyprus,0.0,1998
Czech Republic,0.0,1998
Denmark,0.0,1998
Estonia,0.0,1998
Finland,0.0,1998
France,0.0,1998
Germany,0.0,1998
Greece,0.0,1998
Hungary,0.0,1998
Ireland,0.0,1998
Italy,0.0,1998
Latvia,0.0,1998
Lithuania,0.0,1998
Luxembourg,0.0,1998
Malta,0.0,1998
Netherlands,0.0,1998
Poland,0.0,1998
Portugal,0.0,1998
Romania,0.0,1998
Slovakia,0.0,1998
Slovenia,0.0,1998
Spain,0.0,1998
Sweden,0.0,1998
Switzerland,0.0,1998
United Kingdom,0.0,1998
Austria,0.0,1999
Belgium,0.0,1999
Bulgaria,0.0,1999
Croatia,0.0,1999
Cyprus,0.0,1999
Czech Republic,0.0,1999
Denmark,0.0,1999
Estonia,0.0,1999
Finland,0.0,1999
France,0.0,1999
Germany,0.0,1999
Greece,0.0,1999
Hungary,0.0,1999
Ireland,0.0,1999
Italy,0.0,1999
Latvia,0.0,1999
Lithuania,0.0,1999
Luxembourg,0.0,1999
Malta,0.0,1999
Netherlands,0.0,1999
Poland,0.0,1999
Portugal,0.0,1999
Romania,0.0,1999
Slovakia,0.0,1999
Slovenia,0.0,1999
Spain,0.0,1999
Sweden,0.0,1999
Switzerland,0.0,1999
United Kingdom,0.0,1999
Austria,0.0,2000
Belgium,0.0,2000
Bulgaria,0.0,2000
Croatia,0.0,2000
Cyprus,0.0,2000
Czech Republic,0.0,2000
Denmark,0.0,2000
Estonia,0.0,2000
Finland,0.0,2000
France,0.0,2000
Germany,0.0,2000
Greece,0.0,2000
Hungary,0.0,2000
Ireland,0.0,2000
Italy,0.0,2000
Latvia,0.0,2000
Lithuania,0.0,2000
Luxembourg,0.0,2000
Malta,0.0,2000
Netherlands,0.0,2000
Poland,0.0,2000
Portugal,0.0,2000
Romania,0.0,2000
Slovakia,0.0,2000
Slovenia,0.0,2000
Spain,0.0,2000
Sweden,0.0,2000
Switzerland,0.0,2000
United Kingdom,0.0,2000
Austria,0.0,2001
Belgium,0.0,2001
Bulgaria,0.0,2001
Croatia,0.0,2001
Cyprus,0.0,2001
Czech Republic,0.0,2001
Denmark,0.0,2001
Estonia,0.0,2001
Finland,0.0,2001
France,0.0,2001
Germany,0.0,2001
Greece,0.0,2001
Hungary,0.0,2001
Ireland,0.0,2001
Italy,0.0,2001
Latvia,0.0,2001
Lithuania,0.0,2001
Luxembourg,0.0,2001
Malta,0.0,2001
Netherlands,0.0,2001
Poland,0.0,2001
Portugal,0.0,2001
Romania,0.0,2001
Slovakia,0.0,2001
Slovenia,0.0,2001
Spain,0.0,2001
Sweden,0.0,2001
Switzerland,0.0,2001
United Kingdom,0.0,2001
Austria,0.0,2002
Belgium,0.0,2002
Bulgaria,0.0,2002
Croatia,0.0,2002
Cyprus,0.0,2002
Czech Republic,0.0,2002
Denmark,0.0,2002
Estonia,0.0,2002
Finland,0.0,2002
France,0.0,2002
Germany,0.0,2002
Greece,0.0,2002
Hungary,0.0,2002
Ireland,0.0,2002
Italy,0.0,2002
Latvia,0.0,2002
Lithuania,0.0,2002
Luxembourg,0.0,2002
Malta,0.0,2002
Netherlands,0.0,2002
Poland,0.0,2002
Portugal,0.0,2002
Romania,0.0,2002
Slovakia,0.0,2002
Slovenia,0.0,2002
Spain,0.0,2002
Sweden,0.0,2002
Switzerland,0.0,2002
United Kingdom,0.0,2002
Austria,0.0,2003
Belgium,0.0,2003
Bulgaria,0.0,2003
Croatia,0.0,2003
Cyprus,0.0,2003
Czech Republic,0.0,2003
Denmark,0.0,2003
Estonia,0.0,2003
Finland,0.0,2003
France,0.0,2003
Germany,0.0,2003
Greece,0.0,2003
Hungary,0.0,2003
Ireland,0.0,2003
Italy,0.0,2003
Latvia,0.0,2003
Lithuania,0.0,2003
Luxembourg,0.0,2003
Malta,0.0,2003
Netherlands,0.0,2003
Poland,0.0,2003
Portugal,0.0,2003
Romania,0.0,2003
Slovakia,0.0,2003
Slovenia,0.0,2003
Spain,0.0,2003
Sweden,0.0,2003
Switzerland,0.0,2003
United Kingdom,0.0,2003
Austria,0.0,2004
Belgium,0.0,2004
Bulgaria,0.0,2004
Croatia,0.0,2004
Cyprus,0.0,2004
Czech Republic,0.0,2004
Denmark,0.0,2004
Estonia,0.0,2004
Finland,0.0,2004
France,0.0,2004
Germany,0.0,2004
Greece,0.0,2004
Hungary,0.0,2004
Ireland,0.0,2004
Italy,0.0,2004
Latvia,0.0,2004
Lithuania,0.0,2004
Luxembourg,0.0,2004
Malta,0.0,2004
Netherlands,0.0,2004
Poland,0.0,2004
Portugal,0.0,2004
Romania,0.0,2004
Slovakia,0.0,2004
Slovenia,0.0,2004
Spain,0.0,2004
Sweden,0.0,2004
Switzerland,0.0,2004
United Kingdom,0.0,2004
Austria,0.0,2005
Belgium,0.0,2005
Bulgaria,0.0,2005
Croatia,0.0,2005
Cyprus,0.0,2005
Czech Republic,0.0,2005
Denmark,0.0,2005
Estonia,0.0,2005
Finland,0.0,2005
France,0.0,2005
Germany,0.0,2005
Greece,0.0,2005
Hungary,0.0,2005
Ireland,0.0,2005
Italy,0.0,2005
Latvia,0.0,2005
Lithuania,0.0,2005
Luxembourg,0.0,2005
Malta,0.0,2005
Netherlands,0.0,2005
Poland,0.0,2005
Portugal,0.0,2005
Romania,0.0,2005
Slovakia,0.0,2005
Slovenia,0.0,2005
Spain,0.0,2005
Sweden,0.0,2005
Switzerland,0.0,2005
United Kingdom,0.0,2005
Austria,0.0,2006
Belgium,0.0,2006
Bulgaria,0.0,2006
Croatia,0.0,2006
Cyprus,0.0,2006
Czech Republic,0.0,2006
Denmark,0.0,2006
Estonia,0.0,2006
Finland,0.0,2006
France,0.0,2006
Germany,0.0,2006
Greece,0.0,2006
Hungary,0.0,2006
Ireland,0.0,2006
Italy,0.0,2006
Latvia,0.0,2006
Lithuania,0.0,2006
Luxembourg,0.0,2006
Malta,0.0,2006
Netherlands,0.0,2006
Poland,0.0,2006
Portugal,0.0,2006
Romania,0.0,2006
Slovakia,0.0,2006
Slovenia,0.0,2006
Spain,0.0,2006
Sweden,0.0,2006
Switzerland,0.0,2006
United Kingdom,0.0,2006
Austria,0.0,2007
Belgium,0.0,2007
Bulgaria,0.0,2007
Croatia,0.0,2007
Cyprus,0.0,2007
Czech Republic,0.0,2007
Denmark,0.0,2007
Estonia,0.0,2007
Finland,0.0,2007
France,0.0,2007
Germany,0.0,2007
Greece,0.0,2007
Hungary,0.0,2007
Ireland,0.0,2007
Italy,0.0,2007
Latvia,0.0,2007
Lithuania,0.0,2007
Luxembourg,0.0,2007
Malta,0.0,2007
Netherlands,0.0,2007
Poland,0.0,2007
Portugal,0.0,2007
Romania,0.0,2007
Slovakia,0.0,2007
Slovenia,0.0,2007
Spain,0.0,2007
Sweden,0.0,2007
Switzerland,0.0,2007
United Kingdom,0.0,2007
Austria,0.0,2008
Belgium,0.0,2008
Bulgaria,0.0,2008
Croatia,0.0,2008
Cyprus,0.0,2008
Czech Republic,0.0,2008
Denmark,0.0,2008
Estonia,0.0,2008
Finland,0.0,2008
France,0.0,2008
Germany,0.0,2008
Greece,0.0,2008
Hungary,0.0,2008
Ireland,0.0,2008
Italy,0.0,2008
Latvia,0.0,2008
Lithuania,0.0,2008
Luxembourg,0.0,2008
Malta,0.0,2008
Netherlands,0.0,2008
Poland,0.0,2008
Portugal,0.0,2008
Romania,0.0,2008
Slovakia,0.0,2008
Slovenia,0.0,2008
Spain,0.0,2008
Sweden,0.0,2008
Switzerland,0.0,2008
United Kingdom,0.0,2008
Austria,0.0,2009
Belgium,0.0,2009
Bulgaria,0.0,2009
Croatia,0.0,2009
Cyprus,0.0,2009
Czech Republic,0.0,2009
Denmark,0.0,2009
Estonia,0.0,2009
Finland,0.0,2009
France,0.0,2009
Germany,0.0,2009
Greece,0.0,2009
Hungary,0.0,2009
Ireland,0.0,2009
Italy,0.0,2009
Latvia,0.0,2009
Lithuania,0.0,2009
Luxembourg,0.0,2009
Malta,0.0,2009
Netherlands,0.0,2009
Poland,0.0,2009
Portugal,0.0,2009
Romania,0.0,2009
Slovakia,0.0,2009
Slovenia,0.0,2009
Spain,0.0,2009
Sweden,0.0,2009
Switzerland,0.0,2009
United Kingdom,0.0,2009
Austria,0.0,2010
Belgium,0.0,2010
Bulgaria,0.0,2010
Croatia,0.0,2010
Cyprus,0.0,2010
Czech Republic,0.0,2010
Denmark,0.0,2010
Estonia,0.0,2010
Finland,0.0,2010
France,0.0,2010
Germany,0.0,2010
Greece,0.0,2010
Hungary,0.0,2010
Ireland,0.0,2010
Italy,0.0,2010
Latvia,0.0,2010
Lithuania,0.0,2010
Luxembourg,0.0,2010
Malta,0.0,2010
Netherlands,0.0,2010
Poland,0.0,2010
Portugal,0.0,2010
Romania,0.0,2010
Slovakia,0.0,2010
Slovenia,0.0,2010
Spain,0.0,2010
Sweden,0.0,2010
Switzerland,0.0,2010
United Kingdom,0.0,2010
Austria,0.0,2011
Belgium,0.0,2011
Bulgaria,0.0,2011
Croatia,0.0,2011
Cyprus,0.0,2011
Czech Republic,0.0,2011
Denmark,0.0,2011
Estonia,0.0,2011
Finland,0.0,2011
France,0.0,2011
Germany,0.0,2011
Greece,0.0,2011
Hungary,0.0,2011
Ireland,0.0,2011
Italy,0.0,2011
Latvia,0.0,2011
Lithuania,0.0,2011
Luxembourg,0.0,2011
Malta,0.0,2011
Netherlands,0.0,2011
Poland,0.0,2011
Portugal,0.0,2011
Romania,0.0,2011
Slovakia,0.0,2011
Slovenia,0.0,2011
Spain,0.0,2011
Sweden,0.0,2011
Switzerland,0.0,2011
United Kingdom,0.0,2011
Austria,0.0,2012
Belgium,0.0,2012
Bulgaria,0.0,2012
Croatia,0.0,2012
Cyprus,0.0,2012
Czech Republic,0.0,2012
Denmark,0.0,2012
Estonia,0.0,2012
Finland,0.0,2012
France,0.0,2012
Germany,0.0,2012
Greece,0.0,2012
Hungary,0.0,2012
Ireland,0.0,2012
Italy,0.0,2012
Latvia,0.0,2012
Lithuania,0.0,2012
Luxembourg,0.0,2012
Malta,0.0,2012
Netherlands,0.0,2012
Poland,0.0,2012
Portugal,0.0,2012
Romania,0.0,2012
Slovakia,0.0,2012
Slovenia,0.0,2012
Spain,0.0,2012
Sweden,0.0,2012
Switzerland,0.0,2012
United Kingdom,0.0,2012
Austria,0.0,2013
Belgium,0.0,2013
Bulgaria,0.0,2013
Croatia,0.0,2013
Cyprus,0.0,2013
Czech Republic,0.0,2013
Denmark,0.0,2013
Estonia,0.0,2013
Finland,0.0,2013
France,0.0,2013
Germany,0.0,2013
Greece,0.0,2013
Hungary,0.0,2013
Ireland,0.0,2013
Italy,0.0,2013
Latvia,0.0,2013
Lithuania,0.0,2013
Luxembourg,0.0,2013
Malta,0.0,2013
Netherlands,0.0,2013
Poland,0.0,2013
Portugal,0.0,2013
Romania,0.0,2013
Slovakia,0.0,2013
Slovenia,0.0,2013
Spain,0.0,2013
Sweden,0.0,2013
Switzerland,0.0,2013
United Kingdom,0.0,2013
Austria,0.0,2014
Belgium,0.0,2014
Bulgaria,0.0,2014
Croatia,0.0,2014
Cyprus,0.0,2014
Czech Republic,0.0,2014
Denmark,0.0,2014
Estonia,0.0,2014
Finland,0.0,2014
France,0.0,2014
Germany,0.0,2014
Greece,0.0,2014
Hungary,0.0,2014
Ireland,0.0,2014
Italy,0.0,2014
Latvia,0.0,2014
Lithuania,0.0,2014
Luxembourg,0.0,2014
Malta,0.0,2014
Netherlands,0.0,2014
Poland,0.0,2014
Portugal,0.0,2014
Romania,0.0,2014
Slovakia,0.0,2014
Slovenia,0.0,2014
Spain,0.0,2014
Sweden,0.0,2014
Switzerland,0.0,2014
United Kingdom,0.0,2014
Austria,0.0,2015
Belgium,0.0,2015
Bulgaria,0.0,2015
Croatia,0.0,2015
Cyprus,0.0,2015
Czech Republic,0.0,2015
Denmark,0.0,2015
Estonia,0.0,2015
Finland,0.0,2015
France,0.0,2015
Germany,0.0,2015
Greece,0.0,2015
Hungary,0.0,2015
Ireland,0.0,2015
Italy,0.0,2015
Latvia,0.0,2015
Lithuania,0.0,2015
Luxembourg,0.0,2015
Malta,0.0,2015
Netherlands,0.0,2015
Poland,0.0,2015
Portugal,0.0,2015
Romania,0.0,2015
Slovakia,0.0,2015
Slovenia,0.0,2015
Spain,0.0,2015
Sweden,0.0,2015
Switzerland,0.0,2015
United Kingdom,0.0,2015
